<svg width="152" height="201" viewBox="0 0 152 201" fill="none" xmlns="http://www.w3.org/2000/svg">
<path d="M72.3612 194.993C70.8644 194.424 69.4611 193.618 68.3385 192.48C67.8239 191.958 67.1691 191.958 66.4675 191.958C63.848 191.958 61.2754 192.433 58.7027 192.812C57.393 193.002 56.0833 192.954 54.7268 192.859C51.78 192.622 48.7863 192.575 45.8395 192.859C42.6588 193.144 39.5716 192.765 36.4376 192.433C31.8536 191.958 27.2696 191.152 22.5921 191.294C20.8614 191.342 19.1775 191.057 17.5403 190.441C17.3065 190.346 16.979 190.251 16.979 189.919C17.0258 189.54 17.4 189.587 17.6339 189.635C20.9082 190.251 24.2292 189.255 27.5035 189.872C31.5262 190.631 35.5489 189.824 39.5716 190.109C39.8054 190.109 40.2264 190.156 40.2732 189.824C40.32 189.445 39.9458 189.303 39.6651 189.208C37.7941 188.639 35.8295 188.354 33.9117 188.402C28.018 188.497 22.1711 187.738 16.3242 187.501C11.2724 187.311 6.26744 186.315 1.26247 185.699C1.07537 185.651 0.888267 185.604 0.701166 185.556C0.467288 185.462 0.13986 185.367 0.186636 185.035C0.233411 184.75 0.514064 184.75 0.747941 184.703C0.841492 184.703 0.888267 184.703 0.981818 184.703C5.28516 185.414 9.68205 185.224 13.9854 185.888C15.2483 186.078 16.558 186.268 17.821 186.268C23.0598 186.268 28.2987 187.169 33.5375 186.837C35.0343 186.742 36.4844 186.979 37.9812 187.026C38.449 187.026 39.1974 187.264 39.2441 186.6C39.2909 185.888 38.5425 186.125 38.0748 185.983C35.9699 185.462 33.8182 185.177 31.6665 184.987C29.2342 184.75 27.0825 183.802 25.3518 181.952C25.0244 181.62 24.6502 181.336 24.0889 180.909C25.6793 180.719 27.0825 180.624 28.4858 180.435C31.5262 180.008 34.5198 179.676 37.5134 180.624C38.449 180.909 39.0103 180.53 39.1506 179.534C39.3845 177.779 40.2264 176.119 39.7587 174.317C39.6183 173.701 40.0861 173.701 40.4603 173.653C40.9748 173.606 41.0216 173.938 40.9748 174.317C40.7877 176.119 41.2087 177.874 41.349 179.629C41.3958 180.482 41.8168 180.624 42.5184 180.387C44.1088 179.866 45.6992 179.202 47.2895 178.917C48.5992 178.68 49.3476 177.874 50.3299 177.257C52.6219 175.74 55.2413 175.029 57.9075 174.744C60.527 174.46 62.819 173.369 65.2513 172.61C66.9352 172.088 67.0755 171.093 67.2159 169.717C67.6836 165.924 68.1514 162.13 68.7595 158.336C69.2272 155.491 69.274 152.598 69.5079 149.753C69.9756 144.536 70.3966 139.32 70.8644 134.103C70.9579 132.918 70.724 131.969 69.9288 131.068C65.7658 126.184 61.2286 121.584 56.8317 116.936C56.5511 116.652 56.2236 116.13 55.8027 116.225C55.2881 116.367 55.4285 117.031 55.4285 117.458C55.2881 120.114 55.522 122.627 57.9075 124.334C58.3753 124.666 58.3285 124.998 57.8608 125.235C56.0365 126.089 54.2123 126.184 52.2945 125.425C51.7332 125.235 51.7332 124.903 52.0606 124.429C54.2123 121.536 54.3058 118.122 54.3526 114.707C54.3526 114.138 53.9784 113.759 53.6042 113.427C51.2187 111.198 49.1605 108.685 47.5234 105.839C47.2895 105.46 47.0556 105.223 46.5879 105.413C45.933 105.65 45.2782 105.46 44.6233 105.413C43.5475 105.318 42.9862 104.559 43.0797 103.468C43.2668 101.287 42.6587 100.433 40.5539 99.9116C40.4135 99.8642 40.2732 99.8168 40.1329 99.7693C38.7764 99.1054 38.7764 99.1054 38.8232 100.576C38.8232 100.67 38.8699 100.813 38.8232 100.907C37.5135 103.326 38.449 105.839 38.4957 108.305C38.5425 114.233 39.1506 120.114 39.3845 126.041C39.6183 131.969 40.1329 137.944 40.4603 143.872C40.7877 149.942 40.9748 156.012 41.2087 162.082C41.2087 162.604 41.3958 163.22 40.741 163.552C39.8522 164.027 39.0103 163.505 39.0103 162.462C38.9167 160.28 39.3377 158.146 39.5716 155.965C39.899 152.882 39.5716 149.8 39.4312 146.765C39.3377 144.014 39.1038 141.264 39.057 138.513C39.0103 133.629 38.3086 128.744 38.1215 123.86C38.028 121.062 37.7941 118.264 37.6538 115.466C37.5135 111.53 37.4667 107.594 37.3263 103.658C37.3263 103.326 37.4199 102.567 36.9989 102.757C36.3441 102.994 35.2682 102.52 35.0811 103.658C35.0344 104.037 35.0344 104.464 35.0344 104.844C34.9408 109.965 34.9876 115.087 34.7537 120.208C34.5198 125.235 34.3327 130.309 34.3327 135.336C34.3327 137.944 34.5666 140.553 35.0811 143.113C35.6892 145.911 36.0166 148.709 36.4376 151.507C36.4844 151.839 36.5312 152.124 36.6247 152.408C36.7183 152.74 37.2796 152.882 37.0457 153.309C36.765 153.736 36.2505 153.594 35.8763 153.546C33.9585 153.404 32.0875 153.072 30.2633 152.598C29.4681 152.408 29.3745 151.934 29.8423 151.317C30.1697 150.891 30.4504 150.511 30.7778 150.132C31.152 149.658 31.3391 149.183 31.1052 148.614C30.9181 148.045 30.9649 147.524 31.152 147.002C32.9295 142.07 33.2569 136.948 33.3504 131.732C33.4908 125.33 33.6311 118.881 33.865 112.479C33.9585 109.965 34.0053 107.452 33.9585 104.891C33.9117 103.943 33.865 102.899 32.4617 103.089C32.2278 103.136 31.9472 103.041 31.9472 102.757C31.9472 102.615 32.0875 102.378 32.2278 102.283C32.5553 102.046 32.8827 101.856 33.2101 101.714C33.8182 101.429 33.9585 100.907 33.9117 100.338C33.8182 99.6271 33.2101 99.959 32.7891 99.8642C32.2746 99.8168 31.4326 100.433 31.2923 99.6271C31.152 98.8683 32.1343 99.0106 32.602 98.8209C33.0698 98.6312 33.865 98.726 33.7246 97.9199C33.5843 97.0663 33.6311 96.023 32.602 95.6436C32.0407 95.4065 31.4326 95.2642 30.8246 95.0745C30.5907 94.9797 30.2633 94.9323 30.2165 94.6003C30.2165 94.2683 30.5439 94.2209 30.7778 94.0787C31.152 93.889 31.8536 94.0312 31.8536 93.3673C31.8536 92.7508 31.2923 92.4663 30.7778 92.2766C29.6552 91.8972 28.5793 91.5653 27.4567 91.1859C26.6148 90.9014 25.8664 90.4746 25.2115 89.3838C26.3341 89.9055 27.1761 90.1426 28.1116 90.2374C28.7197 90.2849 29.0471 90.0952 28.7664 89.4313C28.3455 88.4828 28.3455 87.4395 28.2051 86.4437C28.1116 85.7323 28.3922 85.3055 28.9535 85.021C29.5148 84.7365 29.9358 85.0684 30.2633 85.4478C31.0584 86.3488 31.8068 87.3447 32.602 88.2457C32.8827 88.5777 33.3037 89.1467 33.7714 88.7674C34.1924 88.4354 33.8182 87.8663 33.6779 87.4395C33.2569 86.3014 32.4617 85.3529 31.6197 84.4519C30.8246 83.5983 29.9826 82.7447 29.2342 81.8437C28.4858 80.8952 28.6729 80.3262 29.7955 79.8994C30.3568 79.7097 31.2455 79.8994 31.5262 79.3777C31.8536 78.7612 31.2923 78.0025 31.0584 77.386C29.8423 74.019 28.9535 70.5098 28.4858 66.9531C28.3922 66.0521 27.3164 66.0995 27.3164 65.5778C27.3164 65.1036 28.1584 64.9139 28.018 64.0603C27.2696 57.848 28.2519 51.7779 29.4213 45.7553C29.6084 44.712 29.7487 43.6687 29.9358 42.6254C30.0762 41.9615 29.8423 41.6296 29.1874 41.677C26.1938 41.8667 23.5744 40.6811 21.0017 39.3533C19.9727 38.8316 19.5517 39.0687 19.1775 40.0646C17.4 44.9017 16.2306 49.9285 15.0612 55.0027C13.7515 60.7882 13.237 66.6685 13.4241 72.5015C13.7047 82.1282 15.3419 91.5179 19.9727 100.101C22.7324 105.175 26.0535 109.823 29.7955 114.186C30.8246 115.419 31.8068 116.699 32.8359 117.932C33.023 118.169 33.3504 118.406 33.1166 118.738C32.8359 119.07 32.4617 118.928 32.181 118.738C31.9004 118.549 31.573 118.359 31.3859 118.074C27.6906 113.19 23.8082 108.448 20.5807 103.231C17.0726 97.4931 14.8741 91.2807 13.658 84.6416C12.395 77.4808 12.2079 70.3201 12.9563 63.0644C13.8451 54.9552 15.2951 46.9883 18.3355 39.4007C18.4758 39.0687 18.7565 38.6419 18.1484 38.4048C16.5113 37.8358 15.3419 36.5554 13.9854 35.6543C10.8514 33.0935 7.76426 30.4853 4.67708 27.9245C4.16255 27.4977 3.55447 26.9286 4.069 26.2647C4.58353 25.6008 5.37871 25.8379 5.98679 26.3121C6.82875 26.9761 7.57716 27.6874 8.37234 28.3987C11.1321 30.7224 14.0322 32.8564 16.6984 35.275C16.979 35.5595 17.3065 35.7492 17.6339 35.9863C19.2242 37.1244 19.4581 37.0296 20.3001 35.3224C20.6743 34.5636 21.0953 33.7574 21.5162 32.9987C21.8437 32.4296 21.7969 32.0502 21.0953 31.908C20.3936 31.7657 19.8791 31.4337 19.7856 30.675C20.0194 30.4853 20.113 30.5801 20.2533 30.675C21.4227 31.6709 22.405 31.576 23.2937 30.343C24.9776 27.9719 26.7083 25.6482 28.2987 23.1823C31.152 18.772 35.0343 15.4524 38.9635 12.1329C43.7346 8.10196 49.067 4.82982 55.0075 2.69581C58.3753 1.51025 61.977 1.36799 65.4384 0.798917C67.0288 0.514383 68.5724 0.277271 70.2095 0.324694C70.5369 0.324694 71.0515 0.182427 71.0982 0.65665C71.145 1.27314 70.5369 1.08345 70.2095 1.08345C65.9997 1.27314 61.8367 2.0319 57.7204 2.83808C54.3994 3.50199 51.4525 5.16177 48.5057 6.72671C43.5943 9.33494 39.3377 12.7968 35.2682 16.4957C30.5907 20.7163 27.5035 26.1224 23.7147 31.0069C23.0598 31.8131 23.3405 32.2874 24.276 32.4296C25.5857 32.6667 26.8019 33.2358 28.018 33.7574C29.3745 34.3739 29.4213 34.3739 29.7487 32.6193C30.2165 33.6152 30.5907 34.4214 31.3859 34.943C32.6488 35.7492 32.9762 35.7018 33.4908 34.2791C34.1456 32.477 35.1747 30.9121 36.157 29.2997C41.4894 20.7637 48.4589 14.0298 57.4398 9.61947C62.0238 7.39062 66.8884 6.01537 71.9402 5.39888C73.8112 5.16177 75.6355 4.87724 77.5065 4.64013C77.8807 4.5927 78.3017 4.49786 78.6759 4.68755C80.5937 5.636 82.5582 5.25662 84.5228 4.97208C87.2358 4.5927 89.9955 4.73497 92.6617 5.11435C95.8892 5.58857 99.0232 6.63187 102.11 7.62773C105.057 8.6236 107.723 10.1885 110.296 11.8483C113.056 13.6029 115.722 15.3576 118.435 17.1596C118.95 17.4916 119.464 18.1081 119.791 16.9699C119.838 16.8277 120.025 16.7802 120.166 16.8751C120.4 17.0174 120.4 17.2545 120.259 17.3967C119.558 18.2503 120.212 18.7246 120.774 19.2462C123.066 21.2854 125.217 23.4194 126.761 26.1699C126.855 26.6915 127.182 27.0709 127.463 27.5451C128.679 29.6791 129.989 31.7657 130.877 34.1368C132.047 37.1719 131.392 36.8873 134.385 35.4646C135.368 34.9904 135.321 34.4214 134.853 33.71C133.029 30.9121 131.485 27.9719 129.334 25.4111C128.866 24.8895 128.585 24.6998 128.071 25.3163C127.743 25.7431 127.369 26.1699 126.761 26.2173C126.855 25.5534 127.463 25.3163 127.884 24.8895C128.351 24.4152 128.445 23.941 128.071 23.4194C127.837 23.04 127.603 22.6606 127.322 22.3761C125.592 20.6215 123.814 18.9143 122.037 17.1596C121.429 16.5906 120.306 16.5431 120.259 15.3576C120.493 15.073 120.68 15.3102 120.821 15.4524C123.487 17.871 126.293 20.1472 128.538 22.9926C128.959 23.5142 129.24 23.4668 129.661 23.04C130.41 22.1864 130.971 21.1905 131.579 20.1947C131.86 19.7204 132.047 19.1988 132.561 18.9617C132.935 19.2462 132.701 19.5307 132.561 19.7204C131.766 21.0008 131.064 22.3287 129.942 23.3245C129.287 23.941 129.24 24.5101 129.801 25.174C131.906 27.7348 133.684 30.5327 135.274 33.4255C135.602 33.9946 135.929 34.1368 136.49 33.6626C137.286 32.9987 138.221 32.477 138.829 31.7183C140.981 29.1101 143.647 26.976 145.799 24.3678C148.044 21.6647 149.587 18.5823 150.663 15.2627C150.804 14.7885 150.897 14.2669 151.365 13.9349C151.833 14.1246 151.646 14.4566 151.552 14.7411C150.055 19.5307 147.904 24.0359 144.208 27.4503C141.682 29.774 139.811 32.7142 136.911 34.5636C136.397 34.8956 136.444 35.3224 136.677 35.7966C137.706 38.1203 138.782 40.444 139.624 42.91C139.858 43.5739 140.232 43.479 140.7 43.2419C142.103 42.5306 143.366 41.6295 144.629 40.6811C145.237 40.2069 145.892 39.7801 146.641 39.543C146.874 39.9698 146.547 40.0646 146.36 40.2069C144.629 41.4873 142.945 42.8151 141.028 43.811C140.279 44.1904 140.045 44.6646 140.326 45.4233C140.466 45.8027 140.513 46.1821 140.607 46.5615C141.121 48.6955 142.057 49.2171 144.115 48.3635C145.237 47.9367 146.22 47.2254 147.249 46.5615C147.576 46.3718 147.904 46.1347 148.231 45.945C148.418 45.8501 148.699 45.7079 148.886 45.945C149.073 46.1821 148.839 46.4192 148.652 46.5141C146.734 47.5099 145.05 49.0274 142.805 49.4068C141.308 49.6439 141.308 49.7388 141.542 51.2563C142.29 55.714 142.057 60.2191 142.057 64.7242C142.057 65.0562 142.01 65.5778 141.542 65.4356C141.121 65.3407 141.449 64.9139 141.449 64.6294C141.449 62.4954 141.449 60.3614 141.495 58.2274C141.495 57.6583 141.215 57.5635 140.747 57.6583C139.063 57.9428 137.332 57.9903 135.648 57.9428C134.666 57.8954 134.152 58.3222 134.105 59.4604C133.59 70.652 134.245 81.7963 134.245 92.9405C134.245 96.4498 134.152 99.959 135.04 103.421C135.227 104.132 134.993 104.654 134.198 104.844C133.31 105.033 132.421 105.128 131.672 104.464C131.532 104.322 131.626 104.085 131.719 103.895C133.45 101.05 133.356 97.825 133.31 94.6952C133.169 85.021 133.169 75.3468 133.169 65.6727C133.169 63.4438 133.122 61.1676 133.216 58.9387C133.263 57.7531 132.795 57.1841 131.672 57.0418C131.345 56.9944 131.064 56.947 130.737 56.8521C130.55 56.8047 130.363 56.7099 130.363 56.4727C130.41 56.2356 130.643 56.1882 130.83 56.1882C131.345 56.2831 131.813 56.3779 132.327 56.5202C132.842 56.6624 133.216 56.615 133.122 55.9511C132.889 53.6274 133.122 51.3037 132.982 48.98C132.935 48.2687 132.795 47.9841 132 48.4109C131.205 48.8852 130.316 49.2171 129.427 49.4542C128.632 49.6913 128.351 50.1182 128.351 50.9718C128.258 55.5243 127.837 60.0294 126.995 64.4871C126.48 67.285 125.545 69.9881 124.235 72.5015C123.674 73.5922 123.393 74.7303 123.346 76.0107C123.019 84.4519 123.534 92.8931 123.487 101.334C123.44 104.464 123.767 107.547 123.908 110.676C123.908 111.103 124.142 111.435 124.329 111.767C124.75 112.431 125.077 113.237 124.937 113.996C124.843 114.707 124.984 115.182 125.405 115.703C126.34 116.841 126.293 117.268 125.171 118.122C124.188 118.881 123.767 119.829 123.861 121.062C124.001 123.575 123.674 126.136 124.048 128.65C124.282 130.357 124.703 131.969 126.387 132.918C126.948 133.202 126.855 133.676 126.293 133.819C124.937 134.245 123.534 134.293 122.13 133.913C121.522 133.724 121.382 133.297 121.709 132.728C122.598 131.163 122.832 129.456 122.832 127.701C122.832 125.283 122.785 122.864 122.832 120.493C122.879 119.45 122.598 118.596 121.756 118.074C120.914 117.553 121.101 117.031 121.522 116.462C121.756 116.13 121.99 115.751 122.271 115.419C122.645 115.039 122.738 114.66 122.411 114.186C122.177 113.806 121.99 113.285 122.224 112.953C123.487 111.056 122.785 108.969 122.692 106.978C122.411 101.666 122.598 96.3075 122.458 90.9962C122.458 90.2375 122.832 89.1467 122.224 88.7674C121.616 88.3406 121.054 89.4313 120.4 89.7158C119.137 90.2849 117.874 90.8539 116.751 91.8498C117.266 92.0869 117.593 91.8498 117.92 91.7075C118.248 91.5179 118.529 91.3282 118.809 91.1385C119.511 90.7591 120.446 90.0003 120.914 90.9488C121.288 91.7075 120.119 92.0395 119.511 92.3715C118.388 92.9405 117.266 93.4147 116.096 93.889C116.19 94.0312 116.19 94.1261 116.237 94.1261C116.751 94.3158 117.593 94.2209 117.64 94.9797C117.687 95.8333 116.751 95.691 116.283 95.9756C116.049 96.1178 115.769 96.1652 115.488 96.2127C111.886 96.8766 109.969 99.3425 108.706 102.567C108.565 102.947 108.519 103.421 108.051 103.753C107.723 103.231 108.051 102.804 108.144 102.33C108.238 101.998 108.752 101.619 108.144 101.334C107.723 101.145 107.302 101.334 107.022 101.761C106.32 102.899 105.665 103.99 105.619 105.46C105.525 111.957 105.852 118.406 105.899 124.856C105.993 136.379 106.601 147.903 106.227 159.427C106.133 161.94 107.49 162.936 109.173 163.932C110.39 164.643 111.512 165.497 112.775 166.161C114.272 166.967 115.207 168.152 115.722 169.812C116.143 171.187 116.517 172.515 116.704 173.938C116.845 175.171 116.564 175.503 115.301 175.361C113.43 175.123 111.559 174.697 109.641 174.744C106.273 174.886 106.414 174.175 106.414 178.064C106.414 179.107 106.554 180.198 106.648 181.241C106.694 181.952 106.975 182.474 107.817 182.426C111.559 182.237 115.254 182.047 118.996 181.857C119.277 181.857 119.651 181.81 119.885 181.336C118.903 181.004 117.92 180.719 116.985 180.34C116.003 179.961 115.02 179.581 114.038 179.202C113.804 179.107 113.524 178.87 113.664 178.585C113.851 178.206 114.132 178.443 114.366 178.538C118.575 180.435 123.019 181.004 127.556 181.288C131.766 181.573 135.929 181.857 140.092 182.332C140.934 182.426 141.823 182.379 142.665 182.426C143.273 182.474 143.928 182.426 144.629 183.138C142.899 183.233 141.402 183.47 139.905 183.375C134.76 182.948 129.661 182.901 124.516 182.996C124.282 182.996 123.954 182.948 123.861 183.09C122.458 184.56 120.587 184.039 118.903 184.134C115.628 184.371 112.307 184.323 108.986 184.418C108.331 184.418 107.677 184.513 107.022 184.608C106.694 184.655 106.18 184.56 106.133 185.13C106.133 185.604 106.273 186.031 106.694 186.22C107.069 186.41 107.49 186.552 107.864 186.695C108.238 186.837 108.752 186.789 108.94 187.311C108.612 187.643 108.191 187.453 107.817 187.501C107.49 187.548 107.069 187.453 107.022 187.785C106.835 188.829 106.086 188.876 105.291 189.066C107.022 188.923 108.799 188.923 110.483 188.591C111.84 188.354 113.196 188.354 114.553 188.402C115.441 188.449 116.096 188.829 116.003 189.824C115.816 192.765 116.845 194.899 119.511 196.226C119.558 196.274 119.651 196.321 119.698 196.369C120.025 196.701 120.68 197.033 120.306 197.459C119.885 197.981 119.558 197.222 119.23 196.985C118.529 196.463 117.967 195.894 117.079 195.657C116.19 195.42 116.003 194.472 115.816 193.666C115.628 192.765 115.488 191.816 115.488 190.868C115.441 189.967 115.067 189.54 114.225 189.303C112.495 188.829 110.811 189.255 109.127 189.492C107.77 189.682 106.414 189.54 105.057 189.492C104.496 189.492 103.981 189.398 104.028 188.544C104.075 187.975 103.607 187.833 103.139 187.88C102.531 187.927 102.438 188.354 102.531 188.829C102.672 189.587 102.812 190.299 102.999 191.01C103.139 191.626 103.747 191.674 104.215 191.769C106.975 192.148 109.688 192.48 112.495 192.29C112.869 192.243 113.477 192.006 113.57 192.622C113.664 193.239 113.149 193.476 112.588 193.618C111.278 193.903 109.969 193.903 108.612 193.76C105.665 193.476 102.718 193.76 99.7716 193.428C99.07 193.334 98.2748 193.381 97.7135 193.998C97.3393 194.377 96.9183 194.282 96.4973 194.092C93.1295 192.717 89.6681 193.144 86.2535 193.428C85.8325 193.476 85.4115 193.666 85.0373 193.855C83.1195 194.804 81.0614 195.278 79.0033 195.515C77.8807 195.657 76.571 195.42 75.3548 195.183C74.4193 195.041 73.4838 194.993 72.595 195.183C72.5015 195.136 72.4547 195.088 72.3612 194.993ZM96.4505 19.3411C96.357 19.3885 96.2166 19.4359 96.1231 19.4833C95.1876 17.7287 94.2521 15.9741 93.3166 14.2194C92.4278 12.4648 92.194 12.3225 90.51 13.3658C87.0487 15.4998 83.6341 17.6813 80.8275 20.7163C79.6581 22.0441 78.6291 23.5142 77.3661 24.7472C75.729 26.3596 75.1677 28.209 75.1677 30.4853C75.1677 34.4214 75.3548 38.3574 75.4483 42.2935C75.4951 44.3326 76.4306 45.8027 77.8807 47.0357C78.3016 47.3677 78.5823 47.2728 79.0033 47.0357C81.0614 45.6604 82.605 43.811 83.9615 41.7718C86.2067 38.4048 88.0777 34.8007 90.6504 31.6709C91.9601 30.0585 92.7553 28.3987 92.8956 26.3596C92.8956 26.1224 92.8956 25.7905 93.3166 25.7905C93.5972 27.2132 93.223 29.4894 92.3811 30.3905C89.8552 33.3306 88.0309 36.6976 85.9261 39.9223C84.1486 42.6254 82.605 45.5656 79.6114 47.2254C79.0033 47.5573 78.7226 48.1264 78.7226 48.8852C78.7226 50.3078 77.9742 51.3511 76.7581 51.8728C75.4951 52.3944 75.308 53.2954 75.2612 54.481C75.1677 56.8995 75.3548 59.3181 75.5887 61.6892C75.729 63.1593 75.5887 64.6768 76.3839 66.0521C77.9742 68.7551 79.471 71.553 81.2017 74.1613C83.1663 77.054 85.7389 79.0458 89.0132 80.2313C91.4456 81.1324 93.9714 80.9901 96.4973 81.4169C97.5731 81.6066 98.6022 81.4643 99.5845 80.9901C101.081 80.2788 102.578 79.52 104.122 78.8087C104.683 78.5716 104.964 78.2396 104.449 77.5283C105.525 78.1922 105.525 78.1448 106.32 77.5757C111.512 73.8293 115.254 68.9448 117.312 62.8273C117.406 62.5902 117.499 62.2108 117.687 62.116C118.435 61.7366 118.388 61.0253 118.482 60.4088C118.716 57.9903 118.669 55.6191 118.669 53.2006C118.669 52.347 118.248 52.347 117.593 52.5841C116.424 53.0583 115.207 53.58 113.991 53.9594C113.103 54.2439 112.588 54.6707 112.448 55.6191C112.12 57.6583 111.138 59.4129 109.875 60.9779C107.396 64.1077 104.168 65.8149 100.239 65.5778C93.0359 65.1036 88.639 57.8954 89.2003 51.7305C89.8552 44.6172 95.515 39.7327 102.438 40.4914C102.625 40.4914 102.812 40.5388 102.999 40.5388C106.273 40.8234 108.846 42.246 110.623 45.0914C111.98 47.3202 112.682 49.7862 112.682 52.3944C112.682 53.3903 113.056 53.6748 113.945 53.3429C115.02 52.9161 116.049 52.5841 117.125 52.1573C119.043 51.3986 118.996 51.3511 118.856 49.2645C118.388 43.479 117.032 37.9306 114.599 32.6193C111.325 25.4111 106.835 19.2936 99.5845 15.737C97.5731 14.7411 95.5618 13.7452 93.5504 12.7968C93.5037 12.8442 93.4101 12.939 93.3633 12.9865C94.3456 15.073 95.4215 17.207 96.4505 19.3411ZM104.823 104.749C104.73 104.701 104.636 104.654 104.543 104.606C103.046 105.982 101.549 107.309 100.052 108.685C99.7248 108.969 99.8184 109.396 99.8651 109.823C100.052 111.008 100.286 112.241 100.426 113.427C101.175 119.165 101.456 124.951 101.643 130.784C101.689 131.779 101.643 132.775 102.017 133.676C102.064 133.866 102.297 134.056 102.017 134.198C101.783 134.34 101.596 134.151 101.456 133.961C101.128 133.392 101.081 132.775 101.081 132.111C100.941 126.326 100.473 120.54 99.8651 114.755C99.7248 113.285 99.5377 111.862 99.2103 110.439C99.1167 110.013 98.9764 109.633 98.4619 110.013C97.1054 111.008 95.7489 112.004 94.5795 113.237C94.2521 113.569 94.2053 113.996 94.1585 114.423C94.065 118.027 94.2989 121.584 94.2989 125.188C94.2989 129.645 94.5795 134.103 94.6263 138.561C94.6731 141.975 94.9069 145.437 95.7021 148.757C95.9828 149.942 96.2634 151.08 97.6667 151.365C98.2748 151.507 98.228 151.981 97.7135 152.124C96.1231 152.645 94.5327 153.214 92.802 152.693C92.1472 152.503 91.8665 152.124 92.2875 151.46C92.8956 150.464 93.0359 149.421 93.1295 148.188C93.5972 143.445 93.6908 138.703 93.5504 133.913C93.3166 128.223 93.223 122.532 93.3166 116.889C93.3166 116.367 93.3166 115.846 93.2698 115.371C93.2698 114.707 92.9891 114.613 92.4746 115.039C91.8198 115.561 91.1649 116.13 90.4633 116.652C87.5164 118.738 84.5228 120.872 81.5292 122.911C80.7807 123.433 80.5469 123.955 80.7808 124.856C82.0905 130.404 83.3534 136 84.6631 141.548C86.0196 147.524 87.7503 153.357 89.3407 159.284C89.7616 160.897 89.7149 160.944 88.1245 160.612C87.4229 160.47 87.1422 160.565 87.189 161.418C87.3293 163.41 87.3761 165.449 87.5164 167.441C87.7503 170.381 87.9374 173.321 88.639 176.214C88.8261 177.02 89.2003 177.4 89.9955 177.589C91.0714 177.827 92.1472 178.253 93.223 178.633C96.6844 179.866 100.099 181.194 103.701 181.857C104.917 182.095 105.244 181.81 105.057 180.577C104.87 179.391 104.964 178.206 104.964 177.02C104.964 176.262 105.01 175.55 104.122 175.123C103.701 174.934 103.56 174.412 104.215 174.365C105.104 174.27 105.01 173.606 105.057 173.037C105.198 170.049 105.244 167.062 105.338 164.027C105.338 163.41 105.338 162.841 104.964 162.319C104.449 161.608 104.356 160.802 104.356 159.948C104.496 153.309 104.777 146.717 104.777 140.078C104.823 131.495 104.683 122.959 104.636 114.375C104.823 111.198 104.823 107.973 104.823 104.749ZM72.7354 101.145C72.8289 100.149 72.7822 99.1528 72.595 98.2044C72.5015 97.6353 72.2676 97.3034 71.6128 97.3034C69.9288 97.256 68.2917 96.924 66.7013 96.5446C63.4271 95.691 60.1528 94.7426 57.0656 93.3673C56.0365 92.9405 55.6623 93.2251 55.5688 94.2683C55.3817 97.3034 55.101 100.338 55.2881 103.373C55.4284 105.555 55.3349 107.784 55.522 109.965C55.5688 110.771 55.3817 111.53 56.0833 112.194C60.4802 116.557 64.8771 121.015 69.3208 125.377C69.8821 125.899 70.5837 126.753 71.2386 126.516C72.0337 126.231 71.8466 125.093 71.8934 124.287C72.2676 116.557 72.7821 108.874 72.7354 101.145ZM73.9983 61.2624C74.0451 61.215 74.0919 61.215 74.1386 61.1676C74.1386 58.5119 74.1386 55.9037 74.1386 53.248C74.1386 52.2996 73.9048 51.446 73.2499 50.7346C72.3612 49.7388 72.4547 48.6481 73.016 47.5573C73.2499 47.0831 73.5773 46.6089 73.858 46.1347C74.0451 45.8501 74.2322 45.4708 73.9048 45.3285C72.9692 44.9017 73.2031 44.6172 73.9048 44.2378C74.1854 44.0955 74.1386 43.7636 74.1386 43.479C74.1386 41.8192 74.1386 40.1595 74.1386 38.4997C74.1386 37.9306 73.858 37.5512 73.3435 37.5512C72.3144 37.5038 71.3321 36.5554 70.2563 37.2193C70.1627 37.2667 70.1159 37.5038 70.0692 37.6461C69.3675 39.2584 68.8062 40.8708 68.4788 42.578C67.403 48.5532 66.8884 54.6233 67.4965 60.6933C68.1982 67.5221 69.3208 74.2087 72.1273 80.5159C75.6822 88.4828 81.3421 94.1735 89.4342 97.3034C89.8552 97.4931 92.1004 96.8766 92.2407 96.4972C92.5214 95.691 92.0069 95.0745 91.5391 94.5055C90.931 93.7467 90.2762 93.1302 89.481 92.5611C89.2003 92.3715 88.8261 92.0869 89.06 91.7075C89.2939 91.3282 89.7149 91.5653 89.9955 91.6601C90.9778 92.0869 91.6327 92.8457 92.194 93.6993C92.7553 94.6003 93.2698 95.5013 93.7843 96.4024C94.2989 96.0704 94.2989 95.691 94.1118 95.2168C93.2698 92.9405 92.3343 90.6643 91.2585 88.4828C90.931 87.8663 90.51 87.5344 89.8552 87.4395C88.6858 87.2498 87.4696 87.0602 86.347 86.5859C82.1372 84.8787 79.0033 81.8911 76.4774 78.1922C73.2499 73.4025 72.0337 67.8067 70.8644 62.2583C70.3966 60.1243 70.0692 57.9428 69.6482 55.7614C69.6014 55.4295 68.853 55.0975 69.5546 54.7181C70.1159 54.4336 70.5369 54.6707 70.8644 55.0975C71.0515 55.3346 71.2386 55.6191 71.3321 55.9037C72.3144 57.7531 73.1564 59.5078 73.9983 61.2624ZM96.6376 105.697C97.6199 105.887 97.7602 105.365 97.4796 104.606C97.2457 103.895 96.9183 103.231 96.6376 102.52C96.4038 101.951 96.0295 101.761 95.4215 101.856C93.7843 102.093 92.194 101.761 90.6036 101.334C86.4874 100.149 82.5582 98.4415 78.2549 97.8724C76.8048 97.6828 76.5242 97.7776 76.6645 99.2477C76.8516 101.145 77.179 102.994 77.3661 104.891C77.7871 109.681 78.8162 114.375 79.5178 119.165C79.7049 120.351 79.9856 120.493 80.9679 119.924C87.0019 116.509 92.2875 112.004 97.7602 107.784C97.9473 107.641 98.228 107.452 98.0877 107.12C97.9941 106.883 97.7135 106.835 97.4796 106.788C96.8715 106.74 96.2167 106.74 95.6086 106.646C95.2344 106.598 94.8602 106.456 94.9069 105.982C94.9537 105.507 95.3279 105.46 95.7021 105.507C96.0296 105.602 96.3102 105.65 96.6376 105.697ZM95.094 12.0854C96.5441 12.8916 97.8538 13.5555 99.1635 14.3143C102.485 16.1638 105.852 17.9184 108.378 20.8586C111.84 24.8895 114.553 29.3472 116.424 34.3739C118.248 39.1636 119.371 44.0955 119.838 49.1697C119.885 49.6913 119.932 50.213 120.633 49.881C122.504 49.0274 124.469 48.5058 126.34 47.8419C126.667 47.747 126.995 47.6522 127.088 47.178C127.369 45.8501 126.2 43.0522 125.03 42.3883C125.966 41.9615 125.826 41.2502 125.638 40.4914C124.843 36.9822 123.346 33.71 121.85 30.4853C118.341 22.9926 113.43 16.8277 105.899 13.0339C102.438 11.2318 99.0232 10.4731 95.094 12.0854ZM76.8048 172.752C77.5065 172.657 77.8339 172.752 78.0678 173.179C78.5355 173.985 79.2839 174.412 80.0791 174.697C81.5292 175.218 82.9324 175.693 84.3825 176.167C85.8325 176.641 85.9261 176.594 85.9261 175.029C85.8793 170.334 85.3647 165.686 85.1776 160.992C85.1309 160.375 84.897 160.138 84.2889 159.996C80.8275 159.379 77.4129 158.763 73.9515 158.099C73.2499 157.957 72.9693 158.051 72.9225 158.858C72.7354 162.557 72.1741 166.255 71.4724 169.86C71.0982 171.804 72.0805 172.61 73.1096 173.653C73.4838 173.321 73.2499 172.705 73.7644 172.515C74.1386 172.705 74.0451 173.084 73.9983 173.369C73.9048 174.507 74.3725 175.503 74.8403 176.499C75.6354 178.301 77.179 179.486 78.3952 180.956C79.5178 182.332 80.8275 182.569 82.4179 182.474C82.6985 182.474 83.026 182.569 83.1195 182.189C83.1663 181.905 82.8856 181.81 82.6985 181.668C81.2485 180.387 79.892 179.06 78.6291 177.637C77.9742 176.878 77.2726 176.024 76.0564 175.93C75.5419 175.882 75.4016 175.408 75.5419 175.029C75.6822 174.602 76.0564 174.886 76.3371 174.981C76.8048 175.171 77.2726 175.408 77.6936 175.598C78.021 175.74 78.3017 175.787 78.5355 175.503C78.8162 175.171 78.7226 174.839 78.442 174.554C77.9275 174.033 77.4129 173.464 76.8048 172.752ZM115.488 82.9344C116.704 82.1757 117.406 81.0849 118.201 80.0891C122.224 74.92 125.171 69.1345 126.34 62.6376C126.808 60.0768 126.948 57.4686 127.229 54.9078C127.322 54.0542 127.229 53.1532 127.463 52.2996C127.79 51.114 126.621 50.1181 127.135 48.9326C127.276 48.6481 126.808 48.6006 126.527 48.6955C124.609 49.4068 122.551 49.881 120.727 50.8295C120.166 51.114 119.838 51.4934 119.791 52.2047C119.651 54.6707 119.371 57.1841 119.417 59.65C119.464 61.4995 118.061 63.2067 118.856 65.1036C118.856 65.151 118.762 65.2459 118.716 65.2459C118.154 65.5304 118.248 66.0995 118.248 66.6211C118.154 71.2685 117.499 75.8211 116.283 80.2788C116.049 81.1798 115.769 82.0334 115.488 82.9344ZM46.6814 99.0106C46.4943 100.149 46.9153 100.813 47.8976 101.192C48.5992 101.429 49.1605 101.761 48.5992 102.757C48.3654 103.136 48.4121 103.658 48.9267 103.99C49.8622 104.654 50.517 105.602 51.2187 106.503C52.2009 107.736 53.1832 109.017 54.4462 110.06C54.68 109.254 54.5865 108.542 54.5397 107.926C54.3526 103.041 54.072 98.157 54.7736 93.2725C54.9139 92.4189 54.5865 91.8972 53.8849 91.423C50.9848 89.5735 48.3186 87.4395 45.933 84.8787C45.6056 84.4993 45.2782 84.0725 44.7169 84.0725C44.5298 84.689 44.6233 85.2107 44.7169 85.7798C45.1378 87.8189 45.2782 89.8106 45.3717 91.8972C45.4185 93.0354 45.5121 94.1261 45.7927 95.2642C46.1669 96.924 46.9621 98.2044 47.9912 99.4374C48.3654 99.8642 48.646 100.338 48.8331 101.192C47.9444 100.386 47.6637 99.39 46.6814 99.0106ZM107.069 80.7056C106.648 81.8911 105.572 82.0808 104.73 82.555C102.531 83.8829 100.333 85.2581 97.9006 86.0643C97.2457 86.3014 97.1522 86.7756 97.1989 87.3921C97.1989 88.957 97.2457 90.522 97.1989 92.1343C97.1522 93.1776 97.4796 93.6993 98.5554 93.6519C98.9764 93.6044 99.3974 93.6044 99.5377 94.2209C99.8184 95.8333 99.8651 95.8333 101.456 95.5487C101.783 95.5013 102.157 95.4539 102.485 95.4539C103.56 95.3591 104.262 94.8374 104.87 93.889C105.525 92.7983 105.759 91.8024 105.759 90.5694C105.712 89.289 105.852 87.9612 105.946 86.6808C105.993 85.7797 106.414 84.7839 104.823 84.3571C106.975 84.2148 106.975 84.2148 107.162 82.1757C107.162 81.7963 107.396 81.4169 107.069 80.7056ZM106.554 168.532C106.507 168.532 106.507 168.532 106.46 168.532C106.46 169.954 106.507 171.377 106.46 172.8C106.414 173.796 106.741 174.317 107.817 174.033C108.285 173.938 108.752 173.938 109.22 173.938C111.044 173.843 112.869 174.08 114.646 174.507C116.424 174.981 116.611 174.791 116.19 172.942C115.956 171.851 115.582 170.761 115.254 169.67C114.927 168.389 114.178 167.488 113.056 166.73C111.138 165.497 109.173 164.406 107.209 163.363C106.554 162.983 106.601 163.552 106.601 163.932C106.554 165.497 106.554 167.014 106.554 168.532ZM40.6006 85.021C40.9281 86.0169 41.2087 87.0127 41.5361 87.9612C41.6765 88.388 41.9103 88.6725 42.3781 88.6725C42.9394 88.6251 42.7055 88.1509 42.7055 87.8189C42.7523 86.1591 42.7055 84.4993 42.7523 82.8396C42.7523 81.8437 42.5184 80.9901 42.0039 80.1839C40.6474 77.9076 39.2441 75.6788 38.1683 73.2602C37.3263 71.3634 37.1392 71.2685 35.0811 71.4108C34.2859 71.4582 34.0521 71.7902 34.1924 72.5489C34.6134 74.92 35.2215 77.2437 35.9699 79.52C36.157 80.0891 36.3908 80.4684 37.0457 80.2788C37.2796 80.2313 37.5602 80.1839 37.7006 80.421C37.8877 80.6581 37.6538 80.8478 37.4667 80.9901C36.9521 81.4643 37.0457 81.7014 37.6538 81.986C38.1215 82.2231 38.5425 82.887 38.1683 83.2189C37.2796 83.8829 37.7941 84.4519 38.0748 85.0684C38.5893 86.254 39.1038 87.4395 39.6651 88.6251C39.9458 89.1942 40.1329 90.2374 40.8345 90.0003C41.5361 89.7632 41.0216 88.8148 40.9281 88.1983C40.6942 87.155 40.1329 86.1117 40.6006 85.021ZM136.023 49.6913C136.537 49.1223 137.145 49.0749 137.66 48.98C140.326 48.5058 140.326 48.5532 139.484 45.8976C139.437 45.8027 139.437 45.7553 139.437 45.6604C139.297 44.9965 138.923 44.8543 138.315 44.9965C136.958 45.2811 135.742 45.8501 134.479 46.3718C134.105 46.5141 133.918 46.7986 133.918 47.178C133.918 50.2604 133.964 53.3429 134.011 56.4253C134.011 56.9944 134.292 57.4212 134.947 57.3738C136.724 57.2789 138.502 57.1841 140.326 57.0892C141.074 57.0418 141.355 56.5676 141.355 55.8088C141.308 54.2439 141.215 52.7264 140.887 51.2089C140.607 49.6913 140.466 49.5965 138.969 49.6913C137.987 49.7388 137.052 50.0707 136.023 49.6913ZM115.816 17.4916C117.827 19.9575 119.464 22.6606 121.008 25.3637C123.393 29.4894 125.545 33.71 126.621 38.4048C126.808 39.3059 127.229 39.3533 127.93 38.9265C128.492 38.5945 129.1 38.31 129.661 37.978C131.018 37.3141 131.111 37.1718 130.503 35.7018C128.445 30.9121 125.545 26.5967 122.411 22.4709C120.774 20.2421 118.575 18.44 115.816 17.4916ZM78.9565 5.58857C78.4888 5.06693 78.1146 5.20919 77.7403 5.30404C74.5128 5.82569 71.2853 6.29991 68.1046 7.15351C62.1641 8.71845 56.5511 11.0896 51.4058 14.5514C44.3427 19.2936 39.0103 25.6482 35.1747 33.3306C34.7537 34.1368 34.4263 34.9904 34.1456 35.844C33.8182 36.8399 34.7069 37.0296 35.2682 37.3141C35.9231 37.6461 36.0166 36.9822 36.157 36.5554C36.8118 34.943 37.607 33.4255 38.3554 31.8605C41.8168 24.1781 47.5234 18.4875 54.3994 13.9823C60.5737 9.90401 67.4965 7.77 74.7467 6.4896C76.0564 6.20506 77.4597 5.87311 78.9565 5.58857ZM111.278 87.4395C111.559 86.3488 111.559 85.3529 111.606 84.3097C111.606 83.6457 111.699 82.9818 112.12 82.4128C112.354 82.0808 112.682 81.8437 113.103 81.986C113.477 82.0808 113.664 82.4128 113.711 82.7447C113.804 83.1715 113.804 83.5983 113.898 84.2622C116.003 78.7612 116.891 73.2603 117.079 67.617C116.798 67.9489 116.611 68.3283 116.424 68.7077C114.553 72.4067 112.401 75.9159 109.314 78.7138C108.472 79.4726 108.238 80.1839 108.659 81.1798C108.846 81.5592 108.799 81.8911 108.659 82.3179C108.285 83.3138 108.331 84.3571 108.519 85.3529C108.659 86.0169 109.548 85.9694 110.015 86.3488C110.39 86.6334 110.764 86.9653 111.278 87.4395ZM35.2215 70.652C36.9989 70.652 36.9989 70.652 36.3441 69.0871C35.4086 66.9057 34.7537 64.6768 34.2859 62.3531C33.2101 57.0418 33.9585 51.7779 34.5666 46.5141C34.6134 46.1821 34.894 45.7079 34.4263 45.5656C33.865 45.3759 33.9117 45.9924 33.7714 46.3244C33.1633 48.2687 33.2569 50.3078 32.9762 52.2996C32.1343 57.9903 32.4617 63.6809 33.6779 69.3242C33.865 70.2726 34.2392 70.8891 35.2215 70.652ZM138.782 43.2419C138.642 42.8625 138.502 42.246 138.221 41.6295C137.753 40.4914 137.239 39.4007 136.771 38.2626C135.602 35.4646 135.602 35.4646 133.029 37.0296C132.468 37.3615 132.327 37.6935 132.608 38.2626C133.59 40.2543 133.918 42.4832 134.292 44.6172C134.432 45.3285 134.666 45.5182 135.274 45.2811C136.256 44.9491 137.285 44.6172 138.268 44.2852C138.595 44.1429 138.923 43.9532 138.782 43.2419ZM29.0471 60.2191C29.0939 61.1201 29.1874 62.6851 29.2342 64.2026C29.281 64.9139 29.5616 65.151 30.2165 65.2459C31.7601 65.3881 32.1343 65.1036 31.8536 63.4913C31.3391 60.2665 31.5262 57.0418 31.5262 53.8171C31.5262 52.8686 31.7601 51.9676 31.8536 51.0192C31.9004 50.7346 31.9939 50.4027 31.7601 50.213C31.4794 49.9759 31.2455 50.2604 31.0584 50.4501C30.5907 50.7821 30.1229 51.114 29.9826 51.7779C29.4681 54.3387 29.0003 56.947 29.0471 60.2191ZM30.9181 66.0046C29.9358 65.8624 29.5616 66.1943 29.8423 67.1902C29.9826 67.6644 30.1229 68.2335 30.0762 68.7077C29.8423 70.3675 31.152 71.553 31.2923 73.2128C31.5262 76.0107 32.6488 78.7138 34.1924 81.0849C34.3795 81.3695 34.5198 81.7963 34.9876 81.5592C35.4086 81.3695 35.4086 80.9427 35.315 80.5633C35.2682 80.4684 35.2682 80.3262 35.2215 80.2313C33.865 75.9633 32.8359 71.6005 32.2746 67.1428C32.1343 66.2417 31.7601 65.8624 30.9181 66.0046ZM56.364 181.715C57.3462 181.288 58.5624 181.336 59.7318 181.099C60.0124 181.051 60.2931 180.814 60.527 180.624C61.8367 179.391 63.3335 178.348 64.7835 177.352C65.111 177.115 65.4384 176.831 65.7658 176.499C65.9997 176.262 66.14 175.977 65.9997 175.645C65.8594 175.313 65.5319 175.455 65.2513 175.408C64.5497 175.361 63.848 175.455 63.1464 175.313C62.1173 175.123 61.3222 175.408 60.5738 176.072C59.2173 177.305 57.814 178.538 56.4575 179.771C56.1301 180.103 55.8027 180.435 55.5688 180.862C55.3349 181.383 55.4752 181.763 56.364 181.715ZM122.364 76.5324C122.271 76.485 122.13 76.4375 122.037 76.3901C120.961 78.4293 119.324 80.0891 118.388 82.3179C118.95 81.9385 119.417 82.1757 119.932 82.2231C121.054 82.3653 121.288 82.9344 120.633 83.8829C120.446 84.12 120.212 84.4045 119.932 84.4993C117.92 85.2581 116.517 86.9179 114.646 87.9138C114.225 88.1509 113.804 88.4828 113.898 89.0993C114.366 89.1942 114.599 88.8622 114.833 88.6251C115.956 87.6766 117.172 86.823 118.482 86.0643C118.903 85.8272 119.277 85.6849 119.651 86.1117C120.025 86.5385 119.745 86.9179 119.417 87.2498C118.809 87.8189 118.154 88.388 117.453 89.0519C117.687 89.0519 117.827 89.0993 117.92 89.0519C119.23 88.388 120.353 87.3921 121.85 87.0602C122.224 86.9653 122.364 86.5859 122.364 86.2065C122.364 82.9818 122.364 79.7571 122.364 76.5324ZM29.6084 37.409C29.8891 36.4605 29.281 35.8914 28.2519 35.5121C27.2228 35.1327 26.2873 34.5162 25.2583 34.1842C24.276 33.8523 23.5744 32.3822 22.5921 33.0461C21.7969 33.5678 21.563 34.8956 21.0953 35.8914C21.0485 35.9389 21.0485 36.0337 21.0017 36.1286C20.8146 36.5079 21.0017 36.7451 21.3759 36.7451C23.7147 36.9822 25.8196 38.1203 28.0648 38.7368C29.5616 39.211 29.6084 39.1636 29.6084 37.409ZM89.4342 177.969C89.9955 181.573 91.352 182.901 94.5327 183.138C94.8602 183.185 95.2344 183.233 95.5618 183.28C97.2457 183.328 98.9296 183.565 100.567 182.853C96.9183 181.336 93.4101 179.391 89.4342 177.969ZM132.561 45.3759C132.327 44.0481 132.468 42.7203 132.187 41.3924C132.047 40.6811 131.719 40.4914 131.064 40.6337C129.989 40.8708 128.959 41.1553 127.884 41.3924C127.322 41.5347 127.369 41.8667 127.463 42.2935C127.697 43.4316 127.93 44.6172 128.071 45.7553C128.211 46.846 128.772 47.1305 129.755 46.8934C130.409 46.7512 131.064 46.5615 131.672 46.5141C132.468 46.4192 132.655 46.0398 132.561 45.3759ZM99.8184 58.4645C98.9296 58.4171 98.0409 58.4645 97.1522 58.4171C96.4038 58.4171 95.8424 58.6542 95.6553 59.4604C95.4682 60.2665 95.8424 60.8356 96.5441 61.215C97.1522 61.5469 97.807 61.6892 98.4151 61.784C99.9587 61.9737 101.502 62.116 102.999 61.5469C103.794 61.215 104.215 60.5985 104.122 59.6975C103.981 58.7964 103.327 58.5593 102.625 58.5119C101.689 58.4171 100.754 58.4645 99.8184 58.4645ZM69.695 18.44C59.0302 30.5801 55.2413 44.9491 56.364 60.883C55.1478 44.9017 60.2931 30.9595 69.695 18.44ZM33.3972 183.138C34.2859 183.09 35.8295 183.517 37.0925 182.332C37.3263 182.095 37.8409 182 37.7941 181.62C37.7473 181.146 37.2328 181.194 36.8586 181.099C33.865 180.435 30.9181 180.719 27.9245 181.099C27.41 181.146 26.5212 180.862 26.4744 181.383C26.4277 182.047 27.3164 182.284 27.8777 182.569C28.0648 182.664 28.3455 182.664 28.5793 182.711C29.9826 183.138 31.4326 183.185 33.3972 183.138ZM60.106 175.266C59.4044 175.503 58.7495 175.787 58.0479 176.024C55.3349 176.973 52.8558 178.348 50.8912 180.53C50.5638 180.909 49.9557 181.336 50.2364 181.763C50.6106 182.332 51.3122 182.237 51.9671 181.952C52.2009 181.857 52.4816 181.715 52.7155 181.62C55.3349 180.103 57.6737 178.206 59.7318 175.977C59.9189 175.835 60.1995 175.645 60.106 175.266ZM50.7041 187.074C51.1719 186.979 51.5461 186.932 51.9203 186.837C54.8204 186.173 57.7205 185.509 60.6205 184.798C61.1818 184.655 62.2109 184.845 62.1173 184.134C62.0238 183.375 60.9947 183.517 60.3399 183.47C60.2463 183.47 60.1995 183.47 60.106 183.517C58.5624 184.086 56.972 184.039 55.3817 183.897C52.9494 183.707 51.4525 184.655 50.7041 187.074ZM100.286 191.247C98.7425 190.393 97.386 189.587 96.0295 188.923C95.3747 188.591 94.3456 188.212 93.9714 188.402C93.0827 188.876 92.1004 188.829 91.3052 189.303C90.7439 189.635 90.6971 190.393 90.7907 191.01C90.8842 191.626 91.4456 191.437 91.8665 191.437C94.0182 191.389 96.2167 191.2 98.3683 191.437C98.8829 191.484 99.4442 191.532 100.286 191.247ZM95.2811 95.122C95.8425 92.7034 95.6553 90.5694 95.6086 88.4354C95.6086 87.9138 95.936 87.2973 95.094 87.155C94.3456 87.0127 92.1004 87.487 92.0536 87.8663C92.0069 88.056 92.0536 88.2457 92.1472 88.4354C93.1762 90.5694 94.2053 92.7508 95.2811 95.122ZM18.7565 37.3615C18.3355 37.077 17.8678 36.7925 17.4468 36.4605C14.2193 33.8049 10.9918 31.1492 7.71748 28.541C6.96908 27.9245 6.17389 27.3554 5.37871 26.7864C5.14483 26.6441 4.91096 26.407 4.6303 26.6441C4.34965 26.9286 4.58353 27.2606 4.81741 27.4503C5.05128 27.6874 5.33194 27.8297 5.51904 28.0668C8.79332 31.1492 12.5821 33.4729 16.1371 36.176C16.9322 36.745 17.7274 37.3141 18.7565 37.3615ZM71.0047 176.973C71.0515 177.352 71.1918 178.064 71.3321 178.775C71.3789 179.107 71.4724 179.391 71.566 179.676C71.987 180.814 73.2967 181.004 74.0919 180.15C74.8403 179.344 74.9338 178.585 74.1854 177.684C73.5773 176.973 73.016 176.309 72.1741 175.93C71.145 175.361 70.9579 175.455 71.0047 176.973ZM55.6623 176.072C52.9494 175.74 49.0202 178.49 47.2895 181.905C48.3654 182.237 49.1605 181.763 49.8154 180.909C51.2654 179.107 52.9493 177.542 55.0542 176.499C55.2881 176.404 55.6156 176.356 55.6623 176.072ZM45.5588 32.9038C47.1024 29.0626 50.2364 26.3596 52.4348 22.9926C54.7268 19.5307 58.235 17.539 61.6028 14.8834C57.1124 16.1163 45.6524 29.1101 45.5588 32.9038ZM86.0196 181.81C86.2067 180.862 86.1132 180.055 86.0196 179.249C85.9728 178.822 85.6922 178.538 85.2712 178.396C83.5405 177.732 81.8566 176.925 80.5001 175.55C80.313 175.361 79.9388 175.029 79.7049 175.361C79.471 175.693 79.7517 176.024 80.0791 176.214C81.155 176.831 81.9034 177.779 82.6985 178.68C83.6808 179.818 84.6631 180.956 86.0196 181.81ZM30.4036 40.5388C29.1874 39.7801 21.7033 37.5987 20.9082 37.7883C22.2646 39.6378 27.8777 41.345 30.4036 40.5388ZM88.1713 191.2C88.3116 191.2 88.8261 191.294 89.2471 191.2C90.1358 191.01 90.0423 190.204 90.0423 189.587C90.0423 188.876 89.481 188.971 89.0132 189.018C87.3293 189.16 85.6922 189.255 84.0083 189.398C83.7744 189.398 83.3534 189.303 83.4002 189.73C83.4002 190.109 83.7744 190.251 84.1018 190.109C84.476 189.967 84.8034 189.967 85.0373 190.299C85.7857 191.247 86.8148 191.294 88.1713 191.2ZM102.531 191.674C102.064 190.725 102.017 190.014 101.923 189.303C101.83 188.307 101.315 187.785 100.286 187.643C99.2571 187.501 98.2748 187.785 97.2925 187.738C97.0586 187.738 96.778 187.738 96.7312 188.022C96.6844 188.307 96.9183 188.449 97.1522 188.544C99.0232 189.208 100.614 190.346 102.531 191.674ZM65.8126 178.396C65.7191 178.301 65.6255 178.206 65.532 178.111C63.8948 179.391 62.2577 180.672 60.6205 182C60.4334 182.142 60.2931 182.379 60.527 182.616C60.7609 182.853 62.819 183.138 62.9593 182.948C64.0819 181.478 65.1578 180.055 65.8126 178.396ZM46.1669 187.927C48.4121 188.639 50.4235 187.169 50.938 184.513C48.5992 184.608 48.5057 184.655 46.1669 187.927ZM43.5943 188.117C45.325 188.402 45.6992 186.789 46.6347 185.936C46.775 185.793 47.0089 185.604 46.8685 185.319C46.7282 185.035 46.4008 185.13 46.1201 185.177C45.0911 185.319 44.062 185.651 43.1733 186.173C42.612 186.505 41.5829 186.742 41.77 187.501C41.9571 188.259 42.9394 188.022 43.5943 188.117ZM102.578 103.658C102.531 102.899 102.391 102.615 101.783 102.899C101.222 103.184 100.614 103.279 100.052 103.563C99.678 103.753 98.1344 103.373 99.3506 104.701C99.5377 104.891 99.1635 105.081 99.07 105.27C98.8829 105.65 99.0232 105.982 99.3038 106.219C99.5845 106.456 99.8184 106.171 100.005 106.029C100.707 105.413 101.409 104.844 102.11 104.227C102.344 103.99 102.578 103.753 102.578 103.658ZM99.7716 100.101C99.5377 100.149 99.2103 100.196 98.9296 100.291C98.5554 100.386 98.0877 100.576 98.228 101.05C98.4151 101.666 98.7425 102.662 99.1167 102.71C100.052 102.804 100.988 102.378 101.736 101.666C101.97 101.477 102.017 101.05 101.736 101.002C101.035 100.765 100.567 100.149 99.7716 100.101ZM66.8884 95.3591C65.7658 94.0787 59.9657 91.6127 57.1124 91.0911C60.3399 92.9405 63.5674 94.2209 66.8884 95.3591ZM31.6197 43.0996C31.573 43.6687 31.7601 44.0007 32.181 44.0481C32.6488 44.1429 33.1166 44.1904 33.3504 43.5739C33.5375 43.1471 33.6311 42.6728 33.8182 42.246C34.1924 41.345 33.6311 41.0131 32.9762 40.7759C32.1343 40.444 31.9939 41.0131 31.8536 41.677C31.8068 42.1986 31.7133 42.6728 31.6197 43.0996ZM74.1854 36.176C74.2322 35.3224 73.0628 34.5162 71.9402 34.611C71.1918 34.6585 70.8644 35.4646 70.9579 35.8914C71.2386 37.1244 72.5015 36.6502 73.3435 36.9822C73.9515 37.1719 74.2322 36.745 74.1854 36.176ZM76.2903 183.707C76.3371 182.284 75.1677 182.379 74.3725 182.047C73.8112 181.81 73.5773 182.095 73.437 182.569C73.1096 183.754 73.7177 184.323 75.4483 184.466C76.1032 184.56 76.3371 184.276 76.2903 183.707ZM62.3044 174.649C63.4271 174.649 64.5029 174.649 65.6255 174.649C66.561 174.602 67.2159 173.796 67.0755 172.847C67.0288 172.61 66.9352 172.468 66.7013 172.563C65.2513 173.179 63.6609 173.559 62.3044 174.649ZM47.8976 179.534C47.8508 179.154 47.5234 179.249 47.2427 179.391C46.4476 179.818 45.6524 180.245 44.904 180.672C44.5765 180.862 44.2959 181.241 44.6233 181.668C44.904 182.047 45.1846 182.426 45.7459 182.332C46.3072 182.284 47.9444 180.198 47.8976 179.534ZM90.51 5.77826C87.9374 5.68342 86.1599 7.29578 84.4292 8.86072C86.4406 7.86485 88.7326 7.3432 90.51 5.77826ZM127.65 40.7285C128.866 40.3491 130.035 39.9698 131.205 39.5904C131.672 39.4481 131.672 39.0213 131.532 38.5945C131.392 38.2626 131.158 38.0255 130.83 38.1677C129.614 38.6894 128.445 39.3059 127.369 40.0646C127.229 40.1595 127.088 40.3966 127.229 40.5863C127.322 40.6811 127.509 40.6811 127.65 40.7285ZM84.5696 182.095C82.7453 180.387 81.4356 178.253 79.6114 176.594C79.3775 176.356 79.1904 176.072 78.863 176.356C78.6291 176.594 78.863 176.783 79.0033 176.925C80.5937 178.917 82.2776 180.814 84.5696 182.095ZM70.7708 17.3019C72.0337 16.0689 73.437 15.073 74.9338 14.1246C75.4951 13.7452 76.0097 13.3658 76.571 12.9865C76.8516 12.7493 77.1323 12.4648 76.8516 12.0854C76.571 11.7061 76.2903 12.038 76.0564 12.1803C73.9983 13.6504 72.3144 15.405 70.7708 17.3019ZM36.0166 86.823C35.2215 85.4952 34.473 84.2148 33.6779 82.887C33.2101 82.0808 32.7891 81.2272 32.3214 80.421C32.181 80.1365 31.9004 79.8994 31.573 80.0891C31.3391 80.2313 31.4326 80.5159 31.573 80.7056C32.9762 82.8396 34.1924 85.0684 36.0166 86.823ZM83.1663 184.798C83.1663 184.798 83.3066 184.798 83.4937 184.798C84.1018 184.703 84.3825 184.276 84.3825 183.707C84.3825 183.138 83.8212 183.28 83.4937 183.233C82.9324 183.138 82.3243 183.09 81.763 183.043C81.5292 183.043 81.2017 182.948 81.0614 183.28C80.9211 183.565 81.1082 183.802 81.2485 184.039C81.6227 184.75 82.3243 184.798 83.1663 184.798ZM74.1854 30.1059C73.2967 31.1018 72.9692 32.0977 72.4079 32.9513C72.2676 33.1884 72.0337 33.4729 72.2676 33.71C72.6886 34.0894 73.2967 34.042 73.8112 34.0894C74.1386 34.1368 74.2322 33.7574 74.2322 33.4729C74.1854 32.4296 74.1854 31.3863 74.1854 30.1059ZM37.0925 100.813C36.9054 100.244 37.3731 99.1529 36.0634 99.2003C34.9408 99.2477 35.1747 100.291 35.1279 100.955C35.0811 101.856 35.9231 101.761 36.4844 101.856C37.3263 101.951 37.186 101.382 37.0925 100.813Z" fill="black"/>
<path d="M72.3611 194.994C72.4546 195.041 72.5014 195.136 72.595 195.184C71.8466 196.559 70.5836 196.938 69.1336 197.223C65.2512 197.981 61.3221 197.839 57.3929 197.839C56.972 197.839 56.4106 197.934 56.3639 197.365C56.3171 196.748 56.9252 196.843 57.3462 196.796C58.0478 196.701 58.7494 196.654 59.4511 196.654C60.4801 196.701 61.4156 196.606 62.164 195.705C62.5382 195.231 63.1931 195.041 63.7544 195.278C65.5786 196.037 67.3561 195.468 69.1336 195.231C70.2094 195.136 71.2385 194.946 72.3611 194.994Z" fill="black"/>
<path d="M41.8634 166.825C40.9747 167.726 41.9102 168.39 42.3312 169.196C42.8457 170.192 41.7231 172.563 40.6473 172.848C40.5069 172.895 40.3198 172.848 40.1795 172.8C38.3553 172.137 37.6068 170.003 38.6359 168.343C38.9166 167.869 39.0569 167.537 38.9166 166.968C38.6359 165.972 39.1037 165.118 39.7585 164.407C39.9924 164.17 40.3198 164.027 40.6005 164.264C41.3489 164.833 41.6763 165.735 41.8634 166.825Z" fill="black"/>
<path d="M94.2054 200.306C92.6618 200.306 91.1182 200.306 89.5279 200.306C89.1537 200.306 88.7327 200.258 88.3585 200.163C88.0778 200.116 87.7036 199.974 87.7036 199.594C87.7036 199.12 88.0778 199.025 88.4052 198.93C89.4343 198.693 90.5101 198.741 91.5392 198.836C93.878 199.025 96.17 198.93 98.5087 199.025C98.8362 199.025 99.1168 199.025 99.4443 199.073C99.8185 199.12 100.286 199.215 100.239 199.737C100.239 200.306 99.7717 200.258 99.3975 200.258C97.6668 200.306 95.9361 200.306 94.2054 200.306Z" fill="black"/>
<path d="M35.7362 193.951C34.3797 195.042 27.036 194.615 25.3521 193.287C29.0473 193.335 32.3684 194.093 35.7362 193.951Z" fill="black"/>
<path d="M48.1787 195.325C50.5643 194.803 52.9498 194.661 55.3354 195.277C55.5692 195.325 55.8031 195.419 55.7563 195.751C55.7096 195.988 55.4757 196.083 55.2886 196.036C52.9498 195.562 50.5175 196.083 48.1787 195.325Z" fill="black"/>
<path d="M95.468 196.702C92.5211 196.702 89.5743 197.65 86.6274 196.702C89.5743 196.559 92.5211 195.99 95.468 196.702Z" fill="black"/>
</svg>
