<svg width="201" height="201" viewBox="0 0 201 201" fill="none" xmlns="http://www.w3.org/2000/svg">
<path d="M157.331 152.769C156.186 154.753 155.587 156.685 157.113 158.871C155.423 158.312 155.205 157.295 155.151 156.329C155.096 155.312 154.823 155.159 153.842 155.668C150.081 157.549 149.481 157.448 146.864 154.295C145.065 152.159 143.866 149.769 142.83 147.278C140.104 140.667 137.433 134.057 135.416 127.243C135.253 126.582 134.926 125.972 134.435 125.362C133.89 127.141 133.345 128.921 132.854 130.701C131.055 137.413 129.038 144.125 127.73 150.939C126.748 156.125 127.512 161.21 128.82 166.244C130.346 172.092 132.363 177.787 135.471 183.076C137.324 186.177 139.886 188.72 142.776 191.059C144.793 192.686 147.246 192.788 149.699 192.889C152.861 193.042 156.077 192.737 159.239 193.144C159.403 193.144 159.621 193.144 159.784 193.195C160.166 193.245 160.711 193.347 160.711 193.805C160.657 194.313 160.111 194.161 159.73 194.161C156.622 194.059 153.57 193.957 150.462 193.856C149.972 193.856 149.481 193.856 148.936 193.957C150.517 194.923 152.37 195.127 154.115 195.178C163.328 195.534 172.541 195.788 181.754 195.432C187.26 195.229 192.766 194.669 198.217 193.551C198.871 193.398 199.526 193.144 200.234 193.652C199.853 194.212 199.198 194.262 198.599 194.364C194.129 195.178 189.658 195.737 185.134 196.093C180.118 196.449 175.103 196.703 170.033 196.601C166.544 196.5 163.055 196.296 159.566 196.144C158.858 196.093 158.094 196.042 157.495 196.551C157.222 196.805 156.786 196.703 156.459 196.652C153.461 196.144 150.408 195.94 147.628 194.669C147.028 194.415 146.428 194.212 145.774 194.364C144.084 194.72 142.394 195.178 140.704 195.635C142.394 196.093 144.084 196.246 145.829 196.195C147.3 196.195 148.827 196.144 150.299 196.195C151.007 196.246 151.989 195.788 152.043 197.11C152.043 197.415 152.752 197.415 153.134 197.415C154.278 197.466 155.369 197.618 156.459 197.924C156.895 198.025 157.713 198.025 157.495 198.635C157.331 199.144 156.622 198.788 156.132 198.788C155.423 198.737 154.714 198.635 153.951 198.585C153.079 198.585 152.152 198.483 151.607 199.5C151.335 200.059 150.571 199.907 149.972 199.907C144.302 199.856 138.633 199.347 133.072 198.229C127.294 197.059 121.515 196.144 115.573 196.347C115.464 196.347 115.409 196.347 115.3 196.347C114.646 196.449 113.937 195.686 113.392 196.195C112.738 196.754 112.738 197.669 112.629 198.432C112.302 200.873 112.029 201.025 109.413 200.212C108.322 199.856 107.232 199.144 106.142 200.263C105.815 200.568 105.597 200.263 105.433 200.008C104.452 198.279 102.816 197.974 100.908 198.229C100.309 198.33 99.709 198.33 99.1639 198.33C98.4007 198.33 97.6375 198.178 97.583 197.262C97.5284 196.347 97.8555 195.483 98.9458 195.33C100.418 195.076 101.944 195.127 103.362 194.72C103.961 194.567 104.288 195.025 104.343 195.534C104.397 195.991 104.288 196.449 104.234 196.907C104.179 197.364 104.343 197.669 104.833 197.771C105.324 197.873 105.706 197.72 105.869 197.212C106.414 195.584 105.869 194.618 104.07 194.313C99.8181 193.551 95.5659 193.042 91.4773 191.771C91.2593 191.72 90.9867 191.669 90.8231 191.771C90.496 191.974 90.7141 192.228 90.8231 192.432C91.6409 193.906 92.4586 195.483 93.6034 196.754C94.1485 197.415 94.9663 197.771 95.8385 197.873C97.0923 198.025 98.1281 198.33 98.4552 199.652C98.5097 199.907 98.8368 200.059 99.1094 200.364C98.4007 200.924 97.583 200.72 96.8198 200.72C94.5847 200.669 92.3495 200.364 90.0054 200.619C85.8623 201.025 81.6646 200.72 77.5215 200.72C77.0309 200.72 76.4312 200.873 76.2132 200.313C75.9951 199.652 76.6493 199.5 77.0854 199.195C77.249 199.093 77.467 198.991 77.6851 198.839C78.2302 198.381 79.266 198.025 78.9934 197.262C78.7209 196.601 77.6851 196.652 76.9219 196.652C75.2864 196.703 73.651 197.11 72.1791 197.72C68.8537 199.093 65.2557 199.398 61.8758 200.619C61.6577 200.669 61.4397 200.669 61.2216 200.669C60.84 200.669 60.2949 200.72 60.2403 200.212C60.1858 199.805 60.6765 199.703 61.0036 199.602C62.8571 199.093 63.8928 197.771 64.7106 196.296C65.2012 195.432 64.8741 195.025 63.8383 195.076C61.8758 195.127 60.0768 195.94 58.1143 196.195C57.2965 196.296 56.5333 196.551 55.7156 196.652C55.225 196.703 54.4073 197.313 54.4073 196.144C54.4073 195.839 54.0257 195.991 53.8621 196.093C51.1909 197.161 48.3016 196.805 45.5214 197.11C41.3237 197.568 37.1806 198.279 33.31 199.957C32.5468 200.313 31.7291 200.771 30.7479 200.263C30.9114 199.703 31.4565 199.703 31.8382 199.551C33.6371 198.788 35.4361 198.076 37.1806 197.364C37.5622 197.212 38.0528 197.11 37.9438 196.601C37.8893 196.093 37.3987 196.144 36.9625 196.144C36.0358 196.144 35.0545 196.144 34.1278 196.144C33.6917 196.144 33.31 196.195 33.0375 196.5C30.9114 198.686 27.8586 198.89 25.0783 199.754C26.7683 198.381 29.0579 197.873 30.8024 196.347C30.2027 195.991 29.5485 195.94 28.9489 195.94C25.2419 195.94 21.5349 195.788 17.8824 196.856C16.465 197.262 14.9931 196.703 13.5757 196.601C10.4684 196.347 7.41553 196.754 4.36271 196.754C4.19916 196.754 3.9811 196.805 3.81756 196.805C3.49047 196.754 2.99984 196.856 2.99984 196.347C2.99984 195.94 3.49047 196.042 3.76304 195.991C7.36102 195.635 10.959 195.33 14.6115 194.974C20.7717 194.415 26.9318 194.466 33.092 194.059C34.4549 193.957 35.8177 194.11 37.1806 194.212C37.7803 194.262 38.3799 194.313 38.3254 193.398C38.2709 192.737 38.816 192.534 39.3612 192.483C40.0154 192.432 40.7241 192.534 41.2147 192.279C46.6662 189.94 52.7173 189.991 58.3323 188.313C61.8213 187.296 65.3647 186.33 69.2353 185.262C67.2727 185.059 65.8009 185.465 64.329 185.771C61.7122 186.381 59.0955 186.686 56.3698 186.686C50.8093 186.686 45.3033 186.584 39.7428 186.737C32.8739 186.94 26.0596 187.245 19.1907 187.194C18.6456 187.194 17.9914 187.296 17.5553 186.991C17.5553 186.889 17.5008 186.838 17.5008 186.788C17.5008 186.737 17.5553 186.686 17.5553 186.686C17.7188 186.635 17.8824 186.584 18.0459 186.584C31.9472 185.771 45.8484 185.364 59.7497 185.211C58.1688 184.703 56.5333 184.448 54.8434 184.448C48.9013 184.398 42.9592 184.449 37.0171 184.398C36.5264 184.398 35.6542 184.652 35.6542 184.042C35.5997 183.432 36.4719 183.533 37.0171 183.533C45.4668 183.279 53.9166 183.279 62.3119 183.33C62.9661 183.33 63.5657 183.432 64.2199 183.533C64.4925 183.584 64.8196 183.787 64.9831 183.686C67.2728 182.567 69.6714 184.652 72.0155 183.381C74.2506 182.16 76.4312 180.991 77.9576 179.008C79.4841 177.075 80.3563 174.838 81.0105 172.55C81.7192 169.804 81.9372 167.007 81.9917 164.261C82.3733 153.075 83.4636 141.989 85.6987 131.006C86.0258 129.531 86.1349 127.955 86.789 126.582C87.0071 126.124 86.8981 125.921 86.4074 125.718C82.6459 124.396 79.5931 122.209 77.1944 119.209C76.8128 118.751 76.4857 118.7 76.1587 119.209C74.6322 121.294 72.7242 123.124 70.9252 125.057C70.7072 125.311 70.4346 125.616 70.4346 125.921C70.4346 126.633 69.9985 126.887 69.3443 127.192C68.254 127.65 68.036 128.616 67.9269 129.633C67.8724 130.091 67.9814 130.853 67.0547 130.192C66.5641 129.836 66.2915 130.498 66.0189 130.803C61.3852 135.786 56.7514 140.82 52.1176 145.752C43.5043 154.956 34.5639 163.905 25.4599 172.702C20.9897 177.025 16.465 181.296 11.8312 185.516C11.5041 185.821 11.1771 186.228 10.5774 186.33C10.4684 185.465 11.1225 185.059 11.6132 184.601C17.3372 179.16 23.1158 173.77 28.8398 168.329C35.109 162.38 40.8876 156.024 46.9933 149.922C54.3528 142.549 61.4397 134.972 67.9814 126.938C68.363 126.48 69.0717 125.921 68.254 125.463C67.3818 124.955 67.3818 122.921 65.5828 124.04C64.9286 124.446 64.4925 123.989 64.547 123.531C64.656 121.599 63.0751 120.073 63.2932 118.141C63.3477 117.429 62.9116 117.175 62.2029 117.124C61.1671 117.073 60.3494 117.48 59.5862 118.039C54.2437 121.802 49.2829 125.921 44.322 130.142C33.0375 139.65 23.0613 150.227 12.758 160.651C9.4871 163.956 5.99815 167.16 2.61823 170.363C2.23663 170.77 1.80051 171.177 1.09182 171.279C0.873761 170.516 1.58245 170.211 1.96406 169.855C6.37975 165.787 10.7409 161.617 14.8841 157.346C21.6439 150.43 28.3492 143.464 35.4906 136.904C42.7956 130.192 50.3732 123.735 58.3323 117.734C58.9865 117.226 59.4771 116.768 59.2591 115.853C59.041 114.887 59.6407 114.073 60.2403 113.31C62.1484 110.87 62.3664 108.175 61.5487 105.327C61.1671 103.954 60.84 103.802 59.3136 104.208C54.9524 105.429 50.8638 107.259 46.7207 108.988C42.8501 110.615 38.9251 112.039 34.6729 112.497C33.092 112.7 31.5111 112.599 29.9301 112.599C22.6252 112.548 15.8653 114.124 10.1413 118.7C7.52456 120.785 4.79882 122.718 2.07309 124.752C1.80051 124.955 1.41891 125.413 1.0373 125.057C0.601187 124.65 1.14633 124.294 1.47342 124.04C13.8483 115.039 25.678 105.378 37.8348 96.1234C43.5043 91.8013 49.0103 87.174 54.8979 83.1061C56.1517 82.2416 57.5691 81.4789 58.8775 80.6653C59.2591 80.411 59.6952 80.2077 59.6407 79.6992C59.5862 79.1398 59.041 79.1398 58.6594 78.9873C55.7156 77.9703 52.7718 76.9533 49.828 75.9363C46.5026 74.7668 43.0682 75.8855 41.2147 78.733C39.9609 80.6653 39.5247 82.801 39.1431 84.9875C39.0341 85.5468 39.2522 85.9536 39.7973 86.2587C40.2334 86.5129 40.615 86.8689 40.3425 87.4282C40.1244 87.8859 39.6338 88.0893 39.1431 88.0893C38.489 88.0893 38.3254 87.5299 38.2709 87.1231C38.1073 84.9875 38.489 82.9027 39.1431 80.8687C39.6883 79.1398 40.7241 77.6143 42.1414 76.394C42.7956 75.8346 43.0682 75.2753 42.523 74.5125C42.305 74.2074 42.2505 73.8006 42.2505 73.3939C42.196 71.665 42.196 71.665 40.2879 71.4616C38.8706 71.309 37.3987 71.1056 35.9813 70.9022C33.9642 70.648 31.9472 70.8005 29.8211 71.3599C30.3663 72.1226 31.0749 72.8345 29.7666 73.343C28.7308 73.8007 27.8041 73.5973 27.477 72.7837C27.0954 71.9192 27.586 70.8005 28.5673 70.4955C30.4753 69.9361 32.4923 69.7327 34.4549 69.7327C37.0171 69.7327 39.5792 69.5802 42.0869 70.1395C42.7956 70.2921 43.5043 70.2412 43.7769 69.4785C44.0495 68.7666 43.5588 68.4106 43.0682 68.0038C40.4515 65.6139 37.4532 63.7834 34.5639 61.7494C32.1107 59.9697 31.3475 57.5289 32.1652 54.6814C32.4923 53.5118 32.9284 52.3423 33.3646 51.1728C33.7462 50.1049 33.5826 49.2913 32.6014 48.5795C28.8398 45.7827 25.1328 42.8843 21.8074 39.6808C21.0987 39.0198 20.2265 38.1045 19.1907 39.4774C19.0272 39.7317 18.5911 39.8334 18.3185 39.6808C17.2827 39.1215 16.4105 39.63 15.4837 39.9351C12.9215 40.7995 10.3593 41.6131 7.74262 42.3759C7.68811 42.4267 7.25199 42.6301 6.65233 42.4267C7.14296 41.7148 7.96068 41.6131 8.66937 41.4097C11.1771 40.5453 13.6847 39.7317 16.2469 38.8673C18.482 38.1045 18.482 38.1045 17.5553 36.1214C17.5008 35.9689 17.5008 35.8163 17.3917 35.257C19.6814 37.0367 22.5161 37.3926 24.3151 39.3249C27.0409 42.3759 30.6933 44.4607 33.8552 47.054C35 48.0201 35.2726 47.8167 36.0358 46.5963C36.69 45.5794 37.0716 44.6641 36.7445 43.4945C36.5809 42.9352 37.0171 42.5284 37.4532 42.2233C38.4344 41.5114 39.0341 40.5961 39.1431 39.4266C39.1976 39.0707 39.2522 38.613 39.6883 38.4605C40.1789 38.3079 40.1789 38.8673 40.397 39.0707C40.8876 39.6808 41.5418 39.9859 42.2505 40.291C43.7224 40.8504 45.1398 41.5623 46.4481 42.325C47.0478 42.6809 47.7019 43.0877 47.9745 43.7488C49.2829 46.5963 52.0631 47.2574 54.9524 47.715C55.8792 47.8676 56.8604 47.8676 57.6782 48.4269C58.1688 48.7829 58.4959 48.5795 58.823 48.1727C59.5862 47.1557 60.1313 46.037 60.5674 44.8675C60.7855 44.2573 60.5674 43.6979 60.0768 43.2403C59.0955 42.2742 58.1143 41.3589 56.9695 40.5961C54.5708 39.1215 51.9541 38.1045 49.5009 36.6807C47.8655 35.7146 45.7939 35.918 43.9404 35.6129C41.8689 35.3078 39.7973 35.0027 37.9438 34.0366C37.0171 33.5789 36.5264 33.0196 37.0716 32.0026C37.4532 31.2399 37.2351 30.528 36.7445 29.867C36.0358 29.0025 36.2538 28.0364 36.4719 27.0702C36.5264 26.7652 36.69 26.4601 37.1261 26.5109C37.5077 26.5618 37.6712 26.8668 37.6712 27.1719C37.3987 28.6974 38.2164 30.0703 38.2709 31.545C38.3254 33.0704 38.9251 33.7315 40.4515 34.24C42.305 34.7993 44.2675 34.4942 46.121 34.901C51.5725 36.0197 56.5879 37.952 60.6219 41.664C61.1671 42.1725 61.7668 42.325 62.4755 41.9691C62.9116 41.7657 63.1841 41.4097 63.1296 40.9521C63.0751 40.4436 62.5845 40.4944 62.1484 40.4944C61.9303 40.4944 61.7122 40.4944 61.4942 40.4944C60.949 40.4944 60.4584 40.3419 60.5129 39.6808C60.5674 39.1215 61.0036 38.9181 61.5487 38.8673C62.0393 38.8164 62.53 38.969 63.0206 39.1215C64.0564 39.5283 64.8741 39.2741 65.5828 38.5622C67.4363 36.6299 69.6169 35.0536 72.0155 33.7315C72.9968 33.223 73.4874 32.5111 73.1058 31.4433C72.8333 30.6297 73.1603 29.867 73.7055 29.1551C74.0326 28.6974 74.4687 28.2906 74.7413 27.833C76.1587 25.5448 76.0496 25.138 73.9781 24.0193C73.2694 23.6125 72.8878 22.9006 72.3971 22.2904C71.5249 21.2734 69.3988 21.9345 69.3443 21.1717C69.1808 19.748 68.3085 19.1886 67.3818 18.5276C65.4738 17.1038 63.5112 15.7309 61.6577 14.2562C58.5504 11.7138 55.8792 8.86623 54.5708 5.10339C54.4073 4.6966 54.0802 4.3915 53.8076 4.08641C53.1534 3.37452 52.9899 2.61178 53.6441 1.6965C54.7889 3.17112 55.9337 4.44235 56.2063 6.32377C56.5333 8.35774 58.3323 9.73067 59.6952 11.2053C62.0938 13.7478 65.0922 15.68 68.036 17.714C71.2523 19.9514 74.4142 22.2904 77.5215 24.6295C78.3938 25.2905 79.266 25.2905 80.1382 24.7312C80.7924 24.2735 81.5556 23.9684 82.3188 23.765C83.7362 23.46 84.4449 22.5955 84.7175 21.3243C85.1536 18.9852 85.6442 16.6462 86.0804 14.3579C86.4074 12.6799 86.9526 11.0527 87.7703 9.52727C88.0429 8.96793 88.37 8.40859 88.9151 8.0018C89.3512 7.64585 89.9509 7.18821 90.496 7.54415C91.0412 7.9001 90.3325 8.35774 90.278 8.76454C90.169 9.83237 89.5148 10.5443 88.588 11.2053C87.7158 11.8155 87.3887 12.7816 87.3342 13.7986C87.2252 15.9343 87.1161 18.0191 87.0616 20.1548C87.0616 21.2734 86.9526 22.3413 86.462 23.3583C86.1349 24.0193 86.2439 24.5786 86.8436 25.0363C87.7158 25.7482 88.37 26.5618 88.7516 27.6296C89.1332 28.5957 89.9509 29.1042 90.9867 29.2568C93.4944 29.6636 95.9475 30.3246 98.2917 31.2399C99.1639 31.5958 99.8181 31.5958 100.309 30.6805C100.745 29.7653 101.181 28.9517 100.036 28.2398C99.1639 27.7313 98.6187 26.9685 98.2917 26.0533C97.801 24.7312 96.8743 24.2227 95.2933 24.3752C92.8402 24.6295 90.387 24.3244 87.9338 24.3244C87.5522 24.3244 87.0071 24.3752 87.0071 23.8159C87.0616 23.4091 87.5522 23.46 87.9338 23.46C90.496 23.46 93.1128 23.4091 95.6749 23.46C96.7107 23.46 97.6375 23.3074 98.4552 22.5955C99.3274 21.8836 100.363 21.426 101.508 21.2226C103.089 20.8666 104.234 20.1548 105.051 18.8835C105.433 18.3242 105.924 17.8157 106.414 17.3072C107.014 16.7479 107.178 16.2394 106.414 15.6292C105.76 15.1207 105.869 14.4088 106.305 13.7986C106.796 13.1376 107.559 13.1884 108.268 13.341C109.031 13.4935 109.413 14.1037 109.576 14.8156C109.631 14.9681 109.522 15.2224 109.413 15.2732C108.159 15.7817 108.377 16.4936 108.868 17.4089C109.14 17.9682 108.868 18.5784 108.268 18.9344C107.832 19.1886 107.396 19.392 106.96 19.6463C105.706 20.4599 105.651 20.7649 106.741 21.7311C108.431 23.3074 108.486 25.1888 106.632 26.7143C105.542 27.5787 105.597 28.1889 106.523 29.1042C108.649 31.2907 111.975 31.2399 114.046 28.9517C114.483 28.494 114.537 27.9855 114.592 27.4262C114.755 26.2567 115.409 25.4939 116.445 24.9346C117.317 24.4769 118.244 24.0701 119.116 23.6125C119.989 23.1549 120.806 23.0532 121.733 23.46C122.714 23.8667 123.477 23.6125 124.186 22.9515C125.113 22.1379 125.931 21.2226 126.476 20.1039C130.237 12.2731 136.997 7.64585 145.229 4.5949C146.973 3.93386 148.718 3.37452 150.735 2.91688C150.353 3.47622 149.808 3.52707 149.427 3.67962C144.084 5.71358 138.851 8.0018 134.544 11.7138C131.982 13.9512 130.019 16.5445 128.602 19.4937C128.547 19.6463 128.547 19.7988 128.493 20.1039C129.856 19.4429 130.946 18.5784 132.036 17.8157C139.886 12.5274 147.3 6.57802 155.314 1.54395C155.968 1.13716 156.622 0.476117 157.386 1.44225C157.604 1.6965 157.876 1.44225 158.094 1.34055C159.621 0.679514 161.202 0.832061 162.783 1.03546C163.6 1.13716 163.491 1.54395 163.055 1.95074C162.674 2.25584 162.237 2.51008 161.856 2.76433C152.152 8.86623 143.103 15.68 134.489 23.0023C131.382 25.6465 128.929 28.7991 126.803 32.1552C126.367 32.8671 126.203 33.5789 126.585 34.3417C127.075 35.3587 127.839 35.5621 128.711 34.7485C135.634 28.4432 143.757 23.5617 151.498 18.2733C156.731 14.7139 162.019 11.1544 166.817 7.08651C168.343 5.81528 169.706 4.39151 171.014 2.91688C172.541 1.2897 174.394 0.628665 176.738 0.882911C178.265 1.03546 179.846 0.93376 181.372 0.984609C181.754 0.984609 182.244 0.832061 182.462 1.2897C182.626 1.6965 182.244 2.00159 181.917 2.25584C179.301 4.44235 176.684 6.57802 174.067 8.71369C169.706 12.1714 165.672 16.0868 160.875 19.1378C156.895 21.7311 152.752 24.0701 148.609 26.4601C146.592 27.6296 144.629 28.9008 142.885 30.4263C145.12 29.1551 147.355 27.9347 149.59 26.6126C155.151 23.2057 161.202 20.6632 166.98 17.6631C177.12 12.324 187.641 7.595 197.4 1.5948C197.89 1.2897 198.435 1.03546 199.035 0.984609C199.635 0.882911 200.18 0.93376 200.398 1.4931C200.616 2.05244 200.125 2.35754 199.744 2.61178C197.236 4.13726 194.619 5.45934 191.948 6.78142C174.83 15.3241 157.549 23.5617 140.977 33.0196C139.232 34.0366 137.924 35.5112 136.07 36.6807C139.559 37.3418 142.721 38.0537 145.883 38.969C146.483 39.1215 147.028 39.0198 147.628 38.8164C151.116 37.6469 154.605 36.4773 158.149 35.3587C159.185 35.0027 159.839 34.4434 159.839 33.3247C159.839 32.4094 160.329 31.6467 161.038 30.9856C162.401 29.8161 163.11 28.0872 164.8 27.1719C165.018 27.0702 165.072 26.6635 165.181 26.3584C165.781 24.7312 167.035 24.0701 168.452 24.6295C169.87 25.1888 170.469 26.8668 169.761 28.2906C169.324 29.1551 168.452 29.6636 167.853 30.4263C167.634 30.7314 167.089 30.9856 167.471 31.3924C167.798 31.7484 168.125 31.2907 168.398 31.189C169.27 30.8839 170.088 30.528 170.905 30.2737C177.284 28.494 183.389 25.9007 189.44 23.3583C192.82 21.9345 195.982 20.0531 199.199 18.375C199.689 18.1208 200.289 17.6631 200.725 18.375C201.161 19.0361 200.561 19.392 200.016 19.6463C196.146 21.2734 192.711 23.6125 189.004 25.4431C187.26 26.3075 185.461 26.9685 183.607 27.477C182.244 27.833 180.991 28.3923 179.791 29.1042C177.12 30.6805 173.904 31.0873 171.123 32.4603C170.033 32.9688 168.888 33.3247 167.743 33.7823C167.471 33.884 167.198 33.9349 167.198 34.24C167.198 34.5959 167.58 34.7485 167.853 34.7993C168.616 34.901 169.379 34.901 170.142 34.901C173.14 35.0027 173.958 36.1214 173.086 38.8673C172.595 40.4436 171.178 41.308 170.033 42.3759C168.343 43.9522 168.343 44.0539 170.469 45.1217C171.505 45.6811 172.214 45.5794 172.922 44.7149C175.812 41.4606 179.41 38.8164 182.408 35.6129C183.389 34.5959 184.534 33.7315 185.842 33.1213C190.749 30.8839 194.837 27.5787 199.308 24.782C199.689 24.5278 200.18 23.8159 200.616 24.3244C200.997 24.782 200.234 25.138 199.798 25.4431C196.582 27.6296 193.311 29.7653 190.04 31.9518C189.767 32.1552 189.44 32.3586 189.113 32.4603C186.169 33.3247 184.425 35.257 183.008 37.7486C181.372 40.5961 179.192 43.0877 176.902 45.5285C176.466 45.9861 176.03 46.4438 175.921 47.0031C175.703 48.3761 174.994 48.2744 173.958 47.7659C173.031 47.2574 172.105 47.5116 171.287 48.0201C170.796 48.3252 170.306 48.732 170.36 49.3422C170.415 50.0032 171.014 50.3083 171.614 50.6134C172.323 50.9185 173.14 50.766 173.849 51.2745C173.522 51.8847 173.031 51.5796 172.595 51.4779C171.45 51.2745 170.742 51.6304 170.578 52.7491C170.578 52.9016 170.578 53.105 170.469 53.2576C169.433 54.8848 169.761 56.156 171.341 57.4781C172.65 58.5967 172.377 60.4273 171.069 61.3935C170.851 61.546 170.633 61.8002 170.36 61.6477C170.088 61.4952 170.142 61.1901 170.197 60.9867C170.633 59.1561 169.706 57.6815 168.67 56.3085C168.071 55.4949 167.307 55.3424 166.435 55.9017C165.454 56.5119 164.418 57.0713 163.546 57.7832C161.692 59.3595 159.512 60.1731 157.222 60.885C153.788 61.9528 150.353 63.1223 146.973 64.2919C145.283 64.902 145.174 65.1054 145.774 66.7326C146.537 68.8174 147.137 70.9531 147.573 73.0888C147.628 73.343 147.682 73.5973 147.3 73.8006C146.864 73.5464 146.864 73.0379 146.701 72.6311C146.101 70.5971 145.501 68.5632 144.902 66.5292C144.738 66.0207 144.629 65.3088 143.921 65.3088C142.994 65.3088 142.013 65.4105 141.14 65.7156C140.595 65.919 141.031 66.5801 141.14 66.9869C142.449 71.1565 143.539 75.4278 144.357 79.6992C145.392 84.9875 145.174 90.2249 143.975 95.4624C143.648 96.8862 143.975 98.1066 144.956 99.1235C154.006 109.141 162.892 119.362 172.868 128.667C175.703 131.311 178.755 133.803 181.645 136.447C183.008 137.667 184.207 139.04 185.134 140.616C170.033 128.006 156.622 113.921 143.702 98.971C143.048 101.819 142.122 104.31 141.249 106.751C139.505 111.683 137.379 116.514 135.907 121.548C135.525 122.921 135.525 124.192 135.961 125.565C138.578 133.752 141.576 141.837 145.12 149.718C146.101 151.905 147.573 153.736 149.372 155.414C150.353 156.38 151.389 156.481 152.534 155.77C153.733 155.058 154.933 154.295 156.186 153.532C156.241 153.125 156.513 152.769 157.331 152.769ZM134.271 121.04C134.435 120.887 134.544 120.785 134.598 120.684C136.834 114.226 139.668 107.92 141.631 101.361C142.285 99.1744 142.013 97.4455 140.377 95.615C135.253 89.9198 130.564 83.8179 124.513 78.9364C124.404 78.8347 124.241 78.733 124.132 78.5805C124.077 78.4279 124.023 78.2245 124.077 78.1228C124.241 77.8686 124.513 77.9703 124.677 78.1228C125.385 78.6313 126.094 79.1398 126.803 79.75C128.983 81.6314 130.946 83.7671 132.909 85.8519C135.743 88.9029 138.524 92.0555 141.195 95.259C141.467 95.5641 141.631 96.1234 142.176 95.9709C142.721 95.8184 142.503 95.259 142.612 94.8522C142.994 92.9708 143.212 91.0894 143.375 89.208C143.975 81.3772 141.576 73.9532 139.559 66.5292C139.505 66.3258 139.396 66.1224 139.341 65.919C139.178 65.5122 138.905 65.3597 138.524 65.7156C137.706 66.5292 136.616 66.6309 135.525 66.5801C134.98 66.5292 134.544 66.7326 134.162 67.0377C132.527 68.3598 130.673 69.4785 130.074 71.665C129.91 72.1735 129.42 72.4786 128.82 72.4786C128.547 72.4786 128.275 72.326 128.22 72.0718C128.057 71.5633 128.384 71.2582 128.711 70.9531C131.001 68.5632 133.29 66.275 136.343 64.6987C137.27 64.241 136.888 63.9359 136.288 63.58C133.835 62.2579 131.382 61.0375 128.602 60.3765C127.457 60.0714 126.312 59.8171 125.113 60.1222C123.368 60.5799 121.569 60.7833 119.716 60.6816C119.171 60.6816 118.571 60.6307 118.19 61.0375C117.154 62.1562 115.791 62.9698 114.646 63.9868C113.229 65.3088 112.847 66.8852 113.665 68.5123C115.355 71.7667 117.154 74.9702 120.806 76.7499C121.351 77.0041 122.006 77.4109 121.46 78.1228C120.97 78.733 120.316 78.5296 119.77 78.072C116.827 75.5295 114.155 72.7837 112.411 69.3259C111.484 67.4445 111.266 65.5122 111.593 63.4783C110.776 64.6986 110.067 65.919 109.304 67.1394C107.886 69.3768 107.777 71.5124 109.74 73.5464C110.121 73.9532 110.448 74.4108 110.776 74.8685C112.084 76.4448 113.338 78.0211 114.973 79.3941C115.246 79.5975 115.573 79.9026 115.191 80.2585C114.864 80.6144 114.537 80.3602 114.21 80.1568C113.937 79.9534 113.61 79.75 113.392 79.4958C111.157 76.5974 107.232 74.9193 106.251 70.9022C104.942 72.5803 103.198 73.2413 101.454 73.8515C99.709 74.4617 97.8555 74.6651 96.002 75.1227C99.709 75.1736 101.126 77.4618 102.217 80.2077C103.034 82.2925 103.416 84.4281 104.016 86.5638C104.179 87.174 104.397 87.7333 104.942 88.191C112.847 94.9539 114.864 103.242 111.975 112.7C111.648 113.819 111.757 114.582 112.465 115.446C115.3 119.056 118.081 122.718 120.643 126.531C122.333 129.023 123.477 131.616 123.259 134.667C123.205 135.43 123.423 136.091 123.914 136.65C124.786 137.566 125.058 138.684 125.113 139.803C125.331 142.905 125.495 145.956 125.713 149.057C125.767 149.719 125.876 150.329 125.985 150.99C126.312 150.837 126.421 150.685 126.421 150.532C128.493 142.193 130.564 133.904 133.018 125.667C133.399 124.396 133.508 123.124 133.181 121.802C132.309 117.938 131.437 114.124 130.237 110.31C127.021 99.9371 124.35 89.2588 115.9 81.1229C115.573 80.767 115.355 80.3602 115.518 79.8517C115.627 79.5466 115.791 79.1398 116.173 79.1398C116.554 79.1398 116.609 79.5466 116.609 79.8009C116.663 80.5636 117.099 81.1229 117.644 81.6823C120.37 84.3773 122.387 87.5299 124.023 90.9368C128.111 99.3778 130.728 108.276 132.963 117.277C133.508 118.497 133.563 119.819 134.271 121.04ZM89.8964 187.144C90.387 188.262 90.387 188.313 91.4773 188.822C94.8572 190.296 98.4007 191.059 102.162 190.957C102.707 190.957 103.471 191.11 103.743 190.55C104.07 189.991 103.525 189.533 103.253 189.025C103.143 188.822 102.98 188.669 102.816 188.516C99.3274 184.957 96.2746 181.042 91.9679 178.194C91.6954 177.991 91.4228 177.736 91.2047 177.482C90.8776 177.075 90.3325 176.719 90.8776 176.16C91.3683 175.652 91.9134 176.008 92.3495 176.313C93.1128 176.872 93.7124 177.736 94.5846 178.143C97.5284 179.618 100.036 181.652 102.598 183.584C103.689 184.398 104.888 184.957 106.087 185.516C107.941 186.33 108.104 186.228 108.813 184.448C109.031 183.94 109.031 183.126 109.849 183.126C110.612 183.177 110.612 182.77 110.721 182.313C111.539 178.143 111.484 173.974 110.885 169.804C109.031 156.532 103.634 144.278 98.2371 132.023C97.801 131.006 97.0923 130.192 96.1656 129.582C93.2218 127.497 90.3325 128.413 89.5148 131.667C88.2609 136.345 87.8793 141.176 87.4432 145.956C86.9526 151.091 86.462 156.227 85.9168 161.363C85.5352 165.38 85.1536 169.397 85.8078 173.363C86.2439 176.058 87.2252 178.703 87.6068 181.448C88.1519 185.16 90.5506 187.296 94.5846 187.855C96.9833 188.211 99.2729 188.771 101.726 188.771C102.271 188.771 103.089 188.771 102.925 189.584C102.762 190.245 102.053 190.093 101.563 189.991C99.9816 189.686 98.4007 189.279 96.7652 189.076C94.3666 188.771 91.8044 189.127 89.8964 187.144ZM104.67 54.2237C104.67 49.2405 104.016 46.9014 101.89 43.7488C101.181 42.6301 100.254 41.6131 98.8368 41.3589C97.7465 41.1555 96.9833 40.5453 96.1656 39.9351C91.3683 36.3248 86.1349 35.1553 80.3018 37.3926C74.3597 39.63 70.8162 44.6641 71.6339 49.9524C72.2881 54.4271 73.8145 58.6476 76.2677 62.6138C78.1757 65.6139 80.4653 68.0038 84.2268 69.2751C90.278 71.309 97.9646 69.3768 101.617 64.4444C104.234 61.0375 104.561 57.173 104.67 54.2237ZM17.8279 113.514C19.0272 113.26 20.281 113.005 21.4803 112.7C23.4429 112.192 25.4599 111.734 27.477 111.836C32.7649 112.09 37.9438 111.582 42.9046 109.598C48.6832 107.31 54.2982 104.717 60.2403 102.886C61.6577 102.48 62.4755 101.717 62.8571 100.446C63.1296 99.5812 63.8928 98.5642 63.2932 97.8015C62.4209 96.6828 63.1296 95.8692 63.8383 95.4624C64.7651 94.9031 65.2012 94.1403 65.4738 93.2759C65.7463 92.4623 66.237 91.7504 66.8366 91.0894C68.0905 89.7164 69.3988 88.3435 70.6527 86.9706C72.0155 85.496 73.0513 84.0722 73.2149 81.9365C73.3784 80.411 73.2149 79.089 72.7787 77.6652C72.3971 76.4448 71.9065 76.3431 70.8707 76.7499C69.3443 77.3092 67.7634 77.6652 66.1279 77.9194C64.7651 78.1228 63.4022 78.4788 62.4755 79.4449C61.2761 80.6653 59.8042 81.4789 58.3323 82.2925C56.3698 83.3603 54.5163 84.5298 52.7718 85.9028C43.0682 93.3776 33.3646 100.903 23.6064 108.378C21.6439 109.954 19.5723 111.48 17.8279 113.514ZM121.788 141.074C120.697 141.939 120.261 142.905 120.152 143.973C119.989 145.6 119.443 146.973 118.299 148.244C117.481 149.108 116.936 150.125 116.881 151.346C116.827 151.752 117.099 152.464 116.391 152.464C115.791 152.464 115.845 151.803 115.682 151.397C115.137 150.024 115.954 148.6 115.736 147.227C115.409 145.396 116.063 144.125 117.808 143.21C118.571 142.803 118.517 142.091 118.408 141.379C118.299 140.718 117.699 140.718 117.154 140.718C116.063 140.718 115.736 140.108 115.736 139.244C115.736 137.718 116.5 136.549 118.026 135.938C118.626 135.684 119.007 135.43 119.007 134.769C119.116 132.481 118.844 130.294 117.59 128.26C115.464 124.853 113.12 121.599 110.83 118.294C110.176 117.328 109.849 117.531 109.249 118.345C107.287 121.04 104.779 123.277 101.617 124.701C100.799 125.057 100.745 125.514 100.963 126.226C101.454 127.853 101.835 129.531 102.435 131.108C104.615 137.006 106.85 142.854 109.031 148.702C110.503 152.566 111.321 156.634 113.174 160.397C114.155 162.38 115.246 164.261 116.99 165.736C118.299 166.855 119.716 166.804 120.915 165.583C121.406 165.075 121.842 164.516 122.224 163.956C123.477 162.075 124.295 159.99 125.113 157.956C125.822 156.126 126.53 154.295 125.44 152.312C125.276 152.058 125.331 151.752 125.331 151.447C124.895 149.108 125.058 146.718 125.058 144.379C125.058 143.464 124.895 142.905 123.805 143.718C122.932 144.328 122.496 143.973 122.387 143.057C122.06 142.447 121.897 141.888 121.788 141.074ZM112.465 161.516C112.465 161.871 112.465 162.177 112.52 162.532C113.556 169.397 114.81 176.211 114.646 183.228C114.646 183.991 114.864 184.754 115.464 185.313C116.063 185.872 116.173 186.482 116.063 187.245C115.845 188.72 116.772 190.144 117.971 190.398C119.007 190.601 120.098 190.855 121.188 190.957C126.258 191.415 131.273 191.872 136.343 192.178C138.36 192.279 140.432 192.635 142.721 192.381C140.104 190.245 137.76 188.211 136.016 185.669C131.437 179.109 129.147 171.736 127.294 164.211C126.803 162.227 126.639 160.143 126.312 157.956C125.604 158.515 125.495 159.126 125.276 159.685C124.295 161.973 123.368 164.261 121.515 166.092C119.607 167.973 117.862 167.923 115.9 166.143C114.483 164.77 113.61 163.092 112.465 161.516ZM150.299 39.1724C150.735 39.3249 150.953 39.4266 151.171 39.4774C152.806 40.0368 153.679 41.1046 153.842 42.6809C153.951 44.1047 153.024 45.02 151.771 45.7319C150.898 46.2404 149.917 46.698 149.154 47.3082C148.118 48.1218 146.864 48.8845 146.755 50.3592C146.701 50.9185 146.156 51.1219 145.61 51.3762C144.302 51.9863 142.994 52.5457 141.74 53.2067C140.813 53.6644 140.595 54.3254 141.031 55.2407C142.122 57.4781 142.994 59.7663 143.811 62.1053C144.193 63.1732 144.793 63.58 146.047 63.1732C150.462 61.6985 154.878 60.3256 159.294 58.9018C159.73 58.7493 160.22 58.6476 160.438 58.2916C161.474 56.5628 163.328 55.7492 164.909 54.6814C165.617 54.1729 166.381 53.8678 167.307 54.122C167.689 54.2237 168.016 54.1729 168.289 53.8678C168.943 53.0033 169.597 52.0372 169.161 50.9185C168.616 49.4947 168.834 48.3761 170.088 47.4099C170.796 46.9014 170.633 46.3421 169.924 46.037C168.561 45.4268 167.198 44.0539 165.508 45.5285C165.29 45.7319 164.854 45.7827 164.636 45.4777C164.473 45.2234 164.582 44.9692 164.8 44.8166C165.454 44.359 165.454 43.9522 164.854 43.3928C164.036 42.6301 164.2 41.664 164.691 40.7995C165.018 40.1893 165.508 39.6808 165.89 39.1215C166.108 38.8164 166.49 38.2571 165.944 38.1554C164.909 37.9011 165.508 37.4943 165.617 37.0367C165.944 35.7146 165.345 34.9519 164.145 35.257C159.621 36.4265 155.096 37.6977 150.299 39.1724ZM39.9609 48.5795C38.1619 48.7829 36.4719 49.5456 35.2181 51.1219C34.0733 52.4948 33.6917 54.1729 33.3646 55.8509C33.0375 57.6815 33.5826 59.2069 35.109 60.529C37.2896 62.4104 40.0154 63.58 42.1414 65.5122C42.7411 66.0207 43.3408 66.4275 44.1585 66.3258C44.7036 66.275 45.1943 66.3258 45.2488 66.9869C45.2488 67.2411 45.1943 67.5462 45.5759 67.597C45.903 67.6479 46.012 67.3428 46.121 67.1394C46.9933 65.7665 48.0835 64.6478 49.3374 63.5291C50.7548 62.3087 52.2267 61.0884 53.8621 60.0714C54.5163 59.6646 55.0614 59.1561 54.8979 58.2916C54.6253 57.0713 54.1347 55.9526 52.8808 55.4441C49.2284 53.9695 46.121 51.6813 42.9046 49.5964C42.0869 48.9354 41.2147 48.5795 39.9609 48.5795ZM64.7106 99.988C64.656 101.056 65.3102 100.7 65.9099 100.446C69.2353 98.971 72.2881 97.0387 75.1774 94.9031C75.5045 94.6488 75.7771 94.2929 75.9951 93.9369C78.2847 90.2758 81.4466 87.4282 85.6442 85.6485C86.3529 85.3434 86.571 84.9875 86.3529 84.2756C86.0258 83.0552 85.7533 81.784 85.4807 80.5636C84.772 77.4618 84.0633 76.9024 80.6834 76.6991C79.9747 76.6482 79.2115 76.6482 78.5028 76.8008C78.2302 76.8516 77.9031 77.0042 77.7396 76.8008C77.0854 75.9872 76.5403 76.5465 75.9951 76.8516C75.3955 77.2075 75.45 77.7669 75.6135 78.3262C75.9406 79.4958 76.1041 80.6144 75.45 81.784C74.5232 83.3094 74.1961 84.9366 75.0139 86.6655C75.1229 86.9706 75.2319 87.2757 74.9048 87.4791C74.5777 87.6825 74.3052 87.4791 74.0871 87.2248C73.4329 86.3604 72.8333 86.7163 72.1791 87.2757C70.7617 88.5978 69.5079 90.0215 68.3085 91.4962C66.2915 93.9878 64.9286 96.7845 64.7106 99.988ZM59.3136 65.7156C55.334 66.7326 51.0819 68.0547 47.6474 70.9531C46.3391 72.0718 46.7752 73.4447 48.4652 74.0041C50.9183 74.8685 53.4805 75.4787 55.8792 76.4957C59.6952 78.1228 63.0206 77.8686 66.2915 75.2753C68.5811 73.4447 68.8537 73.2413 67.3273 70.8005C67.2182 70.5972 67.1092 70.4446 67.0002 70.2412C65.1467 67.9021 63.1296 65.919 59.3136 65.7156ZM126.966 58.3425C127.294 58.3934 127.73 58.1391 128.166 57.8849C129.365 57.2238 130.673 56.7153 132.091 56.5628C134.108 56.3085 135.852 55.3932 137.542 54.3763C138.196 53.9695 138.415 53.5627 138.033 52.9016C136.67 50.5117 135.307 48.1218 133.672 45.8844C133.236 45.2743 132.636 45.1217 131.927 45.4777C129.965 46.3929 128.166 47.5116 126.476 48.7829C126.094 49.0879 125.822 49.393 126.149 49.8507C127.675 52.1389 126.312 53.9186 125.167 55.8C124.731 56.4611 123.423 56.9696 123.914 57.6306C124.241 58.1391 125.549 58.0883 126.421 58.2408C126.476 58.2916 126.639 58.2917 126.966 58.3425ZM138.305 48.8845C138.142 50.1049 138.905 51.0202 139.341 52.0372C139.668 52.7999 140.268 52.9016 140.977 52.444C142.939 51.2236 145.174 50.4609 146.592 48.4269C147.737 46.7489 149.754 45.9353 151.498 44.8166C152.752 44.003 153.024 42.8335 152.37 41.7148C151.771 40.6978 150.517 40.3419 149.154 40.8504C148.554 41.0538 148.064 41.4097 147.518 41.7148C146.973 41.9691 146.428 42.325 145.829 42.0199C144.575 41.4606 143.484 41.8674 142.34 42.3759C140.977 42.986 139.559 43.4437 138.196 43.9522C137.651 44.1556 137.106 44.4098 136.616 44.6641C136.125 44.9183 136.125 45.4268 136.397 45.7827C136.779 46.2912 137.052 45.8336 137.379 45.6302C137.597 45.4268 137.869 45.2234 138.142 45.0709C138.578 44.8166 139.014 44.4607 139.505 44.9183C139.995 45.376 139.614 45.7827 139.341 46.1895C138.578 47.0031 138.251 47.9184 138.305 48.8845ZM74.5777 96.5302C74.0871 96.7336 73.9236 96.7336 73.76 96.8353C70.9252 98.7168 68.036 100.446 64.9831 101.869C64.2199 102.225 63.8383 102.886 63.7838 103.7C63.7293 104.87 63.9473 105.988 64.0019 107.107C64.0564 108.175 64.438 108.632 65.6373 108.582C66.7821 108.531 67.5998 108.937 67.5998 110.158C67.5998 110.768 67.9814 111.073 68.6356 111.124C69.8895 111.124 71.1978 111.124 72.4517 111.124C73.2694 111.124 73.542 110.768 73.3784 110.005C73.1058 108.785 72.9968 107.514 72.9423 106.242C72.6697 103.039 73.2694 99.8863 74.5777 96.5302ZM51.8451 49.6981C51.9541 49.0371 51.7906 48.4778 51.1364 48.1727C49.2284 47.2574 47.92 45.7319 46.5571 44.2573C45.1943 42.7826 43.5043 41.7148 41.3782 41.4606C39.7428 41.2572 38.6525 42.1725 38.1073 43.9013C37.6167 45.3251 38.8706 45.681 39.7973 46.0878C43.0137 47.6133 46.3391 49.0371 49.2829 51.0202C49.828 51.3762 50.4277 51.9355 51.1364 51.5796C51.8996 51.2236 51.7906 50.41 51.8451 49.6981ZM66.8366 119.158C67.1092 121.04 67.7089 122.718 68.9082 124.192C69.5624 124.955 70.162 125.107 70.8707 124.294C72.1791 122.819 73.4874 121.294 74.9048 119.87C76.2677 118.548 76.5948 117.328 75.3409 115.802C75.0138 115.395 74.8503 114.887 74.6868 114.429C74.4142 113.666 73.869 113.514 73.1058 113.819C71.4704 114.429 69.8349 115.039 68.1995 115.65C67.2182 116.005 67.2182 116.463 67.9269 117.124C68.6356 117.734 69.2898 118.345 69.5624 119.26C69.7804 119.87 69.4533 120.328 68.8537 120.582C68.3085 120.836 67.9269 120.531 67.5998 120.124C67.4363 119.768 67.3273 119.362 66.8366 119.158ZM103.143 86.818C102.435 84.1739 101.944 81.8857 100.69 79.8009C99.5455 77.9194 97.8555 76.7499 95.6204 76.2923C94.3666 76.038 93.8214 76.394 93.7124 77.6143C93.6034 78.8347 93.6034 80.0551 93.8214 81.2755C94.2576 83.9705 94.2576 83.9196 97.0923 84.5807C98.2371 84.8349 99.3274 85.2417 100.418 85.6485C101.235 85.9536 101.999 86.3096 103.143 86.818ZM130.619 58.9527C133.999 60.5799 137.161 62.1562 140.323 63.6817C140.813 63.9359 141.358 63.9359 141.903 63.9359C142.939 63.9359 143.321 63.5291 142.939 62.563C142.285 60.7833 141.631 58.9527 140.704 57.2238C140.159 56.2577 139.832 54.7831 138.142 56.156C138.087 56.2068 137.978 56.2068 137.869 56.2068C135.307 56.5628 133.181 58.0883 130.619 58.9527ZM120.261 191.923C125.985 195.279 139.941 195.89 144.084 193.347C135.907 193.5 128.111 192.483 120.261 191.923ZM136.561 43.0877C138.415 42.6301 140.432 41.9691 142.285 41.0538C142.721 40.8504 142.776 40.5453 142.34 40.291C140.05 38.969 137.706 37.7486 134.871 37.952C133.617 38.0537 133.236 38.7147 133.781 39.7825C134.271 40.647 134.708 41.5114 135.198 42.3759C135.416 42.7826 135.689 43.1386 136.561 43.0877ZM169.706 35.6129C167.416 35.6129 167.416 35.6129 167.471 37.6469C167.525 38.3588 167.307 38.969 166.817 39.4774C166.435 39.8842 166.054 40.291 165.726 40.7487C165.345 41.2572 165.236 41.8674 165.781 42.3759C166.326 42.8335 166.871 42.8843 167.525 42.5284C169.161 41.5114 170.633 40.291 171.614 38.7147C172.759 36.8841 171.941 35.6129 169.706 35.6129ZM110.121 43.6979C111.157 45.4268 112.356 45.9861 113.883 45.5794C114.919 45.2743 115.409 44.3081 115.355 42.6301C115.3 39.1724 112.356 37.2909 110.394 34.901C110.339 34.8502 110.23 34.901 109.958 34.901C111.321 37.4435 111.702 40.1893 112.247 42.8335C112.411 43.5454 113.011 44.4607 112.084 44.8675C111.266 45.2234 110.885 44.2064 110.121 43.6979ZM124.677 47.5116C124.731 47.9184 124.459 48.2744 124.786 48.4778C125.167 48.732 125.44 48.3761 125.713 48.1727C126.803 47.4608 127.893 46.6472 129.038 45.9353C130.128 45.2743 130.673 44.6641 129.583 43.5962C129.147 43.1386 128.983 42.4776 128.711 41.9182C128.547 41.6131 128.384 41.2572 127.948 41.5114C126.803 42.2742 125.549 42.8843 125.276 44.4098C125.058 45.4777 124.84 46.5455 124.677 47.5116ZM143.157 27.7821C141.685 27.5787 140.595 26.7652 139.396 27.6804C136.943 29.6127 134.489 31.545 132.254 33.6806C132.036 33.884 131.709 34.1383 131.982 34.4434C132.254 34.7993 132.636 34.5451 132.963 34.3925C133.617 34.0874 134.217 33.7315 134.871 33.4264C137.706 31.9009 140.159 29.7653 143.157 27.7821ZM146.047 23.5617C150.844 21.9345 162.674 14.3071 164.909 11.5104C158.367 15.3241 151.934 19.0361 146.047 23.5617ZM48.2471 66.8343C50.3732 66.1224 52.4992 65.4614 54.5708 64.6987C56.3698 64.0376 56.5333 63.58 56.1517 61.9019C55.8792 60.7833 55.4976 60.6307 54.5163 61.2409C52.2812 62.6647 50.3187 64.4444 48.4106 66.2241C48.3016 66.3767 48.1381 66.5292 48.2471 66.8343ZM114.319 32.7145C113.174 32.7145 112.138 34.0366 112.575 34.9519C113.011 35.8672 113.556 36.7316 114.264 37.5452C114.755 38.0537 115.191 38.0537 115.518 37.4435C116.118 36.3248 116.718 35.2061 117.317 34.0366C117.644 33.3755 117.426 32.8671 116.609 32.9179C115.791 32.9688 115.028 33.0196 114.319 32.7145ZM181.808 37.0875C179.192 39.7825 176.03 41.9691 173.631 44.8166C173.304 45.2234 172.595 45.6302 173.195 46.1895C173.74 46.698 174.394 46.3929 174.885 45.9353C177.556 43.2403 179.9 40.291 181.808 37.0875ZM117.045 50.8168C117.154 51.5796 117.263 52.2914 117.372 53.0542C117.426 53.3084 117.481 53.5627 117.808 53.6135C118.135 53.6644 118.299 53.4101 118.408 53.1559C119.171 51.3253 119.934 49.4439 119.989 47.4608C119.989 47.2065 120.043 46.9014 119.77 46.7489C119.498 46.5963 119.28 46.8506 119.062 47.0031C117.862 48.0201 116.881 49.1388 117.045 50.8168ZM58.6049 53.105C58.0598 53.105 57.5146 53.2067 57.3511 53.7152C56.9695 54.8339 57.6236 55.8509 58.1143 56.817C58.2778 57.1221 58.5504 57.4272 58.9865 57.2747C60.0223 56.8679 60.4584 56.0543 60.3494 55.0373C60.2403 54.0203 59.8042 53.2576 58.6049 53.105ZM98.4552 182.008C98.4007 182.059 98.3462 182.16 98.2371 182.211C100.309 184.143 102.38 186.025 104.452 187.957C104.724 188.211 104.942 188.669 105.433 188.466C105.924 188.313 105.978 187.805 106.087 187.398C106.251 186.838 105.815 186.686 105.379 186.482C103.907 185.821 102.544 185.008 101.29 184.042C100.363 183.381 99.382 182.669 98.4552 182.008ZM128.111 27.477C128.111 26.9685 127.403 26.3075 126.857 26.3075C126.149 26.3075 124.404 27.6804 124.459 28.2906C124.513 29.0534 125.058 29.511 125.876 29.6127C126.585 29.6636 128.111 28.1381 128.111 27.477ZM78.6118 27.9855C78.5573 27.4262 78.5028 26.9177 78.0122 26.5618C77.7941 26.4092 77.576 26.5109 77.467 26.7143C77.0309 27.5787 76.3767 28.2398 75.8316 29.0025C75.45 29.5619 76.0496 30.1212 76.1587 30.6805C76.2132 30.9856 76.5948 30.8331 76.8128 30.6805C77.7941 30.0703 78.5573 29.2059 78.6118 27.9855ZM129.638 41.5114C129.638 42.5792 130.346 43.2911 131.164 43.9013C131.491 44.1556 131.818 44.0539 132.145 43.8505C132.418 43.6471 132.472 43.3928 132.363 43.0877C132.036 42.4267 131.764 41.7657 131.437 41.1046C131.219 40.6978 131.001 40.1893 130.401 40.291C129.692 40.4436 129.638 41.0029 129.638 41.5114ZM63.0206 60.2239C63.4567 62.5121 64.547 64.5461 66.2915 66.275C66.6731 66.6818 67.1092 67.5462 67.7089 66.936C68.254 66.4275 67.4363 65.8682 67.0547 65.5122C65.2012 64.0885 63.8383 62.3596 63.0206 60.2239ZM110.721 60.7324C109.576 62.4104 108.431 64.0885 107.287 65.7665C107.123 66.0207 106.96 66.3258 107.287 66.5292C107.614 66.7326 107.886 66.4275 108.104 66.2241C109.631 64.7495 110.557 62.9189 110.721 60.7324Z" fill="black"/>
<path d="M159.076 159.94C159.839 159.838 160.384 160.245 160.984 160.499C164.418 162.126 166.762 164.872 169.215 167.516C169.543 167.872 169.815 168.381 169.215 168.737C168.507 169.144 167.962 168.686 167.689 168.127C167.144 166.906 166.381 165.838 165.454 164.872C163.873 163.194 162.129 161.821 159.948 160.855C159.512 160.652 159.566 160.652 159.076 159.94Z" fill="black"/>
<path d="M96.4381 57.6827C96.4381 57.7336 96.4381 57.7844 96.4381 57.7844C96.4381 60.632 95.2388 62.6151 93.1673 63.2253C91.1502 63.8355 88.5335 62.8185 86.8435 60.6828C84.4449 57.6827 84.9355 54.6318 88.1519 52.4453C89.1877 51.7334 90.2235 51.0723 91.0412 50.157C92.0224 49.0892 93.0582 49.1401 93.9305 50.3096C95.5659 52.547 96.3836 54.9877 96.4381 57.6827Z" fill="black"/>
</svg>
