<svg width="173" height="222" viewBox="0 0 173 222" fill="none" xmlns="http://www.w3.org/2000/svg">
<path d="M79.9354 94.6417C77.5022 92.7164 75.0691 90.791 73.0783 88.6055C72.7834 88.2413 72.2672 87.825 72.6359 87.4087C73.0046 86.9924 73.6682 87.4607 74.1843 87.4607C75.5852 87.4087 76.9861 87.6168 77.8709 86.3159C78.5345 85.2232 80.304 85.2752 81.7787 85.5354C83.0321 85.7435 83.6957 85.6915 83.2533 84.5987C83.1058 84.2865 82.9584 83.8182 83.327 83.61C85.0229 82.6734 84.6542 81.2684 85.0966 80.0716C85.539 78.8227 85.9077 77.5218 86.2763 76.2729C86.645 74.972 86.5713 73.7232 85.2441 72.6304C83.9906 71.5376 82.9584 70.3928 81.7787 69.248C81.3363 68.8317 81.0414 67.9992 80.1566 68.2073C79.198 68.4675 78.1658 68.9358 77.8709 69.7684C77.5022 70.7571 77.1336 71.6937 76.6912 72.6304C76.5437 72.8906 76.3962 73.3069 75.8801 73.1508C75.5115 73.0467 75.6589 72.6824 75.7326 72.4743C75.8064 72.11 75.8801 71.7978 75.8801 71.4336C75.8801 70.7051 75.7327 70.653 74.4792 70.8612C70.2028 71.5376 66.9585 73.463 63.1982 74.7118C62.2397 75.0241 61.06 75.1802 60.0277 74.7639C59.8065 74.6598 59.2167 74.6598 59.4379 74.2956C59.5853 73.9833 59.8803 73.7752 60.3964 73.9833C62.0185 74.6598 63.4194 74.0874 64.8203 73.5671C67.5484 72.5263 70.3502 71.7458 72.7834 70.3928C74.9216 69.196 74.9216 69.144 73.152 67.687C72.9308 67.4788 72.7096 67.3227 72.7096 67.0105C73.5207 67.1145 73.9631 67.687 74.5529 67.9992C74.8479 68.1553 75.0691 68.5195 75.5852 68.3114C76.0276 68.1032 76.0276 67.8431 75.8064 67.5308C75.2903 66.8544 75.8064 66.386 76.3962 65.9177C76.7649 65.6575 77.2073 65.3974 77.0598 64.929C77.3548 64.929 77.6497 64.9811 77.9446 64.877C79.0506 64.6168 79.9354 64.0965 79.7142 63.3159C79.493 62.4313 78.6819 61.4946 77.5022 61.2345C76.5437 61.0263 75.8064 61.9109 75.0691 62.4313C74.4792 62.7956 75.2165 63.1078 75.5114 63.42C76.0276 63.9403 76.9124 64.3046 77.0598 64.9811C76.1013 64.7209 75.6589 64.0444 74.9953 63.5761C74.6267 63.2639 74.258 62.9517 73.6681 63.3679C72.6359 63.9924 71.3087 64.5127 70.7926 65.2933C70.4239 65.9177 72.1198 66.2299 72.6359 66.8544C72.7096 66.9064 72.7096 67.0105 72.7834 67.1146C71.235 66.9584 70.4977 65.5535 68.5806 65.7616C68.212 65.8136 68.2857 64.825 67.6221 64.4087C65.7051 63.3679 63.8618 62.2232 61.9448 61.1824C59.8803 60.0376 58.5531 58.6326 58.7006 56.6553C58.7743 55.8747 58.4056 55.0942 58.2582 54.3657C58.037 53.377 57.2996 53.2209 56.1937 53.6892C55.6775 53.8974 55.2351 54.2096 54.7928 54.5218C51.9172 56.6553 49.0417 58.7888 46.1661 60.9222C44.9127 61.9109 43.3643 62.5874 41.8159 63.3159C40.7837 63.7842 39.8252 64.3046 38.7929 64.825C38.2768 65.0851 37.9081 65.4494 38.1293 65.9177C38.3505 66.4901 39.0878 66.5422 39.7514 66.5942C40.7837 66.5942 41.8159 66.386 42.7744 66.0738C43.438 65.8657 44.0279 65.5014 44.7652 65.5014C43.733 66.8544 39.3828 68.5716 37.2445 68.4155C36.6547 68.3634 36.1386 68.2073 35.8436 67.8431C34.9588 66.8023 33.6317 66.7503 32.157 67.0625C32.0096 67.1146 31.7884 67.1666 31.6409 67.1666C30.9773 67.2186 30.0925 67.6869 29.7239 67.0105C29.3552 66.334 30.3875 66.2299 30.9773 66.0218C32.0096 65.6575 33.1155 65.3453 34.1478 65.0331C38.498 63.7842 41.8896 61.5987 45.5025 59.6213C49.0417 57.696 51.5485 55.1462 54.2766 52.7005C55.6775 51.4517 58.4794 50.9313 60.5439 51.5557C62.4609 52.1281 63.6406 51.8679 64.6728 50.567C66 48.9539 68.1382 47.8612 69.6129 46.4041C70.6451 45.3634 71.5299 44.3227 71.6037 43.0218C71.6774 41.6168 73.8893 40.8883 75.6589 41.5648C75.7327 41.6168 75.8801 41.6688 75.9538 41.7209C78.1658 42.3973 79.8616 43.0218 79.3455 45.2593C78.9769 47.1326 81.7049 48.8498 84.1381 48.9019C83.9906 48.3815 83.2533 48.3295 82.8109 48.1213C81.1888 47.3928 80.1566 46.4562 80.0091 45.1032C79.9354 44.3747 79.7142 43.386 80.8202 43.1259C82.0736 42.8136 83.622 42.7616 84.6542 43.6983C85.3915 44.3747 86.2026 45.1032 87.751 45.5195C87.1611 44.4788 86.0551 44.0625 85.3178 43.4381C84.728 42.9177 84.728 42.6575 85.3178 42.1372C87.3086 40.3679 89.8155 39.2231 92.9122 38.6507C93.4283 38.5467 94.1656 38.7028 94.608 37.9743C91.585 38.0783 89.1519 39.015 86.7187 40.1078C87.8247 38.963 87.6772 37.7141 87.9722 36.4132C86.4975 36.7254 86.2026 37.9743 84.2856 38.1824C85.3915 37.2458 86.1289 36.4652 87.0874 35.8928C87.6772 35.5286 87.8247 35.2684 87.6772 34.8001C86.7187 31.5738 84.6542 28.7118 81.7049 26.058C80.8939 26.5783 81.1888 27.1507 81.2625 27.6711C81.41 29.5964 81.3363 31.4177 79.8616 33.1869C79.1243 34.1236 79.2718 35.4765 79.0506 36.6213C78.8294 37.9743 78.387 39.2752 77.281 40.42C76.9861 40.7322 77.1336 41.4607 76.175 41.0964C75.364 40.7842 74.1843 40.6802 74.4792 39.6915C74.7004 39.015 74.9953 38.2865 75.8801 37.9222C79.0506 36.5693 78.9031 34.2797 79.1243 32.1982C79.198 31.0014 78.9031 29.7005 79.0506 28.4516C79.1243 27.7752 79.0506 27.0467 78.6819 26.4222C77.7234 24.601 78.6082 23.0399 80.1566 21.5829C80.7464 21.0625 81.2625 21.0105 81.9999 21.3747C83.5482 22.1032 84.5068 23.0919 85.1703 24.3408C85.9077 25.8498 86.7925 27.2548 88.6358 28.3476C89.7417 29.024 89.8155 30.2209 90.1104 31.2096C90.5528 32.6666 90.7002 34.2277 92.0274 35.4765C92.3223 35.7367 92.4698 36.101 93.3546 36.0489C92.7647 35.2164 92.2486 34.4358 91.7325 33.6553C91.585 33.3951 91.2901 33.0829 91.585 32.8227C91.88 32.5105 92.3961 32.6145 92.7647 32.7707C93.5758 33.1349 93.797 32.7186 94.3131 32.3544C96.6725 30.6892 96.1564 28.5557 96.3039 26.5783C96.4513 25.0173 93.7233 23.9765 91.8062 24.8091C91.2901 25.0173 91.1426 25.3295 91.1426 25.6937C91.1426 26.3702 90.9214 27.1507 91.2901 27.7752C92.1749 29.1802 92.2486 30.4811 91.0689 31.834C90.6265 29.5964 88.4145 27.6191 89.1519 25.1213C89.5205 23.8725 88.0459 22.4154 86.3501 21.8951C86.0551 21.791 85.6127 21.6869 85.4653 21.791C84.3593 22.5195 83.6957 21.843 83.0321 21.3747C82.2948 20.8544 80.8939 20.8023 80.9676 19.7616C80.9676 18.4607 81.4837 17.2639 82.8109 16.3272C83.6957 15.7028 84.8017 15.1304 84.8754 14.2458C85.0229 12.5806 86.645 12.1123 88.3408 11.5919C90.9214 10.8634 92.3224 11.2277 93.6495 12.9969C94.0919 13.5693 94.3868 14.1937 94.7555 14.7661C95.4928 15.8589 97.1149 16.3272 98.5158 15.7028C99.6218 15.2344 100.728 15.3385 101.908 15.1824C102.866 15.0783 103.308 15.5987 103.308 16.2231C103.308 16.5874 102.94 16.9516 103.751 17.1598C104.414 17.3159 105.004 17.3679 105.668 17.0037C106.553 16.4833 106.995 15.9109 106.921 15.0783C106.774 12.7887 104.709 11.0195 101.539 10.6553C99.9168 10.4471 98.3684 10.4471 98.5158 8.72992C98.5896 8.00141 97.2624 7.68919 96.3039 7.58512C94.903 7.37698 93.5021 7.32494 92.1012 7.53308C89.2993 7.89734 89.1519 8.05345 90.5528 9.97879C89.7417 9.77064 89.5205 9.40639 89.2993 9.04213C89.0044 8.62585 88.7095 8.26159 87.9722 8.4177C87.2348 8.57381 87.3823 8.9901 87.3823 9.40639C87.3823 10.4471 87.3086 11.4878 85.7602 12.1123C85.0966 12.3725 84.728 12.4245 84.2856 11.9562C83.6957 11.3838 82.9584 10.9154 82.4423 10.343C81.7049 9.5625 80.1566 8.9901 81.0413 7.74123C82.0736 6.33625 83.4008 4.93127 85.9077 4.98331C88.7832 5.03535 91.5113 4.67109 94.3131 4.35888C100.285 3.73444 108.175 7.06476 110.46 11.0195C112.009 13.7774 111.05 15.8068 107.511 17.3679C105.078 18.4087 102.645 19.5014 100.212 20.6462C98.5896 21.4268 96.5988 20.6982 94.903 20.1258C95.7878 20.334 96.4513 20.386 95.8615 19.4494C95.4928 18.877 95.0504 18.2525 95.1242 17.5761C95.4191 16.2231 94.4606 15.7028 92.691 15.5987C92.1749 15.5987 91.585 15.4946 91.0689 15.3906C89.668 15.1304 89.2993 15.6507 89.4468 16.4833C89.5943 17.5761 90.774 18.2005 91.585 18.9811C89.1519 18.2005 87.5298 16.5354 85.2441 15.4946C85.0966 15.7028 85.0229 15.8068 85.0229 15.8589C88.562 18.3046 92.0274 20.9064 97.4099 21.2186C99.1057 21.3227 99.6955 21.9471 99.843 23.0399C100.064 24.9652 100.359 26.9946 99.9905 28.8679C99.7693 30.1688 100.064 31.5218 99.4006 32.8227C98.6633 34.1236 98.2946 35.4765 97.7048 36.7774C97.4836 37.3498 97.1149 37.8702 97.1149 38.4946C97.6311 38.6507 97.7785 38.4426 97.8523 38.2345C98.9582 35.6326 100.212 33.0829 100.58 30.3249C100.875 27.567 100.654 24.8611 100.359 22.1032C100.285 21.3747 100.728 20.9584 101.465 20.5942C103.235 19.6055 105.225 18.8249 107.216 17.9924C112.156 15.9109 113.189 13.101 110.387 9.5625C110.239 9.35435 110.092 9.19824 109.944 8.93806C111.64 9.51046 113.336 11.0195 113.557 12.2163C113.852 13.6213 113.778 15.0783 113.336 16.4833C112.82 17.9403 114.073 19.6055 115.99 20.282C116.359 20.386 116.801 20.4901 117.17 20.6462C117.907 20.9584 119.087 20.9064 119.308 21.4788C119.529 22.1553 118.276 22.1553 117.686 22.5195C117.244 22.7797 117.17 23.0399 117.391 23.4041C118.129 24.601 118.202 25.7978 117.76 27.0987C117.539 27.7752 118.055 28.4516 118.423 29.0761C119.529 30.8453 119.677 32.5105 117.096 33.7593C116.801 33.9154 116.654 34.2797 116.506 34.5399C115.843 35.7888 115.032 37.0376 113.926 38.1304C112.304 39.7435 111.714 41.6688 110.166 43.282C109.723 43.7503 110.018 44.2707 110.166 44.791C110.682 46.6643 111.198 48.5376 110.018 50.4109C109.576 51.1394 110.608 51.0874 111.124 51.2955C111.861 51.5557 112.083 51.2435 112.156 50.7752C112.599 48.9539 113.041 47.0806 113.557 45.2593C113.778 44.5308 114 43.7503 114.958 42.9177C114.884 44.4268 114.294 45.5716 113.926 46.7684C113.557 48.0173 113.189 49.3182 112.894 50.6191C112.82 51.0354 112.451 51.6078 113.115 51.8159C113.852 52.024 114.811 52.0761 115.548 51.6598C118.129 50.3589 120.857 49.3702 124.027 48.8498C126.829 48.3815 129.115 47.0806 131.253 45.6756C130.589 47.705 128.893 48.9539 125.944 49.4222C124.027 49.7345 122.11 50.3589 120.193 50.7752C119.382 50.9313 118.718 51.1915 118.35 51.8159C118.94 51.8679 119.456 51.8679 120.046 51.92C120.046 51.972 120.046 52.024 120.119 52.1281C119.382 52.1802 118.718 52.1802 117.981 52.2322C116.064 52.3363 115.253 53.0648 115.474 54.4177C115.474 54.5218 115.548 54.6259 115.474 54.6779C113.778 56.4471 116.138 56.0829 117.244 56.291C121.668 57.1756 126.092 58.0082 130.516 58.8408C131.327 58.9969 132.433 59.3612 132.949 59.0489C133.612 58.6327 133.096 57.8001 132.875 57.2277C131.843 54.2616 130.442 53.377 126.165 52.9087C125.723 52.8566 125.281 52.7005 124.764 52.5444C125.502 52.1281 126.165 52.1281 126.903 52.2322C131.4 53.0127 133.465 54.6779 133.907 57.9041C134.202 59.7254 134.276 59.7774 136.93 59.8815C139.658 59.9856 142.46 60.0376 145.188 60.1937C146.958 60.2978 148.58 59.9856 150.276 59.8295C151.013 59.7254 151.603 59.6734 152.119 60.1417C152.34 60.4019 152.266 60.6621 152.045 60.8702C151.603 61.2865 151.087 61.4426 150.276 61.3906C145.631 61.1304 140.985 60.9743 136.34 60.7661C134.497 60.6621 134.202 60.9222 135.087 62.1191C135.529 62.7435 135.824 63.3159 136.045 63.9403C136.34 64.929 137.225 65.5014 138.774 65.4494C143.197 65.3974 147.621 65.5535 151.972 65.8137C156.912 66.1259 161.925 66.7503 166.718 67.9471C168.414 68.3634 170.183 68.7277 172.248 69.5082C170.11 69.9245 168.414 69.7164 166.865 69.4562C164.653 69.0919 162.368 68.7277 160.377 68.0512C153.372 65.7616 145.852 66.2299 138.479 65.8657C138.036 65.8657 137.594 65.8136 137.52 66.2299C137.446 66.5422 137.299 66.8544 137.004 66.386C136.562 65.6575 135.751 65.7616 135.013 65.7616C131.474 65.7616 127.935 65.7616 124.248 65.8657C128.377 67.5829 132.58 69.196 136.562 71.2254C135.677 71.5376 135.161 71.0693 134.645 70.8612C133.022 70.1847 131.4 69.4562 129.778 68.7277C129.188 68.4675 128.599 68.2073 127.935 68.2594C127.566 68.2594 127.198 68.3114 127.05 68.6236C126.903 68.9358 127.198 69.0919 127.566 69.248C128.377 69.6123 129.262 69.9245 130.073 70.2888C130.516 70.4969 130.958 70.7571 130.663 71.1213C130.368 71.4856 129.852 71.2254 129.483 71.1213C128.377 70.7051 127.124 70.4449 125.944 69.4562C126.092 71.5897 124.47 73.2028 124.691 75.1281C124.838 76.6892 123.364 77.782 121.741 78.6666C120.709 79.291 119.677 79.8634 119.013 80.748C117.686 82.4132 117.612 83.6621 119.529 84.963C121.963 86.6802 123.364 88.8657 125.502 90.687C126.46 91.5195 127.271 92.7684 127.787 93.9132C128.082 94.4336 128.009 94.9019 126.903 95.11C127.714 93.3928 125.723 92.6123 124.912 91.4155C124.691 91.1033 124.322 91.2594 123.953 91.4155C122.479 92.144 121.004 92.7684 119.529 93.549C118.129 94.2775 118.129 94.7978 119.456 95.6304C120.709 96.463 122.036 97.2435 123.216 98.1281C122.258 97.972 121.668 97.5037 120.93 97.0874C120.193 96.6191 119.456 96.1508 118.571 95.6304C117.981 96.8793 116.949 97.5037 115.106 97.3476C114.073 97.2435 113.852 98.0761 113.041 98.4404C112.82 97.2435 113.557 96.8272 114.958 96.7752C115.843 96.7232 116.949 96.8272 117.317 96.0467C117.686 95.2141 117.023 94.6417 116.212 94.1214C113.631 92.5082 111.788 90.5309 110.903 88.0851C110.165 88.7096 111.345 89.8024 109.723 90.0625C109.723 90.0625 109.649 90.3227 109.797 90.4268C111.271 91.7797 110.977 93.4969 111.271 95.058C111.64 96.6711 112.083 98.2842 112.672 99.8974C114.737 106.038 116.875 112.178 118.866 118.318C119.308 119.723 119.161 121.232 120.783 122.325C121.299 122.689 121.815 123.106 122.626 123.053C123.585 123.001 124.543 122.845 124.691 123.834C124.838 124.771 124.986 125.707 123.364 126.28C121.004 127.112 118.129 126.488 116.949 124.771C116.506 124.094 116.064 123.47 115.474 122.845C114.884 122.273 114.811 121.649 115.474 121.024C116.359 120.244 116.359 119.359 115.99 118.422C113.189 111.345 111.345 104.06 109.354 96.8793C109.06 95.6824 108.396 94.6417 107.585 93.601C106.848 92.6643 106.184 92.6643 105.373 93.601C104.414 94.7458 103.751 95.9426 103.677 97.2435C103.382 100.053 103.161 102.863 101.981 105.569C102.866 100.053 101.76 94.2775 105.963 89.1779C106.7 88.2933 106.995 87.2005 106.921 86.1598C106.7 83.0897 106.995 80.0195 105.594 77.0535C105.373 76.5851 105.668 76.2209 105.889 75.8046C107.88 72.6824 106.848 69.9245 103.751 67.4268C103.677 67.3747 103.456 67.3747 103.161 67.2707C103.161 67.9992 103.825 68.4155 104.341 68.8838C106.479 70.9132 106.626 73.0987 105.299 75.3883C104.931 76.0128 104.488 76.2209 103.53 76.2209C101.539 76.2209 99.6218 76.325 97.6311 76.429C96.5251 76.4811 96.1564 76.2209 96.1564 75.3883C96.1564 72.6824 96.009 69.9765 98.3684 67.6349C98.6633 67.3227 99.1057 66.9064 98.6633 66.282C96.9675 68.2073 95.4191 69.9766 95.3454 72.2141C95.3454 73.463 95.3454 74.7118 95.2716 75.9607C95.1979 76.7933 95.714 77.0535 96.82 76.9494C98.737 76.8453 100.654 76.7933 102.497 76.6892C104.046 76.5851 105.152 77.0535 105.299 78.0942C105.742 82.2571 107.585 86.472 104.193 90.5309C102.497 92.6123 102.055 95.058 101.908 97.4517C101.613 100.99 100.949 104.529 100.654 108.067C100.359 111.553 99.9167 115.04 100.212 118.526C100.433 121.388 100.433 124.302 99.843 127.216C98.8845 131.431 98.2946 135.698 97.5573 139.965C97.1887 142.151 96.3776 144.128 94.1656 145.741C93.9445 145.897 93.5758 146.106 93.7233 146.522C94.9767 146.21 95.4928 145.429 96.1564 144.805C96.9675 144.076 97.5573 143.296 97.7785 142.359C97.9997 141.526 98.2209 140.694 98.5896 139.861C99.1057 141.214 98.3684 142.515 98.2209 143.816C97.926 146.314 97.4099 148.811 97.1149 151.309C96.9675 152.402 96.5251 152.818 94.9767 152.506C94.3868 152.402 93.6495 152.246 92.9122 152.558C93.6495 153.13 94.608 152.922 95.4191 153.13C95.8615 153.235 96.7463 153.026 96.6725 153.599C96.5988 154.119 95.7878 153.911 95.2716 153.963C94.5343 154.015 93.8707 153.963 92.9859 153.963C93.4283 154.692 94.3131 154.535 94.903 154.483C96.3776 154.379 96.82 154.744 96.7463 155.784C96.4513 161.56 96.2302 167.388 96.0827 173.164C96.009 176.391 96.2302 179.669 96.2302 182.895C96.2302 184.248 96.1564 185.549 94.9767 186.798C95.1242 184.664 93.1334 182.791 93.797 180.606C94.2394 179.096 94.2394 177.483 94.1656 175.922C94.0182 171.291 94.3868 166.66 94.8292 162.029C94.903 161.248 94.8292 160.468 94.2394 159.791C93.9445 159.479 93.6495 159.219 93.0597 159.271C92.4698 159.323 92.1749 159.635 92.1012 159.947C91.8062 160.728 91.3638 161.508 91.2901 162.341C90.8477 165.047 88.562 167.284 87.6035 169.886C87.1611 168.377 86.5713 166.92 85.2441 165.723C84.728 165.203 85.2441 164.682 85.4653 164.266C87.2348 161.248 87.8984 157.97 89.3731 154.639C87.9722 155.316 87.8247 156.149 87.6772 156.877C87.0136 159.427 85.8339 161.925 84.6542 164.37C84.433 164.839 84.2118 165.359 83.622 165.723C81.7049 166.764 80.599 168.221 79.7879 169.782C77.7971 173.529 75.7327 177.327 73.7419 181.074C73.152 182.219 72.5622 183.363 71.6774 184.404C71.6037 184.508 71.4562 184.612 71.4562 184.768C70.9401 186.59 70.4977 188.463 69.9815 190.388C71.1613 189.348 72.046 188.359 71.8249 187.006C71.6774 186.121 71.8986 185.289 72.5622 184.508C74.0368 182.687 74.8479 180.658 75.8801 178.732C77.5759 175.662 79.1981 172.592 80.8939 169.522C81.4837 168.429 82.3685 167.44 83.5482 166.608C84.2856 166.139 84.728 166.139 85.2441 166.764C86.7925 168.481 87.0874 170.406 86.4975 172.28C85.8339 174.413 85.9077 176.495 86.645 178.576C87.0136 179.565 85.8339 180.293 85.8339 181.282C88.1196 179.513 87.3086 176.547 90.5528 175.142C91.2901 175.558 90.9214 176.13 90.7002 176.547C89.5943 178.628 88.4883 180.658 87.3086 182.739C86.8662 183.572 85.9077 183.988 84.8017 184.144C83.7694 184.3 82.6635 183.311 82.8847 182.375C83.2533 180.658 83.8432 178.992 84.0644 177.275C84.2856 175.714 84.1381 174.153 83.8432 172.592C83.7694 172.176 83.8432 171.655 83.0321 171.551C82.2211 171.447 82.0736 172.02 81.8524 172.384C79.6404 175.87 78.3133 179.565 76.6174 183.207C75.5852 185.497 73.8156 187.63 73.5207 190.128C73.3732 191.273 72.1198 192.158 70.4977 192.574C69.2442 192.938 68.2857 193.406 67.6959 194.343C67.4747 194.759 66.9585 195.072 66.2212 194.916C65.4102 194.707 65.6314 194.135 65.8526 193.823C67.106 192.001 66.9585 190.18 66.5161 188.255C66.2212 187.11 66.8848 186.069 67.6221 185.029C71.6037 179.044 75.5852 173.008 78.3133 166.66C81.3363 159.531 83.4008 152.246 85.3915 144.961C86.7187 140.173 87.456 135.386 87.751 130.547C87.9722 127.008 88.8569 123.522 89.0044 119.931C89.0044 119.099 88.8569 118.422 87.8247 117.746C87.8984 118.214 87.9722 118.578 88.0459 118.943C88.4883 120.868 86.8662 121.961 84.2856 121.284C82.5897 120.816 81.1151 120.92 79.493 121.336C78.7557 121.544 77.9446 121.544 77.1336 121.388C75.0691 120.972 74.1843 121.284 74.0368 122.845C73.9631 123.938 72.8571 123.834 71.9723 124.042C71.5299 124.146 71.0875 123.886 71.0138 123.418C71.0138 122.949 71.0138 122.481 71.3825 122.013C74.1105 119.047 75.5852 115.664 77.7234 112.542C80.8939 108.015 83.2533 103.176 86.3501 98.6485C87.0136 97.6598 87.6772 97.972 88.1196 98.4924C89.1519 99.5331 90.3316 100.522 90.4053 101.823C90.5528 103.852 90.9952 105.83 90.774 107.911C90.6265 109.472 90.7002 111.085 91.2901 112.646C91.4376 113.01 91.7325 113.323 92.0274 113.687C92.2486 113.895 92.6173 114.103 92.9122 113.895C93.2071 113.687 93.0597 113.427 92.691 113.271C92.2486 113.063 91.88 112.698 92.1012 112.386C92.3961 112.022 92.9859 112.386 93.4283 112.438C94.608 112.49 97.2624 110.773 97.6311 109.628C97.9997 108.327 98.0735 107.078 97.7048 105.777C97.4836 104.997 97.0412 104.789 95.9352 104.997C95.1242 105.153 94.2394 105.153 93.4283 105.361C91.9537 105.725 91.3638 105.413 91.3638 104.32C91.3638 102.499 91.2164 100.678 89.5943 99.1168C89.3731 98.8567 89.3731 98.5444 89.8892 98.5444C90.7002 98.5444 91.7325 98.1281 92.2486 98.8046C93.6495 100.574 96.0827 101.823 97.3361 103.696C97.4836 103.904 97.5573 104.164 97.9997 104.06C98.5896 103.956 98.5896 103.54 98.5896 103.228C98.737 100.782 97.7785 98.5444 96.5988 96.3069C95.4928 94.2254 94.0919 92.144 94.1656 89.8023C93.4283 90.5829 93.3546 90.687 93.1334 92.144C92.9122 93.601 92.6173 95.058 92.5435 96.5671C92.4698 97.6078 91.9537 98.0761 90.4791 97.972C89.8155 97.92 89.1519 97.972 88.4883 97.868C87.3086 97.7119 86.7924 97.3476 87.0874 96.3589C88.3408 92.6123 89.1519 88.8137 90.9214 85.1191C91.1426 84.6508 91.4376 84.1304 90.9214 83.2978C90.1841 84.8069 89.4468 86.1078 89.0044 87.4087C87.9722 90.4788 87.1611 93.601 86.2026 96.6711C85.9814 97.3476 85.7602 98.0241 85.3178 98.6485C81.7049 103.748 79.1243 109.212 75.5114 114.311C73.7419 116.861 72.4147 119.567 70.3502 122.013C70.2765 122.065 70.2027 122.169 70.2027 122.273C70.6451 124.302 68.0645 124.198 66.5899 124.823C66.295 124.927 66 125.031 65.7788 124.771C65.5576 124.458 65.5576 124.094 65.7788 123.782C66.5161 122.793 67.1797 121.753 68.1382 120.868C69.6129 119.567 69.8341 118.214 69.023 116.705C68.5806 115.925 68.212 115.196 69.5392 114.52C70.2027 114.155 69.7604 113.479 69.6866 112.906C69.4654 110.929 69.4654 110.669 72.1198 110.201C75.4377 109.628 76.7649 108.119 77.1336 105.83C72.5622 105.465 67.9171 105.049 63.4194 104.216C60.1752 103.592 56.8573 103.124 53.9817 101.875C58.2582 102.395 62.2397 103.8 66.5161 104.32C69.6866 104.737 72.9308 105.153 76.175 105.361C77.3547 105.465 78.0183 105.153 78.3133 104.372C78.5345 103.852 78.7557 103.384 79.1243 102.915C79.7879 101.979 79.5667 101.25 78.2395 100.574C76.1013 99.429 76.1013 98.0761 77.9446 96.6711C78.7557 95.8385 79.493 95.3182 79.9354 94.6417C82.3685 92.3521 82.4423 89.5422 83.327 86.9404C83.4008 86.7322 83.1796 86.5761 82.9584 86.42C81.5575 85.6915 79.2718 85.8996 78.4607 86.9404C77.8709 87.7209 76.9861 87.929 75.9538 87.9811C73.7419 88.1372 73.6682 88.2933 74.9216 89.6462C75.0691 89.8023 75.2903 90.0105 75.5114 90.1666C77.5022 91.3634 78.5345 93.0806 79.9354 94.6417ZM122.774 61.5467C126.239 61.4426 129.631 61.963 133.022 62.2232C133.465 62.2752 133.981 62.5354 134.128 61.963C134.35 61.0263 133.317 60.0376 131.99 60.1417C129.704 60.3498 127.861 59.6734 125.87 59.101C122.552 58.1643 119.235 57.3838 115.695 56.9675C115.327 56.9155 114.737 56.7593 114.516 57.0716C114.294 57.3838 114.663 57.644 114.884 57.9041C115.548 58.4765 115.695 59.153 115.695 59.8815C115.769 60.9743 116.58 61.3906 118.055 61.4426C119.603 61.3385 121.225 61.1824 122.774 61.5467C121.373 61.5467 119.898 61.5987 118.423 61.4946C117.023 61.4426 117.096 61.8589 117.465 62.5874C118.35 64.4607 120.783 65.0851 122.921 65.1372C126.976 65.2933 131.105 65.0331 135.234 65.1372C136.045 65.1372 136.045 64.929 135.898 64.4087C135.382 62.8476 133.833 62.4313 131.769 62.3272C128.672 62.067 125.649 62.015 122.774 61.5467ZM72.341 52.5444C73.2258 53.325 74.258 54.0014 75.4377 54.5738C75.7326 54.7299 76.3225 55.0942 76.3962 54.6259C76.5437 53.8453 76.9861 52.8566 76.1013 52.2842C74.6267 51.3476 72.9308 50.6191 70.7189 50.463C70.9401 51.3476 71.8249 51.92 72.341 52.5444C71.1613 52.2322 70.7189 51.3476 70.0553 50.6711C69.0968 49.7865 67.9171 49.7345 66.8848 50.567C65.7051 51.4517 64.5254 52.2842 63.3457 53.2209C62.2397 54.1055 60.9862 54.7299 59.0692 54.1575C59.2167 55.1462 59.3641 56.0308 59.3641 56.8634C59.4379 58.5286 60.3964 59.8815 62.2397 60.8702C64.0093 61.8589 65.7788 62.8476 67.5484 63.8363C69.6129 64.9811 69.6129 64.9811 71.4562 63.7322C72.1198 63.2639 72.7096 62.7955 73.2258 62.2752C73.8893 61.5987 74.7004 60.9743 75.5852 60.558C79.1981 59.0489 82.2211 57.0716 85.6127 55.4064C86.0551 55.1983 86.645 54.9901 86.645 54.3657C86.2763 54.4698 86.0551 54.5218 85.8339 54.5738C84.6542 55.1462 83.7694 56.5512 82.0736 54.6779C81.2625 53.7933 79.0506 53.5331 77.4285 53.0127C77.0598 53.7933 77.4285 54.4698 77.3547 55.1462C77.281 55.5105 77.2073 56.0829 76.47 55.6666C74.8479 54.6779 73.0783 53.9494 72.341 52.5444ZM92.6173 147.302C90.3316 145.429 89.3731 143.452 89.8892 141.162C90.2579 139.393 90.5528 137.624 90.774 135.854C91.6588 128.934 93.2071 122.117 93.7233 115.196C93.797 114.259 94.4606 113.479 95.6403 112.958C96.5251 112.542 96.8937 112.906 97.0412 113.427C97.1149 113.739 96.8937 114.103 96.7463 114.415C95.1979 117.538 94.608 120.764 94.6818 124.094C94.6818 125.759 94.3131 127.372 93.7233 128.934C92.3961 132.42 92.4698 136.063 91.6588 139.601C91.5113 140.225 91.585 141.11 92.9122 141.266C94.0919 141.422 94.903 140.85 95.4191 140.225C95.714 139.861 95.8615 139.393 95.9352 138.977C96.2301 137.624 96.4513 136.219 96.7463 134.866C98.1472 129.506 97.8523 123.99 98.9582 118.578C99.1057 117.746 99.1794 116.757 98.8108 115.977C97.8523 114.051 97.7785 112.126 98.2209 110.096C98.2209 110.044 98.0735 109.992 97.926 109.836C97.4836 110.721 96.5251 111.241 95.6403 111.814C93.797 112.958 92.9122 114.415 92.7647 116.133C92.2486 124.406 90.479 132.576 89.0781 140.798C88.7832 142.775 89.1519 144.596 90.5528 146.314C90.9952 146.886 91.3638 147.354 92.6173 147.302ZM121.741 68.4155C121.225 68.6756 120.193 67.8431 119.824 68.7277C119.529 69.6643 118.571 69.9245 117.465 70.1847C116.506 70.3928 115.474 70.601 114.516 70.8612C113.631 71.1213 113.336 71.4856 114.073 72.1621C114.958 72.8906 115.695 73.6711 116.506 74.3996C116.728 74.6078 117.244 74.868 116.801 75.1802C116.285 75.5444 115.917 75.1802 115.622 74.92C114.958 74.3996 114 74.1394 113.115 73.8793C112.009 73.515 111.419 74.1915 110.755 74.5557C110.165 74.8159 110.239 75.2322 110.46 75.7005C111.493 77.9901 112.525 80.2277 111.124 82.6214C110.903 83.0376 111.05 83.2458 111.788 83.2458C114.442 83.2458 116.654 82.6734 117.76 80.8001C118.423 79.6032 119.603 78.7186 121.004 77.8861C122.405 77.0535 124.101 76.1689 123.953 74.6598C123.806 73.4109 124.175 72.2661 124.691 71.1213C125.502 69.248 124.543 68.4675 121.741 68.4155ZM117.612 32.6145C118.571 31.2616 118.497 30.1168 117.76 29.024C117.17 28.0874 116.875 27.2028 117.244 26.1621C117.539 25.3815 117.391 24.5489 116.875 23.7684C116.506 23.248 116.138 23.0399 115.327 23.3001C112.525 24.0286 109.649 24.705 106.848 25.4335C104.636 26.058 104.636 26.3182 106.331 27.515C107.806 28.5557 109.281 29.8046 108.986 31.2096C108.691 32.5105 109.06 33.4992 109.797 34.4878C110.313 35.1643 110.092 35.4245 109.502 35.8928C107.216 37.7661 104.193 38.963 101.096 40.0037C100.433 40.2118 99.6218 40.3159 99.3269 40.8883C99.6218 41.0964 99.843 40.9924 100.138 40.9403C106.774 39.1711 111.419 35.7367 115.548 31.834C116.138 31.3136 116.433 31.1575 116.949 31.782C117.17 31.9901 117.318 32.1982 117.612 32.6145ZM81.7049 115.196C81.6312 115.092 81.6312 114.988 81.5575 114.884C82.6635 114.676 83.6957 114.415 84.8017 114.311C86.0551 114.155 86.3501 113.739 86.2763 112.906C86.2026 111.137 86.2026 109.316 86.3501 107.547C86.4238 106.818 85.9077 106.766 85.1703 106.818C84.2118 106.922 83.6957 107.391 83.327 107.963C82.8109 108.796 82.2211 109.68 81.6312 110.513C79.5667 113.375 77.281 116.185 75.5852 119.151C75.0691 119.983 75.4377 120.452 76.6174 120.66C77.0598 120.712 77.5022 120.868 77.8709 120.816C80.3778 120.452 82.8109 120.244 85.3915 120.712C86.4238 120.92 87.8984 120.556 87.5298 119.359C87.0874 118.006 86.7187 116.653 86.5712 115.3C86.4975 114.572 85.9077 114.52 85.0966 114.676C83.9906 114.832 82.8109 114.988 81.7049 115.196ZM113.115 84.3385C111.05 84.1824 110.387 84.7548 111.124 86.1078C111.493 86.7842 111.788 87.5128 112.009 88.2413C112.599 90.4268 114.368 92.0919 116.728 93.4969C117.096 93.7051 117.465 94.2254 118.055 93.7051C119.456 92.5082 121.446 91.8318 123.069 90.8951C123.88 90.4788 123.953 90.0625 123.364 89.4901C122.479 88.6055 121.815 87.6168 120.783 86.8363C119.308 85.6395 117.907 84.3386 115.253 84.3906C114.589 84.3906 113.852 84.3385 113.115 84.3385ZM96.5251 81.6847C97.9997 83.1937 97.926 85.015 98.8108 86.5761C99.1794 87.1485 98.8845 87.9811 98.3684 88.5535C97.7785 89.282 96.82 89.1779 96.3039 88.3974C96.0827 88.0852 96.1564 87.6168 95.3454 87.5648C93.5021 91.5195 96.8937 94.6938 98.3684 98.2843C102.202 92.8204 100.58 87.6689 97.8523 82.5693C98.5158 82.101 99.4744 82.6214 100.138 82.049C99.032 81.6327 97.7785 81.9449 96.5251 81.6847ZM115.769 21.8951C115.179 21.0625 114.884 20.0738 113.336 19.6575C112.083 19.3453 111.124 19.1892 110.166 20.0218C109.281 20.8023 107.954 21.2706 106.626 21.5308C105.225 21.843 104.193 22.4675 103.456 23.3521C103.013 23.8725 103.235 24.2887 103.751 24.601C104.119 24.8611 104.414 25.4335 105.152 25.2254C108.396 24.1847 111.935 23.6643 115.032 22.5195C115.327 22.4154 115.769 22.3114 115.769 21.8951ZM102.202 34.1236C102.35 34.644 102.424 35.1643 102.571 35.6326C102.719 35.9969 102.866 36.4132 103.456 36.5173C104.119 36.6213 104.414 36.205 104.709 35.8408C105.447 35.0082 106.258 34.1756 106.995 33.343C108.101 31.9901 108.47 30.6892 107.437 29.1802C106.774 28.1915 105.447 27.6711 104.488 26.8906C104.119 26.5783 103.825 26.4222 103.382 26.7865C103.013 27.0987 102.129 27.3589 102.94 27.9313C104.119 28.7639 103.898 29.7525 103.308 30.6892C102.571 31.834 102.571 32.9788 102.202 34.1236ZM75.8801 109.524C74.4792 109.524 73.8893 110.253 72.9308 110.409C70.7926 110.669 70.4239 111.658 70.6451 112.958C70.7189 113.583 71.3087 114.363 70.6451 114.832C68.9493 116.029 70.5714 116.809 71.0875 117.798C72.4147 115.04 74.3317 112.438 75.8801 109.524ZM109.649 68.6756C110.903 69.5603 111.714 70.3928 112.894 70.9132C113.336 71.0693 114.368 70.4449 115.253 70.2367C116.285 69.9765 117.391 69.9245 118.35 69.5603C119.013 69.3001 119.603 68.9358 119.087 68.3114C118.718 67.8951 115.622 67.4788 115.032 67.8431C113.557 68.6756 111.861 68.8838 109.649 68.6756ZM92.3223 99.5852C92.1749 101.302 92.0274 102.707 91.9537 104.112C91.9537 104.372 91.8062 104.841 92.3961 104.841C93.8707 104.789 95.3454 104.685 96.6725 104.216C97.1887 104.008 96.82 103.696 96.6725 103.436C95.6403 101.979 94.2394 100.834 92.3223 99.5852ZM103.972 17.6281C103.013 16.9516 102.35 17.2118 101.613 17.472C99.4744 18.2005 98.8845 18.0444 97.8523 16.5354C97.5573 16.1191 97.1887 16.067 96.6725 16.015C96.3776 15.963 96.009 16.015 96.009 16.3272C96.1564 17.3679 96.0827 18.4087 96.82 19.3453C97.1149 19.7096 97.4836 19.8136 98.0734 19.6055C99.9905 18.9811 101.908 18.3046 103.972 17.6281ZM71.4562 48.0693C72.9308 47.7571 74.4055 47.0286 76.2488 47.1326C76.5437 47.1326 76.6174 46.8725 76.6174 46.6123C76.6174 45.6236 75.6589 45.1032 74.258 45.2073C72.5622 45.3634 71.6774 46.3001 70.6451 47.0286C70.4239 47.1847 70.129 47.4969 70.129 47.653C70.2765 48.1213 70.8663 47.9652 71.4562 48.0693ZM108.617 68.7277C108.47 68.7797 108.322 68.8317 108.175 68.9358C108.396 69.8204 109.06 70.7571 108.838 71.5376C108.47 73.0987 109.649 72.9946 111.124 72.9946C111.861 72.9946 112.23 72.6824 112.525 72.3182C112.82 71.9019 112.451 71.5897 112.083 71.2774C110.829 70.4449 109.723 69.5603 108.617 68.7277ZM116.285 63.6802C117.17 63.7322 117.465 63.5241 117.096 62.9517C116.58 62.067 115.99 61.2865 114.294 61.5467C113.189 61.7028 112.156 61.7028 111.05 61.5987C110.682 61.5467 110.092 61.4946 109.944 61.8589C109.797 62.3272 110.313 62.4833 110.755 62.5354C112.672 62.9517 114.516 63.3159 116.285 63.6802ZM80.9676 61.5467C81.3363 61.5467 81.7787 61.2865 82.1473 61.0263C82.7372 60.558 83.4008 60.0897 84.0644 59.6734C84.6542 59.3091 84.8017 59.0489 84.3593 58.5806C83.9169 58.1643 83.4745 58.0603 82.8109 58.3725C81.7787 58.8408 80.7464 59.3091 79.7879 59.7774C79.4192 59.9336 78.7557 60.1417 79.2718 60.558C79.7142 60.8702 79.7879 61.5467 80.9676 61.5467ZM113.189 57.2277C113.115 57.9562 113.189 58.5806 112.009 58.8408C111.493 58.9449 110.534 59.6734 111.419 60.1417C112.451 60.7141 113.41 61.6508 115.106 61.1824C115.253 61.1304 115.327 60.9222 115.327 60.8702C114.442 59.7774 115.179 58.2684 113.189 57.2277ZM102.424 51.7639C102.424 51.92 102.424 52.024 102.424 52.1802C104.119 52.1802 105.742 52.1802 107.437 52.1802C108.248 52.1802 108.986 52.1281 109.133 52.9607C109.281 53.6372 110.239 53.4811 110.977 53.4811C111.493 53.4811 111.714 53.2209 111.788 52.9087C111.935 52.3883 111.714 51.972 110.977 51.7639C110.608 51.6598 110.165 51.4517 109.797 51.4517C107.29 51.5037 104.857 51.6078 102.424 51.7639Z" fill="black"/>
<path d="M69.4659 219.526C70.2033 218.85 71.1618 219.162 72.0466 218.433C70.0558 218.433 68.36 218.173 66.959 218.485C63.0512 219.422 59.0697 219.63 55.0145 219.526C53.3186 219.474 51.4753 219.474 49.9269 220.203C48.4523 220.827 46.7565 220.983 44.9869 220.723C46.5353 220.515 48.0836 220.203 49.7795 219.734C43.586 218.746 37.7612 219.63 32.0101 220.775C36.6552 219.214 41.5215 218.589 46.5353 218.329C48.0836 218.277 49.1896 217.601 50.3693 217.08C47.4201 216.976 44.397 216.352 41.7427 218.069C41.0791 217.132 39.9731 217.549 38.8671 217.965C36.0653 219.006 33.0423 219.422 29.5032 219.37C31.7889 218.329 34.517 219.006 36.5814 217.757C35.1805 217.549 33.8534 218.173 32.3787 217.601C33.6322 217.445 34.0746 217.132 33.0423 216.612C37.3925 215.415 41.8164 214.635 46.4615 214.791C46.4615 214.635 46.3878 214.531 46.3878 214.374C43.2911 214.374 40.1943 214.374 37.0238 214.374C37.0238 214.218 36.9501 214.114 36.9501 213.958C41.3003 214.166 45.3556 213.542 49.1896 212.085C48.7472 213.126 46.8302 212.761 46.3141 213.802C49.4846 213.698 52.2126 213.022 54.867 211.825C52.2864 211.981 50.2956 210.94 47.7887 210.42C48.5998 210.212 49.2634 210.055 49.8532 210.264C52.2126 211.252 54.3509 210.108 56.6366 209.951C57.079 209.899 57.4476 209.743 57.4476 209.379C57.3001 208.442 58.1112 207.714 58.7748 206.985C61.5029 203.707 63.4936 200.221 64.6734 196.526C64.8208 196.058 64.8208 195.485 65.6319 195.121C67.254 197.151 65.8531 198.868 64.7471 200.637C64.231 201.365 63.6411 202.042 63.7886 202.927C63.8623 203.603 63.2724 204.175 62.6826 204.696C62.019 205.268 61.5766 205.945 61.2817 206.673C60.3232 208.963 61.2079 209.899 64.6734 209.899C65.4844 209.899 66.2217 209.743 67.0328 209.639C67.6964 209.587 68.4337 209.535 68.4337 210.108C68.4337 210.94 69.3185 211.2 70.0558 211.252C72.1203 211.408 73.8161 212.397 75.8806 212.449C76.9866 212.501 78.0926 212.449 79.1986 212.449C79.7884 212.449 80.452 212.449 81.0419 212.397C82.8852 212.241 84.7285 212.085 86.5718 211.773C84.7285 211.565 82.8852 211.46 81.0419 211.669C79.1986 211.877 77.3553 211.148 75.4382 211.408C78.3138 210.784 81.4105 211.2 84.2861 210.784C86.4243 210.472 88.4888 210.212 90.5533 209.899C91.4381 209.795 91.733 209.379 91.5118 208.755C91.2906 207.818 91.2169 206.829 91.5118 205.893C92.1017 204.175 92.3229 202.562 91.4381 200.793C90.627 199.18 92.0279 197.827 93.4288 196.162C93.5026 198.035 94.0187 199.492 94.8298 200.897C95.2721 201.626 94.8297 202.51 94.3136 203.291C93.2814 204.748 92.6915 205.893 94.5348 207.61C95.7145 208.651 96.5256 209.015 98.5163 208.807C97.6316 209.327 97.0417 209.379 96.3781 209.431C95.1247 209.535 94.9035 210.16 94.756 210.888C94.6086 211.721 95.5671 211.617 96.1569 211.825C97.4841 212.293 98.9587 212.397 100.286 212.189C102.645 211.877 104.931 212.189 107.29 212.397C107.954 212.449 109.281 213.282 109.576 211.981C109.576 211.929 110.019 211.929 110.313 211.981C113.705 212.501 117.171 212.865 120.636 212.97C118.571 212.865 116.581 213.282 114.59 213.23C114.074 213.23 113.484 213.23 112.968 213.282C112.673 213.334 112.378 213.438 112.378 213.698C112.378 213.906 112.673 213.906 112.968 213.958C113.779 214.01 114.516 214.114 115.254 214.583C114.221 214.791 113.189 214.218 111.862 214.843C114.59 215.363 117.171 215.675 119.53 216.508C119.088 216.924 118.498 216.82 118.055 216.716C117.465 216.56 116.949 216.404 116.433 216.82C115.991 217.184 115.401 216.976 114.885 216.82C112.894 216.196 110.903 216.248 108.691 216.56C106.627 216.872 104.489 217.184 102.35 217.08C100.876 216.976 100.507 218.017 99.8435 218.485C99.2537 218.902 100.286 219.422 101.097 219.318C102.203 219.214 103.235 219.006 104.341 218.798C104.857 218.694 105.668 218.589 105.595 219.11C105.521 219.578 106.479 219.994 105.373 220.567C102.498 222.024 99.3274 221.608 96.5256 221.191C93.4288 220.723 90.4058 220.619 87.3091 220.567C86.7192 220.567 86.1294 220.723 85.3921 220.359C87.5303 220.359 89.521 220.411 91.4381 220.359C91.9542 220.359 93.0602 220.671 92.9865 219.942C92.9127 219.422 92.5441 218.589 91.4381 218.798C90.4058 218.954 88.9312 218.121 88.4151 219.474C88.2676 219.786 87.7515 219.578 87.4565 219.526C86.2768 219.37 85.0234 219.214 83.8437 219.526C83.6225 219.578 83.4013 219.63 83.1064 219.37C82.0004 218.381 80.0833 218.641 79.346 219.786C79.0511 220.255 78.3875 219.994 77.8714 219.994C77.5765 219.994 77.1341 220.046 77.0603 219.682C76.9129 218.746 74.9221 217.965 73.9636 218.694C72.4152 219.89 71.088 219.318 69.4659 219.526ZM77.0603 217.913C78.535 218.589 79.641 218.485 80.7469 218.433C83.5487 218.381 86.2768 217.757 89.0787 218.173C89.816 218.277 90.7008 218.173 91.5855 217.393C86.7192 217.445 82.0741 216.924 77.0603 217.913ZM56.784 218.954C59.2909 219.37 61.5766 218.902 63.936 218.641C64.5996 218.589 65.8531 218.641 65.7056 218.121C65.5581 217.549 64.3784 217.289 63.4199 217.393C62.6089 217.497 61.8715 217.601 61.1342 217.809C59.7333 218.121 58.3324 218.537 56.784 218.954Z" fill="black"/>
<path d="M61.576 47.0799C59.8065 47.5482 59.5115 48.3288 59.2166 49.1614C58.7742 50.4102 58.7742 50.4102 57.2258 49.7858C56.7835 49.6297 56.1199 49.5256 55.6037 49.6297C53.6867 49.9939 54.0554 49.1093 54.5715 48.589C55.7512 47.2881 56.0461 45.4668 58.553 44.7903C59.5115 44.5301 59.9539 43.8537 60.1751 43.1252C60.6175 41.8243 61.7235 40.8356 63.1981 39.951C62.3871 41.9283 61.3548 43.8537 59.3641 45.4148C58.4793 46.0912 57.8894 46.9238 57.2996 47.7044C57.0784 47.9645 56.5623 48.2767 57.3733 48.5369C57.9632 48.693 58.4793 48.693 58.7005 48.2247C58.848 47.9645 59.0691 47.7044 59.2903 47.3921C59.659 46.8197 60.1014 46.4034 61.1336 46.7157C62.0184 46.9758 62.6083 46.6636 63.1981 46.1953C64.8202 44.6863 66.9585 43.4374 67.2534 41.408C67.3271 40.8876 67.8433 40.4193 68.5068 40.1591C70.0552 39.4826 70.0552 38.3899 70.2764 37.3491C70.3501 36.8808 70.0552 36.5166 69.4654 36.2564C68.8018 35.9962 68.2856 36.2043 67.7695 36.4645C67.1797 36.8288 66.5898 37.2451 66 37.6093C65.705 37.8175 65.4101 38.0776 64.894 37.8175C64.5253 37.6093 64.7465 37.3491 64.894 37.089C66.0737 35.2677 67.1797 33.3944 68.8755 31.7292C68.3594 32.7179 68.4331 33.8627 66.9585 34.7473C68.0645 34.5912 71.8985 29.8559 72.2672 28.503C71.1612 28.6591 71.2349 29.5437 70.4239 29.8039C70.3501 29.7519 70.2764 29.6478 70.2764 29.5957C71.4561 28.4509 71.1612 27.4623 69.7603 26.4215C67.917 25.0166 67.0322 23.1953 65.8525 21.2699C64.4516 22.3627 63.4193 23.5075 62.4608 24.7043C61.5023 25.8491 60.8387 27.15 60.0277 28.4509C59.4378 27.9306 59.7327 27.5143 59.9539 27.098C60.6912 25.3808 61.576 23.7157 62.8295 22.2066C65.0414 19.5528 66.9585 16.7948 69.4654 14.2451C71.7511 11.9034 74.5529 10.0301 78.1657 8.78125C79.2717 8.36496 80.009 8.36496 80.7464 9.19754C81.4837 10.0301 82.5159 10.7586 83.4007 11.5392C84.8754 12.788 84.8753 13.8808 83.2532 14.9736C81.3362 16.2224 80.304 17.6794 80.3777 19.5528C80.3777 19.969 80.1565 20.4374 79.7878 20.7496C78.5344 21.7903 77.7233 22.9871 77.5759 24.3921C77.4284 25.3808 76.3962 25.2247 75.5114 25.3808C73.3732 25.7451 72.7833 26.2654 73.2257 27.7745C73.7418 26.6817 74.5529 25.9012 76.2487 25.7971C77.3547 25.693 78.0183 25.8491 78.092 26.6297C78.2395 29.6998 78.9768 32.822 77.3547 35.8401C77.281 36.0482 77.1335 36.3084 76.9123 36.3605C74.8478 37.141 74.4791 38.8062 73.2994 39.8989C71.7511 41.3559 70.94 42.865 70.1289 44.4781C69.5391 45.5709 68.2856 46.5075 67.0322 47.3401C65.9262 48.1206 64.8202 48.9532 64.0092 49.9419C63.1981 50.9826 62.0922 51.0347 60.6175 50.5663C58.9954 50.046 59.9539 49.3695 60.1751 48.7451C60.4701 48.3808 60.9862 47.9125 61.576 47.0799ZM77.0598 13.1523C76.986 12.8401 76.6911 12.736 76.175 12.8401C75.3639 12.9962 74.7003 13.2564 74.0367 13.6206C70.7925 15.3899 68.9492 17.8876 66.8847 20.2813C66.7373 20.4894 66.7373 20.8016 66.811 21.0098C67.6958 23.0912 68.8018 25.0686 70.8663 26.7338C71.8248 27.4623 72.046 27.098 72.4146 26.4736C72.9308 25.3808 73.2994 24.184 74.0367 23.1433C75.3639 21.2699 75.9538 19.4487 75.3639 17.3672C75.2165 16.7428 74.9215 15.8061 75.7326 15.546C77.5759 15.0776 76.3224 13.9328 77.0598 13.1523ZM70.1289 35.3197C70.2764 35.2677 70.4976 35.2157 70.5713 35.1636C72.4146 33.9668 73.2994 32.3537 74.1105 30.6885C74.1842 30.5844 73.963 30.3243 73.8156 30.2722C73.4469 30.1161 73.0782 30.2722 72.857 30.4804C71.3824 31.7292 70.3501 33.1342 69.3916 34.5912C69.023 35.0075 69.3179 35.3197 70.1289 35.3197Z" fill="black"/>
<path d="M36.8021 30.8448C37.8343 32.2498 38.2767 33.8109 38.7928 35.3199C40.0463 39.0145 41.8158 42.605 45.2075 45.6751C46.0923 46.4557 46.5347 46.7679 47.4195 45.6751C48.6729 44.114 50.1475 42.605 51.5485 41.0959C53.0231 39.4828 54.1291 37.8177 54.3503 35.8923C54.7927 32.0416 56.9309 28.5032 58.9217 25.0167C60.6175 22.1027 62.7557 19.2928 64.7465 16.4828C65.705 15.1299 67.1059 13.933 68.728 12.9443C71.8248 11.019 74.5528 8.83347 76.986 6.49184C79.0505 4.46242 81.7786 2.79727 83.9168 0.351562C84.2855 1.60043 84.6541 2.58912 84.8753 3.62985C85.0228 4.09817 84.4329 4.30632 83.9168 4.46242C82.6634 4.87871 81.5574 5.55519 81.0413 6.38777C80.3039 7.53256 79.1242 8.05292 77.5759 8.52125C74.2579 9.61401 71.5298 11.2792 69.5391 13.3606C65.5575 17.6276 61.6497 21.9466 59.2166 26.786C58.553 28.0869 59.4378 29.3357 58.9217 30.5846C58.7005 31.2611 58.7005 31.9896 58.1843 32.562C56.1198 35.0597 55.3825 37.9217 53.5392 40.4715C53.0968 41.0439 52.9494 41.6683 53.4655 42.1887C54.3503 43.1253 54.424 44.3222 55.2351 45.3109C55.7512 45.9353 55.3088 46.4557 54.7927 46.976C53.4655 48.2249 52.9494 49.5778 53.5392 51.1389C53.6867 51.5032 53.9079 51.9715 53.4655 52.2837C51.9909 53.2724 51.0323 54.5213 49.7789 55.614C50.7374 53.8448 50.8111 51.9715 51.6959 50.2543C52.0646 49.5778 51.9171 49.2656 50.8111 49.1095C45.5762 48.329 46.6084 48.1208 44.6914 51.243C43.4379 53.3244 41.7421 55.1457 39.3827 56.6548C38.7928 57.019 38.1292 57.5914 37.3182 57.0711C36.5809 56.6027 37.3919 56.0824 37.7606 55.7181C38.2767 55.0416 38.7191 54.4172 40.12 54.3131C40.931 54.2611 41.7421 53.5326 41.5946 52.9602C41.2997 51.5032 42.7743 50.6706 43.5854 49.6299C43.8066 49.3177 44.3965 49.1095 44.1753 48.7453C43.8803 48.329 43.2167 48.433 42.7006 48.433C40.12 48.4851 37.5394 48.5371 34.9588 48.5371C34.7376 48.5371 34.5164 48.4851 34.2952 48.329C37.2444 48.0688 40.1937 48.1208 43.143 48.1729C43.8803 48.1729 44.8388 48.433 45.2812 47.7566C45.7236 47.0801 44.8388 46.7679 44.3965 46.3516C41.8158 43.9059 39.8988 41.3041 39.014 38.338C38.4242 35.7882 37.6131 33.2905 36.8021 30.8448ZM52.5807 47.2882C52.4332 46.6638 52.6544 45.7792 51.2535 45.6231C50.4425 45.519 47.5669 47.1842 47.8619 47.5484C48.6729 48.433 50.0738 48.381 51.401 48.5371C52.8019 48.6932 52.4332 47.8606 52.5807 47.2882Z" fill="black"/>
<path d="M66.5915 130.649C67.2551 129.608 68.7297 129.244 69.1721 128.203C67.9186 127.995 67.0339 128.359 66.1491 128.828C65.0431 129.4 64.1583 130.129 62.9049 130.545C62.0938 130.805 62.1675 131.273 62.1675 131.742C62.2413 132.73 62.3887 133.719 62.4625 135.02C61.5777 133.823 61.6514 132.834 61.5777 131.898C61.5777 131.221 61.3565 130.857 60.3242 130.805C58.7759 130.701 58.3335 130.024 59.0708 129.088C60.5454 127.162 62.0938 125.237 63.6422 123.312C63.7897 123.104 64.0108 122.843 64.4532 122.948C64.8219 123.052 64.7482 123.312 64.7482 123.52C65.1168 125.341 64.0108 126.746 61.504 127.735C61.1353 127.891 60.6192 127.787 60.4717 128.307C61.7252 128.515 62.5362 127.995 63.2735 127.475C64.3058 126.746 65.2643 125.966 66.5177 125.393C68.1398 124.665 69.9094 124.196 71.9002 124.509C72.8587 124.665 73.8172 124.717 74.5545 124.04C74.7757 123.832 75.2181 123.676 75.513 123.884C75.8817 124.092 75.6605 124.352 75.513 124.613C74.8495 126.018 73.7435 127.214 71.7527 127.787C70.4255 128.151 69.6145 128.672 68.8772 129.452C68.5822 129.868 67.8449 130.337 66.5915 130.649Z" fill="black"/>
<path d="M131.328 45.4652C131.918 44.3724 133.319 43.8521 134.498 43.2277C136.342 42.291 137.374 41.0942 138.185 39.6371C139.881 36.3589 141.724 33.1326 143.494 29.8543C143.936 29.0738 144.673 28.5014 145.927 28.2412C149.54 27.4607 153.079 26.4199 156.913 26.0557C158.093 25.9516 158.83 25.2751 159.494 24.6507C161.779 22.5172 165.023 22.5172 168.341 22.7774C169.152 22.8294 169.742 23.1417 169.89 23.7661C169.963 24.1824 169.963 24.5466 169.447 24.8068C168.784 25.119 168.194 24.9629 167.53 24.7548C164.728 23.8181 162.443 24.1824 160.083 25.6914C158.904 26.472 157.724 27.2005 155.807 27.0964C153.816 26.9923 152.268 28.0851 150.351 28.3973C149.392 28.5534 148.507 28.9177 147.475 29.0218C145.263 29.1779 143.936 30.1145 143.346 31.5715C142.24 34.1733 140.766 36.6711 139.365 39.1688C138.259 41.1982 136.637 42.8114 134.13 44.0082C133.097 44.4245 132.434 45.153 131.328 45.4652Z" fill="black"/>
<path d="M140.249 72.7324C142.903 76.375 145.926 79.9655 147.18 84.0243C147.991 86.522 149.318 88.8116 151.751 90.841C153.889 92.6103 154.921 94.9519 155.438 97.2415C155.954 99.4791 152.488 101.352 149.465 100.572C148.802 100.416 148.138 100.156 147.475 100.364C145.779 100.884 144.673 100.208 143.64 99.427C142.756 98.8026 141.871 98.1781 140.986 97.6057C140.101 97.0854 139.217 96.565 138.479 95.9406C140.249 96.7211 142.092 97.4496 143.567 98.4904C144.746 99.3229 145.852 100.051 147.696 99.6872C148.212 99.5831 148.802 99.7913 149.318 99.8433C150.719 100.103 152.046 100.208 153.226 99.3229C154.479 98.3343 154.774 97.3456 154.11 96.1487C152.857 93.8591 151.604 91.5695 149.392 89.5922C147.548 87.979 146.958 85.9496 146.221 83.9723C145.263 81.1623 144.009 78.4044 141.723 75.9066C140.986 75.022 140.323 73.9293 140.249 72.7324Z" fill="black"/>
<path d="M54.1292 101.511C50.7376 101.25 47.862 100.106 44.9127 99.1169C40.4888 97.6599 36.2123 96.1508 31.7884 94.7458C28.6917 93.7571 25.3 93.8612 22.0558 93.601C20.7286 93.497 19.4014 93.3929 18.0743 93.0286C16.1572 92.5083 15.3462 91.6237 15.7886 90.1666C16.5996 87.4087 18.9591 85.3793 21.9083 83.6621C22.0558 83.7141 22.1295 83.8182 22.277 83.8703C21.6134 84.3386 20.9498 84.7549 20.2862 85.2232C18.148 86.7843 16.5996 88.5535 16.5259 90.8431C16.5259 91.7798 17.042 92.3001 18.2955 92.5083C19.8438 92.7684 21.3922 93.0807 23.0143 93.1327C28.323 93.1847 33.1893 94.3295 37.7607 96.0988C42.9957 98.1282 48.5256 99.7933 54.1292 101.511Z" fill="black"/>
<path d="M71.6783 155.473C70.13 153.964 69.4664 152.195 68.8028 150.477C68.2867 149.125 67.6968 147.772 67.4756 146.315C67.107 143.244 64.7475 140.695 63.1254 137.989C62.6093 137.156 60.9872 136.896 59.8075 136.792C58.849 136.688 58.7752 137.52 58.7752 138.093C58.7015 139.602 59.2176 141.111 59.4388 142.62C59.5126 142.984 59.5863 143.401 59.4388 143.765C58.3328 141.683 58.1854 139.498 58.2591 137.312C58.2591 136.324 59.5863 136.011 60.9872 136.532C61.872 136.844 62.0194 137 62.8305 136.168C64.0839 134.867 64.6001 133.41 65.6323 132.057C65.5586 133.358 65.1899 134.658 64.1577 135.751C63.4204 136.532 63.2729 137.208 63.9365 138.041C66.812 141.683 68.4341 145.586 69.1715 149.697C69.4664 151.674 70.7936 153.548 71.6783 155.473Z" fill="black"/>
<path d="M122.848 132.105C123.733 132.261 123.88 132.781 124.175 133.198C124.765 134.082 125.576 134.342 126.535 133.614C130 130.908 134.719 131.376 139.143 130.908C142.461 130.544 145.853 130.648 149.17 130.596C149.908 130.596 150.645 130.44 151.235 130.127C152.857 129.295 154.774 128.775 156.691 128.306C159.493 127.578 159.493 127.578 158.682 125.652C160.673 127.057 160.451 128.098 157.797 128.618C155.511 129.087 153.299 129.711 151.235 130.544C149.908 131.064 148.433 131.272 146.959 131.168C142.682 130.856 138.553 131.584 134.35 131.793C131.254 131.949 128.747 132.677 126.535 134.238C125.208 135.227 124.618 135.019 123.807 133.77C123.659 133.51 123.438 133.25 123.217 132.937C123.069 132.729 122.701 132.521 122.848 132.105Z" fill="black"/>
<path d="M55.2355 42.8118C53.9083 41.9792 54.0558 41.1986 54.6457 40.3661C56.3415 37.7642 57.4475 34.9543 59.2908 32.3525C59.6594 31.8842 59.6594 31.2597 59.8069 30.7394C59.8806 30.3751 59.6594 29.8547 60.5442 29.9588C61.2078 30.0629 61.7977 30.4792 61.5027 30.8955C60.7654 32.1964 61.0603 33.5493 60.9129 34.8502C60.9129 35.3185 60.4705 35.7348 59.8806 35.8389C57.0051 36.5674 56.4152 38.3366 55.7516 40.1059C55.6042 40.8864 55.4567 41.771 55.2355 42.8118Z" fill="black"/>
<path d="M0.895264 57.2812C8.41593 50.2042 19.2545 48.7472 30.7567 48.5391C27.1439 48.9033 23.531 49.1635 19.9919 49.6318C16.3053 50.0481 12.6924 50.8287 9.59564 52.3897C6.57263 53.9508 3.62335 55.5119 0.895264 57.2812Z" fill="black"/>
<path d="M88.4883 4.09898C86.0551 4.04694 85.0229 3.52658 85.4653 2.22567C85.8339 1.18495 87.5298 1.28902 88.7832 1.18495C89.8155 1.13291 91.5113 2.58993 91.1426 3.52658C90.774 4.4112 89.2993 3.94287 88.4883 4.09898Z" fill="black"/>
</svg>
