<svg width="201" height="201" viewBox="0 0 201 201" fill="none" xmlns="http://www.w3.org/2000/svg">
<path d="M142.229 200.497C141.889 200.218 141.519 199.968 141.211 199.662C140.871 199.328 140.532 199.133 140.008 199.133C139.421 199.133 139.02 198.771 138.619 198.437C138.188 198.103 137.756 197.825 137.17 197.686C136.553 197.519 135.997 197.213 135.565 196.768C134.948 196.183 134.239 195.766 133.344 195.571C132.851 195.46 132.388 195.265 132.08 194.931C130.599 193.373 128.563 192.371 127.206 190.701C126.65 190.033 125.725 189.727 125.077 189.115C124.337 188.447 123.689 187.751 123.134 186.972C122.702 186.332 122.825 186.137 123.627 186.026C124.244 185.943 124.892 185.831 125.509 185.692C126.619 185.442 127.051 184.829 126.928 183.8C126.589 180.711 125.91 177.65 125.046 174.672C124.367 172.418 123.411 170.22 122.825 167.938C121.776 163.847 120.45 159.84 119.771 155.666C119.555 154.302 119.339 152.911 119.278 151.519C119.154 148.959 118.753 146.455 118.136 143.978C117.55 141.752 117.303 139.498 117.149 137.244C116.995 134.934 116.501 132.652 116.254 130.342C116.008 128.227 115.545 126.14 115.206 124.025C114.959 122.522 114.99 120.992 114.342 119.545C114.064 118.905 113.786 118.237 113.54 117.597C113.447 117.402 113.416 117.18 113.139 117.152C112.83 117.124 112.676 117.291 112.522 117.486C112.09 118.042 111.905 118.71 111.689 119.35C110.887 121.688 110.146 124.053 109.067 126.307C108.666 127.17 108.789 128.172 108.357 129.062C106.938 132.04 105.858 135.129 104.748 138.217C104.409 139.191 103.761 140.11 103.329 141.056C101.478 145.286 99.2569 149.349 97.1592 153.467C94.9073 157.892 92.532 162.233 90.28 166.686C88.6759 169.858 87.1644 173.086 85.807 176.37C85.5602 176.982 85.2517 177.566 84.9433 178.151C84.5114 178.986 84.2646 179.848 84.2955 180.767C84.3263 182.019 85.1284 182.881 86.4857 183.132C86.8867 183.215 87.2877 183.299 87.6888 183.382C88.3983 183.577 89.1078 183.577 89.7865 183.215C90.3417 182.937 90.7736 183.076 91.0821 183.577C91.514 184.245 91.4523 184.774 90.897 185.108C89.1386 186.221 87.442 187.334 86.0538 188.837C85.3751 189.56 84.5114 189.922 83.4625 189.783C82.753 189.699 82.1669 189.922 81.5808 190.256C80.2852 191.035 78.897 191.619 77.3546 191.842C76.8301 191.898 76.3366 192.065 75.9664 192.399C74.8867 193.345 73.5294 193.428 72.172 193.373C70.6605 193.317 69.1798 193.039 67.6682 192.788C67.1746 192.705 66.681 192.538 66.1566 192.788C66.0949 192.816 65.9407 192.816 65.8481 192.788C64.7376 192.12 63.7504 192.788 62.825 193.15C61.7761 193.567 60.789 193.345 59.8019 193.206C58.0435 192.955 56.2851 192.844 54.4959 192.844C53.7247 192.844 52.9844 193.011 52.2132 193.122C51.1026 193.317 50.0229 192.816 48.9432 192.872C46.0435 192.955 43.1129 193.067 40.244 193.623C39.5345 193.762 38.825 193.846 38.1155 193.957C37.3751 194.068 36.6656 194.207 36.1103 194.764C35.8327 195.042 35.4316 195.014 35.1232 194.848C34.8147 194.681 34.537 194.458 34.136 194.541C34.0435 194.569 33.9509 194.514 33.8892 194.402C33.7967 194.124 34.4753 193.011 34.8455 192.955C36.2337 192.677 37.3751 191.953 38.3931 191.119C38.6707 190.896 38.9484 190.673 38.8867 190.228C38.825 189.838 39.226 189.783 39.5036 189.783C41.879 189.755 44.0383 188.809 46.2903 188.364C50.9792 187.417 55.298 185.525 59.771 184.078C60.2954 183.911 60.8198 183.661 61.2826 183.41C62.6091 182.659 64.1823 182.464 65.5705 181.768C69.6116 179.737 73.6219 177.678 77.1078 174.895C77.8481 174.31 78.5885 173.754 79.1438 173.003C80.5936 171.055 82.6913 169.663 84.2646 167.827C85.6219 166.24 86.9484 164.71 88.1515 163.012C89.8173 160.619 91.3597 158.17 93.1181 155.833C95.6785 152.382 97.5911 148.597 99.5345 144.841C100.46 143.032 101.231 141.167 102.342 139.442C103.36 137.856 103.668 136.047 104.439 134.377C106.198 130.426 107.092 126.251 108.635 122.244C109.067 121.103 109.622 119.99 109.807 118.794C110.116 116.567 110.116 114.313 109.715 112.087C109.128 108.581 108.265 105.13 107.771 101.624C107.586 100.177 107.339 98.7295 107.062 97.3103C106.907 96.5589 106.784 96.5033 106.074 96.9207C105.365 97.3381 104.686 97.8112 104.038 98.2843C101.786 99.8705 99.5654 101.457 97.5911 103.349C94.568 106.243 91.298 108.887 88.2749 111.753C85.6219 114.285 83.0615 116.873 81.1181 119.907C80.6553 120.602 79.4214 120.769 78.4343 120.241C77.3237 119.628 76.3983 118.794 75.7813 117.764C75.1335 116.651 74.3006 115.705 73.0666 115.092C72.2029 114.647 71.5242 114.035 70.9998 113.256C70.4445 112.421 69.7042 111.697 68.9947 110.974C68.8096 110.779 68.6553 110.556 68.2852 110.529C68.2852 111.252 67.9458 111.169 67.3288 110.974C65.6013 110.417 64.5217 109.165 63.2877 108.108C61.9304 106.967 60.5114 106.02 58.7839 105.408C56.8404 104.713 55.2054 103.516 53.3545 102.625C52.861 102.375 52.3365 102.152 51.8738 101.902C50.7633 101.262 49.591 101.206 48.2646 101.373C46.6296 101.568 44.9329 101.679 43.298 101.29C41.2003 100.789 40.0897 99.0078 40.9535 97.5051C41.7864 96.058 44.1 95.418 45.7041 96.1693C45.9818 96.3085 46.3211 96.4476 46.5371 96.6703C47.555 97.839 49.0666 98.2286 50.5473 98.5626C51.9047 98.8687 53.2003 99.2861 54.4342 99.8426C55.6682 100.399 56.9638 100.399 58.2903 100.288C59.3391 100.204 59.771 99.1191 59.154 98.2286C58.7839 97.6721 58.4754 97.1155 58.3211 96.4476C57.735 94.1379 56.2851 93.7483 54.0949 94.611C52.6142 95.1954 50.5473 94.8893 49.406 93.804C48.4497 92.8856 48.3263 91.0212 49.1283 89.8246C50.7633 87.3479 54.6193 86.5687 57.3031 88.2105C58.2594 88.7949 58.4445 89.435 58.0126 90.4368C57.6425 91.2716 57.8584 92.1899 57.5808 93.0248C57.4882 93.3031 57.8276 93.4979 58.0743 93.6648C58.7839 94.1936 59.4934 94.7223 60.2337 95.251C60.5422 95.5015 60.8815 95.7519 60.9741 96.1137C61.2517 97.1712 62.3006 97.6164 63.1026 98.2286C63.6579 98.6182 64.9844 98.006 65.262 97.2546C65.5705 96.392 65.8173 95.5293 66.0949 94.6388C66.5576 93.1917 66.8353 91.7169 66.9895 90.2142C67.0512 89.6854 66.897 89.268 66.4651 88.9062C65.9715 88.4888 65.5396 88.0436 65.262 87.487C64.7376 86.4852 65.0152 85.2329 65.9407 84.5094C66.3109 84.2311 66.5885 83.8415 66.9278 83.5633C67.1129 83.3963 67.5139 83.0067 67.5756 83.7024C67.6065 84.0085 67.9767 83.925 68.2235 83.925C69.2723 83.925 70.2594 84.0085 71.2466 84.3424C71.6476 84.4816 71.987 84.6485 72.2646 84.9268C72.9433 85.5669 72.9433 85.9565 72.2337 86.5687C72.1412 86.6522 72.0178 86.7078 71.9561 86.7913C71.6785 87.1531 71.2774 87.5705 71.6168 87.9601C71.987 88.3775 72.6348 88.6001 73.2209 88.3218C74.208 87.8766 75.226 88.0992 76.244 87.9879C76.7376 87.9323 77.1386 88.3218 77.3854 88.7114C77.879 89.4628 77.6014 90.5481 76.7993 91.2438C76.3983 91.5777 74.7325 91.689 74.208 91.4108C73.9612 91.2716 73.8687 91.0768 73.807 90.8542C73.6836 90.5203 73.807 90.075 73.19 90.0472C73.0049 90.0472 73.1283 89.8802 73.19 89.7967C73.5294 89.3793 73.2209 89.0732 72.9124 88.8506C71.9253 88.0992 70.4754 88.3775 69.8584 89.435C69.5808 89.9359 69.4574 90.4368 69.5808 90.9933C70.1052 93.6092 70.4754 96.2528 71.3083 98.813C71.3391 98.9243 71.37 99.0356 71.4317 99.1469C72.0795 101.067 73.2517 101.512 75.2569 100.594C76.3674 100.065 77.5088 99.62 78.7427 99.2861C80.0075 98.9243 81.0564 98.2008 82.1669 97.5607C83.0615 97.0598 84.0178 96.7816 85.0358 96.6146C85.6528 96.5033 86.2389 96.5868 86.7016 96.9485C87.041 97.199 87.3186 97.1433 87.5654 96.865C89.0461 95.1397 91.0512 93.9153 92.6245 92.3013C93.3649 91.5499 94.1052 90.7985 95.4317 91.1047C95.8636 91.216 96.3263 90.9377 96.7582 90.7985C97.9921 90.4089 99.2261 89.9915 100.46 89.6019C100.676 89.5185 101.046 89.3793 101.17 89.6019C101.324 89.8802 100.923 89.9637 100.738 90.075C100.152 90.3811 99.5037 90.5203 98.8867 90.7429C95.5243 91.9951 92.2543 93.3587 89.6322 95.7241C88.8302 96.4476 88.8302 96.5033 89.8482 96.9764C89.879 97.0042 89.9407 97.0042 90.0024 97.032C90.4034 97.2546 90.9895 97.4494 90.897 97.9503C90.8045 98.4513 90.1566 98.4234 89.6322 98.646C89.7865 98.2286 90.0332 97.8947 89.5705 97.5886C89.0769 97.2546 88.7993 97.5608 88.4291 97.7555C87.7196 98.1451 87.041 98.5347 86.3931 99.0078C86.023 99.2861 85.6219 99.4252 85.1901 98.98C84.8816 98.646 84.4497 98.8408 84.1104 99.0078C82.0435 99.9261 79.8841 100.733 78.1258 102.125C77.3237 102.737 76.46 103.265 75.6579 103.878C73.3134 105.659 73.0358 106.939 74.0846 109.694C74.7016 111.363 76.0898 112.727 77.262 114.174C77.7556 114.786 78.28 115.399 78.8353 115.983C79.4214 116.595 79.7299 116.567 80.3469 115.983C81.4266 114.953 82.5062 113.924 83.5551 112.894C85.8996 110.556 88.46 108.414 90.897 106.16C92.3469 104.824 94.0744 103.794 95.4626 102.431C96.6348 101.29 97.807 100.149 98.9793 99.0078C99.2569 98.7295 99.4728 98.4512 99.2878 98.0338C99.1027 97.6164 99.442 97.3381 99.9047 97.2546C100.367 97.1712 100.583 97.2825 100.553 97.7555C100.522 98.0617 100.768 98.0617 100.954 97.9503C101.293 97.7834 101.601 97.5608 101.879 97.3381C103.329 96.225 104.748 95.0841 106.198 93.9709C106.599 93.6648 106.784 93.3031 106.661 92.83C106.506 92.2456 106.259 91.7447 105.92 91.2438C105.612 90.7985 105.211 90.7429 104.748 91.0212C104.47 91.1881 104.162 91.3273 103.946 91.5499C102.249 93.0248 100.46 94.4162 98.9793 96.0859C98.9176 96.1693 98.8559 96.225 98.7633 96.3085C98.6399 96.4198 98.4857 96.5589 98.3006 96.4198C98.1155 96.2807 98.2698 96.1137 98.3623 96.0024C98.9484 95.418 99.5345 94.8336 100.121 94.277C101.663 92.8022 103.36 91.4386 104.84 89.8802C105.704 88.9897 106.198 88.0157 105.889 86.7635C105.704 86.0121 105.858 85.2329 105.673 84.4816C105.612 84.2033 105.581 84.2033 105.241 84.3424C104.995 84.4259 104.964 84.259 104.933 84.1476C104.871 83.8415 104.686 83.6189 104.285 83.4519C105.118 83.2571 105.087 82.7562 105.026 82.2553C105.026 82.1162 104.84 82.0049 104.933 81.8101C105.056 81.5596 105.149 81.7266 105.334 81.7544C105.488 81.7823 105.396 81.5596 105.365 81.504C105.026 80.6413 105.118 79.8065 105.334 78.916C105.581 77.8307 105.241 76.7176 105.118 75.6044C105.087 75.3818 104.902 75.187 104.594 75.1592C104.1 75.0757 103.884 74.8531 104.1 74.38C104.254 74.0182 104.131 73.7956 103.668 73.7678C103.144 73.74 102.681 73.7956 102.403 74.2687C102.403 74.2965 102.403 74.3243 102.403 74.3243C102.527 74.8809 102.527 74.8809 101.817 75.1035C101.385 75.2148 100.738 75.2983 100.83 75.7714C100.892 76.2445 101.54 76.1888 102.002 76.2167C102.558 76.2723 103.113 76.328 103.699 76.3558C104.285 76.3836 104.409 76.7176 104.47 77.135C104.563 77.6359 104.162 77.7194 103.761 77.775C102.033 78.109 101.694 77.9976 100.738 76.6897C100.429 76.2445 100.121 76.1888 99.5962 76.2723C97.9304 76.5506 96.4806 77.3576 94.9381 77.9142C92.8096 78.6655 90.6811 79.2499 88.46 79.6395C86.6708 79.9734 84.9433 80.5022 83.2158 80.9753C82.6296 81.1422 82.2595 81.1144 82.1052 80.5578C81.9818 80.1404 81.6425 79.89 81.334 79.6395C80.2543 78.7768 79.4523 77.7472 78.897 76.5506C78.8044 76.3558 78.7736 76.1053 78.4651 76.161C78.1258 76.2167 78.1258 76.4949 78.1875 76.7176C78.4651 77.6359 78.2183 78.4986 77.9715 79.3891C77.9098 79.6395 77.8173 80.0013 77.5397 79.9734C77.1695 79.9456 77.3237 79.556 77.3237 79.3334C77.3546 78.1646 77.6014 77.0237 77.4163 75.8549C77.3854 75.6044 77.478 75.3818 77.8173 75.354C78.4343 75.3262 78.897 75.1314 79.2363 74.6861C79.3906 74.4635 79.7299 74.3522 80.1618 74.3522C79.3289 75.1592 79.2055 75.994 79.6682 76.9124C80.2852 78.1368 81.2723 79.0273 82.5988 79.556C83.3083 79.8343 84.1412 79.7508 84.8816 79.5282C86.8559 78.916 88.9536 78.8047 90.9587 78.2481C92.316 77.8585 93.6425 77.302 95.0615 77.0515C96.7582 76.7454 97.9304 75.5488 99.5345 75.1592C99.6579 75.1314 99.8122 75.0479 99.843 74.7696C98.2389 75.1592 96.6656 75.4653 95.1849 76.0497C94.9998 76.1332 94.8147 76.3558 94.568 76.2167C94.352 76.0775 94.4137 75.8271 94.4754 75.6323C94.5988 75.0757 94.2286 74.7139 93.735 74.547C92.7787 74.1852 92.1926 73.6008 91.915 72.7103C91.7608 72.2094 91.3906 72.0425 90.8045 72.0425C88.6142 72.0981 86.4857 72.4877 84.388 73.1277C83.3083 73.4617 82.2286 73.74 81.1489 74.0182C80.9021 74.0739 80.5011 74.2687 80.4394 73.9348C80.3777 73.6565 79.915 73.2669 80.6553 73.0164C79.3906 72.6268 78.1566 73.2112 77.0152 72.766C77.0152 72.5155 77.3237 72.6547 77.3854 72.4877C77.3237 72.4877 77.2312 72.4599 77.1695 72.4599C76.244 72.5434 75.1643 72.3207 74.7942 73.4895C74.7016 73.74 74.3314 73.8234 74.0229 73.8513C73.8379 73.8791 73.7453 73.7121 73.7453 73.573C73.7453 73.1556 73.7453 72.7103 74.1463 72.432C74.3623 72.2929 74.6399 72.2094 75.0409 72.0146C73.9304 71.7642 72.9741 71.7085 71.987 71.625C70.1052 71.4859 68.2543 71.8198 66.3726 71.6529C63.5037 71.3746 60.6656 71.2076 57.7967 70.985C55.0821 70.7902 52.3674 70.5119 49.6527 70.4006C45.9818 70.2336 42.3725 69.7327 38.7324 69.3431C35.6167 69.0092 32.5319 68.6196 29.4471 68.1465C26.2697 67.6456 23.0306 67.423 19.8532 66.8664C17.7864 66.5047 15.7504 66.0594 13.6835 65.642C13.3751 65.5864 13.0049 65.475 12.6964 65.5307C11.4008 65.7812 10.1977 65.5029 9.05629 65.0298C7.42133 64.3619 5.69382 64.2228 3.96631 64.0002C2.79407 63.861 1.71438 63.4158 0.572989 63.1097C0.295354 63.0262 0.141112 62.887 0.141112 62.6088C0.141112 62.5253 0.110263 62.414 0.141112 62.3305C0.295354 61.8574 -0.229069 61.2174 0.511292 60.9113C1.2825 60.6051 2.60898 60.8556 2.97916 61.4678C3.59613 62.4696 4.61412 62.8036 5.69382 63.1375C6.43418 63.3601 7.08199 63.694 7.69896 64.1393C8.62441 64.8072 9.8275 65.002 10.9689 65.002C12.8198 65.002 14.5781 65.4194 16.3674 65.6698C20.9638 66.3099 25.5293 67.0612 30.1257 67.7291C34.9072 68.4526 39.7504 68.7588 44.5628 69.3153C47.771 69.6771 51.0101 69.8162 54.2183 70.0667C55.915 70.2058 57.6116 70.5119 59.3391 70.5676C61.6219 70.6232 63.9047 70.6232 66.1875 70.9015C68.6245 71.2076 71.1232 71.0407 73.5602 71.0685C76.1515 71.0685 78.7427 70.9572 81.334 71.2911C82.4137 71.4302 83.4625 70.9572 84.5422 71.0406C84.6348 71.0406 84.8816 70.7345 85.1901 70.7624C85.2826 70.7624 85.3443 70.6511 85.3134 70.5676C85.2518 70.4284 85.0667 70.4006 84.9741 70.3171C83.9253 69.5379 82.5988 69.6771 81.3957 69.4266C79.8841 69.1205 78.3726 68.8422 76.861 68.6196C74.4548 68.2857 72.0178 68.0631 69.735 67.2282C69.4574 67.1169 69.1798 67.2004 68.9021 67.2004C68.6553 67.2004 68.3777 67.3117 68.4394 66.8108C68.4702 66.5047 67.8224 66.3099 67.3905 66.1707C64.4291 65.1689 61.4368 64.2784 58.4754 63.3323C54.7119 62.1357 51.226 60.3547 47.8018 58.5737C45.118 57.1823 42.4959 55.6796 40.244 53.7038C39.2568 52.8133 37.8378 52.4515 36.6039 51.9506C32.4085 50.2253 28.4599 48.1104 24.8815 45.4667C23.555 44.4649 22.3211 43.3239 21.118 42.183C20.5627 41.6821 20.3776 40.9586 20.2851 40.2629C20.1309 39.0941 19.9458 37.9253 19.8841 36.7287C19.6064 31.4692 21.7658 27.0167 25.3134 22.9817C27.4728 20.5328 30.4342 19.0022 33.3648 17.4717C38.3314 14.8837 43.7915 13.3532 49.2517 11.9061C51.8121 11.2382 54.3725 10.5982 56.9638 10.0138C58.5988 9.65203 60.2954 9.45723 61.9612 9.15113C64.1515 8.76153 66.4034 8.65022 68.4702 7.84321C68.6553 7.75972 68.8404 7.67624 68.9947 7.56493C70.9073 6.31267 73.0666 6.61877 75.1952 6.70226C75.5037 6.70226 75.8739 6.86923 76.0898 7.06402C76.6451 7.59276 77.262 7.56493 77.9407 7.3423C78.7427 7.09185 79.5757 7.11968 80.3777 7.00837C80.933 6.92488 81.5191 6.86923 82.0127 6.61877C82.9998 6.1457 84.0178 5.92307 85.1284 6.1457C86.825 6.45181 87.9047 5.56131 88.861 4.5595C89.9407 3.41855 91.1438 2.36109 92.316 1.27579C92.7788 0.858374 93.3032 0.691406 93.9818 0.691406C97.8996 0.719234 101.848 0.719234 105.766 0.691406C106.383 0.691406 106.846 0.830546 107.247 1.24797C108.234 2.38892 109.529 2.83416 111.134 2.6672C113.385 2.44457 115.576 2.94548 117.735 3.41855C118.537 3.58552 119.154 4.08643 119.555 4.72647C119.925 5.2552 120.419 5.47783 121.098 5.42217C121.313 5.39434 121.56 5.39434 121.776 5.42217C122.763 5.58914 123.535 5.19955 124.121 4.53167C124.429 4.16991 124.83 4.00294 125.324 4.0586C126.064 4.11425 126.619 3.72466 127.236 3.41855C129.55 2.2776 132.296 1.7767 134.486 3.27941C135.226 3.78032 135.72 4.44819 136.275 5.08823C136.522 5.36651 136.429 5.67262 135.966 5.64479C135.134 5.61697 134.517 6.20135 133.653 6.09004C136.522 8.34411 139.329 10.459 142.013 12.7409C143.555 14.021 144.82 15.4959 145.838 17.1378C146.239 17.8056 146.733 17.8891 147.411 17.6108C148.028 17.3604 148.614 17.1099 149.2 16.8038C150.558 16.1638 151.884 16.6647 152.347 18.0283C152.47 18.4457 152.563 18.8909 152.655 19.3084C152.748 19.7814 152.995 20.0319 153.55 20.1154C155 20.338 156.419 20.6441 157.869 20.8111C158.671 20.8946 159.35 21.3398 160.152 21.4233C160.553 21.4789 160.83 21.3955 161.139 21.1728C162.496 20.0041 163.792 18.7796 164.779 17.3326C164.81 17.3047 164.841 17.2491 164.871 17.2213C165.581 16.0246 165.581 16.0246 166.969 15.4959C166.846 16.8317 165.673 17.583 164.779 18.4735C163.884 19.364 162.897 20.171 162.064 21.1172C161.447 21.8129 161.447 21.8407 162.373 22.0633C165.087 22.7312 167.771 23.5382 170.424 24.4565C174.681 25.9314 178.846 27.5454 182.733 29.716C185.447 31.2187 187.823 33.0832 190.013 35.1703C190.167 35.3373 190.476 35.4486 190.445 35.6991C190.414 35.8382 190.229 35.8939 190.074 35.8939C189.735 35.9217 189.458 35.8104 189.334 35.5043C189.087 34.9755 188.655 34.5581 188.224 34.1963C186.465 32.7493 184.676 31.3857 182.609 30.3004C179.247 28.5194 175.699 27.128 172.09 25.8758C168.82 24.7348 165.673 23.2878 162.218 22.5642C161.262 22.3694 160.583 22.3694 159.843 23.093C157.838 25.1244 155.278 26.5993 153.026 28.4081C152.594 28.7699 152.193 29.1595 151.73 29.5212C151.36 29.8273 151.421 30.0221 151.792 30.2726C152.871 30.9683 154.167 31.2744 155.37 31.6918C161.139 33.6954 166.661 36.1443 172.121 38.7323C173.91 39.5672 175.452 40.8194 177.118 41.8491C178.105 42.4613 178.29 42.3778 178.599 41.3203C178.691 41.042 178.753 40.7359 178.784 40.4298C178.846 40.0681 178.722 39.595 179.37 39.5672C179.401 39.5672 179.432 39.3445 179.494 39.2054C179.895 39.3167 179.802 39.595 179.802 39.8176C179.802 40.5968 179.555 41.3203 179.401 42.0717C179.185 43.0457 179.37 43.797 180.296 44.4649C181.807 45.5502 183.226 46.8024 184.553 48.0825C185.015 48.5278 185.447 48.6113 186.033 48.2773C188.347 47.0251 190.753 45.9398 192.727 44.2144C194.116 43.0178 194.486 41.2647 193.53 39.4558C193.252 38.9271 193.098 38.4262 193.098 37.8418C193.098 37.6192 193.128 37.3966 193.406 37.3687C193.684 37.3131 193.931 37.4244 194.023 37.6749C194.146 38.0644 194.362 38.4819 194.332 38.8715C194.208 40.4576 194.733 42.1273 193.838 43.6579C193.776 43.7692 193.684 43.9362 193.838 44.0196C193.961 44.0753 194.146 44.0196 194.27 43.9918C195.35 43.6579 196.46 43.4631 197.571 43.3239C198.095 43.2683 198.465 43.3796 198.743 43.7692C199.113 44.2423 199.514 44.6875 199.915 45.1606C200.1 45.3832 200.224 45.6058 199.915 45.8006C199.637 45.9676 199.452 45.8006 199.298 45.6058C199.267 45.5502 199.206 45.4945 199.175 45.4389C198.805 44.8823 198.558 44.131 197.694 44.0475C196.553 43.9362 195.38 44.1031 194.609 44.8545C193.684 45.7728 192.45 46.2737 191.37 46.9416C190.105 47.7208 188.748 48.3886 187.422 49.1122C187.021 49.3348 186.928 49.5574 187.082 49.947C187.391 50.6984 187.607 51.5054 187.915 52.2567C188.1 52.7855 188.008 53.2307 187.761 53.7316C186.805 55.6796 185.231 57.1266 183.35 58.3789C179.154 61.2174 174.434 63.0262 169.529 64.5289C168.758 64.7515 168.296 64.5289 167.987 63.9167C167.709 63.3601 167.432 62.8314 167.154 62.2748C166.969 61.9131 166.722 61.8852 166.383 62.1357C165.519 62.8036 164.655 63.4993 164.069 64.3619C163.607 65.0576 163.823 65.8925 164.008 66.6717C164.069 66.9499 164.285 67.2004 164.409 67.4508C164.779 67.423 164.655 67.0334 164.964 66.9778C165.149 67.256 164.748 67.423 164.871 67.7569C166.044 67.3395 167.216 66.9499 168.388 66.5603C171.442 65.5029 174.465 64.3898 177.519 63.4436C179.278 62.887 181.036 62.247 182.979 62.3305C183.627 62.3583 184.244 62.414 184.676 62.9705C184.985 63.3601 185.416 63.221 185.787 63.0818C186.033 62.9983 186.249 62.9705 186.373 63.221C186.434 63.3601 186.465 63.4993 186.342 63.6106C186.126 63.8054 185.972 63.6106 185.787 63.5271C185.416 63.3323 185.015 63.2488 184.614 63.4436C183.041 64.2506 181.283 64.6402 179.617 65.1968C179.062 65.3916 178.506 65.5585 177.951 65.7255C176.933 66.0316 175.977 66.4769 174.805 66.5047C173.725 66.5325 172.645 67.0334 171.596 67.423C169.715 68.1465 167.895 68.9257 166.044 69.6771C164.563 70.2893 163.545 71.3467 162.65 72.5155C161.787 73.6565 160.923 74.8253 159.905 75.8549C159.226 76.5506 158.887 76.5506 158.424 75.7714C158.27 75.4931 158.146 75.4931 157.931 75.6323C157.314 76.0219 156.727 76.4115 156.11 76.801C155.833 76.968 155.895 77.2463 155.864 77.4967C155.833 77.7194 155.648 78.109 155.463 77.9977C155.123 77.8029 154.568 78.1368 154.414 77.6081C154.352 77.3576 154.29 77.1072 154.167 76.8845C153.55 75.7714 153.087 75.6323 151.761 75.994C150.064 76.4671 148.522 77.2741 146.856 77.8585C144.141 78.8047 141.334 79.5004 138.65 80.4465C134.794 81.8101 131 83.3685 127.329 85.1495C124.954 86.2904 122.547 87.3757 120.265 88.6836C118.414 89.7689 116.563 90.8542 114.897 92.1621C114.373 92.5517 114.373 92.8022 114.866 93.1639C117.643 95.1954 119.771 97.7834 121.93 100.316C123.226 101.818 124.121 103.572 125.416 105.046C126.465 106.271 127.545 107.495 128.594 108.72C128.81 108.97 129.303 109.221 128.995 109.499C128.686 109.805 128.193 109.527 127.946 109.249C126.835 108.08 125.54 107.022 124.553 105.742C123.812 104.796 123.041 103.85 122.424 102.848C121.098 100.705 118.969 99.1748 117.334 97.2825C116.131 95.8911 114.589 94.8614 113.17 93.6927C112.799 93.3865 112.429 93.4979 112.275 93.9153C112.059 94.4718 112.09 95.0841 112.522 95.5015C114.249 97.1712 114.403 99.3696 114.897 101.429C115.298 103.182 115.483 104.963 116.47 106.549C116.84 107.134 116.902 107.774 117.056 108.414C117.149 108.748 117.272 109.026 117.673 109.137C118.815 109.443 119.833 110.028 120.758 110.696C122.609 112.003 124.46 113.367 126.064 114.925C127.144 115.955 128.378 116.818 129.303 117.959C131.278 120.435 133.529 122.745 135.411 125.305C135.565 125.5 135.843 125.667 135.689 125.973C135.596 126.14 135.751 126.335 135.905 126.391C136.83 126.752 136.954 127.504 137.262 128.255C137.663 129.285 138.28 130.287 138.897 131.233C139.668 132.457 140.162 133.821 141.087 134.989C141.242 135.184 141.457 135.49 141.087 135.657C140.779 135.824 140.563 135.546 140.409 135.323C139.699 134.433 139.175 133.459 138.465 132.568C137.046 130.815 136.121 128.784 134.825 126.947C132.018 123.079 129.519 119.016 125.787 115.732C124.923 114.981 124.059 114.202 123.103 113.534C121.992 112.755 120.912 111.92 119.925 111.002C119.339 110.445 118.63 110.111 117.766 110.083C117.396 110.056 117.303 110.139 117.396 110.445C117.704 111.697 118.136 112.95 118.599 114.174C118.784 114.647 119.154 115.009 119.586 115.287C120.604 115.955 121.499 116.762 122.486 117.458C123.103 117.903 123.627 118.376 124.152 118.877C124.892 119.573 125.478 120.352 125.663 121.326C125.879 122.578 126.959 123.357 127.699 124.303C129.858 127.058 132.018 129.813 133.499 132.958C133.715 133.431 134.023 133.848 134.301 134.294C134.486 134.6 134.733 134.822 135.103 134.989C135.72 135.268 136.09 135.796 136.429 136.325C137.663 138.301 139.298 140.054 140.47 142.058C140.779 142.586 141.488 142.92 141.766 143.477C141.828 143.616 142.229 143.783 141.766 143.95C141.488 144.034 141.334 144.534 140.902 144.145C140.532 143.811 140.193 143.421 140.1 142.976C139.946 141.919 139.298 141.084 138.712 140.221C138.188 139.47 137.663 138.746 136.984 137.995C136.892 138.329 137.601 138.663 136.892 138.802C136.861 138.802 136.892 139.052 136.923 139.191C137.355 140.778 137.54 142.364 137.694 143.978C137.941 146.928 138.434 149.877 138.712 152.855C139.051 156.389 139.236 159.923 139.206 163.458C139.206 164.932 139.329 166.407 139.853 167.854C140.008 168.272 139.977 168.689 139.853 169.274C139.236 168.355 139.082 167.465 138.959 166.602C138.743 164.821 138.619 163.04 138.619 161.259C138.65 157.085 138.434 152.939 137.571 148.82C137.447 148.291 137.385 147.763 137.447 147.234C137.601 145.425 136.892 143.811 135.966 142.308C134.609 140.054 133.344 137.8 132.388 135.407C131.864 134.099 131.493 132.763 131.031 131.427C130.691 130.426 130.105 129.563 129.396 128.756C127.699 126.864 126.157 124.86 124.707 122.801C123.442 120.992 122.239 119.1 120.727 117.43C120.481 117.152 120.172 116.901 119.864 116.651C119.74 116.539 119.586 116.428 119.401 116.539C119.216 116.651 119.278 116.818 119.308 116.985C119.524 118.014 119.709 119.044 119.925 120.046C120.573 123.051 120.912 126.084 121.406 129.118C121.93 132.207 122.362 135.296 122.733 138.412C122.979 140.555 123.134 142.698 123.288 144.841C123.658 150.072 124.213 155.276 125.54 160.369C125.756 161.176 126.28 161.843 126.589 162.595C127.822 165.879 130.136 168.578 132.326 171.361C134.239 173.782 136.337 176.064 138.311 178.429C139.607 179.987 141.242 181.267 142.846 182.575C143.74 183.271 144.635 183.967 145.344 184.857C145.56 185.136 145.807 185.358 146.146 185.497C147.288 185.915 148.152 186.694 149.077 187.362C150.681 188.531 152.409 189.505 154.044 190.618C155.123 191.341 156.141 192.176 157.499 192.538C158.023 192.677 158.239 193.206 158.517 193.651C158.887 194.263 159.411 194.764 160.213 194.848C162.002 195.042 163.36 195.933 164.655 196.935C166.013 197.992 167.493 198.716 169.252 199.022C170.116 199.161 170.424 199.996 170.733 200.691C161.015 200.497 151.607 200.497 142.229 200.497ZM64.861 9.06764C63.3494 9.23461 61.8687 9.34592 60.3571 9.56854C56.8404 10.0694 53.4471 11.1269 49.9612 11.8783C46.5062 12.6296 43.2054 13.7984 39.8738 14.8837C35.1232 16.4421 30.8661 18.7518 26.8558 21.4789C25.2208 22.5921 24.0486 24.0669 23.154 25.7088C21.2105 29.2986 20.4085 33.1111 20.7787 37.1183C20.8712 37.9531 20.8095 38.8715 21.2414 39.6506C22.2902 41.5151 23.4625 43.2961 25.3442 44.604C27.9663 46.4407 30.6193 48.2217 33.6116 49.5574C35.2774 50.3088 36.9432 51.0045 38.609 51.728C38.7633 51.8115 39.0101 51.9506 39.1643 51.7558C39.2877 51.6167 39.1334 51.4497 39.0409 51.3106C38.6707 50.6705 38.4548 49.9748 38.2388 49.2791C38.1463 48.9174 37.9304 48.6947 37.5293 48.5278C36.1103 47.8877 34.6913 47.192 33.334 46.4963C32.4394 46.0511 31.699 45.4389 31.4522 44.4927C31.1746 43.4353 31.0512 42.35 31.1129 41.2647C31.2054 39.7341 31.6064 38.2314 32.0075 36.7565C32.0383 36.6174 32.2234 36.4226 31.9766 36.3391C31.9149 36.3113 31.7298 36.6452 31.6373 36.3113C31.6064 36.1443 31.6373 35.866 31.8532 35.8382C32.4394 35.7825 32.4702 35.3651 32.6861 35.0312C33.0255 34.4746 33.3957 33.8902 33.735 33.3337C34.6913 31.8031 36.1412 30.6344 37.4368 29.3264C38.6707 28.0464 40.1823 27.0167 41.8481 26.2654C43.5139 25.514 45.0255 24.54 46.7221 23.7887C47.7401 23.3434 48.6656 22.759 49.6527 22.286C51.3185 21.4789 53.1386 21.0615 54.9278 20.5606C55.4522 20.4215 55.915 20.3102 55.8533 19.6701C55.6682 17.6943 56.8096 16.3864 58.6296 15.4681C58.9072 15.3289 59.3391 14.9394 59.5551 15.1898C59.8327 15.4959 59.37 15.802 59.0923 16.0246C58.352 16.6925 57.8276 17.416 57.8276 18.39C57.8276 18.557 57.735 18.7518 57.6733 18.9744C57.4882 18.7796 57.6116 18.5013 57.334 18.4179C57.1797 18.8631 57.0255 19.2805 57.0872 19.7258C57.6425 19.6145 58.136 19.5032 58.6605 19.4475C59.2157 19.364 59.6785 19.1414 60.1412 18.9188C60.3571 18.8074 60.5731 18.8075 60.789 18.9466C61.6219 19.4753 61.9921 21.4233 61.3751 22.1468C60.9432 22.6755 60.5422 23.2321 60.0486 23.6774C59.37 24.2617 59.3083 24.9018 59.5242 25.6531C59.9252 27.1837 60.3263 28.7142 60.7581 30.2448C60.8198 30.523 60.789 30.9683 61.3443 30.9126C61.8995 30.857 62.3623 30.6622 62.3006 30.05C62.2697 29.5769 62.2697 29.1316 62.208 28.6586C61.8995 26.9332 61.9304 25.2357 62.609 23.5939C63.627 21.1728 65.1078 18.9744 66.8661 16.943C67.6373 16.0803 68.717 15.4124 69.2414 14.4106C69.9818 13.047 71.154 12.0731 72.3571 11.0991C72.8816 10.6817 73.3751 10.2642 73.8379 9.79117C74.424 9.15113 73.8687 8.76153 73.5294 8.31628C73.19 7.87104 72.8199 8.12149 72.4497 8.2328C72.2337 8.28846 72.0178 8.39977 71.8327 8.51108C70.2286 9.51289 68.4702 10.2921 66.7427 11.0991C65.2003 11.8226 63.7813 12.6575 62.3006 13.4645C62.0538 13.6036 61.7453 13.6314 61.807 13.9654C61.8687 14.3271 62.1463 14.4384 62.5165 14.4663C63.3186 14.4941 64.1206 14.4941 64.8918 14.4106C65.1695 14.3828 65.6013 14.2158 65.6322 14.6611C65.663 14.995 65.3546 15.2455 64.9844 15.2176C63.843 15.1898 62.6707 15.162 61.5294 14.995C61.0975 14.9394 60.7273 14.6889 60.3571 15.0785C61.0666 12.6575 62.7941 10.9599 65.1078 9.67986C64.5525 9.65203 64.3057 10.1808 63.7813 10.0973C63.9664 9.54072 64.3983 9.31809 64.861 9.06764ZM95.6477 61.273C94.7839 60.8278 93.7967 60.4938 93.1181 59.826C92.2235 58.9911 90.897 58.4624 90.7736 57.071C90.7428 56.6257 90.28 56.5701 89.9099 56.5144C87.9047 56.264 85.9304 55.8744 83.987 55.3456C81.951 54.8169 79.8841 54.2047 78.0332 53.3142C76.8918 52.7576 75.7196 52.1176 74.7016 51.3662C74.1155 50.921 73.6219 50.4201 73.5294 49.7244C73.4677 49.3904 73.2517 49.1957 72.8816 49.14C70.969 48.8617 70.0435 47.5816 70.5062 45.8841C70.5988 45.578 70.6913 45.2441 70.8147 44.9658C70.9998 44.5205 70.9073 44.2423 70.4445 43.964C68.1618 42.6561 66.28 40.9586 64.5833 39.0941C63.9355 38.3984 63.2877 37.6748 62.0538 38.1201C61.5602 38.2871 60.9741 38.1758 60.4805 37.981C59.154 37.4801 58.0126 36.7565 57.118 35.7269C56.717 35.2538 56.6245 34.7529 56.8096 34.2242C56.9947 33.7511 56.8096 33.445 56.3777 33.1667C55.4831 32.5267 54.5885 31.8866 54.4342 30.7735C54.4034 30.4674 54.1566 30.4396 53.8481 30.5787C53.3545 30.8292 52.861 31.0796 52.3982 31.3579C48.8815 33.4172 46.0126 36.0608 43.4522 39.0384C41.4162 41.4038 40.028 44.0196 39.5653 46.9972C39.3802 48.1938 39.6579 48.6947 40.9227 49.0287C44.717 50.0027 48.2029 51.6445 51.9972 52.6185C53.9407 53.1194 55.8533 53.7873 57.7967 54.2325C60.6348 54.9004 63.4728 55.457 66.3417 56.0135C70.753 56.8484 75.226 57.5162 79.6682 58.2398C85.005 59.0746 90.3417 59.9094 95.6477 61.273ZM102.249 33.612C104.193 33.5841 105.889 33.2224 107.586 33.1945C110.887 33.1667 114.033 31.0518 114.743 27.9072C115.02 26.655 114.959 25.3749 115.175 24.1226C115.298 23.4826 115.576 22.8425 115.452 22.2025C115.144 20.7554 114.558 19.3918 113.694 18.1396C112.059 15.7464 109.622 14.1323 106.969 12.7688C106.445 12.4905 105.858 12.2679 105.241 12.24C102.496 12.1009 99.7813 11.9061 97.2518 13.2418C96.2029 13.7984 95.2158 14.3271 94.5063 15.2176C92.8096 17.3047 91.9458 19.6979 91.8841 22.2303C91.7299 27.1837 94.6913 31.0518 99.7505 33.1111C100.614 33.445 101.509 33.6676 102.249 33.612ZM153.457 49.5574C154.044 49.4739 154.537 49.2791 155.031 49.0565C159.257 46.9972 163.483 44.938 167.679 42.8509C169.221 42.0717 170.733 41.209 172.182 40.2907C172.769 39.9289 172.738 39.7341 172.152 39.3724C171.905 39.2332 171.627 39.0941 171.35 38.9549C169.221 37.9253 167 37.0626 164.841 36.0887C160.614 34.2242 156.326 32.5267 151.915 31.024C150.218 30.4396 149.91 30.2726 148.429 31.7475C148.09 32.0814 147.781 32.4432 147.411 32.7771C144.419 35.4764 141.118 37.814 137.601 39.9289C135.843 41.0142 134.085 42.0995 132.326 43.1848C132.141 43.2961 131.894 43.4074 131.925 43.6579C131.956 43.9362 132.296 43.8527 132.481 43.9083C132.974 43.9918 133.499 44.1031 133.992 44.1588C140.532 45.1049 146.887 46.719 152.871 49.3348C153.056 49.4461 153.272 49.5018 153.457 49.5574ZM111.997 49.6409C111.812 49.78 111.874 49.8913 111.905 50.0027C112.275 51.561 113.015 52.9803 114.033 54.2882C114.311 54.6221 114.681 54.7891 115.144 54.7891C115.761 54.7891 116.038 55.123 115.946 55.6518C115.792 56.4866 116.038 57.2658 116.162 58.0728C116.224 58.5459 116.501 58.7963 117.056 58.8241C117.581 58.852 118.136 58.9076 118.661 59.0189C121.344 59.6312 124.059 60.1321 126.712 60.9113C127.082 61.0226 127.452 61.0504 127.853 60.9113C129.118 60.4382 130.414 60.0486 131.617 59.492C136.367 57.2936 141.272 55.3735 145.992 53.1194C147.905 52.2011 149.848 51.2828 151.761 50.3366C151.946 50.2531 152.193 50.1696 152.193 49.9748C152.193 49.7522 151.915 49.7522 151.73 49.6687C150.774 49.2791 149.817 48.8895 148.83 48.5278C143.463 46.6355 137.879 45.411 132.172 44.6319C131.062 44.4927 130.074 44.6597 129.118 45.0771C127.668 45.7171 126.249 46.4407 124.799 47.0529C123.473 47.6095 122.64 48.5 122.116 49.7522C121.128 52.1176 119.956 54.3995 119.092 56.8205C119.031 57.0432 118.907 57.3493 118.63 57.2936C118.29 57.238 118.414 56.904 118.506 56.7092C119.308 54.9561 119.771 53.0916 120.758 51.3941C121.098 50.7818 121.622 50.2253 121.776 49.5296C121.838 49.307 122.671 48.7504 121.591 48.6947C121.468 47.7764 120.943 48.4721 120.758 48.5834C119.586 49.2513 118.753 50.2253 118.013 51.2549C117.488 51.9506 116.81 52.2289 115.946 52.2567C115.206 52.2846 114.434 51.8393 114.403 51.3384C114.342 50.6705 115.02 50.5592 115.483 50.4479C117.858 49.9192 119.894 48.6669 122.054 47.7208C124.059 46.8303 126.002 45.8563 127.946 44.8823C128.717 44.4927 129.581 44.1866 130.29 43.3796C127.915 44.2701 125.725 45.0493 123.565 45.9398C122.733 46.2737 121.684 46.385 121.128 47.2477C120.943 47.526 120.45 47.5538 120.049 47.4981C119.802 47.4703 119.524 47.4425 119.278 47.5538C117.735 48.1104 116.131 48.3886 114.558 48.8617C114.157 48.973 113.817 49.1122 113.694 49.5574C113.601 49.9192 113.355 49.9748 113.17 49.6131C113.077 49.4739 113.015 49.307 112.768 49.3904C112.583 49.4461 112.491 49.5852 112.46 49.7522C112.398 50.0305 112.491 50.3366 112.275 50.6149C111.997 50.3088 112.306 49.9192 111.997 49.6409ZM55.5139 28.102C55.298 28.6307 55.082 29.1038 54.9278 29.6047C54.6502 30.4952 54.7427 31.3022 55.4522 31.9979C56.1309 32.6658 56.933 33.1389 57.8584 33.445C58.9381 33.8068 60.1103 32.9441 59.8944 31.8866C59.37 29.3264 58.7839 26.7941 58.0743 24.2896C58.0126 24.0948 57.9818 23.8443 57.6425 23.9278C57.0255 24.0669 56.7787 23.733 56.6862 23.2878C56.5628 22.5086 55.8533 21.952 55.699 21.2007C55.6682 21.0337 55.4831 21.0059 55.3288 21.0615C53.5396 21.6181 51.627 21.9242 49.9921 22.7869C47.9869 23.8443 46.0126 24.9853 44.0692 26.154C42.8352 26.8776 41.4779 27.3785 40.3057 28.1855C36.7581 30.6622 33.8892 33.5841 32.316 37.4801C31.5756 39.3724 31.3905 41.2647 31.6373 43.2126C31.8224 44.6597 32.5627 45.7728 34.1052 46.385C35.154 46.8303 36.1412 47.359 37.19 47.8321C38.1463 48.2773 38.208 48.2495 38.4239 47.3033C39.0101 44.5762 40.2131 42.016 41.9098 39.7063C44.7478 35.8939 48.4188 32.8049 52.7067 30.3561C53.7556 29.7717 54.8661 29.2986 55.3288 28.1577C55.3597 28.1298 55.3905 28.1298 55.5139 28.102ZM112.676 88.2105C113.663 89.1845 114.681 88.8227 115.761 88.2662C116.779 87.7375 117.735 87.1252 118.753 86.5687C121.344 85.2051 124.152 84.1755 126.712 82.7284C128.779 81.5596 131.062 80.7526 133.314 79.9178C134.979 79.3056 136.553 78.5264 138.28 78.0533C142.383 76.9402 146.393 75.5766 150.404 74.213C151.483 73.8513 151.699 73.1556 151.113 72.2929C150.743 71.7642 150.188 71.4859 149.509 71.4859C148.553 71.4859 147.627 71.4859 146.671 71.6529C144.697 72.0146 142.722 72.2929 140.748 72.599C137.015 73.1834 133.221 73.4617 129.519 74.2687C128.47 74.4913 127.452 74.5748 126.403 74.5191C124.984 74.4357 123.596 74.5191 122.177 74.6305C119.74 74.7696 117.334 75.1592 114.897 74.8253C114.589 74.7696 114.157 74.6861 114.002 75.02C113.817 75.3818 114.126 75.6601 114.403 75.8549C115.421 76.5506 116.316 77.2463 117.828 77.2741C119.432 77.2741 121.036 77.3298 122.64 77.0515C123.38 76.9124 123.905 76.5506 124.398 76.0497C125.879 74.5748 127.329 74.1296 128.84 75.7157C128.964 75.8271 129.087 75.9662 129.211 76.0497C130.044 76.7454 130.876 77.3576 132.11 77.2463C132.45 77.2185 132.758 77.3576 132.758 77.6915C132.758 78.1646 132.326 78.3594 131.894 78.4429C131.555 78.4986 131 78.582 131 78.1646C131 77.2463 130.506 77.7472 130.167 77.8863C128.594 78.4707 127.02 78.7212 125.54 77.6915C125.17 77.4411 124.799 77.4133 124.337 77.4967C123.288 77.6915 122.208 77.8029 121.128 77.9142C119.987 78.0255 118.784 77.8585 117.673 77.9977C116.501 78.1368 115.792 77.6081 114.959 77.1628C114.311 76.801 113.694 76.3558 113.077 75.9662C112.738 75.7436 112.398 75.5766 112.028 75.7714C111.627 75.9662 111.627 76.3558 111.689 76.6897C111.843 77.6637 112.337 78.4429 113.231 78.9995C113.447 79.1386 113.725 79.1943 113.817 79.4447C114.033 80.1404 114.558 80.5857 115.175 80.9753C115.267 81.0309 115.391 81.1144 115.36 81.2535C115.298 81.4205 115.113 81.3927 114.959 81.3648C113.54 81.2257 112.367 80.697 111.812 79.4725C111.535 78.8603 111.195 78.3038 110.794 77.775C110.702 77.6637 110.733 77.3854 110.455 77.5524C110.301 77.6637 110.331 77.8585 110.455 77.9977C110.671 78.1924 110.825 78.4429 110.979 78.6934C111.226 79.1108 112.059 79.5282 110.887 79.8065C110.856 79.8065 110.825 79.89 110.825 79.9178C110.856 80.9752 110.362 82.0049 111.103 83.0902C111.75 84.0085 112.337 84.9268 113.355 85.5669C113.571 85.706 113.756 85.9286 113.879 86.1513C114.311 86.7913 114.188 87.4313 113.509 87.8488C113.262 87.9879 112.923 88.0714 112.676 88.2105ZM128.655 37.9531C131.308 36.3669 133.622 34.4746 135.627 32.3319C137.879 29.9387 138.65 27.0445 137.756 24.0113C137.015 21.4789 135.658 19.1136 134.331 16.8038C132.974 14.4384 131.062 12.3792 129.211 10.3199C128.563 9.59637 127.853 9.31809 126.866 9.67986C126.403 9.84683 126.064 9.819 125.601 9.51289C125.046 9.1233 124.398 9.29027 123.843 9.67986C123.288 10.0694 123.288 10.4869 123.565 11.0156C123.843 11.5443 124.121 12.1009 124.152 12.6575C124.182 13.0192 124.059 13.4088 124.244 13.7706C125.694 16.776 126.897 19.8371 127.699 23.0373C128.224 25.1244 129.149 27.1559 128.964 29.3543C128.84 30.9683 129.118 32.5823 128.779 34.252C128.563 35.393 128.594 36.673 128.655 37.9531ZM94.352 56.737C93.9818 56.7092 93.5808 56.6814 93.2106 56.6814C92.6862 56.6814 91.9767 56.2361 91.6991 56.6536C91.4214 57.0432 91.8842 57.6554 92.1309 58.1284C92.2235 58.3232 92.3777 58.4902 92.532 58.6293C93.9818 59.9651 95.6785 61.0504 97.2826 62.2192C98.1464 62.8314 99.1644 63.221 100.09 63.7775C100.861 64.2228 101.632 64.6959 102.342 65.1968C103.175 65.7812 104.223 65.6142 104.316 64.9185C104.563 63.1653 104.47 61.3843 103.853 59.7146C103.421 58.5459 104.038 57.711 104.563 56.904C104.902 56.4031 105.149 55.9857 105.087 55.4013C105.026 54.8447 104.933 54.2882 104.84 53.7594C104.84 53.7038 104.686 53.6203 104.594 53.6203C104.223 53.5368 104.285 53.3142 104.409 53.0916C104.594 52.7298 104.779 52.3959 104.81 51.9785C104.84 51.1714 104.748 51.088 103.946 51.4497C103.576 51.6167 102.99 51.5332 102.897 51.8671C102.804 52.1733 103.144 52.535 103.298 52.8968C103.391 53.1194 103.576 53.3699 103.267 53.509C102.959 53.6481 102.804 53.3699 102.743 53.1472C102.403 52.2567 101.632 51.5889 101.293 50.6984C101.139 50.3088 100.799 50.3088 100.398 50.3644C98.4857 50.5314 96.5731 50.5314 94.6605 50.2253C92.316 49.8357 90.0024 49.307 87.6888 48.8061C87.442 48.7504 87.1952 48.6113 86.9793 48.8617C86.825 49.0565 86.9176 49.2513 87.0101 49.4461C87.9973 51.6167 89.2312 53.676 90.5268 55.6796C90.6502 55.8465 90.7736 56.0692 91.0204 56.0692C92.2235 56.0692 93.2415 56.5979 94.352 56.737ZM155.031 49.9192C155.185 50.1696 155.463 50.2253 155.679 50.3088C157.745 51.2271 159.905 52.0063 161.725 53.3142C162.373 53.7873 163.051 53.8429 163.823 53.6203C167.123 52.535 170.393 51.4497 173.231 49.4461C175.236 48.0547 176.748 46.4963 177.488 44.3536C177.797 43.4909 177.704 42.9065 176.902 42.4056C176.008 41.8212 175.051 41.3203 174.126 40.7638C173.478 40.3742 172.892 40.4577 172.275 40.8194C170.27 42.0717 168.172 43.1848 166.013 44.2144C163.576 45.411 161.139 46.6633 158.702 47.8877C157.437 48.5556 156.203 49.1957 155.031 49.9192ZM58.6913 57.6275C59.2774 57.4606 59.4625 57.8223 59.771 57.9058C61.2826 58.2954 62.7633 58.7128 64.2749 59.1024C69.4574 60.5495 74.6708 61.7739 79.915 63.0262C84.5422 64.1393 89.077 65.3637 93.5191 66.9778C94.0127 67.1447 94.4754 67.2839 94.9998 67.1726C96.7582 66.8108 98.5165 66.5047 100.275 66.1429C100.676 66.0594 101.324 66.1429 101.416 65.7533C101.509 65.3081 100.892 65.1133 100.522 64.9185C99.2569 64.1671 97.8996 63.5549 96.6656 62.7757C95.1232 61.7739 93.4266 61.2174 91.5757 60.9113C86.9793 60.1599 82.3829 59.3807 77.8173 58.6293C75.2569 58.2119 72.7273 57.7945 70.1361 57.6832C66.8353 57.5441 63.5345 57.4327 60.2337 57.3214C59.771 57.3214 59.3083 57.238 58.6913 57.6275ZM79.0821 15.7742C78.681 15.8577 78.6502 16.0803 78.5577 16.2751C78.0024 17.4995 77.4471 18.724 76.9535 19.9484C75.9355 22.4251 75.2569 24.9574 74.9484 27.5733C74.5474 30.9126 74.7325 34.2798 75.2569 37.6192C75.4111 38.4819 75.5037 39.4558 76.5525 39.9567C78.496 40.8751 80.4703 41.7099 82.1361 42.99C82.6913 43.4074 83.0924 43.1848 83.1541 42.5448C83.2775 41.4595 83.0307 40.402 82.7222 39.4002C82.0744 37.4244 81.3032 35.5043 80.3777 33.612C79.3597 31.497 79.0512 29.1873 79.8224 27.0167C80.2852 25.681 80.1618 24.4565 80.1001 23.1486C79.9767 21.4789 79.7299 19.7814 80.1926 18.1117C80.5628 16.8595 81.2723 15.7742 81.8893 14.6054C82.1978 13.9932 82.5988 13.4088 82.8147 12.7688C82.8764 12.5461 82.969 12.24 82.6605 12.0731C82.3829 11.9061 82.1052 11.9061 81.7967 12.0452C81.4266 12.2122 81.2415 12.5183 81.0564 12.8244C80.4086 13.8262 80.3469 14.995 79.9767 16.0803C79.514 17.4439 78.9587 18.8075 78.6502 20.2267C77.7247 24.4287 77.1695 28.6864 77.1078 32.9719C77.1078 33.1111 77.1695 33.3059 76.7068 33.4172C76.8918 27.4063 77.2929 21.5346 79.0821 15.7742ZM129.149 61.273C130.29 61.6904 131.37 62.08 132.511 62.4696C132.635 62.4974 132.82 62.4418 132.943 62.414C136.121 61.5791 139.206 60.466 142.321 59.4642C144.943 58.6293 147.504 57.6832 150.157 56.9318C152.902 56.1527 155.679 55.5404 158.455 54.8169C159.442 54.5665 160.491 54.483 161.478 54.1212C161.447 54.0377 161.447 54.0099 161.416 54.0099C160.306 53.1751 159.103 52.4794 157.776 51.9785C156.542 51.5054 155.463 50.7818 154.044 50.5592C153.056 50.3923 152.47 50.6705 151.73 51.0045C147.966 52.7855 144.357 54.8447 140.409 56.2918C136.83 57.5997 133.529 59.4364 129.982 60.7721C129.673 60.8556 129.365 60.9391 129.149 61.273ZM166.938 59.4364C166.938 60.8278 167.339 61.9965 167.925 63.1375C168.172 63.6106 168.45 63.694 168.943 63.5827C169.931 63.3601 170.825 63.0262 171.781 62.7201C174.404 61.8574 176.995 60.8834 179.37 59.5477C182.239 57.9615 184.985 56.2918 186.311 53.2864C186.65 52.4794 186.404 50.8653 185.725 50.2531C185.355 49.9192 184.985 49.9748 184.645 50.2531C184.429 50.4201 184.244 50.7262 184.028 50.7262C182.918 50.754 182.146 51.4497 181.283 51.895C179 53.0637 176.748 54.2604 174.373 55.2622C172.09 56.2083 169.807 57.1545 167.648 58.3232C167.092 58.6294 166.784 58.9355 166.938 59.4364ZM93.8893 68.0074C93.7967 67.7013 93.4574 67.6456 93.1798 67.5343C89.4471 66.3377 85.6528 65.1689 81.8276 64.2784C77.4163 63.2488 73.0358 62.1079 68.5936 61.0782C64.8301 60.2155 61.1283 59.1581 57.4265 58.1841C56.6245 57.9893 55.8533 57.9893 55.082 58.1841C54.5885 58.3232 54.4651 58.6015 54.8353 58.9633C55.1746 59.2416 55.5139 59.5477 55.915 59.7425C58.4445 60.8278 60.9124 62.08 63.5345 62.9149C66.8661 63.9723 70.1978 65.0576 73.4677 66.2542C73.7453 66.3655 74.0538 66.3934 74.3623 66.4212C75.1335 66.5325 75.9047 66.5882 76.6451 66.6995C80.717 67.3673 84.7582 68.0909 88.8919 68.4526C90.5577 68.6196 92.2852 68.7866 93.8893 68.0074ZM63.843 24.7348C63.9972 25.4583 63.3803 25.8479 63.4111 26.2932C63.4728 27.1559 63.5653 28.0464 63.6887 28.909C63.8121 30.0221 64.7993 30.5787 65.7247 31.1353C66.9895 31.9144 66.9895 31.8866 67.3288 30.523C68.7479 24.6792 71.6168 19.5031 76.0281 15.0228C76.5525 14.4941 77.1386 13.9932 77.5705 13.4088C78.1258 12.6853 77.8481 12.3792 77.0461 11.5722C76.5834 11.1269 76.0281 11.1826 75.3186 11.6556C74.4548 12.2122 73.5911 12.8244 72.6348 13.2975C70.6913 14.2715 68.9947 15.4403 67.699 17.1378C66.1875 19.0857 64.8301 21.0893 64.0281 23.3434C63.8121 23.9835 63.5037 24.5957 63.5654 25.3192C63.627 25.1522 63.6887 25.0131 63.843 24.7348ZM134.794 62.9427C135.905 63.3601 136.892 63.7219 137.879 64.0836C138.65 64.3619 139.452 64.5845 139.946 65.2246C140.224 65.5864 140.501 65.5585 140.841 65.3637C141.396 65.0298 142.013 64.8072 142.63 64.5845C145.406 63.6384 148.306 62.9984 151.082 61.9965C153.149 61.2452 155.278 60.6608 157.406 59.9929C157.931 59.826 158.332 59.5755 158.054 58.9633C157.961 58.7685 158.023 58.6015 158.27 58.518C159.226 58.1841 159.658 57.4606 159.936 56.6536C160.213 55.8187 160.09 55.6796 159.164 55.8744C157.56 56.2361 155.987 56.5701 154.383 56.9875C149.478 58.2954 144.604 59.6312 139.792 61.2452C138.188 61.7739 136.491 62.1913 134.794 62.9427ZM78.7736 14.4941C78.0024 14.355 78.0332 14.355 77.5397 14.828C75.2877 16.943 73.5602 19.3918 72.0178 21.9798C70.2903 24.9018 68.8713 27.9072 68.1926 31.1631C67.9458 32.304 67.8841 33.3615 68.8096 34.3077C70.1977 35.6991 71.6476 37.007 73.2209 38.1758C73.406 38.3149 73.6219 38.5375 73.8996 38.3706C74.1463 38.2314 74.0538 37.981 74.0229 37.7862C73.6836 35.6712 73.6836 33.5285 73.7453 31.4135C73.8687 25.4862 75.0409 19.8371 78.6502 14.7446C78.7119 14.6889 78.7119 14.6332 78.7736 14.4941ZM127.545 73.9348C127.637 73.9348 127.915 73.9348 128.193 73.8513C132.296 72.8495 136.522 72.599 140.717 71.9868C143.031 71.6529 145.314 71.2076 147.596 70.7902C147.812 70.7345 148.182 70.7345 148.213 70.4841C148.244 70.2336 147.936 70.178 147.751 70.0945C145.93 69.2597 144.419 68.0352 142.722 67.0334C142.29 66.783 141.951 66.6438 141.457 66.783C138.218 67.6178 134.948 68.4248 131.709 69.2875C130.876 69.5101 130.044 69.7884 129.272 70.1502C128.594 70.4841 127.792 70.5397 127.298 71.3189C126.99 71.8477 126.527 72.0425 126.434 72.6825C126.434 72.766 126.403 72.8773 126.373 72.9608C126.218 73.8513 126.311 73.9626 127.545 73.9348ZM74.9484 50.0861C74.9792 50.2253 75.0718 50.3644 74.9175 50.4757C74.4548 50.754 74.7633 50.921 75.0409 51.088C75.226 51.1993 75.4111 51.3384 75.6271 51.4219C77.6014 52.2846 79.5448 53.2307 81.6425 53.9264C84.1721 54.7891 86.8559 55.1787 89.3854 55.9857C89.5705 56.0413 89.8173 56.097 89.9716 55.93C90.1258 55.7352 89.9407 55.5961 89.8482 55.4291C89.3237 54.5665 88.7993 53.7316 88.2749 52.8689C88.1823 52.702 88.0898 52.5072 87.9047 52.4515C87.442 52.3402 87.3803 51.9785 87.2877 51.6445C86.8867 50.1696 86.2389 48.8339 84.5422 48.1938C83.0307 47.6373 81.4883 47.0807 79.9767 46.5242C77.7556 45.7171 75.0101 47.8599 74.9484 50.0861ZM131.617 42.7396C132.234 42.5448 132.697 42.2665 133.128 41.9882C134.146 41.3203 135.134 40.5968 136.182 40.0124C139.977 37.8975 143.37 35.3095 146.702 32.6658C147.38 32.1371 147.936 31.497 148.553 30.8848C148.707 30.7178 148.892 30.523 148.614 30.3561C147.781 29.8552 146.825 29.8273 145.869 29.6882C145.776 29.6604 145.653 29.7995 145.529 29.8273C144.141 30.3004 143.216 31.3579 142.105 32.1649C139.73 33.8902 137.694 36.0052 134.794 37.0905C133.221 37.6748 131.74 38.3427 130.568 39.4837C130.537 39.5115 130.537 39.5115 130.506 39.5393C129.18 40.402 127.853 41.2647 126.835 42.4334C126.589 42.7117 126.373 42.99 126.28 43.3239C126.218 43.5187 126.064 43.7692 126.403 43.8248C126.619 43.8805 126.99 43.964 126.99 43.5466C126.99 43.3518 127.144 43.3239 127.267 43.2961C128.594 42.8787 129.766 42.2665 130.753 41.3203C131.123 40.9586 131.555 41.0977 131.617 41.5986C131.648 41.9604 131.617 42.3221 131.617 42.7396ZM121.499 70.011C123.01 70.0388 124.213 69.5936 125.478 69.371C127.329 69.037 128.964 68.1465 130.815 67.8683C133.375 67.4787 135.812 66.616 138.311 66.0038C138.496 65.9481 138.774 65.9203 138.774 65.6977C138.774 65.5029 138.558 65.4194 138.373 65.3081C137.293 64.6959 136.09 64.2506 134.856 63.9167C133.437 63.5271 132.08 63.6662 130.722 64.1671C128.625 64.9185 126.465 65.5307 124.367 66.2821C122.424 66.9778 120.11 66.8386 118.537 68.397C118.414 68.5361 117.982 68.4248 118.105 68.7866C118.198 69.0649 118.475 69.1483 118.753 69.204C118.969 69.2318 119.277 69.1205 119.401 69.3153C119.987 70.1223 120.912 69.9275 121.499 70.011ZM65.9715 57.0153C65.7864 56.737 65.6322 56.5422 65.3237 56.5144C64.5525 56.4588 63.8121 56.2083 63.0718 56.0692C57.8584 55.0674 52.7376 53.676 47.7401 52.0063C45.6424 51.3106 43.6065 50.4757 41.4471 49.9192C41.0152 49.8079 40.4291 49.5018 40.0589 49.8079C39.6579 50.1696 40.1823 50.6149 40.3057 51.0323C40.3365 51.1993 40.4291 51.3384 40.4908 51.4775C40.645 51.9506 40.9535 52.2289 41.4779 52.368C41.8789 52.4794 42.2491 52.6463 42.6193 52.7855C46.4754 54.0099 50.3006 55.2343 54.1566 56.4309C54.9895 56.6814 55.8533 56.9875 56.7787 56.904C58.352 56.7649 59.9252 56.6814 61.5294 56.7927C63.0101 56.8762 64.46 56.904 65.9715 57.0153ZM152.995 20.4493C151.853 20.3936 151.73 20.505 151.884 21.3398C151.915 21.6181 151.946 21.8685 152.162 22.119C152.501 22.5364 152.224 23.2043 151.946 23.3156C151.175 23.6495 150.928 24.4009 150.28 24.8183C148.83 25.7366 147.905 27.0167 146.918 28.2968C146.671 28.6029 146.486 28.8534 147.01 29.0482C147.751 29.3264 148.491 29.6047 149.231 29.8273C149.632 29.9387 150.002 29.9108 150.311 29.5491C151.483 28.1855 152.871 27.0167 154.414 26.0149C156.018 24.9574 157.653 23.9 159.103 22.6477C159.35 22.4251 159.781 22.2303 159.72 21.8964C159.627 21.5346 159.134 21.6459 158.794 21.5624C158.609 21.5068 158.393 21.4511 158.208 21.3955C156.45 20.8667 154.599 20.6719 152.995 20.4493ZM72.8816 43.8805C74.1155 43.9362 75.1026 42.9065 74.7633 42.2386C74.4857 41.7377 74.3314 41.209 74.1155 40.6803C73.8996 40.1515 73.7145 39.5672 73.19 39.1776C71.3391 37.7862 69.3957 36.4782 67.8533 34.7807C67.699 34.6138 67.4522 34.4746 67.2672 34.6973C66.7119 35.4486 65.7556 35.7269 65.0461 36.2835C63.8738 37.2296 63.843 37.2018 64.9535 38.2871C65.1078 38.4262 65.2929 38.5932 65.4163 38.7601C66.6193 40.2072 68.1309 41.3481 69.6425 42.4891C70.6605 43.2683 71.7402 44.0196 72.8816 43.8805ZM117.056 114.202C116.717 114.592 116.779 114.898 116.779 115.176C116.748 118.014 116.779 120.797 117.673 123.58C118.198 125.222 118.167 126.975 118.414 128.672C118.815 131.372 119.123 134.043 119.123 136.77C119.154 139.331 119.679 141.835 120.234 144.312C120.542 145.703 121.005 147.039 121.344 148.43C121.807 150.49 122.239 152.549 122.671 154.636C122.763 154.998 122.794 155.36 123.195 155.777C123.195 155.499 123.226 155.387 123.195 155.276C122.825 153.161 122.517 151.018 122.116 148.903C121.93 147.929 121.653 146.955 121.56 145.982C121.468 145.063 121.529 144.117 121.406 143.199C121.067 140.527 120.727 137.856 120.419 135.212C120.141 132.902 120.049 130.593 119.586 128.311C118.784 124.331 117.828 120.38 117.643 116.317C117.612 115.621 117.427 114.953 117.056 114.202ZM92.0692 160.73C92.0075 160.758 91.9458 160.786 91.915 160.842C90.3109 163.68 88.244 166.24 86.4857 168.995C84.8507 171.555 83.3391 174.199 81.3957 176.592C80.6553 177.483 80.1309 178.512 79.9458 179.626C79.7607 180.767 79.7916 181.935 79.4214 183.048C79.3289 183.299 79.4523 183.549 79.7607 183.688C80.1309 183.828 80.316 183.633 80.532 183.41C81.1181 182.742 81.4883 181.991 81.7967 181.184C82.4446 179.486 83.0615 177.761 84.2029 176.231C84.8199 175.424 85.2209 174.533 85.6219 173.615C86.6708 171.194 87.8739 168.8 89.2003 166.463C90.1875 164.598 91.298 162.762 92.0692 160.73ZM129.242 8.98416C130.568 10.0973 131.833 11.2382 132.82 12.6018C134.393 14.8002 135.843 17.1099 137.478 19.2805C139.082 21.4511 140.224 23.8165 140.748 26.4323C140.81 26.7384 140.902 27.0167 141.026 27.295C141.087 27.462 141.18 27.6011 141.396 27.6011C141.612 27.5733 141.673 27.4063 141.704 27.2393C141.735 26.7106 141.92 26.2097 141.828 25.6531C140.841 20.9502 138.959 16.6369 135.442 12.9914C134.085 11.6 132.727 10.2086 130.876 9.29027C130.352 9.03981 129.858 8.81719 129.242 8.98416ZM144.234 20.8111C144.049 19.6979 144.08 18.4457 143.524 17.416C142.198 14.995 140.254 12.9914 137.355 11.9618C136.645 11.7113 135.936 11.4887 135.38 10.9321C135.134 10.6817 134.948 9.93031 134.424 10.3477C133.992 10.7095 134.702 11.0434 135.01 11.2939C137.694 13.4645 139.329 16.2751 140.964 19.0579C141.859 20.5884 142.29 22.2581 142.63 23.9556C142.661 24.1504 142.63 24.4287 142.938 24.4565C143.247 24.5122 143.278 24.2339 143.401 24.0669C143.987 23.093 144.049 21.9798 144.234 20.8111ZM143.648 66.1151C144.573 66.5603 145.406 66.8108 146.085 67.3395C146.856 67.9517 147.689 68.4805 148.583 68.9535C149.478 69.4266 149.756 69.3988 150.373 68.6474C150.527 68.4526 150.65 68.3135 150.99 68.3692C152.193 68.564 153.087 67.9796 153.303 66.8943C153.457 65.9481 153.488 65.002 153.365 64.0558C153.242 63.1097 153.118 63.0262 152.1 63.3601C150.558 63.8332 149.046 64.3063 147.504 64.7793C146.239 65.1689 144.943 65.4472 143.648 66.1151ZM170.918 51.8115C173.663 51.7558 176.44 51.8393 179.031 50.8375C180.357 50.3088 181.56 49.5296 182.949 49.1122C183.627 48.9174 183.565 48.6669 183.164 48.2217C182.085 46.9694 180.758 45.9676 179.37 44.9936C178.969 44.7153 178.877 44.938 178.691 45.2162C178.167 46.0789 177.673 46.9694 177.056 47.8042C175.576 49.8357 173.2 50.754 170.918 51.8115ZM111.504 67.59C113.2 67.5621 114.804 67.1726 115.792 65.9203C116.964 64.4454 117.303 62.6922 116.871 60.8834C116.625 59.9094 115.637 59.3529 114.774 59.6868C114.157 59.9373 113.54 60.299 113.231 60.8834C112.707 61.9687 112.09 63.054 111.781 64.2228C111.504 65.3081 111.072 66.3099 110.085 67.0056C109.745 67.256 109.9 67.3952 110.208 67.4508C110.609 67.5343 111.072 67.5621 111.504 67.59ZM175.977 52.368C175.915 52.1732 175.761 52.2011 175.576 52.2289C175.175 52.2567 174.743 52.3124 174.342 52.3124C170.547 52.2011 167.062 53.2307 163.668 54.6221C163.206 54.8169 162.99 55.0952 162.805 55.5126C162.527 56.1527 162.589 56.8484 162.249 57.4606C162.126 57.6832 161.879 57.9336 162.033 58.1563C162.249 58.4346 162.527 58.1841 162.774 58.1006C165.427 57.2936 167.895 56.0692 170.455 55.0952C172.028 54.5108 173.54 53.8151 175.051 53.1751C175.452 52.9803 175.792 52.7576 175.977 52.368ZM126.928 61.607C125.91 61.106 119.74 59.7981 118.815 59.8538C118.537 59.8816 118.29 59.9373 118.259 60.2434C118.105 61.3843 117.951 62.5253 117.797 63.7219C118.074 63.4436 117.92 63.1097 118.198 62.9149C118.383 63.0262 118.259 63.1653 118.259 63.3045C118.229 63.8888 117.982 64.5011 118.105 65.0855C118.198 65.5029 118.352 65.8925 119.031 65.5585C120.357 64.8907 121.745 64.2506 123.103 63.6106C124.367 62.9705 125.725 62.4696 126.928 61.607ZM108.234 50.6984C107.524 51.088 107.308 51.8393 107.833 52.1732C109.005 52.8411 108.388 53.8429 108.511 54.7056C108.511 54.7891 108.419 54.9561 108.326 54.9839C108.172 55.0395 108.049 54.9004 107.956 54.8169C107.679 54.5386 107.679 54.1769 107.586 53.8429C107.555 53.6481 107.493 53.3977 107.185 53.4255C106.876 53.4533 106.907 53.7038 106.876 53.9264C106.846 54.4551 106.969 54.9839 107.247 55.457C107.401 55.7352 107.493 56.1527 107.771 56.1805C108.511 56.2361 109.159 56.6536 109.93 56.5701C110.085 56.5422 110.208 56.4588 110.27 56.3196C110.424 55.9579 110.794 55.8465 111.164 55.7074C111.75 55.4848 112.367 55.2622 112.984 55.1787C113.632 55.0952 113.91 54.9004 113.509 54.316C112.83 53.2864 112.306 52.1732 111.781 51.0601C111.134 49.7244 111.134 49.7244 109.591 50.2809C109.283 50.3923 108.882 50.4201 108.943 50.921C109.005 51.2828 108.789 51.5889 108.326 51.5054C107.864 51.3941 108.295 51.0045 108.234 50.6984ZM126.342 165.183C125.941 165.378 125.972 165.656 126.064 165.934C126.218 166.407 126.342 166.88 126.558 167.326C127.792 169.552 128.81 171.889 130.383 173.977C133.159 177.622 135.627 181.49 139.236 184.579C139.668 184.941 140.069 185.33 140.655 185.525C140.841 185.581 141.026 185.636 141.149 185.497C141.303 185.33 141.272 185.136 141.149 184.996C141.026 184.829 140.841 184.69 140.686 184.523C139.73 183.633 138.743 182.742 137.848 181.768C135.781 179.514 134.146 176.982 132.296 174.589C130.691 172.529 128.871 170.581 127.792 168.244C127.329 167.214 126.835 166.212 126.342 165.183ZM112.152 60.7165C112.152 60.0486 110.856 59.0746 110.362 59.1859C110.301 59.2137 110.208 59.2416 110.146 59.2694C109.56 59.5755 109.036 59.9373 108.882 60.6051C108.789 61.0226 108.666 61.4678 108.481 61.8852C108.203 62.5809 108.018 63.3045 107.062 63.5549C106.876 63.6106 106.661 63.7219 106.691 63.9445C106.846 64.7515 106.938 65.5585 107.216 66.3099C107.308 66.5325 107.555 66.6438 107.771 66.7551C108.481 67.0612 109.098 66.783 109.745 66.5603C110.239 66.3655 109.992 65.8925 110.146 65.5864C110.208 65.4194 110.27 65.2246 110.393 65.0855C111.627 63.7497 111.596 62.0522 112.152 60.7165ZM55.082 57.4606C54.6502 57.1545 54.1566 57.238 53.7247 57.071C50.5473 55.8744 47.1849 55.2065 43.9458 54.1212C43.5756 53.9821 42.9895 53.5925 42.7736 53.8986C42.5268 54.2603 43.2054 54.5386 43.5139 54.8169C44.316 55.4848 45.2414 55.93 46.2594 56.3475C47.6476 56.904 48.8507 57.7667 50.1463 58.518C51.8738 59.5477 53.8173 60.2434 55.6682 61.106C55.9458 61.2452 56.1926 61.3008 56.4085 60.9947C55.2054 60.3269 54.0332 59.659 52.8301 58.9633C52.6142 58.8241 52.2749 58.7128 52.3365 58.4067C52.3982 58.1284 52.7067 57.9615 53.0152 57.878C53.6939 57.711 54.3417 57.5997 55.082 57.4606ZM155.802 66.449C155.833 66.7273 155.864 67.0056 155.895 67.2839C155.925 67.4508 155.925 67.6178 155.987 67.7569C156.172 68.2857 156.697 68.5918 157.221 68.3692C157.992 68.063 158.671 67.5621 158.64 66.783C158.64 65.6142 159.164 64.5289 159.164 63.3601C159.164 63.3045 159.226 63.221 159.288 63.1931C160.306 62.8592 160.676 62.0244 161.231 61.3008C161.355 61.1339 161.632 60.9391 161.447 60.6886C161.231 60.466 160.954 60.2712 160.583 60.3547C160.398 60.3825 160.182 60.466 159.997 60.5495C159.226 60.9391 158.486 61.3287 157.715 61.6904C157.437 61.8017 157.437 62.2192 157.314 62.1913C156.511 61.9965 156.542 62.5809 156.388 62.9427C155.925 64.0836 155.956 65.2802 155.802 66.449ZM110.517 47.359C111.504 47.3312 112.491 47.2755 113.324 47.9712C113.509 48.1104 113.786 48.0269 114.002 47.999C117.457 47.4981 120.666 46.4128 123.596 44.6597C123.689 44.604 123.812 44.5205 123.874 44.4092C124.121 43.7414 124.645 43.2683 125.108 42.7396C125.262 42.5726 125.416 42.4056 125.2 42.183C125.015 41.9882 124.799 42.016 124.553 42.0995C123.997 42.35 123.442 42.6004 122.887 42.8509C120.851 43.7135 119.092 45.0493 116.902 45.6893C114.835 46.3015 112.861 47.3868 110.517 47.359ZM150.465 19.5032C149.756 19.1414 149.046 18.9466 148.306 18.8909C147.812 18.8353 147.874 19.4475 147.535 19.5866C146.486 20.0041 146.517 20.9224 146.424 21.7016C146.146 23.8721 146.177 26.0427 145.56 28.269C146.609 27.1837 147.627 26.154 148.553 25.0966C148.861 24.7626 148.954 24.2617 149.231 23.8722C149.694 23.1208 149.879 22.4807 149.139 21.6737C148.368 20.8667 148.769 20.0597 149.879 19.6701C150.064 19.6145 150.218 19.5588 150.465 19.5032ZM118.876 66.4212C119.185 66.6995 119.401 66.9778 119.956 66.8108C123.596 65.7255 127.329 64.8072 130.815 63.3601C130.969 63.3045 131.123 63.2766 131.123 63.1097C131.123 62.9427 130.969 62.8592 130.815 62.8314C130.136 62.6088 129.427 62.3861 128.748 62.1357C128.069 61.8574 127.452 61.9131 126.866 62.2748C125.108 63.3323 123.257 64.2228 121.375 65.0576C120.481 65.4472 119.709 65.9481 118.876 66.4212ZM100.121 48.7226C94.352 46.9416 88.5525 45.411 82.6605 44.0196C82.8456 44.4371 83.1849 44.6319 83.5242 44.8545C84.7582 45.6058 86.2697 45.745 87.6271 46.2181C91.0204 47.4147 94.352 48.7504 98.0847 48.8617C98.7633 48.8617 99.442 49.0009 100.121 48.7226ZM126.527 39.8176C125.663 40.1237 124.923 40.4298 124.121 40.6524C121.098 41.4873 117.951 42.0438 114.99 43.1291C114.157 43.4352 113.262 43.5466 112.398 43.7692C112.059 43.8527 111.781 44.0475 111.812 44.4092C111.874 44.771 112.244 44.7432 112.553 44.771C113.262 44.7988 113.941 44.7153 114.619 44.5762C118.537 43.7135 122.177 42.2108 125.756 40.5968C126.064 40.4298 126.403 40.2629 126.527 39.8176ZM104.532 67.1169C104.501 66.7551 104.254 66.5047 103.761 66.3655C102.804 66.0873 101.941 66.5047 101.046 66.616C99.7196 66.783 98.424 67.0334 97.1592 67.4787C96.9433 67.5621 96.4806 67.7569 96.8507 67.9796C97.5911 68.397 98.2389 69.037 99.2261 68.9257C99.6888 68.8701 100.152 68.8701 100.614 68.8422C101.509 68.8144 102.403 68.6753 103.267 68.7588C104.162 68.8422 104.224 68.8979 104.347 68.0631C104.47 67.7848 104.501 67.4787 104.532 67.1169ZM160.954 65.4472C160.923 65.9481 160.861 66.4212 160.83 66.8664C160.799 67.6178 161.324 68.1187 162.157 68.1465C163.206 68.1744 163.422 68.0074 163.422 67.0334C163.422 66.2821 163.329 65.5029 163.298 64.7515C163.267 64.3619 163.082 64.1393 162.681 64.3898C162.157 64.6959 161.756 64.6124 161.355 64.195C161.139 63.9723 160.738 63.861 160.614 64.2228C160.429 64.7793 160.182 65.3359 160.368 65.9759C160.614 65.8368 160.553 65.5585 160.954 65.4472ZM113.725 55.7909C112.738 55.7631 111.997 56.2361 111.195 56.5144C110.948 56.5979 110.702 56.6814 110.732 56.9875C110.763 57.2658 110.856 57.4884 111.164 57.5997C111.936 57.9058 112.707 58.1841 113.509 58.4902C113.941 58.6572 114.373 58.7407 114.866 58.7685C115.206 58.7685 115.421 58.6572 115.391 58.3232C115.36 57.6554 115.206 56.9875 114.866 56.3753C114.619 55.9579 114.218 55.7352 113.725 55.7909ZM79.0512 43.7135C78.1875 43.797 78.3726 43.964 78.7427 44.2144C79.915 45.0214 81.1798 45.6615 82.4754 46.2737C85.2209 47.5538 88.244 48.0547 91.1438 48.8617C91.2055 48.8617 91.3289 48.9452 91.298 48.8061C89.1695 48.0547 87.0718 47.3033 84.9741 46.5798C83.7093 46.1346 82.4446 45.6893 81.4574 44.771C80.532 43.9083 79.2363 43.5466 78.1566 42.9065C77.879 42.7395 77.5397 42.6004 77.1078 42.7117C77.4471 43.4631 78.1258 43.6022 79.0512 43.7135ZM139.391 24.5122C138.835 25.3749 138.928 26.2932 138.897 27.1837C138.835 28.7977 138.434 30.3004 137.509 31.664C137.416 31.7753 137.355 31.9144 137.293 32.0258C137.231 32.1649 137.231 32.304 137.416 32.3875C137.54 32.4432 137.663 32.3597 137.725 32.2484C138.095 31.7753 138.496 31.3022 138.835 30.8292C140.347 28.8534 140.285 26.7663 139.391 24.5122ZM109.19 5.75611C104.748 5.03258 100.306 4.97692 95.8636 5.67262C100.306 5.97873 104.748 5.33869 109.19 5.75611ZM117.303 71.2911C116.162 70.3449 115.298 69.6492 114.002 69.8162C113.54 69.8719 113.046 69.8162 112.553 69.844C112.398 69.844 112.152 69.7049 112.121 69.9832C112.09 70.1502 111.997 70.3449 112.182 70.5119C112.367 70.6511 112.491 70.8459 112.707 70.9293C114.126 71.5416 115.637 71.5972 117.303 71.2911ZM110.671 5.89525C114.99 5.89525 119.308 6.53529 123.627 6.59095C122.177 5.86742 112.954 5.39434 110.671 5.89525ZM131.278 3.08462C130.753 3.14027 130.198 3.1681 129.673 3.25158C129.303 3.30724 128.748 3.1681 128.625 3.52986C128.501 3.8638 129.026 4.08643 129.272 4.33688C130.167 5.19955 131.278 5.17172 132.018 4.25339C132.234 3.97511 132.789 3.78032 132.573 3.44638C132.326 3.11244 131.74 3.11244 131.278 3.08462ZM121.128 74.1852C120.45 74.0461 119.987 73.9348 119.493 73.8791C119 73.8235 118.63 73.573 118.229 73.3225C117.396 72.8216 115.36 73.4339 114.712 74.2687C116.779 74.7696 118.846 74.4357 121.128 74.1852ZM147.751 18.3065C148.799 18.5013 149.725 18.6961 150.65 18.8909C150.712 18.9188 150.805 18.9188 150.866 18.9466C150.99 18.9744 151.175 18.9744 151.175 18.8353C151.175 18.4179 151.175 18.0004 150.835 17.6665C150.527 17.3326 150.157 17.0543 149.663 17.2213C148.984 17.416 148.368 17.75 147.751 18.3065ZM58.2903 34.0294C57.7967 34.0294 57.7967 34.2242 57.7967 34.419C57.735 35.059 58.3828 35.393 58.6605 35.866C58.7839 36.0887 59.0923 36.2556 59.4008 36.3391C59.771 36.4226 60.0795 36.3669 60.1103 35.9217C60.1103 35.3373 58.753 34.0294 58.2903 34.0294ZM71.0615 13.0192C71.5242 12.6018 72.1412 12.5183 72.7273 12.3235C73.3751 12.1009 73.8687 11.7113 74.3623 11.3217C74.6091 11.1269 74.5782 10.8765 74.3623 10.626C74.2389 10.4869 74.1155 10.3477 73.9304 10.5147C73.005 11.4052 71.8327 12.0174 71.0615 13.0192ZM124.213 72.0703C122.979 71.792 121.807 71.9311 120.635 71.9033C120.388 71.9033 120.141 71.9033 120.203 72.2372C120.265 72.5434 120.388 72.6825 120.697 72.4042C120.758 72.3486 120.912 72.4599 121.036 72.4599C122.116 72.5712 123.226 72.9051 124.213 72.0703ZM143.679 25.8479C145.252 25.5418 145.499 23.3712 145.067 22.2303C144.882 23.5104 144.234 24.6513 143.679 25.8479ZM66.2183 33.6398C66.2492 32.6658 66.0332 32.4432 65.1078 32.471C64.9535 32.471 64.7993 32.4432 64.7067 32.6101C64.6142 32.7771 64.7684 32.8606 64.861 32.9719C65.2312 33.278 65.3854 33.6954 65.5088 34.1407C65.5705 34.3355 65.4779 34.6973 65.7864 34.6973C66.1566 34.6973 66.1875 34.3633 66.1875 34.0572C66.2183 33.9181 66.2183 33.7789 66.2183 33.6398ZM138.558 33.4172C138.589 33.445 138.65 33.5006 138.681 33.5285C138.928 33.3615 139.175 33.2224 139.391 33.0554C139.884 32.6658 140.378 32.2762 140.871 31.8588C141.18 31.6083 140.964 31.3301 140.779 31.1353C140.625 30.9405 140.47 31.1074 140.347 31.2466C139.761 31.9423 139.144 32.6658 138.558 33.4172ZM177.643 64.9463C179.524 64.5011 181.375 64.028 183.134 63.221C181.005 63.1097 179.555 64.6124 177.643 64.9463ZM58.0126 22.6477C58.352 22.5364 58.5679 22.8147 58.7222 22.6199C58.8764 22.4251 58.6605 22.2303 58.5371 22.0633C58.3211 21.8129 58.1977 21.5624 58.136 21.2563C58.0743 20.9502 57.7967 20.6719 57.4265 20.7554C57.0563 20.8389 57.2106 21.1728 57.2723 21.3955C57.334 21.6459 57.3957 21.8964 57.4574 22.1468C57.5499 22.4529 57.6116 22.7869 58.0126 22.6477ZM112.244 89.6298C112.059 89.1567 111.627 88.9897 111.164 88.9341C110.794 88.8784 110.517 89.101 110.424 89.4071C110.331 89.6298 111.041 90.3533 111.349 90.3255C111.812 90.2698 111.997 89.908 112.244 89.6298ZM54.5268 93.1361C55.298 92.8578 55.8841 92.3847 56.3468 91.7725C56.5319 91.5499 56.5319 91.2438 56.5011 90.9655C56.4702 90.8264 56.4394 90.6872 56.2543 90.6594C56.0692 90.6316 56.0075 90.7707 55.9458 90.882C55.5448 91.689 55.1129 92.4404 54.5268 93.1361ZM98.0538 71.3746C97.3443 71.2633 96.6039 71.152 95.8944 71.0406C95.6168 71.0128 95.1849 70.7624 95.0924 71.0963C94.9998 71.4024 95.4317 71.625 95.7402 71.7642C95.8944 71.8198 96.1104 71.792 96.2646 71.8477C96.9433 72.0703 97.4369 71.5416 98.0538 71.3746Z" fill="black"/>
<path d="M119.37 108.109C120.696 108.304 121.869 108.916 123.041 109.473C123.72 109.779 124.398 110.057 125.077 110.308C125.694 110.53 126.157 111.17 126.866 111.421C127.329 111.588 127.792 111.838 128.347 111.755C128.624 111.727 128.779 111.866 128.933 112.005C130.383 113.48 132.018 114.76 133.591 116.152C135.133 117.515 136.83 118.795 137.848 120.576C138.126 121.077 138.681 121.411 138.897 121.94C138.989 122.19 139.267 122.496 138.928 122.663C138.65 122.803 138.403 122.496 138.28 122.302C137.786 121.495 137.046 120.827 136.707 119.936C136.46 119.324 136.028 118.851 135.473 118.461C133.468 117.042 131.74 115.345 129.766 113.898C127.73 112.367 125.447 111.143 122.979 110.252C121.684 109.779 120.45 109.25 119.185 108.749C118.969 108.666 118.599 108.61 118.66 108.332C118.722 107.998 119.123 108.221 119.37 108.109Z" fill="black"/>
<path d="M191.709 38.0927C191.771 38.4545 191.494 38.6493 191.123 38.8162C190.969 38.8719 190.784 38.8719 190.722 38.7049C190.537 38.1205 190.321 37.564 190.568 36.9517C190.63 36.7848 190.753 36.6735 190.938 36.6456C191.185 36.6178 191.308 36.7848 191.401 36.9517C191.617 37.2857 191.709 37.6474 191.709 38.0927Z" fill="black"/>
<path d="M131.925 25.9593C132.573 26.7107 132.697 27.5734 132.604 28.4639C132.604 28.5752 132.511 28.6865 132.357 28.6586C132.11 28.6308 131.925 28.4639 131.894 28.2412C131.802 27.3786 131.247 26.6829 130.907 25.9315C130.198 24.4288 129.087 23.1487 128.532 21.5625C129.303 22.453 130.074 23.3435 130.846 24.234C131.648 25.1523 131.833 26.3211 132.326 27.3786C132.203 26.9055 132.049 26.4324 131.925 25.9593Z" fill="black"/>
<path d="M135.01 27.3788C134.948 27.5458 135.164 27.9076 134.763 27.9354C134.486 27.9632 134.177 27.7684 134.023 27.518C133.807 27.1284 133.745 26.6831 133.714 26.2657C133.714 26.1266 133.776 25.9596 133.961 25.9874C134.208 26.0431 134.517 25.904 134.702 26.2101C134.918 26.544 135.041 26.9058 135.01 27.3788Z" fill="black"/>
</svg>
