<svg width="201" height="201" viewBox="0 0 201 201" fill="none" xmlns="http://www.w3.org/2000/svg">
<path d="M0.526952 61.649C9.76384 69.1967 19.7348 75.6455 31.6938 79.1157C30.6233 77.4674 29.8281 75.8769 30.6233 73.9972C30.6233 74.3731 30.6233 74.7201 30.6233 75.0961C30.5927 76.4552 31.1433 77.612 32.0608 78.653C33.4984 80.2724 35.4253 81.14 37.3827 81.9208C41.3283 83.5113 45.3044 85.0729 49.4335 86.2586C50.1064 86.4321 50.7487 86.6056 51.4216 86.808C51.8804 86.9526 52.0027 86.8948 52.0027 86.3742C52.0027 83.3089 52.2474 80.2725 53.012 77.2939C53.3179 76.1371 53.9296 75.0671 54.2661 73.8815C54.419 73.361 54.8778 73.0139 55.306 72.6669C56.3765 71.7705 57.5081 70.9607 58.7316 70.2667C61.1173 68.8786 63.2888 67.2013 65.5828 65.6687C66.9897 64.7433 68.3967 63.8757 69.8954 63.0949C71.4858 62.2852 71.8223 60.9261 70.7212 59.5669C70.5988 59.3934 70.4153 59.2488 70.2624 59.0753C70.0789 58.8439 70.0789 58.8439 70.4765 58.6126C69.406 58.0053 68.2437 57.774 66.9897 57.9185C66.4698 57.9764 66.1027 57.8029 65.7969 57.398C65.6439 57.1956 65.4604 57.0221 65.3381 56.8196C64.6346 55.2291 63.1971 54.6508 61.5455 54.2459C58.3034 53.4651 55.153 53.4651 52.0333 54.6219C51.6051 54.7664 51.391 54.94 51.4828 55.4026C51.5439 55.634 51.5133 55.8943 51.5439 56.1256C51.7274 57.1956 51.5133 57.5426 50.4123 57.9185C49.6476 58.1788 48.4854 57.8896 47.9348 57.1956C47.4149 56.5883 47.3537 55.8943 47.7207 55.1713C48.1489 54.3616 48.8218 53.8121 49.6782 53.4362C53.5932 51.7011 57.6611 51.2095 61.8819 51.9614C62.8301 52.1349 63.7782 52.3662 64.7264 52.5397C65.0322 52.5976 65.3381 52.6554 65.6439 52.5976C67.4179 52.2795 69.1613 51.8746 70.5988 50.7179C71.1188 50.313 71.1494 49.9371 70.66 49.5033C69.9565 48.8671 69.2531 48.1731 68.519 47.5658C67.5097 46.6982 66.8368 46.6982 65.7663 47.5079C65.5828 47.6525 65.5216 48.0285 65.1852 47.7393C64.8487 47.4501 64.5734 47.0742 64.6958 46.5825C64.757 46.2644 65.0016 45.9753 65.3381 46.0909C66.4086 46.4669 67.1732 45.9753 68.0296 45.4836C68.5802 45.1655 68.886 45.3391 68.9166 45.9753C68.9472 46.409 69.1001 46.7561 69.4366 47.0452C70.0483 47.5947 70.6294 48.1441 71.2411 48.6936C71.6693 49.0695 72.1281 49.0695 72.5563 48.7225C73.9633 47.5368 75.0338 46.0909 75.2784 44.3269C75.462 43.0256 74.6056 41.8978 73.5656 41.0302C72.6481 40.2494 71.4858 39.8446 70.293 39.5265C69.6813 39.353 69.3142 39.0927 69.1001 38.4276C68.6719 37.1552 67.5403 36.4033 66.4086 35.6803C63.35 33.7428 60.322 34.0609 57.294 35.7671C56.8047 36.0563 56.4376 35.796 56.1318 35.5357C55.673 35.1019 56.04 34.6682 56.3153 34.3212C56.5906 33.9163 56.9576 34.1476 57.2329 34.3501C57.6305 34.6682 57.9975 34.6103 58.4563 34.4657C59.5268 34.0609 60.5973 33.5693 61.8207 33.5982C64.3288 33.5982 66.5615 34.3501 68.2437 36.1141C69.8036 37.7335 71.6999 38.9481 73.6574 40.0759C74.2079 40.394 74.422 40.3073 74.5138 39.7C74.6667 38.6878 74.2079 37.907 73.5045 37.2419C72.4646 36.2008 71.3941 35.2465 70.293 34.2633C69.1613 33.2512 67.9073 32.3547 67.1121 31.0823C66.9897 30.8799 66.7756 30.7353 66.5003 30.6774C65.1546 30.4172 64.7875 29.3472 64.3899 28.335C64.1758 27.8145 65.0016 27.2072 65.6439 27.3807C66.3168 27.5832 66.8674 27.9591 67.4485 28.335C67.7238 28.5086 67.7544 28.7688 67.6932 29.058C67.5708 29.5785 67.7849 29.9545 68.1826 30.2726C70.2012 31.892 71.914 33.8006 73.5351 35.796C74.3915 36.866 75.5537 37.6757 76.716 38.4854C77.2359 38.8613 77.7865 38.8035 78.3064 38.5722C80.4168 37.6757 82.4967 36.6925 84.4236 35.4779C85.3717 34.8706 85.3717 34.6682 84.6683 33.7717C84.3318 33.3379 83.6589 32.9331 84.0565 32.3547C84.5459 31.6607 85.0353 30.7931 86.1058 30.7353C86.4728 30.7064 86.5952 30.5618 86.5034 30.3015C86.0752 29.2894 86.1364 28.1326 85.3717 27.2361C85.127 26.947 85.3411 26.6578 85.5552 26.4554C85.9223 26.0794 85.8917 25.7613 85.5858 25.3854C85.1576 24.8359 85.127 24.2576 85.7082 23.7659C85.9223 23.5924 85.8917 23.3322 85.9223 23.1008C86.167 19.486 86.2587 15.8423 86.2893 12.1986C86.3199 8.98865 86.3811 5.80763 86.4422 2.59769C86.4422 1.96148 86.534 1.32528 86.5952 0.660156C87.0539 0.804748 86.9622 1.09393 86.9622 1.29636C86.9316 6.76193 87.0234 12.2275 86.7481 17.6931C86.6563 19.486 86.7481 21.3079 86.5034 23.1008C86.4116 23.7659 86.8704 23.9105 87.421 23.9973C87.9715 24.084 88.155 24.4021 87.8186 24.807C86.8093 25.9637 86.6257 27.3229 86.8093 28.7688C86.9316 29.6653 87.1151 30.5328 87.4821 31.3426C87.788 32.0077 87.788 32.7017 87.421 33.3668C87.3292 33.5404 87.1763 33.6849 87.2986 33.9452C88.0021 33.7139 88.7056 33.4536 89.4396 33.2801C92.1923 32.6728 94.9145 32.586 97.6672 33.309C98.3095 33.4825 98.6459 33.309 98.7989 32.7306C98.9212 32.2679 99.1047 31.8053 99.2576 31.3426C100.359 27.6699 103.203 25.2119 106.048 22.8406C108.8 20.2668 112.012 18.3871 115.682 17.3461C118.832 16.4496 122.013 15.8712 125.286 16.7388C127.794 17.4039 129.905 18.7341 131.709 20.4692C132.29 21.0187 132.657 21.0476 133.3 20.6428C136.175 18.792 139.356 17.6063 142.628 16.5653C143.607 16.2472 143.638 16.1026 142.934 15.3796C141.466 13.8469 140.12 12.1986 138.285 11.0129C138.132 10.9262 137.949 10.7816 138.071 10.6081C138.224 10.3767 138.438 10.5502 138.591 10.637C139.539 11.1864 140.243 11.9962 140.977 12.777C141.802 13.6156 142.72 14.3964 143.423 15.3507C143.76 15.8134 144.127 15.7845 144.555 15.4085C144.983 15.0037 145.503 14.6856 145.993 14.3385C146.146 14.2229 146.36 14.0204 146.513 14.2807C146.635 14.4831 146.574 14.7145 146.329 14.8591C145.931 15.0904 145.534 15.2929 145.167 15.5242C144.922 15.6688 144.586 15.7845 144.708 16.1026C144.83 16.4496 145.167 16.2761 145.442 16.2761C147.981 16.0447 150.519 15.8134 153.058 15.9291C155.658 16.0447 158.227 16.3628 160.766 16.8544C161.163 16.9412 161.469 17.0858 161.714 17.4039C162.356 18.1558 162.998 18.8787 163.426 19.7752C164.038 21.1055 164.222 22.5225 164.283 23.9395C164.283 24.1997 164.222 24.46 164.405 24.6913C164.65 24.6624 164.68 24.4889 164.742 24.3443C165.048 23.5635 165.445 22.8406 165.934 22.1754C166.118 21.8862 166.363 21.5971 165.965 21.279C165.782 21.1344 165.843 20.9898 165.996 20.8452C166.149 20.7295 166.332 20.6138 166.516 20.8163C167.158 21.5103 167.556 21.8862 166.821 22.7538C166.699 22.8984 166.638 23.043 166.485 23.1587C165.048 24.2865 164.68 25.7902 164.742 27.4675C164.772 27.988 164.833 28.3061 165.476 27.988C166.424 27.5542 167.494 27.3229 168.412 26.8024C168.901 26.5421 169.207 26.1662 168.932 25.6167C167.861 23.5346 167.8 21.25 167.464 19.0233C167.372 18.416 167.25 17.7798 167.158 17.1726C167.127 17.028 167.066 16.8544 167.25 16.7966C167.464 16.7388 167.586 16.9123 167.617 17.0858C167.678 17.4328 167.678 17.8088 167.739 18.1558C168.076 19.9487 168.412 21.7417 168.718 23.5346C168.84 24.2576 169.299 24.807 169.666 25.4143C169.911 25.7902 170.094 25.501 170.247 25.3275C170.706 24.7781 171.042 24.1419 171.318 23.5057C172.113 21.6838 172.877 19.862 173.734 18.0401C174.407 16.652 174.254 15.0615 174.131 13.5578C174.101 13.124 174.07 12.777 174.407 12.4299C174.743 12.0829 174.774 11.6491 174.804 11.2154C174.866 10.6948 174.896 10.1743 174.988 9.65377C175.049 9.36459 175.171 9.04649 175.569 9.13324C175.967 9.22 175.905 9.56702 175.814 9.8562C175.722 10.2321 175.569 10.5792 175.447 10.9551C174.988 12.2853 174.957 13.7023 174.866 15.0904C174.804 16.0158 174.774 16.9123 174.682 17.8377C174.651 18.1558 174.56 18.5028 174.407 18.792C173.183 20.9609 172.327 23.2743 171.073 25.4721C171.501 25.0673 171.899 24.6624 172.357 24.2865C174.498 22.5803 175.905 20.3536 177.129 18.0112C177.679 16.9701 178.23 15.9001 178.689 14.8302C178.781 14.5988 178.872 14.4831 179.117 14.5699C179.392 14.6567 179.178 14.8591 179.209 14.9748C179.484 16.2472 178.75 17.1147 177.863 17.9244C177.71 18.069 177.588 18.2136 177.496 18.3871C176.334 20.556 174.804 22.5225 173.306 24.4889C172.877 25.0673 172.939 25.6456 173 26.3975C174.07 25.6456 175.08 24.9805 176.028 24.2286C178.444 22.32 181.289 21.1344 184.041 19.7752C185.876 18.8787 187.65 17.8955 189.516 17.0569C189.883 16.9123 190.128 16.5653 190.464 16.3339C191.198 15.8134 191.932 15.7845 192.422 16.1893C192.697 16.4496 192.758 16.7099 192.483 16.999C192.146 17.3461 191.841 17.722 191.382 17.8955C188.996 18.792 186.977 20.2957 184.622 21.25C183.735 21.5971 182.818 21.9152 181.961 22.4357C182.359 22.8406 182.91 22.9562 183.399 23.1297C185.204 23.7949 186.641 24.8359 187.283 26.6289C187.406 26.9759 187.712 27.0626 188.048 27.1494C189.73 27.5253 191.412 27.9302 193.095 28.3061C193.309 28.364 193.553 28.364 193.89 28.6531C193.278 28.5664 192.819 28.5086 192.391 28.4218C190.923 28.1037 189.455 27.8145 188.017 27.4675C187.712 27.4097 187.528 27.3518 187.589 27.7567C188.599 32.9909 186.702 37.56 183.827 41.8978C183.797 41.9556 183.766 42.0134 183.735 42.1002C183.735 42.1291 183.735 42.1291 183.797 42.3026C189.424 38.2251 194.991 34.1766 200.374 29.8966C200.252 30.3015 199.915 30.5328 199.609 30.7931C196.061 33.8006 192.33 36.5768 188.629 39.4108C186.243 41.2326 183.735 42.881 181.503 44.8764C180.463 45.8017 179.729 46.9006 178.78 47.9128C175.997 50.8914 172.969 53.6386 169.727 56.1834C166.087 59.0753 162.356 61.8225 158.38 64.2517C154.037 66.9122 149.388 69.0521 144.677 71.0764C139.906 73.1296 135.012 74.8647 130.057 76.5131C127.213 77.4674 124.399 78.3928 121.555 79.3471C120.209 79.8098 118.863 80.3014 117.456 80.6773C116.324 80.9954 115.315 81.6605 115.101 82.9619C115.009 83.4535 114.642 83.8005 114.306 84.1764C112.807 85.6224 111.094 86.8369 109.412 88.0804C109.259 88.1961 109.106 88.3118 108.923 88.4274C111.003 89.1793 113.052 89.8734 115.101 90.5385C115.621 90.712 116.019 90.712 116.508 90.365C117.303 89.7866 118.313 89.6131 119.261 89.3239C122.044 88.4853 124.95 88.0515 127.764 87.2707C130.792 86.4321 133.728 85.3621 136.664 84.2343C141.344 82.4413 145.931 80.4749 150.428 78.306C153.089 77.0336 155.688 75.5877 158.166 73.9682C158.349 73.8526 158.533 73.6791 159.022 73.6791C158.563 73.9972 158.257 74.1996 157.952 74.402C152.507 77.959 146.543 80.6195 140.457 83.0486C136.664 84.5813 132.902 86.1429 128.926 87.2707C126.234 88.0226 123.482 88.5431 120.79 89.2082C119.505 89.5263 118.251 89.9023 117.028 90.365C116.814 90.4517 116.539 90.4806 116.508 90.7409C116.477 91.0012 116.783 91.059 116.967 91.1747C117.793 91.6952 118.649 92.1579 119.414 92.7941C119.934 93.2279 120.423 93.3146 120.851 92.6784C120.912 92.6206 121.035 92.5049 121.065 92.5338C122.136 92.8809 122.962 92.2157 123.849 91.9266C127.06 90.8855 130.241 89.6709 133.33 88.2828C133.452 88.225 133.605 88.1961 133.758 88.1961C133.208 88.6588 132.535 88.919 131.923 89.2082C128.803 90.6541 125.5 91.6374 122.289 92.8519C121.86 92.9965 121.218 93.0255 121.157 93.4303C121.096 93.893 121.799 93.9219 122.166 94.1533C122.778 94.587 123.451 94.9052 124.246 95.0208C124.644 95.0787 124.95 95.31 125.194 95.5992C125.653 96.2643 126.326 96.6981 127.029 97.074C128.712 97.9994 130.302 99.1562 131.984 100.053C134.584 101.47 137 103.089 139.478 104.622C140.946 105.547 142.353 106.588 143.729 107.629C144.922 108.555 146.084 108.988 147.552 108.265C148.103 108.005 148.531 108.352 148.929 108.699C149.571 109.249 150.275 109.74 151.07 110.058C151.345 110.174 151.651 110.261 151.957 110.203C154.281 109.74 156.575 109.22 158.472 107.716C159.328 107.022 160.337 106.762 161.408 106.646C161.714 106.617 162.05 106.617 162.264 106.848C163.365 108.121 165.017 108.526 166.485 109.22C166.791 109.364 167.127 109.509 167.433 109.711C167.984 110.087 168.106 110.695 167.77 111.186C167.403 111.707 166.944 111.938 166.271 111.649C165.812 111.446 165.353 111.215 164.956 110.926C163.641 109.914 162.111 109.364 160.49 108.959C159.573 108.728 158.625 108.931 157.89 109.48C157.156 110.029 156.331 110.463 155.535 110.926C155.321 111.071 154.954 111.157 155.077 111.504C155.199 111.793 155.535 111.678 155.749 111.62C157.554 111.36 159.359 111.418 161.133 111.678C161.53 111.736 161.897 111.851 162.203 112.054C163.335 112.777 164.619 113.297 165.782 113.991C166.21 114.252 166.73 114.309 167.219 114.454C168.259 114.743 169.299 115.09 170.278 115.553C170.767 115.784 170.645 116.392 170.553 116.796C170.461 117.23 169.972 117.057 169.635 117.028C169.177 116.999 168.779 116.767 168.381 116.536C166.149 115.206 163.855 114.049 161.224 113.586C160.766 113.5 160.307 113.384 160.001 113.037C159.481 112.459 158.808 112.343 158.074 112.43C157.034 112.545 155.994 112.719 155.077 113.182C154.832 113.297 154.465 113.471 154.526 113.818C154.587 114.107 154.985 114.078 155.26 114.107C156.331 114.223 157.37 114.367 158.38 114.743C159.297 115.09 159.848 115.842 160.582 116.392C161.714 117.23 162.754 118.213 163.855 119.11C164.313 119.515 164.589 120.006 164.803 120.556C164.956 120.961 164.772 121.163 164.405 121.25C164.008 121.337 163.518 121.684 163.243 121.163C162.57 119.833 161.438 118.821 160.337 117.866C159.542 117.172 158.777 116.392 157.738 115.987C156.728 115.611 155.719 115.553 154.679 115.784C154.343 115.871 154.037 116.016 153.945 116.334C153.823 116.71 154.19 116.825 154.434 116.999C156.942 118.878 158.655 121.279 159.573 124.171C159.695 124.575 159.879 124.951 160.001 125.327C160.093 125.616 160.154 125.877 159.909 126.137C159.664 126.397 159.359 126.339 159.053 126.253C158.257 125.992 157.799 125.443 157.585 124.72C157.309 123.795 157.095 122.84 157.126 121.886C157.126 121.337 156.912 120.903 156.422 120.585C156.025 120.324 155.658 120.035 155.382 119.659C155.077 119.254 153.272 119.052 152.874 119.341C152.599 119.515 152.63 119.804 152.599 120.064C152.569 121.163 153.058 122.117 153.456 123.129C154.098 124.749 154.648 126.397 155.168 128.075C155.382 128.74 155.505 129.434 155.229 130.128C155.107 130.417 155.168 130.735 155.168 131.053C155.168 138.283 155.199 145.512 155.199 152.713C155.199 153.002 155.413 153.552 154.985 153.552C154.618 153.552 154.71 153.002 154.71 152.684C154.587 145.686 154.495 138.659 154.495 131.66C154.495 130.648 154.281 129.723 153.914 128.769C152.599 125.674 151.162 122.667 150.275 119.428C150.275 119.37 150.244 119.341 150.213 119.283C150.03 119.023 150.275 118.56 149.877 118.474C149.51 118.387 149.265 118.763 149.021 118.994C148.134 119.746 147.797 120.816 147.767 121.857C147.675 124.344 147.185 126.831 147.461 129.347C147.552 130.157 146.88 130.475 146.084 130.128C144.677 129.492 144.463 128.797 145.259 127.554C145.809 126.686 145.931 125.732 145.931 124.778C145.962 122.349 146.268 119.948 146.91 117.577C147.216 116.42 147.033 115.408 146.237 114.396C145.32 113.21 144.249 112.054 143.668 110.637C143.607 110.492 143.485 110.319 143.362 110.232C141.435 109.075 139.967 107.427 138.193 106.068C135.685 104.159 133.116 102.366 130.18 101.065C129.385 100.718 128.559 100.515 127.672 100.515C126.54 100.544 125.378 100.66 124.277 100.197C123.94 100.053 123.787 100.168 123.787 100.573C123.879 106.328 123.879 112.083 124.032 117.837C124.154 123.129 124.216 128.422 124.338 133.714C124.43 138.109 124.369 142.534 124.491 146.929C124.613 151.296 124.736 155.634 124.797 160C124.827 163.644 124.95 167.259 125.072 170.903C125.164 173.187 125.286 175.472 125.317 177.756C125.408 176.021 125.531 174.286 125.623 172.522C125.653 171.568 125.653 170.498 126.265 169.804C127.549 168.3 127.152 166.652 127.121 165.032C127.06 163.153 127.029 161.273 127.029 159.393C127.06 156.068 126.662 152.771 126.724 149.445C126.754 147.913 127.549 146.785 128.956 146.351C129.048 146.785 128.773 147.016 128.467 147.247C127.519 147.97 127.244 148.954 127.274 150.024C127.335 152.077 127.458 154.101 127.519 156.154C127.611 159.596 127.611 163.037 127.702 166.478C127.733 168.098 127.519 169.688 127.672 171.308C127.855 173.303 128.039 175.269 128.192 177.265C128.253 177.901 128.559 178.074 129.232 178.103C131.556 178.19 133.85 177.814 136.175 177.785C137.52 177.756 138.866 177.814 140.212 178.017C140.915 178.132 141.099 177.901 141.099 177.265C141.099 169.543 141.068 161.793 141.16 154.072C141.252 147.392 141.191 140.741 141.313 134.061C141.435 128.103 141.344 122.117 141.435 116.16C141.435 115.958 141.435 115.784 141.497 115.582C141.527 115.437 141.649 115.322 141.833 115.35C142.016 115.35 142.078 115.495 142.078 115.669C142.078 116.016 142.078 116.334 142.078 116.681C142.016 122.522 141.986 128.393 141.894 134.234C141.711 146.091 141.802 157.918 141.741 169.775C141.741 172.32 141.588 174.864 141.619 177.438C141.619 178.074 141.802 178.364 142.536 178.479C146.298 179.058 150.091 179.491 153.914 179.405C154.312 179.405 154.71 179.318 155.107 179.491C155.138 179.781 154.924 179.752 154.771 179.752C151.773 180.012 148.776 180.012 145.779 179.578C144.616 179.405 143.454 179.405 142.322 179.087C141.894 178.971 141.833 179.289 141.741 179.781C141.405 178.624 140.518 178.595 139.723 178.45C137.765 178.132 135.838 178.19 133.881 178.393C132.749 178.508 131.587 178.45 130.455 178.595C130.241 178.624 129.935 178.537 129.843 178.797C129.752 179.058 130.057 179.144 130.21 179.26C131.036 179.954 131.893 180.504 132.871 179.347C132.046 180.417 131.25 181.4 129.813 181.631C129.446 181.689 128.834 181.718 128.926 182.21C129.018 182.759 129.629 182.528 130.027 182.557C132.657 182.672 135.257 182.239 137.887 182.268C140.762 182.296 143.607 182.644 146.482 182.904C148.134 183.048 149.785 182.846 151.437 183.106C151.59 183.135 151.743 183.135 151.896 183.164C152.049 183.193 152.202 183.251 152.202 183.424C152.202 183.627 152.018 183.627 151.865 183.627C151.498 183.656 151.1 183.742 150.733 183.713C149.143 183.598 147.583 183.685 145.993 183.656C144.341 183.627 142.751 183.945 141.129 184.118C139.325 184.321 137.52 184.379 135.716 184.494C135.257 184.523 134.798 184.523 134.37 184.668C134.37 184.726 134.339 184.783 134.37 184.841C134.554 185.159 135.074 184.986 135.226 185.362C134.492 185.564 134.401 186.519 133.636 186.663C133.177 186.75 132.718 186.779 132.26 186.808C130.272 186.923 128.283 186.837 126.295 186.808C125.714 186.808 125.347 186.923 125.347 187.531C125.317 188.109 125.194 188.687 126.051 188.89C129.629 189.729 133.177 190.683 136.725 191.695C137.031 191.782 137.245 191.753 137.52 191.608C138.683 191.059 139.814 190.48 140.946 189.844C142.169 189.121 143.638 189.237 144.769 190.076C145.167 190.365 144.8 190.509 144.647 190.712C143.454 192.331 141.68 193.141 139.814 193.864C139.264 194.066 138.713 194.269 138.193 194.471C137.215 194.847 136.205 194.847 135.196 194.529C131.495 193.343 127.733 192.447 123.971 191.493C121.493 190.885 119.016 190.249 116.508 189.7C113.694 189.092 110.972 188.051 108.005 188.254C107.791 188.254 107.608 188.254 107.393 188.283C107.179 188.312 106.935 188.369 106.721 188.485C108.556 188.687 110.391 188.89 112.257 189.092C113.296 189.208 114.398 189.208 114.765 190.451C114.795 190.567 114.979 190.654 115.101 190.741C115.407 190.943 115.315 191.117 115.04 191.29C113.602 192.273 110.819 192.158 109.504 191.059C108.464 190.191 107.302 189.671 105.895 189.729C104.06 189.786 102.255 189.468 100.45 189.353C97.5754 189.15 94.7004 189.15 91.8253 189.034C91.7336 189.034 91.6112 189.006 91.5195 189.063C90.6631 189.555 90.1737 190.423 89.3785 190.972C89.042 191.203 89.1032 191.637 89.1032 191.984C89.1032 192.071 89.1032 192.187 89.1032 192.273C89.1949 194.066 89.1032 193.806 90.7242 194.153C91.3971 194.298 91.7336 194.616 91.8253 195.252C91.9171 195.859 91.7641 196.467 91.5806 197.016C91.4277 197.479 90.5407 197.652 89.9596 197.392C89.409 197.132 88.9503 196.727 88.5832 196.264C87.4821 194.818 86.6869 193.257 86.2281 191.521C86.1058 191.059 86.0446 190.625 86.3199 190.191C86.534 189.873 86.4116 189.642 85.9834 189.584C85.3106 189.497 84.6071 189.353 83.9342 189.353C80.9368 189.382 77.9394 189.092 74.942 189.439C70.293 190.018 65.6745 190.712 61.209 192.129C60.7808 192.273 60.322 192.36 59.8632 192.331C56.56 192.158 53.2567 192.244 49.9535 191.782C49.617 191.724 49.3112 191.695 48.9747 191.608C48.5771 191.521 48.4242 191.261 48.4548 190.914C48.5159 190.48 48.883 190.683 49.1277 190.712C52.8591 191.203 56.5906 191.146 60.2609 190.278C61.209 190.047 62.0654 189.613 63.0136 189.41C64.7264 189.034 66.4392 188.716 68.152 188.398C69.1613 188.196 70.2012 188.08 71.2411 187.907C71.6082 187.849 71.9752 187.82 72.4034 187.531C71.4552 187.328 70.66 187.56 69.8954 187.646C67.2344 187.993 64.5734 187.993 61.9125 188.312C60.4444 188.485 59.0068 188.745 57.5387 188.89C54.6943 189.15 51.8498 189.324 49.0053 189.208C48.0266 189.179 47.0172 189.208 46.0385 189.179C45.1515 189.15 44.3869 189.266 43.9893 190.191C43.8057 190.654 43.194 190.856 42.9493 191.406C42.7352 191.088 42.9493 190.856 43.0105 190.683C43.1634 190.22 43.347 189.844 43.1329 189.295C42.9188 188.803 43.4387 188.601 43.9587 188.543C45.335 188.398 46.7114 188.456 48.0572 188.572C50.4123 188.774 52.7368 188.485 55.0613 188.196C59.6797 187.617 64.2982 187.184 68.9472 186.923C69.8648 186.866 70.7518 186.721 71.6693 186.634C72.0364 186.605 72.1587 186.461 72.0364 186.114C71.7611 185.304 71.5776 184.494 71.547 183.627C71.547 183.338 71.3329 183.193 71.0576 183.164C70.7823 183.135 70.5071 183.106 70.2318 183.106C65.7051 183.048 61.1784 183.019 56.6517 182.904C51.9415 182.788 47.2313 182.528 42.5211 182.701C36.5875 182.904 30.6539 182.875 24.7508 183.28C23.7415 183.338 22.7934 182.962 21.7534 183.106C21.8452 182.73 22.0899 182.788 22.2734 182.759C26.8001 182.615 31.2962 182.123 35.8229 181.978C41.1754 181.805 46.5585 181.429 51.8804 180.937C54.8472 180.648 57.814 180.59 60.7808 180.475C64.237 180.33 67.6932 180.272 71.18 180.33C71.4552 180.33 72.0058 180.446 71.9752 180.157C71.9446 179.723 71.4552 179.983 71.18 179.954C70.4153 179.896 69.6813 180.359 68.9166 180.157C67.5097 179.81 66.0721 179.983 64.6652 179.867C63.717 179.781 62.7689 179.81 61.8513 179.781C59.2821 179.752 56.7129 179.665 54.1437 179.491C53.899 179.462 53.6543 179.491 53.3179 179.231C54.1743 179.087 54.9084 179.115 55.6424 179.173C57.2635 179.318 58.8845 179.289 60.5361 179.289C64.1758 179.289 67.8155 179.26 71.4552 179.26C72.1281 179.26 72.3116 179.058 72.3116 178.421C72.3728 172.493 71.7917 166.594 71.8528 160.666C71.8834 154.824 71.4858 148.983 71.5164 143.112C71.5164 141.464 71.3941 139.815 70.8129 138.196C70.5377 137.444 70.5377 136.577 70.4765 135.767C70.4459 135.246 71.4552 134.928 72.0669 135.275C72.8928 135.767 73.2292 136.663 73.9021 137.271C74.0244 137.357 73.9327 137.56 73.8409 137.675C72.9233 139.439 72.8316 141.348 72.7092 143.228C72.3422 149.069 72.5563 154.911 72.6481 160.781C72.6787 161.678 72.6787 162.574 72.6787 163.442C72.7398 167.404 72.7704 171.336 72.8622 175.298C72.8928 176.368 72.9539 177.467 72.9539 178.537C72.9539 179.029 73.168 179.26 73.688 179.202C76.1043 179 78.5205 179.231 80.9368 179.202C82.4661 179.173 82.8025 178.884 83.1696 177.467C83.2307 177.294 83.2613 177.091 83.3531 176.918C85.3411 172.551 86.3811 167.982 86.4116 163.21C86.4422 160.839 86.534 158.439 86.6257 156.068C86.6257 155.778 86.4728 155.576 86.3505 155.316C85.7693 154.159 84.9435 153.06 84.6377 151.874C84.1789 150.052 83.6283 148.202 83.4754 146.293C83.1084 142.273 83.0166 138.225 82.8637 134.176C82.7719 132.297 82.5578 130.446 82.4049 128.566C82.3743 128.277 82.2826 128.017 82.1296 127.756C82.0073 127.525 81.9461 127.265 82.0073 127.005C82.2214 126.021 81.4873 125.038 80.4474 124.836C80.2027 124.807 79.9581 124.749 79.7134 124.691C79.1628 124.575 79.0711 124.113 78.9793 123.679C78.8876 123.274 79.1628 123.014 79.4993 122.782C81.2732 121.597 82.8637 120.238 84.1177 118.56C84.8212 117.606 85.4941 116.623 85.9529 115.553C86.901 113.355 88.5832 111.678 90.0819 109.856C90.8772 108.873 91.4889 107.774 91.9477 106.646C92.3759 105.605 91.7641 104.622 91.3665 103.667C91.2748 103.465 91.0607 103.407 90.8466 103.523C90.5407 103.667 90.2349 103.783 90.2349 104.188C90.2349 104.622 90.3572 105.056 90.5101 105.46C90.6019 105.721 90.6936 105.981 90.6325 106.299C90.4184 105.894 90.1737 105.518 90.0208 105.113C89.7761 104.419 89.409 104.448 88.8279 104.795C86.7175 106.068 84.6071 107.311 82.4967 108.584C81.0591 109.451 79.5604 110.232 78.2453 111.273C78.1535 111.36 78.0312 111.446 77.9088 111.389C77.2971 111.128 76.7466 111.446 76.2572 111.678C73.8409 112.921 71.547 114.338 69.4977 116.102C69.3142 116.247 69.0084 116.42 69.1001 116.652C69.2225 116.912 69.5589 116.739 69.8036 116.71C70.5988 116.565 71.3023 116.883 72.0669 116.999C72.7704 117.114 73.4739 117.23 74.1774 117.23C74.8502 117.23 75.462 117.461 76.0737 117.722C77.1136 118.184 77.7559 118.098 77.6641 116.796C77.6335 116.363 77.8782 116.218 78.2453 116.218C78.704 116.218 78.704 116.565 78.6123 116.854C78.4899 117.259 78.4594 117.606 78.6123 118.04C78.7958 118.531 77.8782 119.283 77.1442 119.341C76.0125 119.428 75.0643 119.023 74.1162 118.503C72.7092 117.693 71.2105 117.143 69.5283 117.114C68.7943 117.114 68.3049 117.317 68.1214 118.011C67.6626 119.717 66.1333 120.527 64.604 120.874C63.2583 121.192 62.1878 121.828 61.1173 122.493C60.2609 123.014 59.4962 123.592 59.3739 124.72C59.2821 125.559 58.2422 126.05 57.3858 126.166C56.2541 126.311 55.3366 126.976 54.8778 127.872C54.4496 128.797 53.899 129.752 53.9296 130.88C53.9602 131.574 54.0214 132.21 54.2966 132.846C54.8472 134.118 55.3977 135.391 55.9483 136.663C56.193 137.213 56.4376 137.762 56.9576 138.167C57.2635 138.398 57.2635 138.717 57.1105 139.035C56.9576 139.382 56.6517 139.439 56.2847 139.411C55.7953 139.353 55.3977 139.179 55.1225 138.803C53.532 136.808 52.6756 134.61 52.9815 132.065C53.1038 130.937 52.4921 129.925 52.2474 128.855C52.1251 128.219 51.9415 127.554 51.391 127.062C51.1463 127.236 51.2992 127.38 51.3604 127.525C51.9721 128.711 52.2474 129.925 52.1556 131.227C52.1251 131.747 52.0027 132.21 51.6051 132.528C50.6569 133.222 50.504 134.176 50.504 135.188C50.504 136.895 50.1982 138.543 50.0452 140.22C49.9229 141.608 50.137 142.967 50.137 144.327C50.137 147.392 49.9841 150.428 50.0146 153.494C50.0452 157.34 50.0452 161.186 49.8923 165.061C49.8617 165.726 49.4335 166.247 49.4029 166.825C49.3418 167.837 49.1888 168.849 49.25 169.862C49.2806 170.353 49.2194 170.874 48.9747 171.336C49.1582 167.143 48.8218 162.979 48.883 158.786C48.9136 154.593 48.9747 150.4 48.6995 146.235C48.4242 142.042 49.0665 137.849 48.6689 133.598C47.7207 133.974 46.8643 134.176 46.3444 134.899C46.2832 134.986 46.1303 134.986 46.0079 135.015C45.2127 135.102 44.6927 135.593 44.2951 136.201C43.0105 138.138 41.7259 140.076 40.4413 142.013C40.166 142.447 39.8908 142.765 39.2791 142.447C38.6062 142.1 38.3309 141.464 38.6979 140.943C39.2791 140.133 39.8602 139.295 40.5637 138.572C41.8177 137.271 42.9188 135.94 43.5916 134.263C43.8669 133.598 44.3869 133.164 45.0903 132.875C45.6715 132.673 46.222 132.412 46.6808 132.036C47.0784 131.747 47.2619 131.4 47.2619 130.937C47.2619 130.214 47.0784 130.012 46.2832 129.983C45.2127 129.954 44.2034 130.128 43.2858 130.677C42.7047 131.024 41.9706 131.169 41.3283 131.458C38.6062 132.615 36.2205 134.234 33.9877 136.085C33.4372 136.548 32.9172 136.287 32.4584 135.998C31.9691 135.651 32.0302 135.131 32.3361 134.697C32.9172 133.887 33.6819 133.338 34.63 132.962C36.1593 132.354 37.6886 131.805 39.1873 131.111C40.319 130.59 41.2977 129.839 42.2765 129.116C42.6741 128.826 43.1023 128.537 43.5305 128.306C44.1116 128.017 44.1728 127.641 43.714 127.178C43.3164 126.773 42.7658 126.6 42.2153 126.542C40.9001 126.455 39.6461 126.802 38.3309 126.86C37.9945 126.889 37.8415 127.178 37.658 127.409C37.2604 128.017 36.6793 128.393 35.9452 128.508C33.6819 128.797 31.6326 129.665 29.5834 130.446C28.9105 130.706 28.5129 130.59 28.2988 130.012C28.0847 129.405 28.6352 129.202 29.0328 129.116C31.3879 128.711 33.376 127.496 35.4558 126.484C36.2511 126.079 37.1992 125.963 37.8415 125.269C37.9639 125.154 38.178 125.067 38.3309 125.154C39.432 125.732 40.3496 125.067 41.2977 124.749C41.9706 124.546 42.6129 124.228 43.2552 123.968C43.4999 123.852 43.7752 123.679 43.7446 123.39C43.7446 123.072 43.4081 123.043 43.194 122.985C41.3283 122.378 39.432 121.886 37.5051 121.684C36.4958 121.568 35.5476 121.973 34.63 122.32C32.3361 123.158 30.0116 123.852 27.6871 124.546C27.2589 124.662 26.8307 124.662 26.4025 124.662C26.1272 124.662 25.9131 124.546 25.8213 124.286C25.7296 124.055 25.8213 123.852 26.0049 123.708C26.4331 123.332 26.8918 122.898 27.5036 122.927C30.1951 123.072 32.4584 121.799 34.8441 120.961C35.8535 120.614 36.6793 119.92 37.6886 119.544C38.3615 119.312 39.0038 119.341 39.6767 119.573C41.5424 120.238 43.2246 121.25 44.8762 122.291C45.5491 122.725 46.2526 123.101 47.109 123.158C47.7207 123.187 48.2713 123.072 48.7606 122.696C49.0053 122.493 49.2806 122.32 49.5559 122.638C50.4734 123.65 51.6051 123.448 52.7062 123.043C54.7248 122.262 56.6823 121.337 58.5786 120.267C59.9244 119.515 61.4231 118.936 62.616 117.953C62.8606 117.751 63.1665 117.548 63.3194 117.288C64.0841 116.016 65.3381 115.293 66.6533 114.627C67.6932 114.107 68.6108 113.413 69.406 112.574C69.7424 112.227 69.8954 111.88 69.773 111.389C69.5589 110.666 69.406 110.579 68.6413 110.839C64.237 112.314 59.7715 113.471 55.1225 114.107C49.3112 114.917 43.4999 114.743 37.658 114.541C33.4372 114.396 29.2164 114.049 25.0261 113.5C19.6124 112.806 14.3211 111.591 9.2133 109.74C7.34757 109.046 5.48184 108.294 3.83021 107.195C4.38075 107.427 4.9313 107.658 5.45125 107.89C10.1615 109.856 15.0858 111.071 20.1324 111.967C22.2122 112.343 24.2921 112.632 26.4025 112.892C27.1977 112.979 27.9012 112.892 28.6658 112.632C31.1738 111.793 33.743 111.071 36.3122 110.348C39.8296 109.364 43.2552 108.121 46.742 107.08C48.9747 106.415 50.871 105.142 52.9815 104.246C51.9415 104.275 50.9628 104.564 50.0146 104.853C46.9867 105.75 43.8057 106.241 40.8389 107.34C40.6248 107.427 40.4107 107.514 40.166 107.253C39.8908 106.935 39.5237 107.311 39.1873 107.311C39.0038 107.311 38.7285 107.456 38.6673 107.195C38.6062 106.935 38.8509 106.877 39.0344 106.82C40.6554 106.299 42.2459 105.778 43.8669 105.258C48.2101 103.899 52.4003 102.25 56.5294 100.429C57.9669 99.7924 59.4045 99.214 60.9032 98.7513C61.1784 98.6645 61.4537 98.5489 61.8207 98.4043C61.3619 97.9416 60.7808 97.797 60.322 97.4789C59.955 97.2186 59.5268 97.0451 59.1904 96.727C58.2728 95.8595 57.3246 95.9751 56.193 96.3222C50.4123 98.1729 44.601 99.9659 38.7285 101.527C34.0183 102.829 29.4305 103.957 24.8426 105.056C22.4875 105.634 20.0712 106.039 17.6855 106.53C16.7068 106.733 15.7586 106.935 14.7799 107.138C14.5658 107.167 14.1988 107.369 14.1376 106.993C14.0764 106.733 14.4129 106.617 14.6576 106.53C15.6975 106.154 16.7986 105.894 17.8996 105.663C21.1723 105.027 24.3838 104.159 27.5953 103.378C33.0702 102.048 38.4838 100.573 43.8669 98.9248C47.8125 97.7102 51.7274 96.4378 55.7036 95.31C56.56 95.0497 56.5906 94.9919 56.0706 94.2979C54.7248 92.5338 53.532 90.6831 52.7062 88.6588C52.4615 88.0804 52.0945 87.7912 51.4522 87.6466C46.2526 86.3742 41.2977 84.5235 36.404 82.4703C31.5103 80.417 26.4331 78.8265 21.6923 76.4552C17.8691 74.6044 14.2294 72.4645 10.712 70.151C7.37815 67.9532 4.289 65.4952 1.35277 62.8636C1.07749 62.6033 0.802223 62.372 0.557538 62.1117C0.465781 62.025 0.435195 61.9093 0.374023 61.8225C0.435195 61.7358 0.465781 61.7069 0.526952 61.649ZM134.37 59.3934C134.309 59.4512 134.248 59.5091 134.187 59.5669C133.085 60.5501 131.984 61.5623 130.853 62.5455C129.385 63.8179 127.916 65.0903 126.815 66.6519C126.693 66.7965 126.51 66.9411 126.601 67.1724C126.724 67.4038 126.999 67.3459 127.213 67.317C127.427 67.2881 127.672 67.2303 127.886 67.1435C128.956 66.7676 130.027 66.3916 131.097 65.9868C136.542 63.9914 142.016 61.996 147.552 60.1742C148.042 60.0007 148.592 59.9718 149.021 59.5669C149.388 59.2199 149.999 59.6247 150.519 59.5091C151.62 59.2199 152.721 58.9307 153.853 58.7283C156.728 58.2077 159.389 57.2823 161.591 55.3448C161.683 55.2581 161.805 55.1713 161.989 55.3737C161.5 55.8075 161.041 56.2413 160.551 56.6461C158.625 58.2077 156.269 58.7861 153.884 59.3356C152.14 59.7404 150.305 59.9428 148.623 60.4923C144.922 61.649 141.252 62.9214 137.643 64.2517C134.309 65.4952 131.036 66.9122 127.702 68.1557C125.867 68.8208 124.369 69.6594 123.94 71.6259C123.91 71.7415 123.818 71.8572 123.757 71.944C123.206 72.5223 122.656 73.1585 122.044 73.708C120.392 75.125 118.863 76.6287 118.19 78.7109C118.129 78.9133 117.854 79.0868 118.068 79.2892C118.251 79.4338 118.435 79.2603 118.618 79.2025C121.371 78.306 124.093 77.3806 126.846 76.5131C130.577 75.3274 134.309 74.1418 138.01 72.7826C140.915 71.7126 143.79 70.5559 146.696 69.4281C151.039 67.7508 155.168 65.6976 159.083 63.2395C162.417 61.1285 165.567 58.815 168.657 56.4148C172.266 53.5808 175.783 50.66 178.903 47.3633C179.239 47.0163 179.576 46.6693 179.912 46.062C178.872 46.6404 178.046 47.1031 177.221 47.5658C174.774 48.9249 172.296 50.313 169.513 50.9781C167.372 51.4987 165.262 52.1638 163.243 53.0603C162.111 53.5519 160.98 54.0724 159.726 54.2748C157.615 54.5929 155.719 55.3159 154.037 56.5883C153.731 56.8197 153.333 56.9932 152.936 57.051C152.783 57.0799 152.63 57.0799 152.538 56.9353C152.446 56.7618 152.599 56.6461 152.691 56.5883C153.058 56.357 153.456 56.1256 153.853 55.8943C155.444 54.911 157.065 54.0724 158.992 53.8411C160.246 53.6675 161.469 53.2916 162.631 52.7711C164.619 51.8746 166.607 51.036 168.748 50.5733C172.327 49.7925 175.416 47.9706 178.505 46.2066C179.912 45.3969 181.289 44.5583 182.298 43.3437C183.797 41.5797 185.02 39.6421 185.938 37.5311C187.039 34.9863 187.895 32.4125 187.528 29.6075C187.222 27.2651 187.62 27.2361 184.653 27.2361C180.463 27.2361 176.334 27.8724 172.266 28.6531C172.082 28.6821 171.899 28.8267 171.776 28.9713C171.471 29.3761 171.103 29.6942 170.614 29.8677C170.216 30.0123 170.064 30.2726 170.216 30.6774C170.339 30.9666 170.339 31.2558 170.094 31.4872C169.421 32.1234 168.657 32.6728 167.647 32.3258C166.607 31.9788 165.904 32.3836 165.17 32.962C163.549 34.2922 161.928 35.6514 159.879 36.4322C159.573 36.5479 159.328 36.7503 159.083 36.9816C156.973 38.9192 154.862 40.8856 152.691 42.7942C149.082 46.0042 145.381 49.1563 141.466 52.0481C138.652 54.1302 136.878 57.0221 134.401 59.3645C134.431 59.2488 134.401 59.3356 134.37 59.3934ZM123.329 101.527C123.42 99.6188 122.503 98.1151 121.065 96.8716C119.536 95.5124 117.67 94.7316 115.713 94.1822C114.092 93.6906 112.562 93.7484 111.064 94.7316C109.534 95.7438 107.913 96.6981 106.231 97.5078C104.732 98.2308 103.264 98.9826 101.827 99.7924C101.49 99.9659 101.368 100.197 101.368 100.544C101.368 102.511 101.552 104.448 102.194 106.299C102.469 107.08 102.622 107.832 102.622 108.67C102.622 110.521 102.928 112.343 103.203 114.194C103.693 117.49 104.61 120.7 105.711 123.852C106.721 126.715 107.73 129.549 108.25 132.528C108.525 134.118 109.014 135.709 109.779 137.097C111.094 139.497 112.501 141.811 113.358 144.413C113.664 145.368 113.664 145.339 113.358 146.293C113.082 147.161 112.562 147.826 111.828 148.404C111.431 148.722 111.217 149.127 111.094 149.619C110.727 150.92 111.003 152.25 110.819 153.581C110.36 156.964 109.718 160.347 109.443 163.731C109.167 166.941 109.81 169.919 112.042 172.435C112.226 172.667 112.379 172.898 112.562 173.158C112.746 173.476 112.777 173.708 112.379 173.939C111.859 174.228 111.89 174.633 112.318 175.009C112.593 175.24 112.807 175.501 112.838 175.877C112.838 176.31 113.113 176.31 113.449 176.253C114.428 176.079 115.407 176.021 116.416 175.963C118.802 175.848 121.188 175.501 123.42 174.604C124.583 174.142 124.613 174.055 124.552 172.869C124.338 168.213 124.46 163.528 124.154 158.873C123.971 156.039 124.124 153.205 124.001 150.342C123.879 146.322 123.849 142.302 123.849 138.283C123.818 132.297 123.634 126.311 123.543 120.295C123.42 114.049 123.114 107.803 123.329 101.527ZM107.393 155.836C107.73 154.072 107.944 152.337 108.372 150.631C108.831 148.78 109.106 147.016 108.097 145.252C108.036 145.136 108.005 144.963 107.975 144.847C107.638 142.91 106.935 141.03 107.118 139.006C107.149 138.659 107.088 138.341 106.935 138.022C106.231 136.374 105.803 134.639 105.375 132.904C104.151 128.103 102.836 123.332 101.46 118.589C101.062 117.201 100.665 115.784 100.053 114.483C99.6858 113.673 99.1659 113.586 98.4012 114.078C97.8507 114.454 97.606 115.003 97.3919 115.553C96.719 117.317 96.6273 119.197 96.0767 120.961C94.7615 125.154 93.8746 129.463 92.8041 133.714C92.3453 135.478 92.07 137.299 91.4583 139.035C90.7854 141.001 90.3878 142.939 90.5407 144.992C90.6019 145.859 91.0301 146.611 91.3971 147.363C91.4889 147.566 91.9171 147.479 91.8865 147.739C91.8559 148.086 91.5195 147.855 91.3359 147.913C91.2748 147.941 91.2136 148.028 91.2136 148.057C91.55 148.925 91.0607 149.705 90.9077 150.515C90.6325 152.019 90.296 153.494 89.5926 154.882C89.1644 155.749 88.9503 156.646 88.9197 157.6C88.8279 162.054 88.9808 166.507 89.1032 170.96C89.1338 171.568 89.1338 172.175 89.4396 172.725C90.3572 174.373 90.7548 176.108 90.9077 177.93C91.0607 179.405 92.1006 181.14 94.211 181.342C96.2908 181.545 98.2177 181.313 100.114 180.504C101.49 179.896 102.469 179 102.867 177.698C103.203 176.628 103.417 175.443 102.561 174.402C102.377 174.17 102.316 173.939 102.5 173.679C103.173 172.753 103.662 171.712 104.457 170.845C104.671 170.613 104.794 170.324 104.855 170.006C105.344 166.999 105.895 164.02 106.659 161.07C107.21 158.93 107.21 156.906 105.925 155.026C105.222 154.043 104.794 153.002 104.641 151.817C104.549 151.122 104.396 150.428 103.693 149.995C103.387 149.792 103.203 149.532 103.54 149.243C103.845 149.011 104.243 148.867 104.549 149.272C104.824 149.648 105.038 150.024 105.13 150.486C105.65 152.337 105.803 154.303 107.393 155.836ZM108.586 46.0042C107.791 44.0956 106.445 42.534 104.947 41.0881C103.417 39.6421 101.796 38.3408 99.6553 37.7624C101.368 39.0059 102.989 40.3362 104.518 41.7821C106.017 43.2569 107.332 44.8185 108.25 46.785C107.883 46.6693 107.822 46.4669 107.73 46.3223C106.935 44.8474 105.925 43.5461 104.702 42.3605C103.173 40.9145 101.552 39.5554 99.8388 38.3119C98.7071 37.5022 97.5143 36.6925 95.985 36.7503C95.0674 36.7792 94.1498 36.8081 93.2323 36.8371C91.7947 36.866 90.449 37.1841 89.2255 37.8492C86.0446 39.5554 84.6071 42.2737 84.4542 45.6572C84.3318 48.7803 85.4941 51.5276 87.421 53.9857C89.9902 57.2823 93.324 59.7404 97.4225 61.2152C103.173 63.2685 108.189 61.8804 111.553 57.3113C113.174 55.1135 113.908 52.6843 112.929 50.1395C112.562 49.1852 112.41 48.1731 112.042 47.2187C110.758 43.8642 108.709 41.0302 105.834 38.6878C102.408 35.9117 98.5236 34.3212 93.9663 34.5525C91.9171 34.6682 90.0208 35.2755 88.3691 36.4611C88.0021 36.7214 87.8492 37.0684 88.0327 37.4154C88.2468 37.8203 88.5832 37.4443 88.7973 37.3576C91.9782 35.8827 95.2815 35.9695 98.5542 36.866C102.53 37.9359 105.375 40.5097 107.608 43.6907C108.066 44.3558 108.433 45.1366 108.586 46.0042ZM148.99 27.5832C148.99 24.1419 147.644 21.1633 145.595 18.416C145.259 17.9823 144.892 17.8377 144.28 17.9823C140.64 18.8787 137.153 20.1511 133.942 22.0019C133.422 22.2911 133.33 22.6092 133.514 23.0719C133.789 23.7659 134.064 24.46 134.431 25.1251C134.615 25.4143 134.921 25.7035 134.768 26.1373C134.584 26.7156 134.554 27.3229 134.982 27.8434C135.226 28.1326 135.104 28.4796 134.951 28.7977C134.859 28.9713 134.676 29.1158 134.462 29.058C134.187 29.0002 134.217 28.7688 134.248 28.5953C134.309 28.1037 134.462 27.6121 134.431 27.0916C134.37 25.5878 133.605 24.3443 132.994 23.0141C132.841 22.696 132.565 22.6381 132.229 22.8406C131.036 23.5635 129.874 24.3732 128.834 25.2986C127.549 26.4554 126.907 28.0169 126.204 29.4918C124.124 33.6849 122.197 37.907 120.056 42.0713C119.842 42.4472 119.689 42.881 119.536 43.2859C119.475 43.4015 119.444 43.575 119.597 43.6907C119.719 43.7775 119.842 43.7196 119.934 43.6618C122.38 42.4183 125.072 41.7243 127.641 40.741C128.283 40.5097 128.926 40.2783 129.568 40.047C130.057 39.8446 130.18 39.6132 129.721 39.2373C128.865 38.5432 127.978 37.9359 126.877 37.56C125.317 37.0395 124.919 36.4611 124.919 34.9284C124.919 34.5525 124.797 34.032 125.439 33.9741C126.02 33.9163 126.142 34.3212 126.265 34.726C126.479 35.5357 126.938 36.2298 127.641 36.7503C128.651 37.4733 129.69 38.1673 130.639 38.977C131.25 39.4975 131.74 39.5554 132.474 39.2951C136.297 37.907 140.181 36.7214 144.066 35.4779C144.922 35.1887 145.87 34.9863 146.421 34.2055C147.889 32.2101 148.929 30.0702 148.99 27.5832ZM131.801 21.3946C131.77 21.1633 131.587 21.0187 131.434 20.8741C128.834 18.3582 125.653 17.0858 121.952 16.9701C118.374 16.8834 115.07 17.9244 111.92 19.3703C107.791 21.25 104.702 24.3154 101.827 27.5832C100.512 29.0869 100.053 30.9377 99.2882 32.6439C99.013 33.2223 99.1047 33.5693 99.8082 33.8006C103.173 34.8995 106.109 36.6925 108.77 38.8903C109.657 39.6132 109.687 39.6132 110.513 38.7746C113.113 36.143 115.774 33.5404 118.557 31.0823C121.402 28.5664 124.307 26.1372 127.58 24.084C128.803 23.3032 130.088 22.6092 131.342 21.8862C131.526 21.7417 131.77 21.6549 131.801 21.3946ZM71.7917 68.0978C71.7917 67.8954 71.7917 67.664 71.7917 67.4616C71.8223 65.3795 71.8223 65.6687 69.9259 66.2181C64.604 67.8086 59.9244 70.498 55.7953 74.0261C54.5719 75.0671 53.7155 76.4552 53.532 78.0168C53.2567 80.2435 52.9815 82.4702 52.9203 84.697C52.8591 86.8948 52.9203 87.6177 56.1624 87.8202C56.3765 87.8202 56.6212 87.8202 56.8353 87.8202C58.3034 87.9069 59.7715 87.6466 61.2396 87.531C64.7875 87.2707 68.1826 86.4032 71.5776 85.391C72.1587 85.2175 72.2199 84.9283 72.1893 84.4367C72.0669 82.4124 71.914 80.3592 71.8223 78.306C71.6999 74.9226 71.547 71.5102 71.7917 68.0978ZM92.59 76.9179C92.6205 74.4888 91.6418 72.3199 90.449 70.2378C89.4396 68.5027 88.155 67.0278 86.3199 66.0157C83.4754 64.4541 80.3863 64.6855 77.2971 64.6855C76.8995 64.6855 76.6548 64.859 76.7466 65.3506C76.8689 66.0157 76.8995 66.6808 76.8995 67.3749C76.9301 72.7248 77.083 78.0747 76.6548 83.3956C76.5936 84.1764 76.6242 84.2054 77.4194 83.9451C80.7227 82.8173 84.026 81.6605 87.2986 80.5038C87.5739 80.417 88.0633 80.446 87.9409 79.9833C87.8492 79.5784 87.6351 79.3181 87.1151 79.2025C85.4941 78.8844 83.9036 78.4506 82.3132 78.0168C81.8544 77.9011 81.4568 77.612 81.0591 77.3228C80.9368 77.236 80.6921 77.1203 80.7839 76.9468C80.9368 76.7155 81.1509 76.889 81.3038 76.9758C82.1908 77.583 83.2001 77.9011 84.2401 78.1903C85.647 78.5663 87.0539 79.2603 88.5832 78.5663C89.0726 78.3638 89.3479 78.7398 89.4396 79.1446C89.5314 79.6652 89.8372 79.6941 90.2654 79.5206C90.6936 79.3471 91.0913 79.0868 91.5195 79.029C92.3147 78.9422 92.5594 78.5374 92.59 77.8722C92.59 77.5541 92.59 77.236 92.59 76.9179ZM85.9834 122.927C85.0965 122.811 84.2706 123.072 83.4448 123.274C82.986 123.39 82.3437 123.448 82.252 123.91C82.1602 124.402 82.8331 124.518 83.2001 124.72C84.9741 125.732 85.0353 125.935 83.8424 127.525C83.6589 127.785 83.3225 127.988 83.3837 128.393C83.6283 130.099 83.4448 131.863 83.6283 133.569C83.9342 136.345 83.7507 139.15 83.8119 141.926C83.873 143.835 84.1789 145.715 84.393 147.594C84.4236 147.797 84.4236 148.057 84.7294 148.086C85.3411 148.115 86.534 146.929 86.4422 146.351C86.0752 144.442 86.6563 142.736 87.6045 141.088C88.1244 140.162 88.6444 139.237 88.7362 138.196C88.8891 136.23 89.1949 134.292 89.5314 132.326C89.9596 129.723 90.2349 127.062 90.7854 124.489C91.7336 119.92 92.8652 115.379 93.8746 110.81C94.1498 109.625 94.4557 108.41 94.211 107.167C94.1498 106.848 94.1498 106.357 93.844 106.299C93.4769 106.212 93.324 106.675 93.1405 106.964C91.9477 108.728 90.6936 110.463 89.2255 112.025C88.155 113.182 87.2069 114.367 86.6257 115.813C86.1975 116.825 85.6164 117.751 84.9435 118.647C84.2095 119.659 83.4754 120.671 82.7719 121.712C82.6496 121.886 82.4355 122.088 82.6496 122.291C82.8025 122.464 83.0166 122.378 83.2307 122.349C83.6895 122.262 84.1789 122.146 84.6377 122.06C85.6776 121.857 85.6776 121.857 85.9834 122.927ZM163.916 25.1829C163.946 24.4889 163.946 23.8816 163.702 23.3611C163.365 22.696 163.304 21.973 163.243 21.25C162.998 18.7341 161.408 17.1436 158.808 16.9123C158.716 16.9123 158.594 16.8834 158.502 16.8834C154.71 16.652 150.917 16.7677 147.155 17.3171C145.656 17.5485 145.687 17.6063 146.604 18.7631C147.552 19.9198 148.501 21.1055 149.082 22.4646C150.458 25.7035 150.856 29.0291 149.785 32.4125C149.724 32.586 149.571 32.8174 149.785 32.9331C149.908 32.9909 150.122 32.9042 150.275 32.8463C152.538 31.9498 154.862 31.2558 157.156 30.5039C158.196 30.1569 159.175 29.6942 160.062 29.0869C160.949 28.4796 161.805 27.8434 162.692 27.2651C163.579 26.6867 164.13 26.0794 163.916 25.1829ZM28.4211 113.008C28.4517 113.066 28.4823 113.095 28.5129 113.153C28.6964 113.182 28.8493 113.239 29.0328 113.239C33.896 113.529 38.7285 113.76 43.5916 113.268C46.0997 113.008 48.6077 112.719 51.0546 112.256C54.3578 111.62 57.6611 110.839 60.9032 109.943C62.8301 109.422 64.757 108.844 66.5921 108.092C67.0815 107.89 67.1732 107.687 66.8062 107.311C66.2251 106.675 65.6745 106.01 65.124 105.345C64.8793 105.056 64.604 104.94 64.2064 104.969C63.7782 104.998 63.1053 105.374 62.983 104.911C62.8606 104.506 63.6253 104.448 64.0229 104.275C64.604 104.072 64.5734 103.783 64.1758 103.407C63.9617 103.205 63.7782 103.002 63.717 102.684C63.4418 101.73 62.7077 101.383 61.729 101.701C58.7316 102.655 55.7953 103.754 52.9203 104.998C51.0851 105.778 49.4029 106.848 47.476 107.427C43.1634 108.699 38.8814 109.943 34.5689 111.186C32.5196 111.765 30.4704 112.401 28.4211 113.008ZM128.253 25.3565C127.121 25.877 126.265 26.5999 125.378 27.2072C122.839 28.9423 120.515 30.8509 118.527 33.1066C116.172 35.7671 113.816 38.4276 111.461 41.0591C111.217 41.3194 111.247 41.5218 111.431 41.7532C112.195 42.6496 112.929 43.575 113.847 44.3269C114.428 44.7896 115.101 44.8764 115.774 44.645C116.416 44.4426 116.997 44.1823 117.64 43.9799C118.16 43.8064 118.465 43.4594 118.649 42.9677C118.894 42.2448 119.261 41.5507 119.658 40.8856C120.821 38.8035 122.013 36.7214 123.145 34.6393C124.797 31.5739 126.142 28.335 128.253 25.3565ZM81.5791 95.6281C80.6004 95.8016 79.7134 95.9173 78.857 96.0908C74.5444 96.9873 70.5071 98.6645 66.4392 100.226C66.1639 100.342 65.9804 100.457 65.9498 100.776C65.7663 102.944 66.1333 104.94 67.8155 106.588C68.3049 107.08 68.7331 107.224 69.406 106.964C71.2717 106.212 73.1374 105.431 74.9726 104.593C75.1867 104.506 75.3702 104.39 75.5537 104.275C75.7372 104.159 75.829 103.986 75.7678 103.783C75.7066 103.552 75.5231 103.494 75.2784 103.523C74.8197 103.581 74.5138 103.349 74.2079 103.06C73.9327 102.771 73.6574 102.511 73.3515 102.221C72.6787 101.585 72.7398 100.689 73.5045 100.168C74.1162 99.7345 74.8197 99.8502 75.462 100.082C76.0737 100.284 76.4101 100.718 76.4713 101.325C76.5019 101.643 76.4407 101.961 76.4713 102.25C76.5019 102.655 76.8077 102.944 77.2053 102.973C77.6335 103.031 77.5112 102.597 77.603 102.395C77.97 101.47 78.3676 100.573 78.9487 99.7345C79.8357 98.4621 80.7533 97.1319 81.5791 95.6281ZM106.292 70.3824C105.895 70.9897 105.589 71.3945 105.314 71.8283C105.038 72.291 104.702 72.638 104.304 72.985C104.029 73.2164 103.478 73.4477 103.662 73.7658C103.876 74.1707 104.396 73.8526 104.763 73.7369C109.718 72.1464 114.673 70.6137 119.291 68.1846C119.964 67.8376 120.117 67.2592 120.239 66.623C120.301 66.3338 120.087 66.247 119.842 66.2181C119.261 66.2181 118.771 65.9868 118.282 65.7265C117.793 65.4373 117.273 65.4084 116.753 65.6108C116.019 65.9 115.346 65.7843 114.734 65.3506C114.275 65.0325 113.816 64.7433 113.388 64.3963C113.021 64.0782 112.624 63.9625 112.134 63.9625C110.727 63.9914 109.443 64.4541 108.28 65.1481C107.822 65.4084 107.546 65.7554 107.516 66.247C107.424 67.7797 106.904 69.2546 106.721 70.7872C106.721 70.9029 106.721 71.1053 106.445 71.0764C106.415 70.9897 106.384 70.7872 106.292 70.3824ZM103.326 81.3135C103.326 82.6727 103.356 82.9619 103.631 83.4246C104.335 84.5524 104.947 84.5524 105.711 84.0318C106.476 83.4824 107.21 82.8462 108.097 82.4703C111.461 80.9954 113.021 77.9879 115.04 75.3563C115.285 75.0382 115.223 74.778 114.765 74.6623C114.52 74.6045 114.306 74.4888 114.092 74.3442C113.082 73.7369 112.012 73.7369 110.972 74.2285C109.626 74.8647 108.28 75.472 106.965 76.166C106.568 76.3685 105.925 76.542 105.956 77.0336C105.987 77.4963 106.629 77.6698 107.057 77.8433C107.73 78.1325 108.403 78.4217 108.923 78.9422C109.014 79.029 109.137 79.1157 109.076 79.2314C109.014 79.376 108.862 79.3471 108.77 79.376C107.546 79.6073 106.69 79 105.864 78.2771C105.161 77.6698 104.702 77.6698 104.304 78.4506C103.754 79.4627 103.417 80.5616 103.326 81.3135ZM72.6787 72.5223C72.5257 76.195 72.8622 79.8387 72.9233 83.4824C72.9539 85.1307 72.9539 85.1307 74.6056 84.668C74.7891 84.6102 74.942 84.5524 75.1255 84.5235C75.6149 84.4078 75.7984 84.1186 75.7984 83.627C75.7678 78.5952 75.7984 73.5634 75.7678 68.5316C75.7678 67.6062 75.7372 66.6519 75.462 65.7554C75.2173 65.0036 74.9726 64.9168 73.8409 65.0614C73.1986 65.1481 72.8316 65.3506 72.7704 66.1025C72.6481 68.2424 72.7092 70.3824 72.6787 72.5223ZM101.399 98.2597C101.429 98.491 101.307 98.9248 101.643 99.0983C101.949 99.2718 102.255 98.9537 102.53 98.8091C104.671 97.6524 106.812 96.4957 108.953 95.3389C109.871 94.8473 110.788 94.3268 111.706 93.8062C111.951 93.6617 112.226 93.5171 112.195 93.2279C112.195 92.9098 111.859 92.9098 111.645 92.823C110.697 92.3603 109.657 92.0422 108.647 91.782C105.834 91.0301 103.02 92.3314 101.98 94.8473C101.552 95.8884 101.521 97.0451 101.399 98.2597ZM133.238 42.7364C132.841 42.9967 132.535 42.9099 132.29 42.6786C131.984 42.3894 131.679 42.4472 131.342 42.6207C127.549 44.3558 123.726 46.0331 119.995 47.9128C119.567 48.1441 119.291 48.2887 119.536 48.8382C119.781 49.3587 120.087 49.4744 120.606 49.3009C121.004 49.1563 121.432 49.0695 121.83 48.9249C126.142 47.3344 130.272 45.3969 134.492 43.5461C134.737 43.4304 135.043 43.3437 134.951 43.0545C134.798 42.4761 135.226 42.2737 135.593 42.0713C137.429 41.0591 139.233 40.0759 141.068 39.0638C141.252 38.9481 141.649 38.8613 141.527 38.5722C141.405 38.3119 141.068 38.3408 140.762 38.3408C140.64 38.3408 140.518 38.3697 140.395 38.4276C138.04 39.4686 135.685 40.5097 133.361 41.5507C132.596 41.8978 132.565 42.158 133.238 42.7364ZM65.4298 92.129C64.5123 91.5217 63.5641 91.1168 62.616 90.7698C59.9244 89.7866 57.1717 89.0347 54.3578 88.4853C54.1437 88.4564 53.899 88.2828 53.7155 88.4853C53.5932 88.6299 53.7767 88.8323 53.8684 89.0058C54.6637 90.8566 55.8565 92.4471 56.9576 94.1244C57.3246 94.7027 57.8446 94.7027 58.3951 94.4714C59.6491 93.9508 60.9643 93.546 62.2489 93.1411C63.3194 92.7941 64.3593 92.476 65.4298 92.129ZM172.939 28.0169C174.346 27.7567 175.753 27.4675 177.159 27.3229C180.279 27.0048 183.307 25.9059 186.519 26.6578C186.672 26.6867 186.916 26.7445 187.008 26.5999C187.13 26.4264 186.977 26.224 186.886 26.0794C186.335 25.154 185.632 24.4021 184.622 23.8816C183.827 23.4768 182.971 23.2454 182.176 22.8984C181.747 22.696 181.38 22.7249 180.952 22.8984C178.536 23.7949 176.762 25.6167 174.59 26.8313C173.948 27.1783 173.459 27.641 172.939 28.0169ZM116.324 178.884C118.771 178.826 121.188 178.653 123.634 178.421C124.216 178.364 124.583 178.132 124.552 177.525C124.521 176.889 124.552 176.224 124.552 175.587C124.521 174.807 124.338 174.662 123.573 174.98C122.075 175.587 120.454 175.848 118.863 176.079C117.211 176.31 115.529 176.339 113.908 176.657C113.633 176.715 113.327 176.715 113.235 177.033C113.052 177.814 114.061 178.942 114.918 178.913C115.376 178.855 115.835 178.884 116.324 178.884ZM135.165 53.6386C139.967 51.383 142.934 47.3633 146.176 43.6039C144.433 43.951 142.965 44.7896 141.405 45.4258C140.212 45.8885 139.264 46.5536 138.438 47.479C137.949 48.0285 137.704 48.6936 137.306 49.272C136.45 50.66 135.685 52.077 135.165 53.6386ZM90.6936 82.6148C90.3572 82.7305 90.2043 82.7594 90.0513 82.8462C88.155 83.8294 86.1364 84.6102 84.1483 85.391C81.885 86.2875 79.6216 87.2129 77.3277 88.1383C77.1442 88.225 76.8689 88.2828 76.9301 88.5142C76.9912 88.7745 77.2665 88.6588 77.45 88.6299C78.4594 88.5431 79.4687 88.3985 80.478 88.3118C81.4568 88.225 82.4661 88.1383 83.4142 88.5142C83.7507 88.6588 84.1177 88.7166 84.5153 88.5431C87.3904 87.4153 89.2867 85.391 90.6936 82.6148ZM59.435 88.8901C59.435 88.948 59.4045 89.0347 59.4045 89.0926C61.6984 89.8155 63.9006 90.712 66.1027 91.6085C66.2862 91.6952 66.5003 91.6952 66.6839 91.6085C68.3049 90.9144 69.9259 90.2493 71.547 89.5263C72.0364 89.295 72.3728 88.0226 72.1281 87.5888C72.0364 87.4442 71.8834 87.4153 71.7305 87.4153C71.4858 87.4442 71.2411 87.4731 70.9964 87.531C67.6626 88.3118 64.2982 88.9191 60.842 88.8612C60.3832 88.8901 59.8938 88.8901 59.435 88.8901ZM50.1064 181.747C50.2899 182.152 50.5958 182.036 50.8099 182.065C53.5932 182.239 56.4071 182.181 59.1904 182.296C63.1359 182.441 67.0815 182.441 71.027 182.499C71.7305 182.499 71.8834 182.296 71.914 181.4C71.9446 180.764 71.4552 180.937 71.1188 180.937C67.5097 180.822 63.9006 180.995 60.2914 181.111C57.5999 181.198 54.8778 181.14 52.2168 181.516C51.5133 181.631 50.8405 181.66 50.1064 181.747ZM132.321 50.1106C131.097 50.7179 129.721 50.9492 128.589 51.6143C127.733 52.106 126.418 52.1638 126.387 53.523C126.387 53.5519 126.357 53.5519 126.357 53.5808C125.684 54.2459 125.531 55.1135 125.225 55.9232C125.072 56.357 125.194 56.4148 125.653 56.2991C127.152 55.8943 128.681 55.5183 130.21 55.1424C130.761 54.9978 131.159 54.7086 131.373 54.1881C131.556 53.6965 131.679 53.1759 131.77 52.6554C131.862 51.8168 131.893 50.9492 132.321 50.1106ZM91.4889 80.417C91.0301 80.2146 90.9077 80.6484 90.6019 80.7351C89.5008 81.0243 88.4303 81.3713 87.3598 81.8051C84.2095 83.0486 80.9674 84.0318 77.7253 85.0729C76.9301 85.3332 76.716 85.738 76.7771 86.461C76.8077 86.9526 76.9301 87.0683 77.4194 86.8369C78.5511 86.3453 79.6828 85.7959 80.845 85.391C84.1483 84.2054 87.3598 82.7883 90.5713 81.3713C90.9689 81.1689 91.3359 80.8797 91.4889 80.417ZM62.9524 97.9416C63.1665 97.9705 63.35 97.7681 63.5335 97.5367C63.8088 97.1897 64.1147 96.8716 64.3899 96.5246C65.124 95.5703 65.8275 94.616 66.4698 93.6038C66.5309 93.4882 66.6533 93.3436 66.5309 93.199C66.4086 93.0544 66.2557 93.17 66.1027 93.2279C63.8394 93.9798 61.6066 94.7316 59.3433 95.5124C59.1904 95.5703 58.9457 95.5703 58.9151 95.7438C58.8845 95.9462 59.0986 96.0041 59.2515 96.0908C60.1079 96.6113 60.9643 97.1319 61.8207 97.6235C62.1266 97.8259 62.463 97.9127 62.9524 97.9416ZM123.114 183.164C123.543 183.164 123.879 183.164 124.246 183.164C124.491 183.164 124.705 183.106 124.797 182.875C125.225 181.892 124.736 181.14 123.604 181.082C123.42 181.082 123.237 181.082 123.084 181.082C120.759 181.082 118.465 180.995 116.141 180.851C115.988 180.851 115.805 180.764 115.713 180.937C115.621 181.14 115.805 181.255 115.927 181.342C116.997 182.239 118.19 182.904 119.658 183.019C120.851 183.106 122.013 183.135 123.114 183.164ZM89.2561 103.031C89.2255 102.713 89.1949 102.54 89.1949 102.366C89.1338 101.817 89.0114 101.643 88.2774 101.846C87.1763 102.164 86.4116 102.684 85.647 103.494C84.5153 104.68 83.1696 105.692 81.885 106.762C81.5791 107.022 81.2121 107.195 80.9062 107.456C80.7533 107.571 80.5698 107.716 80.6921 107.947C80.8145 108.15 81.0286 108.121 81.2427 108.092C81.4262 108.063 81.5791 108.005 81.732 107.918C84.0565 106.588 86.3505 105.229 88.675 103.899C89.1032 103.61 89.3173 103.32 89.2561 103.031ZM73.8715 183.077C72.5257 183.077 72.281 183.251 72.4034 184.263C72.4646 184.755 72.5563 185.246 72.7092 185.738C72.9233 186.432 73.3515 186.576 74.0244 186.461C75.0643 186.258 76.1043 186.056 77.1136 185.709C77.8171 185.449 78.0617 184.957 77.6641 184.379C77.2971 183.8 76.8077 183.309 75.9819 183.251C75.2784 183.222 74.575 183.135 73.8715 183.077ZM131.036 41.4929C131.036 41.4351 131.006 41.4062 131.006 41.3483C130.547 41.4929 130.027 41.8399 129.66 41.6953C129.048 41.4929 128.62 41.6953 128.161 41.8688C127.396 42.1291 126.632 42.3894 125.867 42.6786C123.94 43.4015 121.983 43.951 120.087 44.7607C119.352 45.0788 118.955 45.5704 118.924 46.3801C118.924 46.9296 119.077 46.9874 119.567 46.7561C121.769 45.6861 124.001 44.6161 126.234 43.575C127.855 42.8521 129.446 42.1869 131.036 41.4929ZM124.001 59.9139C123.971 60.7815 124.154 60.8971 124.827 60.5501C125.99 59.9718 127.121 59.2777 128.314 58.7572C129.201 58.3523 129.66 57.6872 129.996 56.9064C130.18 56.5305 130.088 56.328 129.629 56.4148C128.039 56.6751 126.448 57.0221 124.919 57.6294C124.736 57.7161 124.552 57.8029 124.491 58.0053C124.338 58.6993 124.032 59.3356 124.001 59.9139ZM95.0368 116.825C94.7921 116.883 94.7615 117.114 94.7004 117.259C93.9357 119.168 93.1099 121.047 92.6205 123.072C91.7641 126.715 90.9689 130.359 90.2349 134.032C90.1737 134.263 90.2349 134.523 90.2349 134.755C90.2349 134.841 90.296 134.957 90.449 134.87C90.5101 134.841 90.5713 134.697 90.5407 134.697C90.0819 134.292 90.6631 134.118 90.7548 133.829C91.5806 131.198 92.2841 128.537 92.957 125.877C93.0793 125.385 92.8346 124.894 93.0182 124.373C93.691 122.493 94.1804 120.585 94.4251 118.618C94.4557 118.387 94.4863 118.156 94.6698 118.011C95.2509 117.606 95.2815 117.519 95.0368 116.825ZM80.3557 88.919C79.9581 88.919 79.5299 88.8901 79.1322 88.919C76.6242 89.0347 76.6242 89.0347 76.6548 91.3482C76.6548 91.406 76.6548 91.4928 76.6548 91.5506C76.5936 92.0133 76.8383 92.1001 77.2665 91.9555C78.9181 91.3482 80.6004 90.7409 82.2214 90.1336C82.4661 90.0469 82.8943 89.9601 82.8331 89.5842C82.7414 89.1793 82.4049 88.919 81.9461 88.919C81.4262 88.8901 80.8756 88.919 80.3557 88.919ZM114.52 179.694C114.856 180.359 115.499 180.359 116.049 180.417C118.71 180.706 121.402 180.532 124.063 180.561C124.705 180.561 124.797 180.301 124.705 179.26C124.644 178.653 124.277 178.855 123.94 178.913C121.585 179.231 119.2 179.52 116.814 179.491C116.049 179.491 115.315 179.52 114.52 179.694ZM81.3038 100.486C82.1602 99.9948 82.619 99.3586 83.2307 98.9248C84.393 98.0862 85.3717 97.074 86.2281 95.9751C86.6869 95.3968 86.5034 95.0497 85.7388 94.963C85.28 94.9051 84.8212 94.9341 84.3624 94.9341C83.2307 94.9919 82.8943 95.2522 82.5578 96.2643C82.0991 97.6235 82.1908 99.0983 81.3038 100.486ZM88.155 156.704C87.1457 159.104 87.6657 174.922 88.9503 177.12C89.1338 176.484 89.1949 175.819 89.1338 175.183C89.0114 173.939 88.9197 172.696 88.7362 171.452C88.2162 168.011 88.0327 164.57 88.1856 161.099C88.2162 159.596 88.155 158.063 88.155 156.704ZM88.0021 87.8202C88.8891 87.4153 89.6537 87.1261 90.3572 86.7502C92.1618 85.8248 93.7216 84.697 93.4158 82.4124C93.3852 82.1232 93.5687 81.6316 93.2628 81.5738C92.8652 81.487 92.3453 81.6316 92.0394 82.0076C91.8559 82.2389 91.703 82.4992 91.6112 82.7594C90.8772 84.668 89.562 86.2296 88.0021 87.8202ZM132.351 183.222C132.688 183.829 133.177 184.118 133.881 184.061C136.786 183.858 139.692 183.627 142.628 183.424C142.812 183.424 143.026 183.424 143.209 183.164C139.539 182.672 135.991 182.672 132.351 183.222ZM94.2416 98.491C94.1498 97.9994 94.0887 97.3921 93.9663 96.7848C93.9051 96.4378 93.7216 96.4089 93.4464 96.6403C93.0487 97.0162 92.6511 97.3921 92.2229 97.7392C91.2442 98.5199 90.2349 99.3007 89.2255 100.082C89.1032 100.197 88.9197 100.313 88.9808 100.486C89.042 100.66 89.2255 100.602 89.3785 100.573C90.7242 100.082 92.1618 99.7924 93.5381 99.3875C93.9663 99.3007 94.2722 99.0694 94.2416 98.491ZM128.039 60.3477C127.978 60.2899 127.916 60.232 127.886 60.1742C126.724 60.8393 125.439 61.302 124.307 62.0539C123.849 62.372 123.543 62.7768 123.726 63.3263C123.879 63.8468 124.032 64.3384 124.307 64.8011C124.521 65.206 124.705 65.1481 124.95 64.83C125.378 64.2228 125.837 63.6444 126.234 63.0371C126.846 62.1985 127.458 61.2731 128.039 60.3477ZM126.999 169.717C126.938 169.717 126.877 169.688 126.785 169.688C126.571 170.122 126.326 170.585 126.265 171.076C126.112 172.377 125.959 173.65 125.837 174.951C125.775 175.79 125.806 176.628 125.806 177.467C125.806 178.248 126.418 178.017 126.907 178.017C127.519 178.017 127.366 177.641 127.305 177.323C127.244 176.715 127.152 176.137 127.091 175.53C126.999 174.517 126.999 174.517 126.173 174.026C126.418 173.737 126.938 173.708 126.938 173.216C126.999 172.059 126.999 170.903 126.999 169.717ZM76.1348 90.9723C76.0431 89.0347 76.5936 88.8901 74.2079 89.8155C74.1162 89.8444 74.0244 89.9023 73.9327 89.9312C73.7186 90.0179 73.5962 90.1625 73.5962 90.365C73.5656 91.1168 73.5351 91.8398 73.7186 92.5917C73.7797 92.823 73.8409 92.9676 74.1774 92.9676C75.7678 92.9676 76.196 92.5628 76.1654 91.0879C76.1348 91.0012 76.1348 90.9723 76.1348 90.9723ZM130.608 186.258C131.311 186.229 132.015 186.2 132.718 186.143C133.269 186.114 133.514 185.767 133.514 185.275C133.514 184.668 133.024 184.755 132.657 184.726C131.434 184.61 130.241 184.812 129.018 184.841C128.651 184.841 128.131 184.726 128.161 185.362C128.192 185.94 128.375 186.345 129.109 186.287C129.599 186.229 130.119 186.258 130.608 186.258ZM77.9088 181.545C77.97 181.14 77.6947 181.053 77.2971 181.053C76.0431 181.053 74.7585 181.082 73.5045 181.053C72.6787 181.024 72.9539 181.66 72.8622 182.007C72.7398 182.499 73.1986 182.441 73.5045 182.47C74.575 182.528 75.6455 182.557 76.6854 182.644C77.6335 182.701 77.9394 182.47 77.9088 181.545ZM135.012 55.2581C131.067 58.3234 127.947 62.025 125.347 66.1025C128.345 62.3141 132.046 59.0753 135.012 55.2581ZM113.602 45.1366C113.847 46.2644 114.183 47.3923 113.694 48.4912C113.327 49.3298 113.449 50.0817 113.694 50.8914C113.725 51.036 113.694 51.2673 113.939 51.2673C114.122 51.2673 114.183 51.0938 114.214 50.9492C114.367 50.0528 114.887 49.3587 115.407 48.6358C115.499 48.4912 115.59 48.3466 115.56 48.1731C115.315 46.9296 114.765 45.8596 113.602 45.1366ZM124.521 184.147C123.114 184.147 121.677 184.032 120.27 184.176C118.924 184.321 117.762 184.061 116.691 183.309C114.856 182.065 113.144 180.706 112.226 178.682C111.951 178.074 111.828 177.409 111.614 176.773C111.828 177.988 111.89 179.202 112.624 180.272C113.388 181.4 114.245 182.441 115.346 183.28C116.386 184.061 117.578 184.668 118.985 184.465C120.821 184.234 122.686 184.176 124.521 184.147ZM68.3355 92.2736C69.4977 92.7941 70.5071 93.1411 71.547 93.2857C71.8223 93.3146 72.1587 93.3725 72.2505 93.0255C72.434 92.3603 72.6481 91.6952 72.6175 90.9723C72.5869 90.6831 72.5257 90.5385 72.1893 90.6831C70.9659 91.1747 69.7424 91.6952 68.3355 92.2736ZM113.572 47.5658C113.511 46.0909 113.266 44.7318 112.042 43.6618C111.553 43.228 111.125 42.7075 110.666 42.2159C110.574 42.1291 110.483 42.0134 110.36 42.1002C110.207 42.187 110.238 42.3605 110.299 42.4761C110.391 42.6496 110.483 42.8232 110.574 42.9967C111.492 44.4715 112.287 46.0042 112.777 47.6525C112.868 47.9995 112.929 48.6357 113.358 48.5779C113.755 48.5201 113.48 47.9128 113.572 47.5658ZM146.39 109.393C146.329 109.162 146.207 109.133 146.084 109.133C144.616 109.133 143.454 108.526 142.353 107.716C140.457 106.328 138.499 104.969 136.572 103.581C136.328 103.407 136.144 103.176 135.777 103.176C135.838 103.263 135.869 103.349 135.899 103.378C138.469 105.2 140.824 107.253 143.27 109.191C143.515 109.364 143.607 109.827 143.882 109.769C144.708 109.596 145.564 109.567 146.39 109.393ZM109.351 73.8237C109.198 73.7947 109.106 73.7369 109.045 73.7658C107.332 74.1128 105.65 74.5755 104.06 75.2696C103.662 75.4431 103.417 75.7323 103.203 76.0793C103.05 76.3106 102.959 76.5998 103.142 76.8312C103.356 77.1204 103.693 76.9179 103.907 76.8022C104.702 76.3974 105.497 75.9347 106.262 75.5009C107.271 74.9226 108.372 74.5466 109.351 73.8237ZM89.6843 138.138C89.6537 138.254 89.6231 138.369 89.6231 138.485C89.3173 139.7 89.3785 140.972 88.9197 142.158C88.4609 143.343 88.6444 144.066 89.7149 144.789C89.8067 144.847 89.8984 144.963 90.0513 144.905C90.1737 144.847 90.1737 144.703 90.1737 144.587C90.1431 143.98 90.0819 143.401 90.0208 142.794C89.8678 141.232 89.8067 139.7 89.6843 138.138ZM125.408 179.723C125.439 180.012 125.255 180.388 125.623 180.648C125.806 180.793 127.825 180.937 127.916 180.793C128.283 180.214 127.916 179.636 127.825 179.058C127.794 178.768 127.519 178.624 127.213 178.653C126.938 178.682 126.662 178.74 126.387 178.74C125.653 178.711 125.255 178.971 125.408 179.723ZM73.1069 87.6177C73.1069 87.8201 73.1069 87.9358 73.1069 88.0226C73.1069 88.8034 73.1374 88.8323 73.9021 88.5431C74.3915 88.3407 74.8808 88.1382 75.3396 87.9069C75.7372 87.7045 76.0431 86.7212 75.7678 86.2875C75.462 85.7959 75.1255 86.3164 74.7891 86.3453C74.5138 86.3742 74.2691 86.5188 73.9938 86.5767C73.2904 86.7212 72.8316 86.9815 73.1069 87.6177ZM119.444 187.965C122.717 189.006 125.959 190.191 129.446 190.596C129.201 190.509 128.895 190.451 128.651 190.365C125.99 189.41 123.298 188.572 120.545 187.878C120.117 187.733 119.719 187.675 119.444 187.965ZM82.2826 181.458C81.7626 183.077 79.8969 183.685 79.0711 185.362C79.8357 184.783 80.4474 184.523 81.3038 184.697C82.1296 184.87 82.7719 184.003 82.4967 183.222C82.3132 182.672 82.3437 182.094 82.2826 181.458ZM80.3251 180.937C79.9886 180.937 79.7745 180.937 79.591 180.937C79.0099 180.908 78.7346 181.111 78.7346 181.689C78.7346 181.892 78.6735 182.123 78.6429 182.325C78.5817 182.672 78.7346 182.846 79.1322 182.904C79.8051 182.962 80.3863 182.817 80.7839 182.239C81.0286 181.863 81.6097 181.516 81.3956 181.082C81.2121 180.706 80.6004 180.995 80.3251 180.937ZM125.928 181.255C125.714 181.255 125.408 181.255 125.408 181.516C125.408 182.094 125.072 182.817 125.623 183.222C126.142 183.598 126.724 183.135 127.213 182.846C127.458 182.701 127.702 182.586 127.855 182.354C128.161 181.892 128.039 181.602 127.458 181.516C126.938 181.4 126.448 181.342 125.928 181.255ZM139.233 192.996C139.111 192.794 138.897 192.794 138.713 192.794C137.979 192.736 137.245 192.678 136.511 192.649C136.113 192.649 135.532 192.187 135.349 192.534C135.135 192.967 135.746 193.343 136.022 193.719C136.083 193.806 136.205 193.864 136.297 193.951C136.603 194.327 136.909 194.355 137.337 194.066C137.826 193.719 138.346 193.459 138.927 193.228C139.05 193.228 139.203 193.199 139.233 192.996ZM87.6045 145.744C87.6351 146.062 87.5433 146.409 87.8492 146.611C88.3691 146.9 88.8279 147.305 89.2561 147.681C89.3479 147.768 89.4702 147.855 89.5926 147.797C89.7761 147.71 89.6843 147.537 89.6231 147.421C89.1949 146.727 89.0726 145.917 88.8891 145.165C88.8279 144.876 88.675 144.645 88.5221 144.385C88.4303 144.24 88.3691 144.037 88.155 144.095C87.9715 144.124 87.9409 144.298 87.9103 144.413C87.7574 144.847 87.5739 145.281 87.6045 145.744ZM146.054 111.157C147.094 111.302 147.736 111.099 148.011 110.232C148.072 109.972 148.195 109.74 148.287 109.48C148.348 109.335 148.439 109.133 148.317 108.988C148.134 108.786 147.95 108.959 147.767 108.988C146.818 109.104 146.451 109.885 145.931 110.492C145.748 110.695 145.289 110.839 145.411 111.128C145.534 111.446 145.962 111.128 146.054 111.157ZM63.7476 88.0226C63.8394 88.0515 63.9311 88.0804 64.0229 88.0804C66.6839 87.8491 69.2531 87.2418 71.8223 86.6056C72.0058 86.5477 72.3116 86.5188 72.2505 86.2586C72.1893 85.9983 71.914 86.0272 71.6693 86.085C70.8741 86.3164 70.0789 86.6056 69.2836 86.7791C67.4485 87.1261 65.6439 87.6466 63.7476 88.0226ZM118.863 72.0596C118.251 72.1175 118.037 72.4356 117.793 72.7537C117.517 73.1585 117.181 73.5056 116.844 72.7826C116.753 72.5513 116.539 72.4356 116.294 72.5512C115.805 72.7537 115.346 72.985 114.856 73.2164C114.765 73.2742 114.703 73.332 114.765 73.4477C114.948 73.8526 116.08 74.4309 116.447 74.1996C117.303 73.5923 118.313 73.1296 118.863 72.0596ZM131.954 184.003C131.464 183.858 131.587 183.135 131.128 183.135C129.966 183.135 128.773 183.077 127.733 183.656C127.58 183.742 127.305 183.8 127.396 184.061C127.458 184.234 127.702 184.205 127.886 184.176C129.232 184.147 130.608 184.061 131.954 184.003ZM120.851 186.895C120.851 186.952 120.821 187.01 120.821 187.068C121.922 187.444 123.023 187.82 124.124 188.196C124.338 188.283 124.705 188.456 124.674 188.022C124.644 187.646 125.041 186.981 124.46 186.923C123.267 186.779 122.044 186.895 120.851 186.895ZM109.351 139.526C109.504 140.365 109.657 141.232 109.749 142.071C109.871 143.054 109.84 143.054 110.85 143.025C110.911 143.025 111.003 143.025 111.064 143.025C111.247 142.996 111.461 143.054 111.523 142.852C111.584 142.707 111.4 142.592 111.308 142.505C110.85 142.042 110.544 141.493 110.238 140.943C109.993 140.452 109.901 139.873 109.351 139.526ZM58.2116 191.608C60.0468 192.563 61.3619 191.435 62.983 190.741C61.209 190.683 59.6491 190.741 58.2116 191.608ZM65.0322 97.1608C65.4298 97.0451 65.858 96.9294 66.2557 96.7848C66.8062 96.5824 67.3567 96.4089 67.8155 96.0619C68.1214 95.8595 68.2437 95.5414 68.0602 95.2522C67.8461 94.8762 67.5403 95.0787 67.265 95.1943C66.3474 95.6281 65.5828 96.2643 65.0322 97.1608ZM54.3578 127.583C54.9695 126.224 55.9789 125.269 56.6823 124.026C55.5507 124.344 55.2754 125.269 54.9084 126.108C54.6025 125.877 54.9084 125.414 54.4802 125.414C54.1131 125.414 53.8684 125.761 53.6238 125.992C53.3485 126.282 53.7461 126.397 53.8379 126.571C53.9908 126.86 54.1437 127.12 54.3578 127.583ZM92.7429 100.978C91.6724 100.92 90.6631 101.296 89.7149 101.643C89.3173 101.788 89.6537 102.25 89.6843 102.54C89.7455 102.8 89.9902 102.8 90.1737 102.684C91.0301 102.135 91.9782 101.73 92.7429 100.978ZM88.7973 182.644C88.3691 183.193 88.0633 183.598 87.7268 184.061C89.042 184.032 89.3479 184.263 89.7455 185.42C89.8372 185.709 89.929 186.027 90.0513 186.316C90.5407 187.473 91.7336 188.138 93.2323 187.993C91.4277 187.849 90.3878 187.01 90.0208 185.478C89.8984 185.044 89.7149 184.639 89.4396 184.321C89.0114 183.887 88.675 183.395 88.7973 182.644ZM126.662 186.114C126.938 185.882 127.58 186.461 127.641 185.767C127.672 185.362 127.702 184.755 126.877 184.812C126.02 184.87 125.47 185.159 125.531 185.651C125.653 186.374 126.295 185.969 126.662 186.114ZM98.6459 187.646C101.093 187.993 103.509 188.514 105.956 188.34C105.956 188.283 105.956 188.225 105.956 188.138C103.54 187.993 101.093 187.82 98.6459 187.646ZM108.647 166.334C108.556 168.445 110.85 173.043 112.165 173.245C110.544 171.076 108.831 169.052 108.647 166.334ZM118.282 53.5519C118.985 54.3327 119.23 55.287 119.628 56.1834C119.719 56.3859 119.75 56.8196 120.117 56.6751C120.423 56.5594 120.454 56.2124 120.331 55.9232C120.025 55.2002 119.719 54.5062 119.352 53.7543C119.108 54.1013 119.505 54.3327 119.352 54.5929C118.985 54.2459 118.771 53.7832 118.282 53.5519ZM151.315 114.28C151.406 113.529 151.1 113.124 150.886 112.69C150.489 111.851 149.693 111.186 149.632 110.174C149.632 110.058 149.51 109.972 149.388 109.943C149.235 109.914 149.174 110.029 149.112 110.145C148.806 110.579 149.143 110.926 149.357 111.244C149.999 112.169 150.825 113.008 151.315 114.28ZM111.278 90.6541C112.195 90.8566 113.021 91.059 113.847 91.2325C114.061 91.2904 114.275 91.2614 114.336 91.0301C114.428 90.7698 114.245 90.6831 114.031 90.6252C113.48 90.4517 112.929 90.2782 112.379 90.1336C111.92 89.989 111.553 90.1047 111.278 90.6541ZM123.176 186.056C123.604 186.056 124.032 186.056 124.46 186.056C124.705 186.056 124.827 185.911 124.827 185.68C124.827 185.535 124.797 185.333 124.613 185.362C123.726 185.478 122.839 185.275 121.983 185.564C121.83 185.622 121.677 185.68 121.677 185.853C121.708 186.085 121.952 186.027 122.105 186.027C122.472 186.056 122.809 186.056 123.176 186.056ZM122.044 29.0002C124.185 27.3807 126.51 25.9927 128.651 24.4021C126.265 25.7324 124.001 27.2072 122.044 29.0002ZM110.299 150.92C110.146 151.441 110.024 151.845 109.84 152.221C109.504 152.886 109.565 153.725 109.657 154.477C109.687 154.679 109.626 154.969 109.932 154.969C110.177 154.969 110.146 154.679 110.177 154.506C110.36 153.378 110.391 152.221 110.299 150.92ZM115.193 46.1488C115.346 46.9296 115.652 47.5079 115.988 48.0574C116.294 48.5779 116.722 48.1441 117.059 48.0285C117.487 47.855 117.089 47.6236 116.936 47.479C116.447 46.9874 116.019 46.438 115.193 46.1488ZM98.3707 181.978C97.0555 181.978 95.832 181.978 94.7004 181.978C96.8414 182.875 97.606 182.991 98.3707 181.978ZM73.1069 180.301C74.6667 180.301 76.196 180.301 77.6947 180.301C77.8171 180.301 77.97 180.272 77.97 180.128C77.97 179.867 77.7253 179.925 77.5724 179.925C76.196 179.925 74.8197 179.954 73.4433 179.954C73.321 179.954 73.1986 179.983 73.1069 180.301ZM66.0416 94.9919C66.9897 94.587 67.5403 93.6906 68.519 93.3436C68.7637 93.2568 68.6108 93.0544 68.4272 92.9965C67.9379 92.7941 67.4791 92.6784 67.1426 93.2568C66.8062 93.8641 66.4086 94.4135 66.0416 94.9919ZM113.082 144.963C112.777 143.43 112.501 143.228 111.339 143.517C111.186 143.546 111.033 143.575 111.003 143.748C110.972 143.922 111.125 144.009 111.247 144.066C111.798 144.356 112.379 144.645 113.082 144.963Z" fill="black"/>
<path d="M81.7319 194.182C81.5484 194.905 82.0072 195.396 82.3742 195.917C82.6801 196.322 83.0471 196.611 83.6282 196.611C84.3011 196.611 84.607 196.987 84.607 197.652C84.607 199.185 84.3011 199.503 82.833 200.139C81.0285 200.92 79.2851 200.775 77.5417 200.023C77.2358 199.879 76.8994 199.705 76.6241 199.503C76.1347 199.098 76.043 198.664 76.5018 198.143C77.5111 196.958 78.8875 196.177 80.2026 195.396C80.7532 195.049 80.8755 194.239 81.7319 194.182Z" fill="black"/>
<path d="M141.466 113.412C141.221 113.875 140.487 113.759 140.487 114.279C140.487 114.713 141.068 114.945 141.068 115.523C139.6 114.684 137.949 114.829 136.389 114.569C135.808 114.482 135.593 114.106 135.838 113.614C136.052 113.152 135.991 112.776 135.746 112.4C135.349 111.85 135.563 111.33 135.93 110.867C136.205 110.52 136.542 110.26 137.031 110.376C137.52 110.491 137.459 110.925 137.49 111.272C137.52 111.532 137.582 111.793 137.582 112.053C137.582 113.441 138.499 113.875 139.906 113.614C140.395 113.528 140.885 113.325 141.466 113.412Z" fill="black"/>
<path d="M63.2889 178.451C58.7316 178.422 54.2049 178.046 49.6783 177.757C45.1516 177.439 40.6861 176.86 36.1288 176.803C37.811 176.629 39.4932 176.658 41.1754 176.774C44.2646 176.976 47.3537 177.352 50.4429 177.468C52.798 177.583 55.1531 177.844 57.5082 178.075C58.9151 178.22 60.3527 178.075 61.7596 178.277C62.2796 178.364 62.7995 178.393 63.2889 178.451Z" fill="black"/>
<path d="M158.349 185.939C157.248 186.026 156.239 186.026 155.26 185.968C152.722 185.823 150.214 185.563 147.706 185.1C147.461 185.043 147.033 185.129 147.063 184.782C147.094 184.464 147.491 184.522 147.767 184.551C150.978 185.014 154.22 185.216 157.462 185.476C157.738 185.505 158.074 185.534 158.349 185.939Z" fill="black"/>
<path d="M167.403 15.0332C167.219 15.4091 167.525 15.6115 167.555 15.8429C167.586 16.0742 167.617 16.3634 167.28 16.4212C167.005 16.4791 166.944 16.2477 166.852 16.0164C166.516 15.2067 166.73 14.2813 166.21 13.5294C166.087 13.3559 166.21 13.1535 166.454 13.0667C166.669 12.9799 166.883 13.0667 166.944 13.2691C167.097 13.8764 167.25 14.4837 167.403 15.0332Z" fill="black"/>
<path d="M15.5445 180.012C13.587 180.157 11.7519 180.215 9.91674 180.186C9.76381 180.186 9.58029 180.157 9.54971 179.983C9.51912 179.81 9.73322 179.752 9.85557 179.752C11.6907 179.752 13.4953 179.665 15.3304 179.781C15.361 179.781 15.3916 179.868 15.5445 180.012Z" fill="black"/>
<path d="M134.37 59.3934C134.584 60.0296 134.829 60.6658 134.982 61.331C135.074 61.7937 135.257 61.9093 135.716 61.7069C136.358 61.4177 137.031 61.1864 137.673 60.8683C139.753 59.885 141.925 59.1621 144.005 58.1789C146.115 57.1956 148.042 55.9521 149.785 54.4484C152.263 52.2795 155.107 50.6312 158.013 49.0117C162.295 46.6404 166.516 44.1824 170.645 41.5508C172.694 40.2495 174.835 39.006 176.976 37.8203C176.854 38.2252 176.487 38.4276 176.15 38.6879C173.55 40.7122 170.584 42.2448 167.77 43.9799C164.069 46.2356 160.337 48.4334 156.514 50.5155C154.006 51.8746 151.712 53.4941 149.571 55.3159C147.522 57.08 145.075 58.2945 142.598 59.3934C139.845 60.6369 137.062 61.8515 134.278 63.0371C133.575 63.3263 132.841 63.5288 132.321 64.1071C132.229 64.1939 132.046 64.2517 131.923 64.2806C131.77 64.3095 131.587 64.3385 131.495 64.2228C131.373 64.0782 131.526 63.9625 131.617 63.8469C132.137 63.2106 132.78 62.719 133.636 62.5166C134.768 62.2274 134.768 62.1985 134.462 61.1574C134.309 60.6369 134.248 60.0585 134.156 59.538C134.248 59.5091 134.309 59.4513 134.37 59.3934Z" fill="black"/>
<path d="M98.6765 39.5547C99.8082 39.5547 100.848 39.8439 101.735 40.509C103.784 41.9838 105.497 43.7189 106.445 46.0324C107.791 49.3002 106.017 53.0885 103.693 54.7368C101.827 56.0671 99.6552 56.0382 97.606 55.1706C94.5474 53.8982 92.804 51.4691 92.1312 48.5483C91.5194 45.83 91.9171 43.1695 94.3639 41.1741C95.6179 40.1909 97.0249 39.5547 98.6765 39.5547ZM100.879 53.0017C102.072 53.0596 103.142 52.6836 104.182 52.192C105.467 51.5558 106.017 50.5148 106.048 49.1845C106.139 45.5408 103.754 42.1863 100.053 40.7114C97.7895 39.815 95.0368 40.7403 93.9051 42.7935C93.4158 43.6611 93.0793 44.5576 92.957 45.5119C92.8652 46.3794 92.5594 47.3048 93.4463 47.9989C93.5075 48.0278 93.5075 48.1724 93.5075 48.2591C93.2934 49.1556 93.8134 49.7918 94.3945 50.2834C96.2296 51.845 98.3095 52.9439 100.879 53.0017Z" fill="black"/>
</svg>
