<svg width="201" height="224" viewBox="0 0 201 224" fill="none" xmlns="http://www.w3.org/2000/svg">
<path d="M0.0678711 38.9863C0.175561 39.023 0.283251 39.0598 0.337096 39.1332C2.4909 42.1069 4.96777 45.0071 6.7985 48.0909C7.22926 48.8252 7.17542 49.5961 7.01388 50.5874C6.20621 49.6696 5.82929 48.8252 5.39853 48.0175C3.94472 45.3375 2.22167 42.731 0.0678711 40.2713C0.0678711 39.8307 0.0678711 39.4269 0.0678711 38.9863Z" fill="black"/>
<path d="M0.0678711 80.9845C2.11398 79.8097 3.35242 78.2311 4.6447 76.6525C5.56007 75.5511 6.20621 74.3763 6.96004 73.0547C7.60618 74.8903 3.08319 80.6908 0.0678711 82.0492C0.0678711 81.7187 0.0678711 81.3516 0.0678711 80.9845Z" fill="black"/>
<path d="M128.65 128.346C128.65 127.649 129.188 127.208 129.458 126.694C129.835 125.997 130.104 125.263 129.188 124.712C128.004 124.051 126.658 123.5 125.042 123.684C124.396 123.757 124.288 124.161 124.342 124.565C124.504 126.658 124.935 128.75 125.635 130.806C125.742 131.063 125.85 131.283 126.173 131.43C126.496 131.577 126.927 131.687 126.604 132.054C126.335 132.385 125.958 132.532 125.419 132.532C124.881 132.532 124.773 132.238 124.665 131.981C124.342 131.247 124.342 130.476 124.288 129.705C124.288 129.411 124.396 128.897 123.75 128.897C123.212 128.934 123.481 129.411 123.481 129.668C123.481 130.586 123.642 131.504 124.019 132.385C124.45 133.339 123.912 134.257 123.481 135.175C123.265 135.652 122.458 135.726 121.812 135.762C120.627 135.836 119.389 135.872 118.204 135.946C117.289 135.983 116.912 135.726 116.858 135.101C116.481 131.467 116.481 127.832 117.719 124.271C117.827 124.014 117.773 123.647 118.258 123.611C118.796 123.537 118.958 123.941 119.119 124.198C119.604 124.749 119.389 125.409 119.442 125.997C119.658 128.787 120.304 131.577 120.196 134.404C120.196 134.808 120.196 135.212 120.896 135.395C121.65 135.579 122.027 135.248 122.458 134.918C122.942 134.551 123.05 134.11 123.05 133.633C123.05 129.998 122.296 126.437 121.327 122.913C121.273 122.766 121.165 122.619 121.058 122.509C119.335 121.334 117.612 120.123 115.835 118.948C115.242 118.581 114.704 118.875 114.381 119.242C112.443 121.481 110.396 123.647 109.32 126.18C109.05 126.841 109.158 127.245 110.343 127.392C113.519 127.796 113.519 127.832 114.327 125.74C114.596 125.042 115.027 124.418 115.835 123.941C116.05 123.831 116.212 123.647 116.535 123.757C116.858 123.868 116.696 124.088 116.642 124.235C116.212 126.658 115.673 129.081 115.673 131.54C115.673 132.825 115.727 134.11 115.889 135.395C115.996 136.386 116.104 137.341 115.942 138.332C115.404 141.71 116.05 144.977 117.773 148.134C117.989 148.501 118.15 148.869 118.312 149.272C118.796 150.447 118.096 151.035 116.319 150.998C115.889 150.998 115.404 150.924 114.973 150.924C114.489 150.888 114.166 150.704 114.327 150.374C115.404 148.355 114.219 146.372 113.896 144.426C113.196 140.021 112.927 135.579 113.035 131.173C113.035 130.476 113.358 129.778 113.466 129.081C113.627 128.236 113.304 127.943 112.066 127.943C111.743 127.943 111.419 127.943 111.15 127.906C108.727 127.759 108.673 127.759 108.566 129.448C108.243 134.551 108.296 139.654 108.458 144.757C108.566 147.914 108.673 151.035 108.835 154.192C108.889 155.624 109.266 156.982 109.912 158.34C110.181 158.928 110.558 159.515 111.743 159.442C112.012 159.405 112.443 159.295 112.496 159.625C112.55 159.735 112.389 159.919 112.281 160.029C112.066 160.213 111.743 160.139 111.419 160.066C108.727 159.442 107.596 158.083 107.489 156.027C107.327 151.952 106.52 147.877 106.035 143.802C105.981 143.068 105.55 142.37 104.743 141.82C104.097 141.343 103.827 140.792 103.881 140.131C103.935 139.177 104.043 138.259 104.204 137.304C104.204 137.194 104.312 137.047 104.42 136.974C106.197 135.872 106.573 134.404 106.735 132.899C106.897 131.43 107.004 129.962 107.112 128.493C107.112 128.273 107.22 127.906 106.735 127.906C106.25 127.906 106.304 128.236 106.25 128.457C105.927 130.329 105.981 132.238 105.497 134.11C105.281 134.808 104.958 135.469 104.312 136.019C103.72 136.533 103.289 136.46 102.75 135.983C101.458 134.844 101.081 133.486 100.974 132.091C100.704 129.705 100.274 127.355 100.92 124.969C100.974 124.785 101.027 124.565 100.704 124.492C100.274 124.382 100.22 124.675 100.112 124.859C99.5736 125.74 99.2505 126.658 99.4659 127.612C99.8966 129.558 99.6813 131.577 100.327 133.523C100.758 134.698 101.189 135.836 102.481 136.717C103.235 137.231 103.289 137.892 103.127 138.589C102.75 140.021 102.75 141.416 104.312 142.627C105.281 143.362 105.443 144.426 105.443 145.418C105.389 148.832 106.197 152.173 106.681 155.55C106.896 157.092 106.843 158.561 106.358 160.102C105.712 162.232 106.035 164.434 105.82 166.6C105.658 168.546 105.443 170.492 105.066 172.438C105.012 172.695 104.743 173.062 105.281 173.172C105.766 173.282 105.873 172.842 105.927 172.621C106.143 172.107 106.304 171.557 106.358 171.006C106.627 167.885 107.004 164.802 107.004 161.681C107.004 160.91 106.735 159.845 107.866 159.515C108.889 159.221 109.912 160.066 110.881 160.47C111.527 160.727 112.066 161.241 111.958 161.754C111.743 163.26 112.712 164.471 113.843 165.646C115.242 167.114 116.858 168.436 119.012 169.427C119.981 169.868 121.004 170.235 122.242 170.308C123.481 170.382 124.181 170.896 124.881 171.557C126.335 173.025 126.873 174.53 126.119 176.256C125.85 176.88 126.012 177.541 126.065 178.165C126.335 180.404 126.227 182.607 126.173 184.846C126.173 185.067 126.119 185.287 125.958 185.471C125.688 185.838 125.204 185.727 124.773 185.581C124.235 185.397 124.665 185.25 124.827 185.103C125.204 184.773 125.15 184.406 125.15 184.039C125.042 181.102 124.935 178.165 124.881 175.228C124.881 174.861 124.827 174.457 124.45 174.2C122.942 173.172 121.435 172.144 119.496 171.41C114.381 169.537 111.743 166.49 110.989 162.636C110.881 162.011 110.881 161.351 110.235 160.837C109.912 160.543 109.535 160.249 108.889 160.359C108.189 160.47 108.243 160.91 108.243 161.24C108.027 163.663 107.866 166.123 107.65 168.583C107.596 169.244 107.489 169.941 107.489 170.602C107.435 171.74 107.704 172.731 109.427 173.392C110.881 173.943 111.043 174.751 110.181 175.742C109.643 176.366 109.32 176.88 110.235 177.467C110.396 177.541 110.45 177.761 110.396 177.908C110.02 179.34 110.989 180.661 111.096 182.056C111.15 182.937 111.85 183.525 112.927 183.965C113.25 184.112 113.789 184.149 113.681 184.516C113.519 184.92 112.981 184.773 112.55 184.773C111.473 184.773 110.396 184.92 109.373 185.14C107.65 185.507 106.089 184.7 106.681 183.561C107.812 181.322 107.058 179.156 106.95 176.953C106.896 175.815 106.304 174.971 105.227 174.163C104.958 173.943 104.689 173.796 104.258 173.759C102.05 173.612 100.004 173.062 97.9044 172.658C96.8275 172.474 96.3967 171.814 96.0736 171.189C95.2121 169.391 94.8352 167.555 94.9967 165.683C94.9967 165.499 95.0506 165.316 95.0506 165.132C95.0506 164.912 95.2121 164.545 94.7275 164.508C94.2968 164.471 94.2429 164.838 94.2429 165.059C94.0275 166.307 94.0275 167.555 94.2968 168.803C94.4583 169.684 94.7814 170.529 95.2121 171.373C95.7506 172.328 95.3198 172.695 93.8121 172.585C93.2737 172.548 92.6276 172.548 92.1429 172.181C93.2737 171.74 93.4352 171.043 93.3814 170.235C93.2737 168.326 93.166 166.454 93.8121 164.581C94.0275 163.994 93.5968 163.59 92.9506 163.26C91.6045 162.525 90.2584 161.754 89.0738 160.873C88.8584 160.69 88.5892 160.543 88.8584 160.323C89.1815 160.066 89.3969 160.396 89.6122 160.506C90.7968 161.24 92.0353 161.975 93.2199 162.709C93.5968 162.929 93.9198 163.113 94.4044 163.003C94.889 162.893 95.3198 162.929 95.3737 163.443C96.2352 162.195 96.7198 160.91 97.7428 159.735C98.389 160.286 98.0659 160.763 97.8505 161.24C97.5813 161.865 97.2044 162.452 96.989 163.076C96.5582 164.141 96.7736 165.169 97.8505 166.013C99.7351 167.482 101.135 169.134 102.589 170.786C102.858 171.116 103.073 171.667 103.72 171.557C104.42 171.41 104.635 170.896 104.689 170.345C104.689 169.758 104.797 169.17 104.797 168.62C104.85 164.251 105.497 159.882 105.173 155.513C105.012 153.237 104.097 151.071 103.72 148.795C103.558 147.73 103.504 146.666 103.504 145.601C103.504 145.234 103.666 144.757 103.02 144.647C102.266 144.536 102.158 145.05 101.943 145.418C101.243 146.446 100.704 147.51 100.381 148.612C99.9505 150.08 98.8197 151.292 97.4198 152.356C95.589 153.788 93.6506 155.11 92.1968 156.762C91.9814 156.982 91.7122 157.202 91.3891 157.386C91.1199 157.569 90.7968 157.79 90.4737 157.569C90.043 157.276 90.5814 157.165 90.8507 157.055C91.5507 156.762 91.9276 156.321 91.9276 155.77C91.9814 154.816 92.5737 153.971 93.5968 153.347C96.8813 151.402 98.4967 148.795 99.6813 146.042C100.274 144.647 100.758 143.252 102.32 142.224C102.535 142.077 102.804 141.893 102.535 141.673C102.212 141.453 101.943 141.71 101.727 141.82C101.027 142.187 100.435 142.554 100.166 143.141C99.2505 145.014 98.2813 146.886 97.3121 148.758C96.7198 149.86 95.8044 150.851 94.6198 151.695C93.2199 152.687 91.6045 153.531 90.9584 155.11C90.3661 154.485 90.6891 154.118 91.0122 153.788C92.0353 152.576 93.2737 151.438 94.6198 150.374C96.1813 149.162 96.989 147.73 97.5275 146.225C98.9274 142.224 99.1428 138.185 98.712 134.11C98.389 131.43 98.5505 128.75 98.4967 126.034C98.4967 125.703 98.7659 125.263 98.2813 125.116C97.7967 124.932 97.3121 125.336 96.8813 125.52C96.3967 125.777 95.9121 126.07 95.4275 126.327C95.2121 126.437 94.9429 126.584 94.7275 126.364C94.5121 126.144 94.8352 126.034 95.0506 125.923C96.1813 125.373 97.3121 124.822 98.389 124.235C99.8966 123.464 100.004 123.133 99.1967 122.032C99.0351 121.775 98.7659 121.555 98.9813 121.224C99.7889 121.298 99.9505 121.775 100.22 122.142C100.65 122.766 101.135 122.766 101.62 122.179C101.997 121.738 102.104 121.298 101.997 120.784C101.458 118.765 100.112 117.039 98.0659 115.534C98.0121 115.497 98.0121 115.497 97.9582 115.46C96.6121 115.13 95.8044 114.506 95.1583 113.625C94.9429 113.294 94.4583 113.037 94.2429 112.67C93.866 111.973 93.2199 111.385 92.5737 110.798C91.1199 109.513 90.743 109.44 88.4815 109.917C88.1584 109.99 87.8353 110.211 87.5123 109.954C87.1892 109.733 87.4584 109.476 87.5661 109.293C87.8892 108.779 88.2661 108.302 88.643 107.824C88.7507 107.641 88.9661 107.421 88.5353 107.274C88.1584 107.164 87.943 107.347 87.7815 107.531C87.2969 108.155 86.8123 108.816 86.2738 109.513C85.6815 109.219 85.7354 108.779 85.6277 108.375C85.4123 107.164 84.8739 106.796 83.097 106.613C81.8585 106.503 80.6201 106.429 79.3278 106.429C78.3586 106.393 77.6048 106.65 77.1202 107.274C76.9048 107.567 76.7971 107.898 76.2048 107.971C76.151 107.898 76.0971 107.824 76.0971 107.788C76.9048 106.613 76.9048 106.613 75.0202 106.429C73.8895 106.319 72.8126 106.246 71.951 105.658C71.5741 105.401 71.1434 105.108 71.4126 104.704C71.6818 104.227 72.1664 104.63 72.5433 104.667C76.7433 104.887 80.9432 105.108 85.1431 105.328C85.6277 105.365 86.1123 105.365 86.7046 104.924C84.4431 104.777 82.397 104.63 80.3509 104.484C79.1124 104.41 77.8202 104.373 76.5817 104.263C75.1279 104.116 74.8048 103.676 75.1279 102.721C75.774 101.069 77.4432 99.8578 78.7355 98.4628C79.2201 97.9855 79.8663 98.2425 80.4047 98.4628C82.397 99.197 84.4969 99.6743 86.7046 100.005C87.1354 100.078 87.5661 100.188 88.0507 99.9312C87.7815 99.6008 87.3507 99.4173 86.7584 99.3806C84.7123 99.2337 82.9893 98.4995 81.0509 98.0589C79.9201 97.802 79.9201 97.1411 79.974 96.4803C80.0278 95.9296 80.7816 95.0118 79.974 94.9384C78.9509 94.8283 79.2201 95.8562 79.0048 96.3702C78.3586 97.8387 77.0125 99.0134 75.8279 100.298C74.9125 101.29 74.2125 102.318 74.1049 103.529C74.051 104.116 72.8664 104.447 72.2203 104.116C71.8434 103.933 72.0587 103.749 72.2203 103.566C75.1279 100.702 76.151 97.3614 77.4432 94.094C77.7125 93.3598 77.5509 92.6623 77.0663 91.928C76.2048 90.6798 75.2894 89.4683 74.3202 88.2568C73.6741 87.3757 74.6433 86.7516 75.451 86.3111C76.5817 85.6502 77.874 85.0628 79.274 84.6223C80.6201 84.2185 81.697 82.75 81.3201 81.7955C81.1047 81.2815 80.5124 81.0979 79.8124 81.0245C77.2279 80.6207 76.3125 79.7763 76.3663 78.0141C76.4202 76.3988 74.051 74.0125 71.6818 73.315C71.3049 73.2048 70.8203 73.2048 70.4972 72.8744C71.8972 72.7276 72.8126 73.2783 73.7279 73.7922C74.4818 74.2328 74.9664 74.8569 75.5048 75.3708C75.8279 75.6645 75.8279 76.2886 76.7971 75.995C77.0663 75.9215 77.1202 76.1785 77.1202 76.3254C77.1202 76.6191 77.0663 76.9495 77.0663 77.2432C76.9586 78.4914 77.5509 79.0421 79.274 79.3725C80.1893 79.556 81.1047 79.7029 82.0201 79.8497C82.9893 80.0333 83.2047 80.4371 82.8816 81.0245C82.5047 81.722 82.1278 82.3829 81.7509 83.0804C81.6432 83.3007 81.3201 83.5576 81.8047 83.7045C82.1816 83.8513 82.4508 83.6311 82.7201 83.4842C83.797 82.8234 83.797 81.9056 84.0123 81.0612C84.1739 80.3637 84.3354 79.813 85.4662 79.6294C85.7354 79.5927 85.9508 79.4459 86.1661 79.3358C88.2123 78.0875 90.5276 77.904 93.0583 78.4914C93.2737 78.5281 93.4891 78.6015 93.7045 78.6015C94.0814 78.6382 94.6198 78.8218 94.7275 78.4914C94.889 78.0508 94.1891 78.0508 93.8121 78.0141C92.7891 77.8673 91.8199 77.6837 90.7968 77.6103C89.6661 77.5001 89.4507 77.1697 89.9353 76.5089C90.1507 76.2152 90.2584 75.8848 90.5814 75.6278C92.466 74.1961 94.1352 72.6174 95.5352 70.9654C96.289 70.0843 96.3429 68.9462 96.6659 67.9183C96.7198 67.7347 96.6659 67.5512 96.289 67.5144C95.8583 67.5144 95.6967 67.698 95.589 67.9917C95.1044 69.3133 94.3506 70.5248 93.4352 71.7363C92.6814 72.6909 91.8737 73.5719 90.7968 74.3796C89.9891 74.967 89.3968 75.6278 89.0199 76.3988C87.8892 78.6015 84.497 79.7396 81.1586 79.1155C80.6201 79.0053 80.0817 79.0053 79.597 78.8952C78.1971 78.6382 77.7663 78.0141 78.1971 77.0596C78.4125 76.6558 78.4125 76.2152 78.5201 75.8114C78.9509 74.2328 79.7586 72.7643 81.1586 71.4426C81.9662 70.7084 82.2893 69.9007 82.2893 68.9462C82.2355 67.184 83.7431 66.1561 86.2738 66.1561C88.6969 66.1561 91.1199 66.1928 93.5429 66.1561C94.5121 66.1561 95.266 66.2662 95.3737 67.1473C95.589 66.5232 96.0198 66.1928 97.2582 66.4131C95.7506 65.9725 95.4275 65.3484 95.589 63.9167C95.6967 63.1457 96.289 62.7786 97.4198 62.8153C98.2813 62.8153 99.1967 62.8153 100.058 62.8153C100.058 62.7419 100.058 62.6684 100.058 62.595C97.5275 62.595 94.9967 62.595 92.466 62.595C91.8737 62.595 91.3353 62.7052 90.7968 62.3747C90.2584 62.0076 89.9353 62.4482 89.5584 62.595C89.0199 62.8153 89.5045 62.9989 89.6661 63.1824C90.0968 63.5862 90.1507 64.1002 90.2584 64.5775C90.3661 65.275 90.043 65.7523 88.8584 65.8257C87.6738 65.8624 86.4892 65.9358 85.2508 65.7523C83.2585 65.4586 82.6662 65.789 82.1278 67.1473C81.8047 67.9917 81.4278 68.8361 81.4278 69.7539C81.4278 70.0476 81.2662 70.2679 80.997 70.5248C79.974 71.5895 78.6278 72.5073 78.3048 73.9391C77.874 73.6087 78.1432 73.3884 78.2509 73.2048C79.4894 70.9287 80.0817 68.6158 79.6509 66.1928C79.3817 64.761 79.4894 64.761 81.697 64.761C82.2355 64.761 82.7739 64.761 83.3124 64.761C83.5277 64.761 83.797 64.7243 83.797 64.5041C83.797 64.3205 83.5816 64.2471 83.3662 64.2104C82.6662 64.1736 81.9124 64.1369 81.2124 64.1369C80.297 64.1369 79.8663 63.8799 80.1355 63.2191C80.1355 63.1824 80.1355 63.1457 80.1355 63.1457C80.6201 61.3468 80.2432 60.9063 77.7663 60.0619C75.3433 59.2542 72.8126 58.7035 70.1742 58.263C72.4357 58.3731 74.5895 58.8504 76.6356 59.4378C77.6048 59.6948 78.5201 60.0252 79.4355 60.3189C80.1355 60.5391 80.6739 60.4657 80.6739 59.8416C80.7278 59.0707 80.8893 58.2997 80.8355 57.5655C80.7278 55.1792 81.4278 52.8663 82.0739 50.5167C82.7739 47.8367 82.9893 45.1201 84.0662 42.4768C84.3893 41.7058 84.7123 40.9716 85.0354 40.2006C85.3046 39.6499 85.0892 39.3562 84.12 39.3562C79.6509 39.3195 76.0433 37.9245 72.9203 35.9053C71.4126 34.9508 70.0126 33.9229 68.505 32.9683C67.3742 32.2341 66.6742 31.353 66.1896 30.3251C65.4896 28.9667 63.8743 27.9755 62.4205 26.9475C62.0436 26.6539 61.3974 26.7273 60.9128 26.8741C58.2744 27.7185 55.4206 27.8654 52.5668 28.2692C51.3822 28.416 50.1976 28.7097 48.9592 28.93C48.9054 28.5262 49.3361 28.5629 49.5515 28.4895C49.9284 28.3426 50.5207 28.3059 50.7361 28.0856C52.6745 26.3602 55.5821 27.021 58.059 26.6538C58.9205 26.507 59.7821 26.4336 60.6436 26.1766C62.0974 25.736 63.0128 25.8462 63.9281 26.764C65.4896 28.3059 67.6434 29.5908 68.2896 31.5366C68.3973 31.8303 68.7742 32.124 69.1511 32.3442C71.8434 34.0697 74.4279 35.8319 77.2817 37.4105C77.9278 37.7776 78.6817 37.9245 79.4355 38.108C80.8355 38.4017 82.2893 38.622 83.7431 38.879C84.9277 39.0993 85.6277 38.8423 85.9508 37.9979C86.1123 37.4839 86.4354 37.0067 86.6508 36.5294C87.0277 35.6483 87.8353 35.0976 89.2353 34.8774C90.9045 34.6204 92.0891 33.8127 92.6276 32.7114C93.5968 30.839 95.266 29.5541 98.3351 29.3705C99.2505 29.2971 100.112 28.8933 100.758 28.4527C101.835 27.7185 103.073 27.6084 104.473 27.7919C104.797 27.8286 105.173 27.8654 105.55 27.8286C106.089 27.7919 106.52 27.6451 106.573 27.2412C106.627 26.9108 106.466 26.6171 106.035 26.4703C103.289 25.5525 102.481 23.6435 101.027 22.0648C100.92 21.9547 100.866 21.8079 100.92 21.6977C101.458 20.7432 102.266 19.8988 102.643 18.8709C102.75 18.6139 103.343 18.6873 103.72 18.7607C103.989 18.8342 104.312 19.0177 104.473 18.6873C104.635 18.3569 104.258 18.2468 103.881 18.1734C103.558 18.0999 103.235 18.0265 102.589 17.9164C103.989 17.329 104.958 16.4479 106.573 16.558C110.45 16.815 113.519 15.6035 116.481 14.2452C117.127 13.9515 117.773 13.621 118.473 13.3274C118.958 13.1071 119.55 12.9235 119.389 12.4463C119.227 11.9323 118.635 11.7487 117.989 11.712C115.027 11.6386 112.012 11.2715 109.05 11.8956C108.189 12.0791 107.327 12.3361 106.412 12.1526C106.035 12.0791 105.55 12.0424 105.497 11.712C105.497 11.3816 105.981 11.3816 106.304 11.3082C108.135 10.9043 109.966 10.5005 111.796 10.0967C112.712 9.87641 113.681 9.8397 114.596 9.98655C116.212 10.2802 117.773 10.7208 119.442 11.0145C120.627 11.2348 120.95 12.0424 120.304 12.7767C119.712 13.4375 118.958 13.9882 117.989 14.392C114.812 15.7136 112.173 17.329 110.989 19.8621C110.719 20.4862 110.181 21.0002 109.481 21.4774C109.266 21.6243 109.158 21.7711 109.32 21.9547C109.481 22.1015 109.75 22.1015 109.912 21.9547C111.527 20.8533 113.627 21.0369 115.619 20.9635C116.481 20.9268 117.504 20.6698 118.096 21.0369C118.796 21.5142 117.827 22.0648 117.666 22.6155C117.396 23.4232 117.719 24.084 118.689 24.5613C119.442 24.9284 120.304 25.2588 121.004 25.6259C122.512 26.3969 122.512 27.2045 121.112 28.0489C120.573 28.3793 119.981 28.673 119.442 28.9667C118.527 29.444 118.473 29.9579 119.227 30.5086C120.896 31.7935 122.242 33.262 123.588 34.6571C125.527 36.6763 126.442 38.8423 125.742 41.2653C125.473 42.2565 125.473 43.2844 125.635 44.2757C125.742 45.1568 126.173 45.9644 127.411 46.4784C128.435 46.8822 129.027 47.5798 129.673 48.4241C128.65 48.2039 128.381 47.6899 127.842 47.3595C127.411 47.1025 127.088 46.5518 126.335 46.9557C125.742 47.2861 125.473 47.6899 126.065 48.2039C126.658 48.7178 126.711 49.3419 126.442 49.9661C124.881 53.2334 124.665 56.6109 124.773 60.0252C124.827 62.1545 124.181 64.2838 124.665 66.4498C124.935 67.5512 125.042 68.6525 125.958 69.6438C126.442 70.1577 126.442 70.8185 126.55 71.4059C126.658 71.7731 126.658 72.1035 127.035 72.3604C127.411 72.3237 127.411 72.1402 127.519 72.03C127.681 71.8465 127.681 71.5895 128.111 71.5895C128.596 71.5895 128.435 71.8832 128.542 72.0667C128.704 72.3604 128.811 72.6541 129.027 72.9111C129.188 73.1681 129.458 73.2415 129.888 73.2048C133.173 73.1314 136.457 73.1681 139.688 73.4251C140.496 73.4985 140.496 73.7555 140.496 74.2695C140.496 76.4722 138.773 78.2344 137.319 79.9966C136.781 80.6207 135.757 81.0245 135.165 81.6853C135.004 81.8689 134.734 81.979 134.95 82.236C135.704 83.3374 136.242 84.5122 137.481 85.43C138.827 86.3845 139.796 87.5226 140.496 88.7708C141.411 90.4595 142.865 91.9647 144.157 93.5433C144.588 94.0573 145.288 94.2776 146.203 94.0206C146.903 93.837 147.657 93.5801 148.573 93.6168C148.303 94.0573 147.496 93.9839 147.334 94.2776C147.119 94.6814 147.98 94.6814 148.142 95.0118C147.55 95.0118 147.173 94.7916 146.742 94.6447C146.419 94.5346 146.042 94.4244 145.773 94.6447C145.45 94.865 145.773 95.0853 145.934 95.3055C147.657 97.4348 149.434 99.5641 151.103 101.73C155.896 107.935 159.072 114.506 160.903 121.408C160.903 121.445 160.903 121.481 160.957 121.481C161.495 123.574 159.772 124.161 156.919 123.794C155.034 123.537 153.311 123.427 151.588 124.014C150.242 124.455 148.734 124.492 147.226 124.492C143.403 124.492 139.634 124.455 135.811 124.492C133.711 124.492 133.227 124.896 133.227 126.327C133.227 126.951 133.119 127.612 133.281 128.236C134.034 131.504 133.496 134.808 133.819 138.075C133.873 138.626 133.711 139.177 133.604 139.69C133.281 137.488 133.173 135.248 133.119 133.009C133.065 131.761 132.796 130.512 132.581 129.264C132.527 129.081 132.527 128.86 132.365 128.75C130.75 127.575 131.504 126.254 131.719 124.932C131.881 123.831 132.096 122.766 132.258 121.665C132.365 120.967 132.85 120.637 133.873 120.6C135.65 120.6 137.373 120.563 139.042 120.931C140.657 121.261 142.327 121.445 143.942 121.298C145.288 121.188 145.611 121.555 145.45 122.362C145.396 122.472 145.45 122.619 145.45 122.729C145.45 122.913 145.396 123.207 145.88 123.17C146.203 123.17 146.203 122.95 146.311 122.766C146.796 121.261 146.796 121.224 149.003 121.665C151.749 122.179 154.603 122.032 157.403 122.216C158.049 122.252 158.749 122.289 159.395 122.326C159.665 122.326 159.988 122.289 160.042 122.069C160.095 121.848 159.826 121.738 159.557 121.738C157.995 121.702 158.049 121.041 158.265 120.27C158.588 119.022 157.942 117.92 156.811 116.966C156.111 116.342 155.949 115.717 155.949 114.947C155.949 111.936 154.442 109.256 152.019 106.833C151.103 105.915 150.242 105.034 150.026 103.896C149.757 102.721 148.896 101.73 147.442 101.106C146.15 100.555 145.503 99.7844 144.965 98.9033C143.08 95.5625 141.088 92.2951 138.288 89.248C137.696 88.5872 136.942 87.9264 136.134 87.3757C135.65 87.0453 135.057 86.825 134.304 86.9352C134.304 87.0086 134.25 87.082 134.25 87.082C138.934 90.2025 141.357 94.2042 143.673 98.2792C143.942 98.7932 144.265 99.3071 144.48 99.8211C144.803 100.445 145.288 100.922 146.15 101.29C148.303 102.244 149.219 103.713 149.542 105.365C149.596 105.658 149.596 105.915 149.219 106.099C148.088 106.723 147.55 107.604 147.011 108.485C146.257 109.697 145.288 110.835 143.673 111.642C142.973 112.01 142.434 112.046 141.842 111.532C141.357 111.128 140.873 110.761 140.334 110.358C139.904 110.027 139.796 109.697 139.957 109.256C140.334 108.191 140.173 107.127 139.58 106.099C139.096 105.255 138.557 104.41 138.019 103.566C137.481 102.685 136.404 102.171 135.165 101.877C134.196 101.657 133.765 101.216 133.604 100.555C132.796 97.5083 132.204 94.4611 130.427 91.5976C130.211 91.2305 129.942 90.9001 129.673 90.5329C129.565 90.3861 129.404 90.276 129.135 90.3494C128.811 90.4228 128.758 90.6064 128.865 90.7899C129.081 91.2305 129.404 91.6343 129.619 92.0749C131.234 95.0118 131.934 98.0956 132.796 101.143C132.958 101.73 132.527 102.207 132.096 102.685C131.019 103.933 129.942 105.144 128.865 106.393C128.65 106.65 128.219 106.98 128.704 107.2C129.242 107.421 129.404 106.943 129.619 106.723C130.696 105.475 131.773 104.19 132.85 102.942C133.119 102.611 133.496 102.428 134.034 102.538C135.381 102.795 136.565 103.125 137.157 104.08C137.804 105.218 138.773 106.246 139.096 107.494C139.204 107.934 139.257 108.412 139.204 108.852C139.096 109.513 138.504 109.66 137.588 109.66C134.357 109.623 131.127 109.587 127.896 109.807C127.627 109.844 127.358 109.807 127.088 109.844C126.658 109.917 126.065 109.917 126.119 110.321C126.173 110.798 126.765 110.578 127.196 110.578C130.588 110.431 133.981 110.284 137.427 110.394C138.988 110.431 141.734 112.083 142.057 113.111C142.111 113.368 142.003 113.515 141.788 113.662C139.527 115.02 138.342 116.782 137.642 118.691C137.265 119.646 136.511 120.013 135.111 119.903C133.711 119.793 132.527 120.049 131.288 120.563C129.458 121.334 127.358 121.518 125.204 121.518C123.696 121.518 122.619 120.894 121.65 120.196C119.712 118.728 119.012 116.966 119.012 115.057C119.012 114.579 119.335 113.772 118.366 113.772C117.558 113.772 117.989 114.579 117.989 115.02C117.989 117.406 118.796 119.572 121.65 121.151C122.242 121.481 122.404 121.848 122.189 122.362C121.381 124.235 122.35 126.07 122.619 127.906C122.673 128.126 122.781 128.457 123.212 128.383C123.696 128.31 123.535 127.979 123.481 127.759C123.265 126.658 122.942 125.52 122.727 124.418C122.673 124.014 122.673 123.574 122.781 123.133C122.888 122.436 123.427 122.105 124.504 122.179C126.388 122.289 128.273 122.216 129.996 121.665C130.696 121.445 131.073 121.665 131.019 122.142C130.75 123.868 130.427 125.593 130.05 127.318C130.427 127.979 129.565 128.126 128.65 128.346ZM119.927 48.1672C119.927 48.6077 119.927 49.085 119.927 49.5255C119.981 50.3699 119.442 50.737 118.204 50.7737C116.319 50.8104 114.435 50.9206 112.604 51.0307C111.743 51.0674 111.204 50.8839 110.45 50.48C109.804 50.1129 109.643 47.9102 107.596 49.6356C107.543 49.6724 107.327 49.6724 107.22 49.6724C104.689 49.7825 105.658 51.3244 105.12 52.2055C104.689 52.8663 105.335 53.3803 106.197 53.7107C106.358 53.7841 106.52 53.8208 106.681 53.8575C107.435 53.8943 108.189 53.8942 108.889 54.0044C110.343 54.1879 110.881 53.7474 110.881 52.8296C110.881 52.2055 111.366 51.9852 112.227 51.9485C113.681 51.9118 115.081 51.8384 116.535 51.7649C119.927 51.6181 119.927 51.6181 119.819 53.8942C119.712 55.8033 119.981 57.749 119.55 59.6581C119.496 59.915 119.335 60.2822 119.927 60.3189C120.465 60.3556 120.412 59.9517 120.465 59.6948C120.573 59.1808 120.627 58.6668 120.627 58.1529C120.735 55.7666 120.789 53.3803 120.842 50.994C120.842 50.1863 121.273 49.7458 122.512 49.6724C123.481 49.5989 124.45 49.4154 125.419 49.3052C125.742 49.2685 126.227 49.2318 126.119 48.8647C126.012 48.571 125.635 48.6444 125.365 48.6444C124.45 48.6444 123.642 48.9014 122.727 49.0115C121.381 49.1951 121.165 49.085 121.112 48.1672C121.004 46.5151 120.896 44.8631 120.789 43.211C120.789 42.9173 120.896 42.4034 120.196 42.4034C119.55 42.4034 119.819 42.8806 119.819 43.1376C119.712 45.377 119.765 45.377 116.373 45.377C116.266 45.377 116.104 45.377 115.996 45.377C115.404 45.4137 115.189 45.3036 115.189 44.8264C115.189 42.5135 114.596 40.2741 113.304 38.1447C112.873 37.4472 112.173 37.0801 111.15 36.9332C108.781 36.6028 106.358 36.3826 104.097 35.8319C102.32 35.428 100.597 36.2357 98.9274 35.685C98.6044 35.5749 98.2274 35.9053 97.9044 36.0889C96.7198 36.8231 95.4813 37.5574 94.2968 38.2916C92.0353 39.7234 91.0122 41.5957 90.5276 43.6149C90.4738 43.7984 90.4738 43.982 90.5276 44.1655C90.6891 44.7529 91.2814 44.8998 92.0353 44.7896C92.9506 44.6795 92.2506 44.2757 92.2506 44.0187C92.2506 43.7617 92.1968 43.5414 92.1968 43.2844C92.1968 43.0642 91.8737 42.7705 92.5199 42.7338C93.0045 42.6971 93.0583 43.0275 93.0583 43.2477C93.166 44.0921 93.866 44.7162 94.8352 45.1935C95.4275 45.4872 96.0198 45.8543 96.6121 46.1847C97.1505 46.5151 97.6351 46.662 98.389 46.5151C99.8428 46.2948 100.597 46.7721 100.543 47.8C100.543 48.057 100.381 48.2773 100.381 48.5343C100.381 49.1951 100.866 49.5989 101.674 49.9293C102.481 50.2965 103.02 49.7825 103.343 49.5255C104.527 48.4609 106.25 48.0203 107.92 47.5798C110.02 47.0291 111.15 47.2494 112.496 48.4241C113.035 48.9014 113.466 49.7091 114.596 49.4521C115.781 49.1584 115.35 48.314 115.35 47.6899C115.35 46.2948 115.35 46.3683 117.289 46.1847C120.627 46.0011 119.981 46.2214 119.927 48.1672ZM108.727 111.018C108.996 109.954 108.35 108.926 107.004 108.118C106.681 107.934 106.412 107.678 106.089 107.421C104.743 106.393 101.997 106.136 100.327 106.87C100.112 106.98 100.058 107.09 100.058 107.274C100.004 108.485 99.412 109.623 99.0351 110.761C98.712 111.789 98.8197 112.744 99.8966 113.625C101.997 115.277 103.666 117.113 104.797 119.168C105.012 119.572 105.281 119.939 105.981 119.866C106.627 119.793 106.735 119.389 106.735 119.022C106.789 118.691 106.789 118.361 106.735 118.03C106.627 116.819 106.843 115.681 107.758 114.579C108.62 113.515 108.835 112.377 108.727 111.018ZM85.5739 59.4378C85.6277 57.1616 86.4354 55.3994 87.5661 53.7474C88.1584 52.903 89.1815 52.8296 90.0968 53.6373C90.8507 54.2981 91.6045 54.3348 92.5199 53.931C92.9506 53.7474 93.4352 53.4537 93.9737 53.7841C94.5121 54.0778 94.566 54.5184 94.4044 54.9589C94.1891 55.5096 93.7583 55.84 92.9506 56.0236C91.2814 56.4274 90.1507 57.1983 89.7738 58.4098C89.6661 58.777 89.5584 59.1808 90.1507 59.4745C91.2814 60.0252 93.2198 59.915 93.866 59.0707C94.889 57.6756 96.0198 56.2438 95.4275 54.5551C95.1583 53.7841 95.266 53.0866 95.6429 52.3156C96.3967 50.8471 95.9121 49.4521 94.4044 48.2406C93.7583 47.7266 93.166 47.5798 92.2506 48.057C90.3661 49.0115 89.7738 48.9014 88.5892 47.5431C88.5353 47.5063 88.4815 47.4329 88.4276 47.3962C87.1354 45.891 86.8123 44.3124 87.7277 42.6603C88.2123 41.816 88.5353 40.9716 88.6969 40.0905C88.7507 39.8335 88.9122 39.4664 88.4276 39.393C87.8892 39.2828 87.8353 39.6867 87.7277 39.9436C87.3507 40.9349 87.0815 41.9261 86.5969 42.8806C85.6815 44.6061 85.9508 46.2214 87.4046 47.6899C89.1815 49.5255 88.1584 51.3611 87.1354 52.9764C86.0585 54.7386 84.9277 56.4274 84.6585 58.3364C84.3354 60.2822 85.0354 62.1178 86.2738 63.8432C86.4354 64.0268 86.4892 64.3572 87.0277 64.1736C87.4046 64.0268 87.4046 63.7698 87.243 63.5495C87.0815 63.2558 86.8661 62.9254 86.7046 62.6317C86.0046 61.4569 85.52 60.2822 85.5739 59.4378ZM110.343 106.246C110.343 108.669 110.773 110.725 112.496 112.597C112.712 112.854 112.927 113.258 113.466 113.001C114.004 112.78 113.573 112.487 113.358 112.23C110.935 109.403 110.827 106.429 112.066 103.382C112.281 102.795 112.819 102.611 113.627 102.611C115.404 102.611 116.696 103.235 117.773 104.08C120.25 105.989 121.865 108.302 123.373 110.614C123.535 110.835 123.588 111.239 124.181 111.055C124.719 110.871 124.396 110.578 124.235 110.358C122.242 107.531 120.519 104.557 116.75 102.538C116.266 102.281 116.212 101.987 116.427 101.583C117.019 100.482 117.073 99.3071 116.75 98.1324C116.373 96.774 115.781 95.4524 116.75 94.094C116.912 93.8738 116.804 93.6168 116.373 93.5066C115.835 93.3965 115.835 93.6902 115.727 93.9105C115.027 95.3422 115.135 96.774 115.781 98.2425C116.266 99.3072 116.104 100.409 115.512 101.473C115.242 101.914 114.866 102.024 114.166 102.024C112.012 101.987 110.989 100.776 109.535 100.041C109.266 99.8945 109.373 99.6376 109.535 99.454C110.558 98.2425 110.396 96.9209 110.181 95.5992C109.912 94.0206 109.104 92.5888 108.296 91.1203C108.027 90.6798 107.758 90.2025 108.404 89.762C108.62 89.6151 108.835 89.3949 108.512 89.2113C108.081 88.9543 107.866 89.2113 107.65 89.3949C107.166 89.8354 106.573 90.1291 105.873 90.3127C104.527 90.6798 103.504 91.3039 102.697 92.0749C101.889 92.8458 101.081 93.6168 100.274 94.3877C99.089 95.5258 98.6044 95.5992 96.8813 94.8283C95.6967 94.3143 94.4583 93.8738 93.1122 93.6902C92.8429 93.6535 92.5737 93.6535 92.466 93.8738C92.3583 94.094 92.5737 94.2409 92.8429 94.2776C94.566 94.4979 95.9121 95.2321 97.4198 95.7461C98.6044 96.1866 99.6274 96.0031 100.381 95.3422C101.243 94.5713 102.104 93.7636 102.912 92.956C103.72 92.185 104.581 91.5242 105.712 91.0102C106.573 90.6431 107.22 90.6798 107.543 91.414C108.027 92.4787 108.62 93.4699 109.05 94.5346C109.589 95.8195 109.589 97.1411 109.05 98.4261C108.835 98.9033 108.566 99.2704 107.704 99.197C106.197 99.0869 105.173 99.5641 104.312 100.372C103.127 101.4 101.781 102.244 100.166 102.978C99.8428 103.125 99.1428 103.162 99.4659 103.602C99.8428 104.08 100.327 103.749 100.704 103.602C102.374 102.978 103.773 102.061 104.904 101.069C106.843 99.3806 108.996 100.041 110.881 101.363C111.473 101.804 111.635 102.281 111.312 102.868C110.504 104.08 110.289 105.291 110.343 106.246ZM100.92 57.0148C102.481 57.2718 103.343 57.9326 103.558 58.9605C103.72 59.6213 104.366 60.3923 105.227 60.0252C106.52 59.4745 108.027 58.8871 108.566 57.749C108.835 57.1616 108.673 56.8312 107.65 56.7578C104.42 56.5008 102.212 54.9956 102.212 52.7562C102.212 51.7649 101.943 51.0307 100.92 50.3699C100.704 50.223 100.597 50.0028 100.166 50.0762C99.8428 50.1129 99.789 50.3332 99.7351 50.5167C99.5736 51.1041 99.5197 51.7282 99.3043 52.3156C99.0351 53.3069 98.9813 54.4816 97.8505 55.1057C95.966 56.1337 95.4813 57.5655 94.8352 58.9605C94.6198 59.5112 94.7275 59.7682 95.6429 59.8049C96.5582 59.8416 97.4198 59.915 98.3351 59.915C100.004 59.8783 100.543 59.1808 99.7351 58.2263C99.4659 57.8959 98.9813 57.6389 99.2505 57.1983C99.9505 57.2718 100.166 57.6022 100.435 57.9326C101.458 59.2542 101.081 60.6493 101.243 62.0443C101.35 63.3293 100.327 64.5775 101.189 65.8624C101.297 66.0093 101.135 66.3397 101.674 66.3029C102.104 66.2662 102.481 66.046 102.32 65.7523C101.566 64.4306 102.535 63.1457 102.32 61.7874C101.943 60.1353 102.32 58.4833 100.92 57.0148ZM134.896 73.6821C134.896 73.6454 134.896 73.5719 134.896 73.5352C133.442 73.5352 131.934 73.5352 130.481 73.5352C129.727 73.5352 128.758 73.6821 128.758 74.1961C128.704 75.3708 128.435 76.6558 129.296 77.7571C130.05 78.7484 131.396 79.4459 132.204 80.4004C132.365 80.6207 132.742 80.6941 133.119 80.6574C134.304 80.5105 134.411 79.5193 135.165 79.299C136.027 79.0421 137.265 79.4459 138.019 78.7116C139.257 77.4634 140.173 76.1418 140.227 74.5632C140.227 73.9391 140.011 73.6454 139.042 73.6821C137.642 73.6821 136.296 73.6821 134.896 73.6821ZM83.3124 78.0875C84.6585 78.161 85.7354 77.8673 86.3815 77.0596C87.243 75.9582 88.2661 75.0037 89.5045 74.0859C89.9353 73.7555 90.1507 73.3517 89.8276 72.9846C88.643 71.8465 88.1046 70.4147 86.5431 69.4602C86.1661 69.2032 85.7892 68.9095 85.1431 69.0564C84.5508 69.2032 84.6585 69.607 84.6585 69.9374C84.6046 70.8185 84.2277 71.4794 82.9893 71.9566C81.3201 72.5807 80.4586 73.6454 79.974 74.8569C78.7355 77.647 79.1124 77.9774 83.3124 78.0875ZM119.496 95.6727C117.827 95.6727 117.289 95.9663 117.45 96.7373C117.719 97.802 117.935 98.9033 118.366 99.968C119.227 101.95 120.896 103.492 124.019 104.08C125.042 104.263 125.958 104.153 126.873 103.823C127.681 103.492 128.004 103.125 127.358 102.501C125.796 100.922 124.235 99.3439 123.642 97.4348C123.535 97.0677 123.212 96.7006 122.996 96.3335C122.888 96.1132 122.727 95.8195 122.404 95.8929C121.381 96.1499 120.465 95.5258 119.496 95.6727ZM115.727 54.6285C115.619 54.1145 115.835 53.4904 114.973 53.2701C114.166 53.0499 113.681 53.5638 113.143 53.8575C112.066 54.5184 111.043 55.1792 109.966 55.84C109.32 56.2438 108.943 56.7211 109.266 57.3085C109.535 57.8592 109.158 58.263 108.727 58.6301C108.243 58.9972 107.704 59.2909 107.166 59.6213C106.95 59.7315 106.735 59.8783 106.896 60.0986C107.004 60.2454 107.22 60.2822 107.435 60.2822C108.835 60.2822 110.127 60.7227 111.527 60.7594C114.542 60.8696 115.296 60.6126 115.512 58.7035C115.619 57.3452 115.404 55.9501 115.727 54.6285ZM128.542 83.0437C129.511 82.6398 129.242 82.236 129.135 81.8689C128.758 80.6941 128.219 79.5927 127.519 78.4914C125.796 75.7747 123.05 73.6454 119.389 72.0667C119.065 71.9199 118.796 71.7731 118.419 71.9199C118.15 72.03 118.15 72.2136 118.258 72.3972C119.119 74.7467 119.281 77.1697 119.873 79.5193C120.089 80.327 119.55 80.6574 118.527 80.7675C116.696 80.9511 114.973 80.7675 113.304 80.2168C112.55 79.9599 111.743 79.7763 110.935 79.556C110.666 79.4826 110.396 79.5193 110.235 79.7396C110.073 79.9599 110.343 80.07 110.558 80.1434C113.304 80.9511 115.996 82.0157 119.119 81.2815C120.196 81.0245 121.004 81.2081 121.758 81.7588C122.404 82.236 123.212 82.5664 124.073 82.8234C124.342 82.9335 124.719 82.9703 124.935 82.75C125.204 82.493 124.773 82.3829 124.558 82.2727C124.235 82.1259 123.858 81.979 123.535 81.8322C122.189 81.2815 121.058 80.584 120.681 79.5193C120.465 78.9686 120.412 78.3812 120.304 77.7938C119.981 76.2519 119.712 74.7467 119.389 72.9846C124.881 75.4443 127.196 78.9686 128.542 83.0437ZM95.7506 88.11C95.8583 87.6327 96.289 87.4124 96.5582 87.1554C96.989 86.7516 96.8813 86.4579 96.0736 86.4579C95.1583 86.4212 94.566 86.6048 94.1352 87.2656C93.3275 88.4404 93.5968 89.6519 93.3275 90.8266C93.166 91.4508 93.5968 92.1116 94.566 92.442C94.8352 92.5154 95.3198 92.699 95.3737 92.4787C95.589 91.7444 96.6121 91.7812 97.2582 91.4508C98.389 90.9368 99.1967 90.276 99.412 89.3214C99.5197 88.9176 99.5736 88.5505 100.004 88.2201C100.65 87.7428 100.866 87.1921 100.058 86.6782C99.2505 86.1275 98.4967 86.4212 97.7967 86.7883C97.0967 87.1921 96.5044 87.6327 95.7506 88.11ZM89.6661 86.6048C89.6661 86.8617 89.6661 87.0453 89.6661 87.2289C89.6661 87.4124 89.5584 87.7061 89.9891 87.7428C90.4738 87.7795 90.4738 87.4491 90.5814 87.2289C90.6353 87.1187 90.6353 86.9719 90.6353 86.8617C90.6891 85.5034 91.6583 84.5122 93.166 83.7045C94.3506 83.0804 95.589 82.4563 96.989 82.0157C97.3121 81.9056 97.8505 81.7587 97.5275 81.4283C97.3121 81.1714 96.8813 81.3549 96.5582 81.4651C94.7814 82.0524 92.9506 82.6766 91.766 83.7412C90.743 84.659 89.6661 84.8793 88.2123 84.4387C87.7815 84.2919 86.8661 84.5122 87.0277 83.8513C87.1354 83.3374 87.5661 82.9703 88.4815 82.9703C89.5045 82.9703 90.3661 82.75 90.4199 81.9056C90.4199 81.7588 90.4199 81.6486 90.7968 81.6853C92.1429 81.7588 92.2506 80.9511 92.5199 80.3637C92.6814 79.9966 92.143 79.6662 91.766 79.813C90.9584 80.07 90.0968 79.813 89.3968 79.9966C87.1892 80.5473 85.6277 81.5752 84.82 83.1171C84.7123 83.3741 84.7662 83.6311 85.0892 83.7779C86.1123 84.1818 86.92 84.8793 88.1046 85.1363C89.2892 85.3198 89.9353 85.7604 89.6661 86.6048ZM144.103 103.566C141.842 103.566 141.088 104.3 141.842 105.732C142.488 106.943 143.242 108.118 143.942 109.293C144.103 109.587 144.265 109.917 144.803 109.954C145.342 109.99 145.503 109.66 145.719 109.366C146.526 108.302 146.957 107.164 147.226 105.989C147.711 104.043 147.926 103.933 144.265 103.566C144.211 103.566 144.157 103.566 144.103 103.566ZM141.25 99.3439C141.304 98.94 141.034 98.5729 140.819 98.1691C140.496 97.5083 140.119 96.8474 139.904 96.1499C139.365 94.608 138.611 93.1395 137.157 91.8913C136.619 91.4508 136.242 90.4595 135.488 90.7165C134.681 90.9735 135.219 91.928 135.219 92.5888C135.219 92.6623 135.219 92.7357 135.273 92.7724C136.35 93.7269 136.35 94.865 136.888 95.9296C137.481 97.1778 138.288 98.4261 138.934 99.711C139.15 100.152 139.419 100.629 140.28 100.519C141.142 100.445 141.25 99.9313 141.25 99.3439ZM81.697 101.914C81.6432 101.326 83.097 101.253 82.5047 100.665C81.9662 100.152 80.9432 100.188 80.0278 100.225C79.2201 100.262 78.574 100.519 78.0355 100.922C76.9586 101.693 76.6356 102.758 77.3356 103.199C78.4663 103.933 79.4894 103.419 80.4047 102.942C80.4586 102.942 80.5124 102.942 80.6201 102.905C80.5663 103.602 81.2662 103.529 81.9662 103.492C82.8278 103.419 83.7431 103.345 84.6585 103.309C85.3046 103.272 86.0585 103.345 86.3277 102.758C86.5431 102.207 86.1123 101.804 85.5739 101.473C84.497 100.812 83.7431 100.812 82.6124 101.473C82.3431 101.62 82.1278 101.877 81.697 101.914ZM128.488 101.033C128.327 99.6008 128.111 98.1691 127.95 96.774C127.842 95.9663 127.735 95.122 127.519 94.3143C127.411 93.837 127.088 93.3598 126.173 93.3965C124.342 93.5066 123.319 94.7181 123.858 95.8929C124.719 97.7652 126.496 99.3439 127.519 101.143C127.627 101.363 127.842 101.62 128.273 101.547C128.596 101.547 128.488 101.253 128.488 101.033ZM86.9738 86.3111C86.7584 85.8705 86.6508 85.3933 86.2738 85.0261C85.6277 84.2552 83.8508 84.1083 83.5277 84.7691C82.5585 86.5313 81.697 88.3302 81.4816 90.2393C81.4278 90.6064 81.4816 91.0102 82.1278 91.1203C82.7739 91.2305 83.097 90.9368 83.42 90.6431C84.5508 89.5417 85.6277 88.4404 86.4354 87.1921C86.6507 86.8985 86.8123 86.6048 86.9738 86.3111ZM109.32 104.63C109.32 103.97 109.266 103.345 108.889 102.758C108.458 102.134 107.704 102.024 107.004 102.354C105.55 103.088 103.935 103.602 102.427 104.227C101.512 104.594 101.835 104.777 102.481 105.071C103.827 105.695 105.335 105.915 106.896 106.025C109.266 106.209 109.32 106.172 109.32 104.63ZM101.943 128.86C101.889 130.255 102.32 131.54 102.912 132.825C103.02 133.082 103.02 133.486 103.666 133.449C104.312 133.413 104.366 133.046 104.366 132.678C104.527 131.247 104.635 129.815 104.958 128.383C105.173 127.355 104.527 126.694 103.558 126.07C102.804 125.593 102.427 125.813 102.32 126.364C102.05 127.245 101.889 128.053 101.943 128.86ZM89.1815 88.4404C88.8046 89.0278 88.4815 89.4683 88.2123 89.9088C87.8892 90.3861 87.4584 90.7165 86.7584 90.9735C85.3585 91.4875 83.9585 91.9647 82.6124 92.4787C81.8047 92.7724 81.3739 92.5888 81.1047 92.0749C80.6201 91.1571 80.297 90.2025 80.6201 89.2113C81.0509 87.9631 81.5355 86.7149 81.9662 85.5034C82.0739 85.2831 82.2893 84.9527 81.8585 84.8426C81.4278 84.7324 81.1586 85.0261 80.9432 85.2831C80.8355 85.43 80.7816 85.6135 80.6739 85.7971C79.4894 88.2935 79.0048 90.8266 80.1893 93.3965C80.3509 93.7269 80.4047 94.0206 81.0509 93.7636C83.1508 92.9927 85.3585 92.2584 87.4046 91.414C88.8584 90.7899 89.6661 89.3949 89.1815 88.4404ZM95.8044 166.564C95.966 167.261 96.0736 167.959 96.3967 168.62C97.2044 170.198 98.8197 171.3 101.297 171.703C101.62 171.74 101.943 171.85 102.158 171.63C102.374 171.41 102.05 171.226 101.889 171.079C100.327 169.464 98.7659 167.885 97.2044 166.27C96.989 166.013 96.7736 165.646 96.1813 165.793C95.7506 165.94 95.8583 166.27 95.8044 166.564ZM75.3971 88.0732C76.151 88.8075 76.474 89.9088 77.5509 90.7532C77.7663 90.9001 77.8202 91.2672 78.3048 91.1203C78.6278 91.0102 78.6278 90.7899 78.6817 90.5697C79.0586 89.0278 79.274 87.4858 79.8663 85.9806C80.0278 85.5401 79.6509 85.3198 79.0586 85.5034C77.8202 85.8705 76.6894 86.3845 75.8279 87.082C75.5048 87.3023 75.3433 87.5593 75.3971 88.0732ZM93.2199 76.6558C95.3198 76.6558 98.7659 74.7467 99.1967 73.3884C99.3043 72.9846 99.089 72.6909 98.6044 72.4706C98.1198 72.2503 97.6351 72.1035 97.1505 72.3972C95.266 73.3884 93.7583 74.6366 92.6276 76.0684C92.3045 76.3988 92.5199 76.6558 93.2199 76.6558ZM97.2044 102.978C97.5813 102.978 97.9044 102.905 98.1736 102.758C99.1967 102.207 100.22 101.693 101.243 101.106C101.889 100.739 102.212 100.298 101.566 99.7477C100.974 99.2704 100.274 98.94 99.3582 99.3071C97.9582 99.8945 96.8813 100.702 96.1275 101.693C95.6967 102.318 96.2352 102.942 97.2044 102.978ZM87.4584 95.3422C87.4584 94.7181 87.4584 94.0573 86.3815 93.8003C85.3585 93.5433 84.6046 93.9472 83.9047 94.4244C83.5816 94.6447 83.3662 94.9017 83.1508 95.1587C82.8816 95.4891 82.8816 95.7828 83.2585 96.0765C83.797 96.4803 84.3354 96.8841 84.9277 97.2513C85.7892 97.802 86.8661 97.5817 87.1354 96.774C87.2969 96.3335 87.3507 95.8562 87.4584 95.3422ZM101.081 31.61C100.489 31.6467 99.8966 31.6834 99.3043 31.7201C97.3121 31.867 96.0736 32.7481 94.8352 33.7026C92.9506 35.1344 90.6891 36.2724 89.0738 37.9245C88.8584 38.108 88.5353 38.365 88.9661 38.5486C89.2892 38.6954 89.5045 38.4384 89.7199 38.2916C91.7122 36.7497 93.9737 35.4281 95.966 33.9229C97.4198 32.8215 99.089 32.4177 101.135 32.3809C101.727 32.3809 102.804 32.5278 102.75 31.9404C102.697 31.353 101.674 31.7568 101.081 31.61ZM98.7659 108.522C98.7659 108.118 98.8197 107.861 98.7659 107.641C98.6582 107.31 99.1428 106.87 98.4967 106.65C97.7967 106.429 97.0967 106.539 96.4506 106.833C95.4275 107.31 94.9429 108.045 95.3198 108.816C95.7506 109.587 96.4506 110.321 97.1505 111.018C97.5813 111.422 98.0121 111.385 98.2813 110.871C98.7659 110.064 98.8197 109.219 98.7659 108.522ZM135.004 114.506C135.057 115.057 134.95 115.754 135.973 116.048C137.05 116.378 137.588 115.791 138.234 115.387C138.557 115.167 138.827 114.947 139.096 114.69C139.473 114.322 139.527 113.955 139.15 113.588C138.45 112.891 137.481 112.45 136.242 112.56C135.004 112.67 135.327 113.478 135.111 114.029C135.004 114.176 135.057 114.322 135.004 114.506ZM94.1352 109.733C94.0814 110.688 94.7814 111.422 95.6429 112.12C98.7659 114.8 102.05 117.406 103.612 120.747C103.72 120.931 103.773 121.224 104.204 121.114C104.635 121.004 104.527 120.71 104.366 120.49C103.235 118.618 102.212 116.672 100.166 115.093C99.2505 114.359 98.3351 113.588 97.5813 112.744C96.5582 111.642 95.3198 110.725 94.1352 109.733ZM116.266 106.209C116.05 105.622 115.727 105.108 114.866 104.851C113.681 104.52 112.873 104.741 112.819 105.511C112.766 106.613 112.981 107.714 113.466 108.742C113.681 109.183 114.112 109.293 114.543 108.926C115.404 108.155 115.889 107.2 116.266 106.209ZM87.7277 105.365C88.5353 105.805 89.5584 105.952 90.3122 105.658C91.5507 105.144 92.7891 105.181 94.0275 105.181C95.3737 105.144 96.6659 104.924 97.9044 104.594C98.1198 104.52 98.6044 104.52 98.4428 104.19C98.3351 103.97 97.9582 103.896 97.6351 104.006C96.289 104.41 94.8352 104.373 93.4352 104.594C91.766 104.851 91.4968 104.704 91.6045 103.566C91.6583 102.685 91.4968 101.877 90.8507 101.106C90.6353 100.849 90.3661 100.519 89.8276 100.776C89.2353 101.033 89.7199 101.216 89.9891 101.436C91.2276 102.464 90.8507 103.676 90.3661 104.741C89.9891 105.585 88.643 105.108 87.7815 105.291C87.8353 105.255 87.7815 105.291 87.7277 105.365ZM107.92 123.831C107.92 123.023 107.65 122.436 106.896 121.922C106.304 121.518 105.443 121.334 104.85 121.591C103.72 122.032 102.75 122.693 101.674 123.28C101.512 123.39 101.35 123.537 101.566 123.684C101.781 123.831 101.943 123.684 102.158 123.611C102.912 123.243 103.612 122.913 104.366 122.583C104.904 122.326 105.443 122.179 106.089 122.473C106.735 122.766 107.112 123.133 107.058 123.684C106.95 124.161 106.789 124.639 106.681 125.116C106.573 125.63 106.466 126.144 106.358 126.658C106.358 126.878 106.52 127.098 106.896 127.098C107.327 127.098 107.166 126.841 107.22 126.694C107.489 125.63 107.704 124.675 107.92 123.831ZM133.658 86.7883C133.065 86.2743 132.311 86.3478 131.558 86.3478C130.75 86.3845 130.211 86.2376 130.104 85.5768C130.05 85.1363 130.104 84.5489 129.296 84.2552C129.027 84.6223 129.081 84.9894 129.188 85.2831C129.619 86.568 129.835 87.8163 128.004 88.7708C127.573 89.0278 127.842 89.248 128.219 89.4316C128.596 89.5784 128.973 89.6519 129.135 89.2847C129.404 88.8075 129.781 88.3302 129.942 87.853C130.158 87.2289 130.696 87.0453 131.611 87.0453C132.258 87.0453 132.958 87.1921 133.658 86.7883ZM119.335 93.9839C120.304 94.094 120.735 93.8738 121.112 93.5801C122.242 92.7724 123.481 92.0014 124.881 91.414C125.096 91.3039 125.312 91.1938 125.473 91.0469C125.742 90.8266 126.173 90.5697 125.688 90.276C125.312 90.019 124.935 90.2393 124.612 90.4228C124.073 90.7532 123.481 91.0469 122.996 91.3773C121.919 92.1116 120.789 92.8091 119.389 93.2129C119.012 93.3231 118.527 93.3231 118.635 93.7269C118.796 94.094 119.335 93.9839 119.335 93.9839ZM88.7507 98.0222C88.6969 98.3526 88.6969 98.683 88.6969 99.0134C88.6969 99.2337 88.6969 99.4907 89.1276 99.4907C89.5584 99.4907 89.5584 99.2337 89.6122 99.0134C89.6661 97.3247 89.7199 95.6359 91.3353 94.2409C91.4968 94.094 91.4968 93.9472 91.2814 93.837C91.066 93.7269 90.8507 93.7636 90.6891 93.8738C90.3122 94.0573 90.0968 94.3143 89.8815 94.608C89.0199 95.6359 88.6969 96.8107 88.7507 98.0222ZM123.535 118.765C123.535 119.462 124.504 120.196 125.419 120.233C126.065 120.27 126.442 120.123 126.442 119.609C126.388 119.022 125.204 118.067 124.45 118.067C123.75 118.067 123.588 118.397 123.535 118.765Z" fill="black"/>
<path d="M76.743 215.204C76.9045 215.204 77.1199 215.13 77.2276 215.167C84.7121 217.26 92.4658 217.296 100.327 216.709C100.704 216.672 101.189 216.709 101.081 216.379C100.973 216.011 100.489 216.122 100.112 216.158C94.5657 216.635 89.0197 216.489 83.5275 215.828C81.9121 215.608 80.2968 215.314 78.7353 214.91C76.6353 214.323 76.043 213.148 77.0661 211.789C77.7661 210.835 78.7891 210.101 80.1353 209.513C82.5583 208.449 84.9275 207.274 87.4043 206.209C89.3428 205.328 90.312 205.438 91.7658 206.723C94.2427 208.963 97.3657 210.101 101.566 209.954C103.342 209.88 105.119 210.027 106.95 210.064C107.381 210.064 107.973 210.137 107.919 209.66C107.865 209.22 107.327 209.366 106.95 209.366C104.85 209.33 102.75 209.22 100.65 209.256C97.0426 209.293 94.5657 208.082 92.5196 206.209C92.1427 205.879 92.1966 205.732 92.735 205.438C95.8042 203.713 99.2503 203.272 103.073 203.75C103.773 203.823 105.012 204.043 105.119 203.382C105.173 202.832 103.989 203.089 103.342 203.052C102.104 202.942 100.866 202.942 99.5733 202.942C98.4964 202.905 97.7426 202.648 97.4734 201.914C97.258 201.437 96.8811 201.033 96.4503 200.629C95.4273 199.674 94.835 198.61 94.7811 197.398C94.7811 197.215 94.6734 196.921 95.1042 196.884C95.5349 196.884 95.5349 197.141 95.5888 197.362C95.858 198.61 96.6657 199.601 98.1734 200.372C99.4118 200.996 100.112 200.886 100.435 199.821C100.973 198.022 101.458 196.224 101.619 194.388C101.781 192.662 102.05 190.9 102.427 189.212C102.804 187.486 101.943 186.018 100.596 184.659C100.058 184.109 99.3041 184.072 98.4964 184.402C98.2272 184.512 97.9041 184.659 97.5272 184.88C97.3118 183.741 98.4426 183.227 99.2503 182.567C99.4656 182.383 100.166 182.273 99.8426 181.943C99.4656 181.612 99.0349 181.943 98.7118 182.126C97.4195 182.787 96.6657 183.705 96.1272 184.99C95.6965 184.402 95.8042 183.998 96.0195 183.631C96.6118 182.603 97.258 181.612 98.1734 180.694C99.0349 179.813 99.681 179.74 100.973 180.29C101.296 180.437 101.566 180.584 101.835 180.731C102.75 181.135 103.289 180.988 103.45 180.29C103.666 179.373 103.773 178.418 103.45 177.464C103.181 176.619 102.427 176.032 101.189 175.848C99.8964 175.665 98.5503 175.481 97.258 175.334C95.158 175.041 93.3273 174.38 91.9273 173.462C96.1811 172.838 100.112 174.196 104.204 174.637C105.173 174.747 105.766 175.224 105.873 175.922C106.089 177.427 106.25 178.895 106.465 180.401C106.573 181.245 106.465 182.089 106.035 182.934C105.55 183.815 105.604 184.696 106.465 185.467C107.273 186.201 107.273 186.972 107.004 187.816C106.358 189.799 105.712 191.818 106.358 193.874C106.412 194.131 106.412 194.351 106.196 194.571C104.689 196.407 104.904 198.463 104.85 200.482C104.85 200.776 104.904 201.18 105.496 201.143C106.142 201.106 105.981 200.702 105.981 200.409C105.981 198.904 105.819 197.398 106.573 195.967C107.165 194.902 107.596 194.755 109.212 195.085C113.196 195.856 115.35 197.986 117.288 200.262C117.558 200.556 117.396 200.849 117.019 201.07C116.588 201.327 116.158 201.584 115.511 201.951C115.511 200.152 113.465 199.271 112.281 198.022C111.958 197.692 111.527 197.362 110.827 197.582C110.181 197.802 110.235 198.243 110.396 198.647C110.773 199.564 111.096 200.482 111.312 201.4C111.527 202.354 112.119 203.199 113.788 203.272C114.488 203.309 114.327 203.529 114.165 203.823C113.788 204.484 113.412 205.145 113.088 205.805C112.927 206.099 112.819 206.503 113.358 206.613C114.004 206.76 114.004 206.283 114.111 206.026C114.65 204.961 115.027 203.86 115.996 202.905C116.427 202.501 116.858 202.134 117.396 201.804C118.096 201.4 118.688 201.473 119.281 201.877C120.411 202.685 120.95 203.676 121.165 204.741C121.273 205.181 120.788 205.365 120.304 205.585C119.011 206.099 117.773 206.613 116.535 207.164C116.211 207.311 115.565 207.421 115.942 207.825C116.319 208.192 116.75 207.898 117.127 207.751C118.204 207.311 119.281 206.87 120.358 206.43C121.381 206.026 122.35 205.952 123.427 206.356C123.642 206.43 123.857 206.466 124.073 206.54C126.442 207.421 127.411 207.164 126.819 209.844C126.28 212.267 126.227 211.643 123.373 211.973C120.95 212.23 118.904 212.23 117.665 210.431C117.45 210.137 116.858 209.366 116.104 209.844C115.404 210.321 116.535 210.578 116.911 210.872C118.042 211.753 118.796 212.781 119.065 213.956C119.388 215.277 119.496 216.599 119.334 217.957C119.227 218.728 118.85 219.095 117.665 218.985C117.127 218.948 116.588 218.875 116.104 218.801C115.835 218.765 115.404 218.655 115.296 218.948C115.188 219.279 115.565 219.352 115.888 219.462C115.996 219.499 116.158 219.499 116.265 219.499C118.85 219.719 121.165 220.637 123.642 221.114C124.073 221.188 124.45 221.408 124.773 221.592C125.365 221.959 125.904 222.436 125.688 222.95C125.473 223.427 124.557 223.097 124.019 223.17C120.734 223.391 117.827 222.656 114.973 221.702C113.896 221.335 112.712 221.188 111.473 221.151C110.988 221.151 110.342 221.298 110.558 220.6C110.665 220.233 110.019 220.197 109.642 220.05C109.319 219.94 108.781 219.866 108.781 219.572C108.781 219.242 109.265 219.095 109.696 218.985C109.858 218.948 110.019 218.912 110.181 218.875C110.45 218.765 110.612 218.618 110.504 218.434C110.396 218.177 110.073 218.251 109.858 218.288C108.942 218.471 108.189 218.581 108.296 217.59C108.35 217.26 107.812 217.149 107.327 217.076C105.873 216.892 104.581 217.223 103.396 217.774C102.266 218.288 101.027 218.361 99.7887 218.141C98.0657 217.847 96.3965 217.7 94.6196 217.847C91.5504 218.104 88.4274 217.847 85.4121 217.517C83.8506 217.333 82.2352 217.517 80.6737 217.149C79.1122 216.782 77.8738 216.158 76.6353 215.497C76.5276 215.387 76.6353 215.314 76.743 215.204ZM87.8351 213.552C87.1351 213.955 86.4351 213.919 85.7351 213.919C84.7659 213.919 83.7429 213.882 82.8275 214.102C82.5044 214.176 82.0737 214.212 82.0737 214.543C82.0737 214.873 82.5583 214.873 82.8814 214.947C84.7121 215.277 86.5967 215.424 88.4812 215.204C89.7197 215.094 90.9581 214.873 92.1966 214.947C92.6273 214.983 93.3811 214.983 93.3811 215.24C93.3811 216.158 94.3504 215.828 94.9965 215.865C96.3965 215.975 97.4734 215.24 98.8733 215.204C99.0349 215.204 99.1964 215.02 99.3041 214.873C100.166 213.882 99.681 212.414 98.281 211.753C97.5272 211.386 96.7734 210.982 95.9657 210.651C92.8965 209.256 89.612 208.559 85.8967 209.477C83.2583 210.101 80.9968 211.202 78.7891 212.34C78.3584 212.56 78.0353 212.891 78.2507 213.295C78.4661 213.735 79.0045 213.882 79.5968 213.882C79.9737 213.882 80.4045 213.845 80.7814 213.809C83.0429 213.552 85.3582 213.368 87.8351 213.552ZM121.381 209.587C121.381 210.027 121.488 210.431 121.811 210.798C122.134 211.202 122.673 211.386 123.373 211.239C124.073 211.092 124.073 210.688 123.965 210.358C123.857 209.991 123.642 209.587 123.427 209.256C123.211 208.889 122.834 208.632 122.188 208.706C121.488 208.816 121.381 209.183 121.381 209.587ZM98.3349 205.659C97.3118 205.622 96.3426 206.136 96.3426 206.723C96.2888 207.347 96.8811 207.568 97.6887 207.604C98.7118 207.641 99.5195 207.164 99.5733 206.503C99.5733 205.916 99.0887 205.695 98.3349 205.659Z" fill="black"/>
<path d="M124.45 186.53C125.473 186.2 126.442 186.457 127.411 186.53C127.788 186.567 128.327 186.677 128.488 186.384C128.757 185.98 128.165 185.98 127.842 185.87C127.411 185.723 127.25 185.503 127.25 185.209C127.519 182.162 126.927 179.115 127.196 176.068C127.303 174.672 128.111 174.342 130.103 174.709C131.288 174.929 132.796 174.819 133.603 175.443C134.519 176.141 133.496 177.059 133.388 177.866C133.226 179.959 133.549 182.015 133.711 184.107C133.765 184.548 133.819 184.952 133.496 185.356C133.388 185.539 133.173 185.649 132.85 185.613C132.58 185.576 132.58 185.392 132.526 185.246C132.15 182.859 130.911 180.546 131.665 178.087C131.773 177.72 131.665 177.352 131.396 177.022C130.965 176.508 130.265 176.288 129.457 176.398C128.596 176.471 128.65 176.985 128.65 177.426C128.65 180.106 128.488 182.786 128.973 185.466C129.457 188.146 128.865 190.826 129.242 193.506C129.888 198.095 130.588 202.647 132.311 207.126C132.796 208.337 132.526 209.402 131.342 210.393C130.75 210.871 130.803 212.339 131.45 212.78C131.88 213.037 132.365 212.926 132.85 212.816C133.603 212.669 134.411 212.523 135.165 212.376C135.434 212.339 135.757 212.376 136.134 212.413C135.111 212.78 133.98 212.853 133.065 213.33C131.988 213.918 130.911 214.395 131.019 215.533C131.073 216.047 130.75 216.598 130.534 217.148C129.996 218.507 130.48 219.057 132.58 219.131C134.357 219.204 136.134 219.057 137.965 219.021C138.88 218.984 139.742 219.057 140.603 219.204C141.034 219.278 141.465 219.351 141.626 219.682C141.357 219.938 141.034 219.792 140.765 219.792C137.749 219.498 134.68 219.608 131.665 219.608C130.75 219.608 130.05 219.718 130.103 220.489C130.103 221.223 129.888 222.031 131.45 222.178C132.634 222.288 133.819 222.435 134.896 222.875C134.788 223.243 134.357 223.096 134.142 223.096C132.257 223.096 130.373 223.132 128.488 223.096C127.896 223.096 127.034 223.353 126.657 222.875C126.173 222.215 125.688 221.48 126.227 220.673C126.227 220.636 126.28 220.636 126.28 220.599C129.026 217.662 128.811 214.542 127.411 211.348C127.25 210.944 127.357 210.54 127.465 210.173C127.788 209.219 128.219 208.301 127.734 207.31C127.573 206.979 127.896 206.649 128.111 206.355C128.973 205.4 129.242 204.373 129.134 203.271C128.65 199.27 128.111 195.305 127.627 191.303C127.465 190.165 127.519 188.99 127.465 187.815C127.465 187.448 127.627 186.824 126.873 186.861C126.227 186.898 126.496 187.448 126.55 187.815C126.711 192.001 127.303 196.149 127.95 200.334C128.111 201.546 128.219 202.757 128.273 204.005C128.327 204.483 128.165 204.997 127.896 205.437C127.25 206.428 126.819 206.355 125.365 206.025C122.942 205.474 121.65 204.519 121.488 202.794C121.488 202.61 121.273 202.39 121.057 202.243C118.85 200.848 117.611 198.976 115.888 197.361C114.004 195.598 111.635 194.313 108.404 193.946C107.435 193.836 107.219 193.359 107.165 192.808C107.004 191.523 107.165 190.238 107.542 188.99C107.758 188.293 108.081 187.558 108.027 186.824C108.027 186.604 108.135 186.347 108.35 186.127C108.835 185.613 112.496 185.062 113.25 185.356C113.896 185.613 113.627 185.98 113.358 186.31C112.335 187.815 111.796 189.431 111.688 191.083C111.635 191.89 111.958 192.515 112.873 193.102C113.95 193.726 114.811 194.534 115.781 195.268C116.427 195.782 117.127 195.929 117.934 195.415C118.204 195.231 118.581 195.011 119.011 195.195C119.55 195.415 119.281 195.745 119.173 196.039C118.634 197.25 119.173 198.278 120.304 199.27C121.919 200.701 123.319 202.243 125.527 203.271C125.903 203.455 126.173 203.748 126.711 203.602C127.303 203.418 127.142 203.014 127.088 202.721C126.388 198.609 125.957 194.46 125.58 190.312C125.527 189.871 125.473 189.394 125.473 188.953C125.365 188.109 125.257 187.301 124.45 186.53Z" fill="black"/>
<path d="M117.666 160.392C117.128 160.282 117.074 160.135 117.02 159.951C116.858 159.584 116.643 159.254 115.943 159.217C115.243 159.217 114.812 159.511 114.489 159.915C113.628 160.979 114.112 163.145 115.566 163.916C116.804 164.54 117.558 165.348 118.312 166.229C118.797 166.817 119.389 167.367 120.251 167.698C121.327 168.102 121.866 167.918 121.92 167.074C122.027 165.532 121.974 163.953 121.597 162.411C121.435 161.677 121.274 160.906 121.112 159.915C121.92 160.686 122.027 161.42 122.781 161.934C123.104 162.154 123.374 162.668 123.858 162.448C124.397 162.191 123.858 161.787 123.589 161.603C122.458 160.796 122.351 159.768 122.135 158.74C121.974 158.079 121.866 157.382 121.058 156.904C120.843 156.794 120.627 156.647 120.358 156.831C120.143 156.941 120.251 157.125 120.358 157.235C120.789 157.785 121.651 158.336 119.927 158.667C119.497 158.74 119.551 159.548 119.497 160.025C119.497 160.245 119.766 160.612 119.281 160.649C118.689 160.722 118.851 160.282 118.743 160.062C117.289 157.345 118.097 154.628 118.689 151.911C118.904 150.847 119.12 149.966 121.166 150.039C121.543 150.039 122.027 149.892 122.189 149.525C121.92 149.268 121.543 149.305 121.22 149.342C119.712 149.599 119.174 149.011 118.689 148.167C116.643 144.679 116.481 141.045 116.751 137.337C116.804 136.786 117.235 136.529 118.043 136.492C119.712 136.419 121.435 136.456 123.104 136.052C123.643 135.942 123.912 136.125 123.966 136.419C124.127 136.896 124.289 137.373 124.289 137.851C124.343 140.788 124.397 143.725 124.45 146.662C124.45 147.616 124.289 148.497 123.266 149.195C122.943 149.452 122.943 149.599 123.374 149.745C125.527 150.663 125.85 152.132 125.797 153.674C125.743 155.032 125.689 156.354 125.85 157.712C126.12 159.511 125.958 161.236 124.935 162.925C124.289 163.953 124.558 165.091 124.504 166.192C124.45 167 124.45 167.845 124.343 168.652C124.181 169.643 123.535 169.9 122.135 169.643C120.466 169.35 119.066 168.689 117.774 167.881C115.835 166.706 114.543 165.201 113.197 163.733C111.743 162.117 113.466 158.336 115.889 157.382C116.212 157.271 116.589 157.088 116.804 157.418C117.451 158.41 117.828 159.327 117.666 160.392ZM124.02 140.861C124.181 139.943 123.697 138.952 123.643 137.961C123.589 137.08 122.781 136.97 121.812 137.08C120.681 137.227 120.035 137.741 119.981 138.548C119.874 139.76 119.658 140.971 119.551 142.183C119.443 143.541 119.658 144.863 120.843 146.038C121.597 146.735 121.974 146.698 122.458 145.927C123.481 144.349 124.074 142.733 124.02 140.861ZM124.235 160.319C124.989 157.822 124.397 155.436 124.127 153.086C124.074 152.646 123.535 152.462 122.943 152.609C122.135 152.793 122.135 153.307 122.189 153.747C122.458 155.546 122.781 157.308 123.104 159.107C123.212 159.511 123.32 159.988 124.235 160.319Z" fill="black"/>
<path d="M132.957 156.686C132.203 161.789 134.249 166.819 133.442 171.885C133.388 172.252 133.388 172.619 133.334 172.987C133.173 174.272 132.903 174.308 130.965 174.198C127.357 174.015 125.957 172.252 124.827 170.307C124.773 170.16 124.773 170.013 124.827 169.866C125.473 168.544 125.311 167.149 125.365 165.791C125.365 164.58 125.58 163.368 126.28 162.193C126.927 161.165 127.034 160.064 126.873 158.963C126.603 157.237 126.603 155.475 126.711 153.749C126.819 152.575 126.496 151.51 125.58 150.519C124.827 149.711 124.773 148.903 125.203 147.912C125.742 146.591 125.58 145.196 125.527 143.8C125.473 141.891 125.419 139.946 125.311 138.037C125.311 137.596 125.311 137.156 125.042 136.788C124.342 135.687 125.203 134.696 125.473 133.668C125.527 133.521 125.688 133.411 125.85 133.338C127.842 132.493 128.596 131.135 129.08 129.666C129.242 129.189 129.565 128.822 130.157 128.565C130.534 128.418 130.857 128.271 131.288 128.455C131.719 128.675 131.934 128.969 131.934 129.299C131.934 129.703 131.503 129.703 131.073 129.703C130.696 129.703 130.48 129.85 130.373 130.07C128.811 132.31 126.819 134.476 126.227 136.972C125.58 139.689 126.388 142.332 127.411 144.939C128.38 147.362 128.65 149.821 128.65 152.281C128.65 158.081 128.65 163.882 128.65 169.683C128.65 170.343 128.542 171.041 129.08 171.665C129.619 172.252 130.373 172.656 131.396 172.509C132.365 172.363 132.149 171.702 132.203 171.224C132.257 167.663 132.419 164.066 131.611 160.541C131.18 159.109 131.611 157.788 132.957 156.686Z" fill="black"/>
<path d="M154.603 121.59C152.772 121.48 150.995 121.406 149.218 121.149C148.088 120.966 147.495 120.562 147.495 119.754C147.603 117.588 146.311 115.789 144.426 114.137C143.188 113.036 143.188 112.889 144.857 112.008C146.418 111.2 147.388 110.136 148.088 108.924C148.518 108.263 149.003 107.602 149.595 107.015C150.08 106.538 150.618 106.428 151.211 106.942C151.318 107.052 151.48 107.125 151.588 107.199C153.849 109.769 155.68 112.412 155.303 115.532C155.249 116.193 155.626 116.634 156.164 117.111C157.241 118.029 157.941 119.057 157.78 120.305C157.672 121.259 157.08 121.7 155.626 121.59C155.303 121.516 154.926 121.553 154.603 121.59ZM147.065 112.816C147.118 114.174 147.765 115.422 148.518 116.156C149.111 116.744 149.811 116.817 150.672 116.45C152.772 115.532 153.741 113.807 152.988 112.192C152.664 111.494 152.341 110.796 151.911 110.136C151.534 109.585 151.588 108.63 150.564 108.594C149.595 108.557 149.326 109.475 148.841 109.989C147.98 110.98 147.065 111.971 147.065 112.816Z" fill="black"/>
<path d="M141.304 169.974C141.142 171.479 140.711 172.691 140.927 173.902C140.98 174.196 140.604 174.416 140.334 174.6C139.15 175.371 137.696 175.591 136.134 175.444C134.357 175.26 134.034 174.82 134.196 173.608C134.627 170.231 134.842 166.853 134.088 163.476C133.442 160.539 133.927 157.639 134.25 154.702C134.25 154.628 134.25 154.592 134.304 154.518C134.627 154.004 134.788 153.307 135.704 153.307C136.457 153.307 136.673 153.967 136.888 154.408C138.127 157.198 138.719 160.062 139.365 162.925C139.742 164.467 139.957 166.009 140.227 167.551C140.334 168.505 141.573 169.24 141.304 169.974ZM136.35 169.276C136.35 169.974 136.35 171.112 136.35 172.287C136.35 172.727 136.296 173.131 136.619 173.535C137.104 174.049 137.857 174.086 138.18 173.572C138.773 172.58 139.419 171.589 139.096 170.488C138.88 169.644 138.665 168.799 138.45 167.955C137.911 165.568 138.18 163.145 137.427 160.759C137.157 159.805 137.05 158.887 137.211 157.932C137.373 157.015 136.996 156.133 136.404 155.289C136.188 155.032 135.919 154.849 135.434 154.922C134.95 154.995 134.842 155.252 134.842 155.546C134.842 155.73 134.896 155.913 134.896 156.097C135.488 160.355 136.081 164.577 136.35 169.276Z" fill="black"/>
<path d="M127.411 215.167C127.465 216.525 127.411 217.847 126.603 219.132C125.688 220.527 124.827 220.784 122.727 220.233C122.35 220.123 121.973 220.05 121.596 219.976C119.765 219.499 119.657 219.279 119.819 217.957C119.98 216.672 119.927 215.351 119.711 214.029C119.55 212.818 119.604 212.781 121.327 212.707C122.727 212.634 124.127 212.377 125.58 212.414C126.819 212.45 127.411 212.781 127.357 213.625C127.411 214.139 127.411 214.653 127.411 215.167Z" fill="black"/>
<path d="M106.357 10.3515C106.68 9.80078 107.327 9.58051 107.973 9.47037C111.042 8.95641 113.627 7.85504 115.888 6.34984C116.157 6.16628 116.426 5.94601 116.911 5.94601C117.396 5.94601 117.934 5.83587 118.311 6.12957C118.58 6.42327 118.311 6.71697 118.096 6.97395C117.934 7.23094 117.719 7.45121 117.611 7.70819C117.18 8.55257 117.45 8.88298 118.742 9.06654C120.357 9.28681 121.865 9.80078 123.534 9.91092C124.072 9.94763 124.126 10.2046 124.072 10.4983C123.803 11.5263 123.588 12.5175 122.511 13.3619C120.896 14.5366 119.496 15.8583 117.342 16.666C116.426 17.0331 116.319 17.5838 116.911 18.1344C117.342 18.575 117.88 18.9421 118.311 19.3827C118.634 19.7131 118.526 19.97 117.88 19.97C116.265 20.0435 114.65 20.1169 113.034 20.1903C112.173 20.227 112.119 19.8599 112.388 19.4194C113.465 17.7673 115.026 16.3723 117.342 15.4177C118.634 14.9038 119.765 14.2797 120.734 13.5087C122.672 12.0035 122.026 10.4616 119.119 10.0578C117.826 9.87421 116.534 9.65394 115.296 9.28681C114.434 8.99312 113.465 9.02983 112.55 9.2501C111.15 9.58051 109.75 9.91092 108.35 10.2413C107.704 10.3882 107.111 10.4983 106.357 10.3515Z" fill="black"/>
<path d="M76.7431 215.203C76.6355 215.276 76.5278 215.35 76.4201 215.423C75.5586 215.423 75.1278 214.983 74.9124 214.542C74.3201 213.331 74.0509 212.082 75.2355 210.944C75.8816 210.283 76.1509 209.513 76.9585 208.888C77.7124 208.338 76.3662 208.154 76.2585 207.64C76.9585 207.42 77.3893 207.75 77.9277 207.934C78.4662 208.117 79.0585 208.338 78.7354 207.567C78.52 207.163 78.897 207.09 79.3277 207.053C81.2123 206.906 82.1815 206.098 82.9353 204.997C84.2815 203.125 85.6814 201.289 86.9199 199.417C87.0814 199.16 87.1891 198.903 87.7814 198.756C88.3198 200.591 88.5352 202.39 88.3198 204.226C88.266 204.887 87.4583 205.327 86.6506 205.658C84.0122 206.722 81.5892 207.971 79.0585 209.109C77.4431 209.843 76.5278 210.908 75.7739 212.046C75.2893 212.817 75.5586 213.551 76.2047 214.212C76.3662 214.615 76.8508 214.836 76.7431 215.203Z" fill="black"/>
<path d="M132.85 186.642C134.411 186.128 134.626 185.284 134.519 184.256C134.357 181.833 133.873 179.447 134.411 177.024C134.573 176.216 134.95 175.849 136.188 176.069C137.857 176.326 139.365 175.996 140.549 175.225C142.111 174.197 143.834 174.784 145.503 174.711C146.095 174.674 145.934 175.115 145.557 175.298C144.211 176.032 142.865 176.803 141.411 177.464C140.442 177.942 139.311 177.868 138.18 177.721C136.888 177.538 136.403 177.795 136.35 178.676C136.242 180.034 136.08 181.429 136.403 182.788C136.673 184.036 136.242 185.174 135.488 186.238C135.057 187.046 133.927 186.826 132.85 186.642Z" fill="black"/>
<path d="M143.296 120.706C141.788 120.67 140.603 120.559 139.419 120.339C138.719 120.229 138.342 119.972 138.557 119.495C139.365 117.769 140.119 116.081 141.95 114.686C142.703 114.098 143.242 114.208 143.888 114.722C145.449 115.934 146.365 117.329 146.634 118.907C146.849 120.156 146.311 120.559 144.48 120.706C143.996 120.67 143.511 120.706 143.296 120.706Z" fill="black"/>
<path d="M155.895 83.9212C158.211 83.9946 160.041 84.3985 161.764 84.9491C163.434 85.4998 164.995 85.4998 166.61 84.839C167.149 84.6187 167.795 84.5453 168.387 84.5086C169.033 84.4719 169.733 84.3618 170.38 84.2883C173.664 83.9212 174.956 80.2133 172.91 78.7448C169.518 76.3585 166.341 73.7887 162.034 72.0999C161.818 72.0265 161.549 71.9163 161.441 71.5859C163.918 71.8796 166.018 72.467 167.687 73.7152C169.41 74.9634 171.133 76.2117 172.856 77.4232C176.464 79.993 175.764 82.1223 172.372 84.6187C171.726 85.096 170.756 85.1327 169.841 85.0593C168.333 84.9491 167.041 85.1327 165.857 85.867C165.157 86.3075 164.187 86.3442 163.326 86.1239C161.064 85.5733 158.803 84.9491 156.541 84.3618C156.434 84.325 156.326 84.2149 155.895 83.9212Z" fill="black"/>
<path d="M158.802 132.715C159.933 132.458 160.364 132.936 160.902 133.229C163.595 134.624 163.756 134.624 165.102 132.495C166.179 130.806 167.848 129.485 170.164 128.567C173.071 127.392 175.979 126.144 179.156 125.336C179.264 125.299 179.317 125.299 179.371 125.263C182.333 123.611 185.994 122.913 189.494 121.995C191.271 121.518 192.51 120.71 193.533 119.719C195.094 118.141 197.14 116.929 199.24 115.754C199.456 115.644 199.671 115.461 199.94 115.607C200.209 115.754 199.994 115.938 199.832 116.048C196.979 117.663 194.771 119.646 192.24 121.481C190.894 122.473 189.117 122.987 187.179 123.244C186.317 123.354 185.456 123.574 184.702 123.868C180.017 125.593 175.333 127.319 170.648 129.081C168.387 129.925 166.825 131.173 165.91 132.789C165.479 133.523 164.995 134.184 164.241 134.771C163.649 135.212 163.11 135.395 162.302 134.881C161.226 134.11 160.041 133.449 158.802 132.715Z" fill="black"/>
<path d="M160.257 70.8911C159.019 70.8911 158.319 70.3404 157.673 69.753C155.249 67.6604 152.773 65.5311 150.403 63.4018C148.573 61.7498 146.419 60.3547 144.211 58.9597C143.565 58.5558 142.811 58.2254 142.327 57.6747C141.734 57.0873 139.581 56.8671 138.719 57.1975C137.965 57.4912 139.096 57.7482 138.611 58.152C138.073 57.895 137.481 57.638 136.942 57.3443C136.511 57.124 136.781 56.9405 137.104 56.7569C137.481 56.5734 137.965 56.5734 138.396 56.5734C139.311 56.5366 139.365 56.243 138.881 55.8024C138.504 55.5087 138.127 55.215 137.75 54.9213C137.588 54.7745 137.427 54.5909 137.75 54.4441C137.965 54.3339 138.181 54.4441 138.342 54.5542C138.827 54.958 139.473 55.2517 139.85 55.729C140.388 56.4999 141.304 56.7202 142.488 56.6101C144.104 56.4632 145.665 56.1695 147.119 55.7657C148.734 55.2884 150.296 55.5087 151.803 55.9493C152.396 56.1328 153.15 56.3898 153.042 56.9038C152.934 57.4177 152.073 57.3076 151.426 57.5279C152.126 56.6101 151.911 56.243 150.619 56.0594C149.38 55.8758 148.142 55.9125 146.903 56.1328C145.665 56.3898 144.48 56.8303 143.134 56.7936C142.919 56.7936 142.65 56.8303 142.596 57.0139C142.542 57.1975 142.757 57.2709 142.919 57.381C147.711 60.3547 152.396 63.4385 156.003 67.1465C157.026 68.2111 158.372 69.1289 159.719 70.0467C159.88 70.3037 160.365 70.4505 160.257 70.8911Z" fill="black"/>
<path d="M93.8123 198.205C94.0277 199.38 94.8892 200.261 95.7507 201.142C96.1276 201.546 96.4507 201.986 96.6122 202.464C96.6661 202.721 96.7738 203.051 96.2892 203.161C95.0507 203.418 94.1892 204.079 93.1661 204.52C92.5738 204.777 91.9277 204.997 91.2277 205.07C90.2047 205.217 89.5047 204.923 89.4508 204.226C89.2893 202.537 89.3431 200.812 88.9124 199.123C88.8047 198.609 89.2893 198.682 89.7739 198.829C90.5277 199.086 91.0123 199.527 91.3354 200.041C91.7123 200.665 92.0892 201.289 92.6277 201.84C93.0584 202.28 93.5431 202.611 94.243 202.354C95.1046 202.06 94.8892 201.472 94.5123 201.069C94.0277 200.518 93.8661 199.931 93.5969 199.38C93.2738 199.049 93.1661 198.609 93.8123 198.205Z" fill="black"/>
<path d="M52.405 90.5273C53.7512 92.0693 54.5588 93.758 55.6896 95.4101C58.0588 98.8243 61.2356 101.871 64.8971 104.735C65.3817 105.102 65.8125 105.8 66.8355 105.396C67.7509 105.029 68.1816 104.405 67.8047 103.67C67.4817 103.046 67.5355 102.495 68.7739 101.982C68.2355 102.752 67.8047 103.377 68.8278 103.891C68.9355 103.927 68.9355 104.074 68.9355 104.148C68.6662 105.139 67.5893 105.689 66.6201 106.314C65.9201 106.754 65.0048 106.534 64.3048 106.167C63.6048 105.8 62.9587 105.469 62.2587 105.139C60.8587 104.405 59.4049 103.78 57.628 103.523C56.7665 103.377 55.905 103.083 55.3127 102.532C57.628 103.34 60.4818 103.23 62.3664 104.662C62.5817 104.808 62.7971 104.992 63.0664 105.065C63.3894 105.175 63.8202 105.175 64.0894 104.992C64.4663 104.772 64.1433 104.551 63.9279 104.368C63.174 103.67 62.3664 102.973 61.5587 102.275C57.4665 98.6774 54.6127 94.7492 52.405 90.5273Z" fill="black"/>
<path d="M139.096 156.207C139.365 156.868 139.688 157.419 139.903 158.006C140.873 160.612 141.788 163.219 142.757 165.826C143.296 167.368 143.296 167.368 144.965 166.34C144.911 167.404 144.211 168.102 143.08 168.652C142.326 168.983 141.842 168.799 141.519 168.249C140.98 167.404 140.98 166.523 140.819 165.642C140.334 162.778 139.796 159.878 138.773 157.051C138.665 156.794 138.449 156.537 139.096 156.207Z" fill="black"/>
<path d="M112.873 158.778C112.657 157.824 113.034 157.273 113.303 156.686C114.003 155.217 114.919 153.749 113.788 152.17C113.68 152.023 113.573 151.766 113.95 151.693C114.865 151.509 115.78 151.546 116.696 151.73C117.503 151.877 117.503 152.354 117.449 152.758C117.449 153.565 117.342 154.41 117.288 155.217C117.234 155.621 117.073 156.025 116.588 156.282C115.296 157.016 114.057 157.677 112.873 158.778Z" fill="black"/>
<path d="M157.403 91.4837C158.265 91.1533 158.965 91.19 159.718 91.4103C161.065 91.8508 162.249 92.3648 163.488 92.9889C164.941 93.7231 166.664 94.2004 168.011 95.0448C168.441 95.3017 169.141 95.2283 169.734 95.1549C172.803 94.8979 174.903 96.5867 176.033 97.9083C176.464 98.4223 176.141 98.8995 175.387 99.1198C174.58 99.3401 174.203 98.9362 173.987 98.4223C173.126 96.5132 171.51 95.7056 168.549 95.7423C167.903 95.7423 167.311 95.6689 166.88 95.3017C166.018 94.6042 164.834 94.2004 163.703 93.7965C162.357 93.356 161.011 92.9522 159.934 92.2179C159.234 91.8141 158.265 91.8875 157.403 91.4837Z" fill="black"/>
<path d="M110.45 3.44887C109.535 3.33873 108.404 3.30202 107.543 2.82476C106.681 2.38422 106.358 1.68669 106.681 1.02587C107.112 0.144777 108.404 0.291626 109.427 0.18149C109.858 0.108065 110.289 0.218202 110.773 0.218202C112.604 0.18149 113.143 0.622035 113.143 2.0171C113.089 2.78805 111.904 3.44887 110.45 3.44887Z" fill="black"/>
<path d="M146.472 165.789C147.28 166.413 147.28 167.111 146.849 167.808C146.311 168.616 145.772 169.424 145.126 170.195C144.211 171.259 143.996 172.287 145.234 173.315C145.719 173.756 145.611 173.939 144.803 174.013C142.38 174.233 141.896 173.792 141.949 172.214C142.057 170.672 142.542 169.424 144.588 168.579C145.503 168.175 145.772 167.368 146.042 166.67C146.149 166.376 146.096 166.046 146.472 165.789Z" fill="black"/>
<path d="M84.1739 156.025C83.097 155.327 82.6662 154.556 82.1277 153.822C80.5124 151.509 80.4586 149.049 80.7816 146.553C81.1585 143.836 81.4816 141.083 81.8047 138.366C81.8585 137.962 82.0201 137.595 82.72 137.191C82.6662 138.146 82.6124 138.917 82.5047 139.725C82.1278 142.845 81.8047 146.002 81.6431 149.123C81.5355 151.032 82.1277 152.794 83.4739 154.483C83.7969 154.887 84.2277 155.327 84.1739 156.025Z" fill="black"/>
<path d="M32.2131 27.3868C30.6516 27.4235 29.467 27.1298 28.2286 26.8728C22.2518 25.5145 16.4904 23.9358 11.6443 21.0723C10.1366 20.1912 8.79051 19.2367 7.60592 18.1353C7.33669 17.8783 6.95978 17.5479 7.33669 17.3277C7.87514 17.034 8.09052 17.5112 8.3059 17.6948C11.6443 20.9254 16.275 23.018 21.4441 24.5599C24.1902 25.3676 26.9363 26.3221 29.8978 26.7627C30.7055 26.8361 31.4593 26.9829 32.2131 27.3868Z" fill="black"/>
<path d="M51.7049 69.1997C49.605 69.163 47.4512 69.0161 45.3512 69.3832C44.9204 69.4567 44.4897 69.5301 44.1128 69.6769C41.4205 70.6682 41.1513 71.2923 42.7666 73.0545C44.1128 74.5229 45.782 75.8446 46.805 77.4599C48.3127 79.6994 48.9588 82.0856 49.605 84.4719C48.7973 83.6276 48.5819 82.6363 48.2588 81.6818C47.3973 79.1487 46.1589 76.7991 43.6282 74.7799C42.8205 74.1191 42.1744 73.3849 41.5821 72.6139C40.5052 71.2188 41.0974 70.2643 43.1974 69.6035C45.4589 68.9427 47.7742 68.7959 50.1434 69.0895C50.7357 69.1263 51.2203 69.163 51.7049 69.1997Z" fill="black"/>
<path d="M150.995 73.8284C151.964 73.0207 151.749 72.1029 152.126 71.3319C152.287 73.3511 152.126 73.8284 150.887 74.9297C148.626 69.533 144.641 64.7237 140.603 59.9512C143.08 61.9336 144.534 64.3199 146.364 66.5594C148.195 68.8355 149.487 71.2952 150.995 73.8284Z" fill="black"/>
<path d="M134.357 147.836C137.319 148.533 138.396 151.874 138.449 154.995C135.865 152.976 135.757 150.259 134.357 147.836Z" fill="black"/>
<path d="M67.2126 55.25C66.9433 55.5804 66.8356 55.764 66.6741 55.8007C65.1126 56.3881 64.0357 57.4527 62.3665 57.8566C61.3973 58.0768 60.5896 58.444 59.9973 59.0313C59.7819 59.2149 59.5666 59.5086 59.1358 59.3618C58.6512 59.1782 58.9204 58.8845 59.0281 58.6275C59.0819 58.4807 59.1896 58.3338 59.3512 58.2237C61.505 56.8286 64.0895 55.9475 67.2126 55.25Z" fill="black"/>
<path d="M133.227 154.116C133.011 152.244 133.604 150.518 133.227 148.756C135.327 149.674 135.38 152.427 133.227 154.116Z" fill="black"/>
<path d="M95.3198 64.4272C95.2121 64.8311 95.6429 65.7122 94.3506 65.7122C93.0045 65.7122 93.3275 64.8311 93.2737 64.2437C93.2737 64.0601 93.2737 63.8765 93.2737 63.693C93.3275 63.1423 93.7044 62.7018 94.566 62.7385C95.3736 62.7385 95.2659 63.2891 95.3198 63.6563C95.3736 63.8765 95.3198 64.0968 95.3198 64.4272Z" fill="black"/>
<path d="M92.9503 64.5743C92.9503 64.7946 92.9503 65.0149 92.9503 65.1985C92.8964 65.6023 92.5734 65.8226 92.0349 65.8226C91.4965 65.8593 91.0657 65.7859 90.8503 65.4187C90.5273 64.7946 90.5273 64.1705 90.7965 63.5464C90.958 63.1426 91.4426 63.1426 91.9811 63.1426C92.5734 63.1426 92.8964 63.3261 92.9503 63.73C92.9503 64.0237 92.8964 64.2807 92.9503 64.5743Z" fill="black"/>
<path d="M144.75 200.336C145.126 202.942 146.849 205.366 147.549 207.899C145.773 205.549 144.642 203.053 144.75 200.336Z" fill="black"/>
<path d="M116.319 4.58767C114.542 5.50548 112.873 6.42328 110.396 5.76246C110.073 5.65232 109.589 5.76246 109.212 5.79917C108.889 5.79917 108.512 5.83588 108.458 5.54219C108.404 5.21178 108.835 5.2852 109.104 5.24849C109.212 5.24849 109.373 5.24849 109.481 5.24849C111.473 5.35863 113.412 5.2852 115.135 4.47754C115.458 4.40411 115.942 4.25726 116.319 4.58767Z" fill="black"/>
<path d="M144.803 81.5713C145.018 80.5434 145.611 79.6623 146.903 79.0749C148.141 78.5242 149.488 78.0103 149.003 76.7253C148.949 76.5418 149.057 76.4316 149.326 76.4316C149.757 76.4316 149.972 76.6519 149.918 76.9089C149.811 77.4963 149.649 78.0837 148.949 78.4875C147.334 79.3686 145.611 80.1396 144.803 81.5713Z" fill="black"/>
</svg>
