<svg width="201" height="201" viewBox="0 0 201 201" fill="none" xmlns="http://www.w3.org/2000/svg">
<path d="M68.7497 111.149C69.225 111.178 69.3369 111.378 69.0573 111.779C68.5819 112.437 68.0786 113.038 67.5474 113.639C66.7925 114.498 66.0375 115.385 65.6461 116.445C65.1987 117.675 65.2267 119.049 65.3106 120.395C65.3944 121.597 66.0375 122.341 66.8204 123.085C67.5194 123.744 67.4915 123.772 66.8763 124.517C66.6527 124.774 66.5967 125.003 66.7645 125.29C67.1 125.891 67.2119 126.664 68.0227 126.893C68.2184 126.95 68.3023 127.179 68.2184 127.379C67.8829 128.066 67.6592 128.953 67.0161 129.24C66.3451 129.555 65.7579 130.041 65.0589 130.242C64.7513 130.327 64.4438 130.442 63.9685 130.642C64.304 130.184 64.5836 129.984 64.9191 129.869C65.5063 129.669 65.9816 129.268 66.4569 128.896C67.0161 128.438 66.9602 127.808 66.7925 127.179C66.6247 126.578 66.401 126.005 65.702 125.805C64.975 125.604 64.1921 125.547 63.4652 125.232C63.1296 125.089 63.0737 125.404 62.9339 125.576C61.5079 127.551 60.082 129.497 58.656 131.501C57.5935 132.99 56.2793 134.22 54.8813 135.423C53.9027 136.281 53.0359 137.255 52.253 138.285C52.0294 138.6 51.8336 138.829 51.4142 138.514C51.1346 138.285 50.7991 138.4 50.4636 138.371C50.3238 138.371 50.156 138.4 50.156 138.171C50.156 138.027 50.3238 137.97 50.4076 137.999C51.582 138.342 51.9734 137.369 52.6165 136.711C53.6231 135.652 54.7136 134.678 55.804 133.705C56.3353 133.219 56.7547 132.703 57.0063 131.988C57.3978 130.9 58.2086 130.07 58.9356 129.211C61.0606 126.721 62.151 123.83 62.3747 120.566C62.4306 119.937 62.4866 119.336 62.5704 118.735C62.6264 118.362 62.6823 118.019 62.4027 117.675C62.1231 117.332 62.3747 116.903 62.5704 116.616C63.7448 114.784 64.7234 112.838 66.0934 111.12C67.5194 109.346 69.0852 107.743 70.8467 106.311C71.9651 105.395 73.2793 104.852 74.5655 104.193C75.6839 103.621 76.7464 102.991 77.6411 102.104C78.5358 101.188 79.7661 100.844 80.8006 100.186C80.9964 100.043 81.276 99.9854 81.4158 99.6419C80.521 99.6705 79.7102 99.6992 78.9832 100.1C78.6756 100.272 78.4799 100.3 78.2562 100.043C77.9487 99.7278 77.5852 99.785 77.2217 99.8136C75.2086 100.014 73.6707 101.102 72.2447 102.476C69.7842 104.852 67.2957 107.256 64.4717 109.203C63.7727 109.689 63.0178 110.061 62.3188 110.519C61.9833 110.72 61.452 110.92 61.3681 111.206C61.1165 112.094 60.4175 112.122 59.7744 112.408C57.929 113.181 56.2234 114.298 54.5178 115.385C53.9027 115.786 53.2876 116.13 52.6445 116.502C52.4208 116.645 52.1692 116.788 51.9175 116.645C51.5261 116.445 51.2465 116.645 50.9669 116.845C49.5129 117.904 47.9192 118.935 46.8846 120.395C44.7317 123.314 42.0195 125.748 39.9504 128.753C39.6708 129.154 39.3633 129.555 39.1396 129.984C38.8041 130.585 38.4406 131.1 37.7416 131.272C37.434 131.358 37.1824 131.616 37.0146 131.93C36.8468 132.217 36.6511 132.36 36.3156 132.245C36.036 132.159 35.6725 132.159 35.5327 131.845C35.3929 131.501 35.6166 131.215 35.8403 130.957C36.1478 130.614 36.3995 130.213 36.9866 130.27C37.3222 130.299 37.5179 129.955 37.6857 129.726C39.9225 127.036 42.2152 124.431 44.536 121.826C44.8435 121.482 45.0672 121.11 45.2629 120.681C45.4866 120.166 45.8221 119.708 46.2695 119.421C47.7234 118.448 48.9817 117.189 50.5195 116.33C51.0507 116.044 51.6659 115.929 52.1132 115.471C53.1478 114.498 54.2103 113.496 55.2728 112.552C57.4257 110.634 59.8862 109.174 62.179 107.485C65.8418 104.794 69.7842 102.533 73.7267 100.243C74.174 99.9854 74.6493 99.7564 75.1526 99.6705C77.1937 99.2698 79.0951 98.2393 81.1921 98.0675C81.5835 98.0389 81.947 97.8672 82.2546 97.5809C82.7579 97.1229 83.3171 96.7508 83.9322 96.4073C84.799 95.9207 84.9388 95.4055 84.5194 94.4608C84.3796 94.1174 84.5473 93.7452 84.2677 93.4017C83.7085 92.772 82.9816 92.6861 82.2266 92.6289C80.8845 92.543 79.5424 92.5716 78.2003 92.1995C76.4388 91.7129 74.7332 91.0545 73.1954 90.0527C72.5803 89.6805 72.049 89.6233 71.4339 89.8237C70.0359 90.2817 68.5819 90.5107 67.1 90.4534C66.5408 90.4248 66.0096 90.3103 65.4504 90.1385C64.6954 89.8809 64.0523 89.3943 63.2135 89.337C62.2349 89.2512 61.7037 88.3638 61.6757 87.2475C61.6477 86.0738 61.6198 84.9002 61.6477 83.7553C61.7316 81.637 61.0885 79.7478 60.054 78.0017C58.7678 75.769 57.258 73.6794 55.7201 71.6184C55.5524 71.3894 55.3566 71.1604 55.133 71.0173C53.5672 70.0441 52.4767 68.527 51.0507 67.382C50.4636 66.924 49.7366 66.5233 49.7366 65.5786C49.7366 65.4069 49.457 65.2065 49.2613 65.0634C46.8287 63.0883 44.7876 60.7125 42.4669 58.6229C40.985 57.2775 40.6215 55.4169 40.7333 53.4704C40.8172 52.2682 40.9291 51.0373 41.0689 49.8351C41.1527 49.1481 40.9011 48.9478 40.258 48.9764C38.0212 49.0623 35.8123 49.2913 33.6034 49.7779C33.4077 49.8351 33.184 49.8637 32.9883 49.8924C32.9603 49.8924 32.9044 49.8637 32.8205 49.8065C33.0163 49.5775 33.2959 49.4916 33.5475 49.4057C35.0294 48.9764 36.5393 48.6901 38.0771 48.6043C38.8879 48.547 39.6988 48.4898 40.5097 48.4039C40.7613 48.3753 41.1248 48.4039 41.1807 48.0318C41.2366 47.6596 41.2925 47.2589 40.9291 46.9727C40.8452 46.8868 40.7613 46.8009 40.6495 46.7723C38.2169 45.4269 36.0919 43.6522 33.7992 42.0779C30.6676 39.931 27.3123 38.2708 23.7614 36.9541C20.7696 35.8377 17.666 35.2366 14.5344 34.7786C11.8782 34.4065 9.16601 34.1488 6.56569 33.4046C5.69892 33.1756 4.99991 32.6031 4.18906 32.231C4.13313 32.2024 4.02129 32.1451 4.04925 32.0879C4.13313 31.2291 3.2384 31.0288 2.93084 30.4276C2.62327 29.7979 2.14794 29.254 1.78446 28.6529C1.14137 27.5079 0.58216 26.3343 0.246634 25.0748C0.134793 24.7027 0.0788718 24.3306 0.218674 23.844C0.498278 24.6169 0.694001 25.3325 0.973606 26.0195C1.84038 28.1663 3.12656 30.0269 4.7203 31.6585C5.9226 32.8894 7.54431 33.2329 9.11009 33.4619C12.9686 34.063 16.8551 34.4923 20.6578 35.5228C21.1331 35.6659 21.3008 35.4942 21.3568 35.0362C21.3847 34.7213 21.4686 34.3778 21.5525 34.063C21.6084 33.8626 21.7762 33.7481 21.9998 33.7767C22.2795 33.8053 22.1956 34.0343 22.1676 34.2347C22.1676 34.2633 22.1676 34.292 22.1676 34.292C22.0278 35.8663 22.0278 35.8663 23.5377 36.3243C28.263 37.7269 32.4291 40.16 36.3715 43.137C37.7416 44.1674 39.1676 45.1121 40.5656 46.0853C41.0129 46.4002 41.2925 46.4002 41.4603 45.7704C41.7679 44.4823 41.9636 43.1942 42.0475 41.9061C42.1034 40.9615 41.712 40.1886 40.9291 39.6448C40.7893 39.5303 40.5656 39.5016 40.5376 39.2726C41.4323 39.0436 41.7399 39.2154 42.1034 40.0169C42.8304 41.5626 42.411 43.137 42.1873 44.7113C42.1873 44.7686 42.1593 44.7972 42.1593 44.8544C42.1034 45.5128 41.4323 46.1998 41.8797 46.7437C42.6067 47.6024 43.5014 48.4039 44.6758 48.6615C44.8994 48.7188 45.1231 48.7474 45.3748 48.776C46.4932 49.005 46.4373 49.005 46.5491 47.8028C46.7728 45.7704 47.0804 43.7381 47.8912 41.8489C48.7859 39.7306 48.6461 37.6124 48.0869 35.4942C47.9192 34.8645 47.7234 34.2633 47.5557 33.6336C47.4998 33.4332 47.304 33.1184 47.6396 33.0325C47.9192 32.9466 48.003 33.2901 48.0869 33.4905C48.5902 35.0076 49.0935 36.4961 49.2892 38.099C49.3172 38.2994 49.1774 38.6429 49.485 38.7002C49.7646 38.7288 49.8205 38.4139 49.9323 38.2135C51.5261 35.2938 52.5886 32.1737 53.2037 28.9105C53.3155 28.2522 53.0918 27.9946 52.5047 27.8514C48.1429 26.9068 43.7531 26.2771 39.3074 25.9622C36.5393 25.7618 33.7992 25.447 31.0311 25.1893C27.6479 24.8745 24.2367 24.989 20.8535 25.0176C18.8403 25.0462 16.7992 25.1893 14.8699 24.3879C13.6397 23.8726 12.6051 23.0998 11.7384 22.0406C10.9555 21.096 9.97687 20.5808 8.71865 20.9529C8.467 21.0388 8.24332 20.9529 8.29924 20.6667C8.38312 20.3232 7.82391 19.8938 8.467 19.6362C9.3897 19.2641 10.2005 19.7221 11.0114 19.9797C11.0673 20.0083 11.1232 20.0655 11.1512 20.1228C12.5772 23.3287 15.1775 24.3306 18.3091 24.4451C20.0147 24.5024 21.6923 24.3879 23.3979 24.3592C25.9423 24.302 28.5146 24.4451 31.059 24.6169C34.61 24.9031 38.161 25.2466 41.684 25.5615C45.2629 25.8763 48.7859 26.4202 52.309 27.1931C52.8402 27.3076 53.1198 27.2217 53.1478 26.6492C53.2037 25.5042 53.9027 24.531 53.8188 23.3574C53.7629 22.8135 53.6511 22.4414 53.1478 22.1551C50.0162 20.3232 46.605 19.1782 43.1379 18.2622C39.587 17.3176 35.9521 16.9741 32.3452 16.373C29.4373 15.8864 26.5015 15.4284 23.5377 15.4856C21.7202 15.5142 20.462 14.3979 19.2318 13.2243C17.6939 11.7358 15.7926 11.0488 13.6956 10.5336C13.9472 10.9916 14.3946 11.2492 14.3946 11.7644C12.5772 11.1061 9.89298 4.57964 10.62 0.600826C10.7598 0.600826 10.8996 0.600826 11.0394 0.600826C11.0394 0.944322 11.0673 1.25919 11.0394 1.60269C10.9555 3.97853 11.4588 6.23987 12.4094 8.38671C12.689 9.01646 13.1084 9.50307 13.7795 9.73207C14.2269 9.90382 14.6463 10.0756 15.0657 10.2759C16.7433 10.9629 18.365 11.7072 19.6791 13.0239C20.9374 14.2834 22.3913 14.999 24.2367 14.9417C25.6627 14.8845 27.1166 15.0562 28.5426 15.2566C32.0936 15.7719 35.6166 16.3157 39.1676 16.9168C44.2284 17.747 49.0935 19.2354 53.6231 21.7544C54.0425 21.9834 54.1823 21.8689 54.378 21.4968C54.6017 21.0674 54.8813 20.638 55.3566 20.409C55.4685 20.3518 55.5803 20.3232 55.6642 20.4377C55.7481 20.5522 55.6922 20.6667 55.6083 20.7525C55.2728 21.0388 55.0491 21.4682 54.7695 21.8116C54.5458 22.0979 54.5458 22.2983 54.8254 22.5559C55.4405 23.0998 55.9718 23.7295 56.6428 24.2161C56.7826 24.3306 56.9504 24.531 57.1182 24.4165C57.3418 24.302 57.202 24.0157 57.1461 23.844C56.8945 23.0139 56.6428 22.2124 56.3912 21.3823C56.3073 21.1533 56.2234 20.8957 56.503 20.7525C57.1182 20.4663 57.202 19.9224 57.2859 19.3499C57.3698 18.7488 57.3978 18.1191 57.5376 17.518C57.6494 17.06 57.5096 16.8023 57.1741 16.5733C56.3353 16.0009 55.4126 15.5142 54.7415 14.7986C52.5886 12.5659 49.7925 11.7644 46.9965 10.9343C44.0047 10.0469 40.985 9.24545 38.0771 8.12909C35.7005 7.21311 33.5195 5.83913 31.1988 4.80864C30.1643 4.35065 29.1857 3.80678 28.263 3.14841C27.3683 2.46142 26.5574 1.63131 25.9982 0.600826C26.2219 0.600826 26.4735 0.600826 26.6972 0.600826C28.0952 1.08744 29.4932 1.57406 30.5837 2.63317C31.786 3.80678 33.1281 4.78002 34.4982 5.72463C35.6725 6.55474 37.0705 6.58337 38.3847 6.98411C40.9011 7.72835 43.4455 8.41534 45.9619 9.21683C46.605 9.4172 47.2481 9.6462 48.031 9.61757C47.6396 8.98783 47.0524 8.58709 46.8287 7.92872C47.0524 7.84285 47.1363 7.95735 47.2202 8.07184C48.4504 9.56032 50.128 10.4477 51.6938 11.4495C53.9307 12.9094 56.3353 14.083 58.3205 15.9436C58.5721 16.2012 58.7958 16.0581 58.9915 15.8864C59.5227 15.457 60.054 15.0276 60.5852 14.6269C62.6823 13.0525 64.7793 11.4782 67.2398 10.5049C68.4421 10.0469 69.7283 10.1328 70.5392 11.1919C70.7628 11.4782 71.0145 11.7644 71.2382 12.0793C72.4964 13.9113 73.6428 15.8005 75.2645 17.3748C77.4734 19.4931 80.1575 20.8957 82.7299 22.4986C84.4355 23.5577 86.0013 24.76 87.4273 26.1626C88.4898 27.2217 89.5243 28.3381 90.5868 29.3972C90.9503 29.7693 91.3138 30.0269 91.7891 29.6262C92.7397 28.796 93.6904 27.9659 94.6411 27.1072C94.9207 26.8496 95.0605 26.5061 95.2003 26.134C96.2628 23.3574 96.822 20.4663 97.2973 17.5466C97.8565 14.1116 98.3878 10.6767 98.5555 7.21311C98.6394 5.26663 98.8631 3.32016 98.8351 1.37369C98.8351 1.11607 98.919 0.858448 98.9749 0.600826C99.0588 0.600826 99.1706 0.600826 99.2545 0.600826C99.2266 1.28782 99.1706 1.97481 99.1706 2.6618C99.0308 8.21497 98.4996 13.7395 97.493 19.2068C97.0736 21.5254 96.5983 23.8154 95.7315 26.0195C95.396 26.8782 94.9486 27.5938 94.1657 28.1377C93.1032 28.9105 92.1246 29.8265 90.9503 30.7998C91.4815 30.8856 91.7052 30.9715 91.6213 31.4581C91.3417 33.0897 91.0621 34.75 90.8664 36.3816C90.5868 38.8433 89.8319 41.1046 88.2102 43.0225C88.1263 43.1083 88.0144 43.2228 88.1542 43.4232C88.2661 43.3946 88.4059 43.3946 88.5457 43.366C91.0621 42.679 93.6065 42.1637 96.2068 41.763C99.0868 41.3336 101.939 41.305 104.791 42.0779C109.628 43.3946 113.934 45.6559 117.736 49.005C120.337 51.295 122.713 53.8139 125.146 56.2756C126.656 57.7928 128.138 59.3671 130.123 60.2545C131.409 60.8556 132.891 60.6838 134.149 61.285C134.345 61.3708 134.652 61.3136 134.652 60.9987C134.652 60.4548 134.904 59.9968 134.96 59.453C135.24 56.5333 135.184 53.6708 134.624 50.7797C134.037 47.7455 133.143 44.7686 132.835 41.6771C132.667 40.1028 131.996 38.4998 132.835 36.8968C132.863 36.8109 132.863 36.6964 132.863 36.6106C133.003 35.1221 133.338 33.6336 133.786 32.2024C134.736 29.0823 136.694 26.7351 139.266 24.9317C142.034 22.9853 144.494 20.7239 146.564 18.0332C147.207 17.2031 147.514 16.2299 147.99 15.3425C148.129 15.1135 148.073 14.8272 148.045 14.5696C147.906 13.6823 148.129 12.8522 148.661 12.1365C150.059 10.1901 150.981 8.01459 151.764 5.78188C152.379 4.03578 152.967 2.28968 153.554 0.514953C154.337 0.514953 155.147 0.514953 155.93 0.514953C154.281 4.32202 152.799 8.21497 151.68 12.2224C151.457 13.0525 151.513 13.1384 152.323 13.0525C154.225 12.8235 156.014 12.1652 157.804 11.4209C159.873 10.5622 161.858 9.50307 164.011 8.87333C164.71 8.67296 165.017 8.12909 165.073 7.4421C165.129 6.81236 165.241 6.18262 165.409 5.55288C165.884 3.89265 166.332 2.2038 166.807 0.543577C167.142 0.543577 167.45 0.543577 167.786 0.543577C167.422 1.54544 167.226 2.60455 167.003 3.63503C166.723 4.92314 166.443 6.18262 166.192 7.47073C166.052 8.18634 166.276 8.35809 166.947 8.10047C167.198 8.01459 167.338 7.87147 167.45 7.64248C168.401 5.32388 169.463 3.03392 169.883 0.543577C170.022 0.543577 170.162 0.543577 170.302 0.543577C169.883 2.74767 168.932 4.78002 168.317 6.92686C167.953 8.21497 167.366 9.33133 166.695 10.4191C166.443 10.8484 166.332 11.335 166.192 11.8217C166.136 12.0507 166.108 12.3083 166.276 12.4228C166.499 12.5945 166.639 12.2797 166.779 12.1652C167.813 11.3923 168.764 10.4763 169.855 9.81794C172.231 8.38672 173.601 6.18262 174.692 3.72091C174.832 3.37741 174.999 3.03392 175.167 2.69042C175.307 2.40418 175.419 2.11793 175.726 1.94618C175.531 2.57592 175.335 3.20566 175.055 3.80678C174.021 6.18262 172.818 8.38671 170.554 9.84657C169.463 10.5336 168.485 11.3923 167.45 12.1652C167.003 12.5087 166.667 12.8808 166.583 13.4819C166.555 13.6536 166.583 13.9399 166.388 13.9685C165.716 14.0544 165.521 14.6555 165.241 15.1135C163.564 17.8615 161.914 20.6094 159.565 22.8708C158.447 23.9585 157.58 25.2752 156.657 26.5347C154.868 29.025 153.582 31.8589 151.82 34.3778C151.792 34.4065 151.82 34.4923 151.82 34.7213C153.693 32.2882 156.098 30.5135 157.636 27.7942C156.741 28.1091 156.126 28.6529 155.455 29.1395C155.399 28.8533 155.567 28.7674 155.651 28.6529C157.049 27.0499 158.391 25.4183 159.929 23.9299C161.662 22.2983 163.228 20.4949 165.101 19.0351C166.248 18.1477 167.478 17.3462 168.652 16.5161C169.016 16.2585 169.128 16.0581 168.652 15.8291C168.345 15.686 168.121 15.3997 167.981 15.0276C168.457 14.999 168.848 15.1707 169.016 15.4856C169.407 16.1726 169.743 15.8577 170.106 15.5429C171.309 14.5124 172.511 13.5105 173.685 12.4514C174.748 11.4782 175.726 10.4191 176.509 9.1882C176.817 8.67296 177.012 8.18634 176.985 7.58523C176.957 5.20938 176.733 2.83354 176.425 0.486328C176.649 0.486328 176.901 0.486328 177.124 0.486328C176.901 1.57406 177.152 2.6618 177.264 3.74953C177.432 5.43838 177.6 7.09861 177.795 8.87333C178.215 8.61571 178.522 8.21497 178.83 7.84285C180.563 5.925 182.493 4.26477 184.506 2.69042C185.848 1.65994 187.19 1.68856 188.644 2.2038C190.657 2.91942 192.475 4.03578 194.32 5.12351C195.271 5.66738 196.193 6.0395 197.312 5.89638C198.234 5.78188 199.073 5.43838 199.632 4.60827C199.772 4.4079 199.856 4.1789 200.136 4.15028C200.136 5.03764 199.521 5.8105 198.458 6.154C197.032 6.61199 195.69 6.58337 194.32 5.72463C192.363 4.60827 190.35 3.34879 188.029 2.69042C186.799 2.34693 185.736 2.5473 184.73 3.26291C182.325 4.98039 180.256 7.06998 178.299 9.27408C177.823 9.81794 177.963 10.5049 178.075 11.1347C178.299 12.709 178.522 14.2834 178.634 15.8864C178.662 16.2585 178.718 16.6592 178.718 17.0313C178.69 17.6325 178.83 17.8042 179.445 17.6897C182.297 17.2317 185.149 17.3748 187.973 17.9187C190.35 18.3767 192.726 18.8633 195.103 19.3213C195.578 19.4072 196.081 19.4644 196.557 19.5217C196.836 19.5503 197.032 19.4358 197.256 19.2641C197.563 19.0064 197.871 18.7774 198.262 18.4626C198.206 19.1782 197.983 19.6076 197.48 19.9797C196.305 20.8384 195.327 21.9548 194.376 23.0425C192.167 25.5615 189.762 27.8228 187.134 29.8265C184.31 31.9734 181.654 34.3492 179.221 36.9541C179.054 37.1258 178.914 37.3262 178.718 37.4407C177.292 38.328 176.985 39.7593 176.817 41.2764C176.425 44.7972 175.111 47.9745 173.07 50.837C172.93 51.0373 172.818 51.2091 172.595 51.524C175.503 51.066 177.823 49.5775 180.116 48.0031C182.437 46.4002 183.975 43.9957 185.708 41.8489C185.932 41.992 185.904 42.0779 185.848 42.1637C184.226 44.4537 182.688 46.8009 180.34 48.3466C178.159 49.7779 175.978 51.2663 173.378 51.8675C172.399 52.0965 171.644 52.6403 171.001 53.4132C170.414 54.1288 169.855 54.8444 169.323 55.6173C168.904 56.247 168.988 56.3615 169.715 56.3615C170.554 56.3901 171.392 56.3043 172.259 56.0753C172.203 56.5333 171.98 56.6478 171.672 56.705C170.973 56.8481 170.246 56.9913 169.519 56.9913C168.848 56.9913 168.345 57.2775 167.925 57.85C167.394 58.6515 166.863 59.4816 166.499 60.369C165.772 62.1151 165.101 63.8898 164.402 65.6645C164.346 65.779 164.318 65.9221 164.263 66.237C166.024 65.2924 167.674 64.4337 169.295 63.5463C172.371 61.8861 175.055 59.682 177.656 57.3634C180.088 55.1879 182.688 53.2128 185.121 51.0087C188.644 47.7741 191.44 43.9671 194.012 39.931C195.047 38.328 196.109 36.7823 197.284 35.2938C197.563 34.9217 197.871 34.5782 198.346 34.4637C198.43 34.7786 198.234 34.9217 198.123 35.0648C195.998 37.7555 194.152 40.6466 192.279 43.5377C190.014 47.0299 187.19 49.9496 184.114 52.6976C182.101 54.5009 179.864 55.9608 177.963 57.85C175.419 60.3976 172.511 62.4013 169.463 64.2047C168.261 64.9203 167.003 65.5786 165.772 66.2084C164.542 66.8381 163.759 67.84 163.536 69.214C163.312 70.6166 162.725 71.8474 162.054 73.0497C161.83 73.4504 161.606 73.8798 161.355 74.2805C161.774 72.7062 162.557 71.2463 162.781 69.5861C162.417 69.5861 162.417 69.8437 162.389 69.9868C162.193 70.9314 161.466 71.7043 161.383 72.6775C161.383 72.7348 161.327 72.8207 161.271 72.8493C160.236 73.25 159.845 74.2519 159.425 75.1393C158.838 76.3987 157.943 77.372 156.881 78.2307C156.238 78.746 155.707 79.3757 154.868 79.6047C154.672 79.6619 154.448 79.8623 154.337 80.0341C153.302 81.6657 151.96 83.0969 151.177 84.9002C150.45 86.5605 149.611 88.1348 148.437 89.795C149.527 89.2798 150.394 88.7932 151.233 88.2207C152.883 87.1043 154.113 85.53 155.427 84.0415C156.825 82.4385 158.167 80.7783 159.509 79.1467C160.432 78.0303 161.103 76.7422 161.634 75.311C161.802 76.1984 161.55 77.1143 160.74 78.1735C159.09 80.3203 157.468 82.4958 155.651 84.5281C154.309 86.0166 153.078 87.6196 151.373 88.7073C150.338 89.3943 149.248 89.9954 148.185 90.6252C147.486 91.0259 146.955 91.5698 146.592 92.2568C146.2 92.9724 145.641 93.5735 145.054 94.0887C144.494 94.5753 144.159 95.1478 143.991 95.8635C143.292 98.8118 141.922 101.474 140.552 104.107C139.713 105.682 139.014 107.313 137.98 108.773C137.225 109.804 137.225 111.006 137.337 112.208C137.393 112.809 137.868 113.267 138.203 113.754C139.909 116.273 142.034 118.42 144.047 120.652C145.809 122.627 147.43 124.717 149.052 126.807C150.059 128.066 150.925 129.411 151.708 130.814C152.156 131.587 152.743 132.217 153.47 132.732C155.679 134.278 157.888 135.881 160.32 137.026C162.529 138.056 164.486 139.401 166.332 141.004C167.506 142.035 168.932 142.579 170.274 143.266C171.085 143.667 171.868 144.153 172.651 144.611C173.098 144.897 173.378 145.212 173.238 145.842C173.126 146.357 173.21 146.93 173.182 147.474C173.154 148.246 173.182 148.962 174.161 149.105C174.3 149.134 174.524 149.22 174.44 149.42C174.356 149.62 174.161 149.535 174.021 149.535C173.238 149.477 173.154 149.563 173.294 150.336C173.489 151.681 173.489 153.027 173.853 154.343C173.35 154.315 173.21 153.971 173.098 153.513C172.595 151.624 172.119 149.735 171.924 147.788C171.868 147.245 171.728 146.815 171.085 146.758C170.861 146.758 170.665 146.643 170.665 146.386C170.693 145.756 170.274 145.384 169.911 145.012C168.68 143.724 167.142 142.808 165.577 142.035C161.047 139.831 156.909 137.054 152.771 134.163C152.575 134.02 152.379 133.906 152.184 133.791C151.345 133.276 150.282 132.961 150.422 131.644C149.332 129.268 148.437 126.807 146.452 125.003C146.032 124.603 145.697 124.345 145.277 124.917C145.193 125.032 145.026 125.175 144.886 125.204C144.019 125.375 144.159 125.891 144.467 126.463C146.452 130.356 147.318 134.564 147.934 138.829C148.213 140.804 148.073 142.665 146.871 144.411C145.865 145.899 145.361 147.617 145.305 149.449C145.277 150.25 145.585 150.794 146.2 151.252C148.157 152.655 150.198 153.943 152.379 155.03C152.827 155.259 153.246 155.288 153.721 155.059C155.763 154.143 157.804 153.227 159.929 152.512C161.411 152.025 162.92 151.853 164.458 151.968C162.697 152.483 160.795 152.512 159.062 153.199C157.3 153.885 155.595 154.687 153.777 155.488C154.448 156.004 155.147 156.118 155.791 156.404C158.167 157.378 160.544 158.322 162.92 159.324C164.626 160.04 166.388 159.983 168.149 159.639C170.078 159.267 172.008 159.467 173.909 159.811C174.049 159.839 174.244 159.839 174.328 160.183C171.476 159.925 168.68 160.126 165.772 160.412C166.947 161.185 168.317 161.5 169.323 162.444C168.261 162.072 167.198 161.7 166.164 161.328C165.996 161.271 165.8 161.185 165.661 161.099C164.179 160.183 162.641 160.383 161.075 160.727C160.628 160.813 160.152 160.841 159.677 160.612C160.767 160.441 161.886 160.269 163.088 160.097C162.082 159.696 161.159 159.353 160.236 158.981C157.971 158.065 155.679 157.177 153.414 156.233C152.883 156.004 152.491 156.004 151.988 156.319C149.891 157.664 147.542 158.38 145.194 159.41C145.613 158.981 145.613 158.981 146.088 158.78C148.045 157.922 150.031 157.063 151.904 156.004C152.044 155.918 152.24 155.918 152.24 155.689C152.24 155.517 152.072 155.488 151.932 155.431C149.583 154.344 147.43 152.97 145.277 151.51C144.802 151.195 144.522 151.252 144.327 151.796C143.488 154.344 141.726 156.233 140.077 158.208C138.092 160.584 135.799 162.645 133.45 164.648C131.046 166.709 128.194 167.883 125.258 168.828C123.776 169.314 122.294 169.801 120.784 170.23C120.253 170.402 120.057 170.688 120.225 171.232C120.337 171.547 120.393 171.89 120.504 172.205C120.84 173.178 121.483 173.551 122.518 173.436C124.335 173.264 125.957 172.463 127.634 171.776C129.843 170.889 132.08 170.058 134.233 169.085C136.498 168.026 138.707 166.852 140.832 165.507C140.999 165.421 141.167 165.335 141.419 165.192C141.223 165.851 140.72 166.051 140.328 166.309C136.861 168.484 133.198 170.23 129.396 171.69C127.075 172.577 124.866 173.722 122.434 174.18C122.182 174.238 121.986 174.352 122.014 174.638C122.042 174.925 122.266 174.867 122.434 174.839C124.587 174.409 126.684 175.01 128.837 175.01C130.542 175.01 132.276 175.211 133.981 175.268C135.128 175.297 136.246 175.411 137.393 175.497C137.644 175.526 138.064 175.468 138.036 175.869C138.036 176.241 137.616 176.213 137.365 176.213C136.666 176.241 135.967 176.213 135.268 176.299C136.917 176.47 138.511 177.071 140.217 177.043C142.397 176.986 144.578 177.043 146.759 177.329C147.878 177.472 148.996 177.329 150.115 177.243C152.323 177.043 154.504 176.871 156.657 176.27C159.817 175.411 162.697 173.923 165.521 172.291C167.003 171.432 168.401 170.459 169.547 169.142C169.715 168.942 169.938 168.742 170.33 168.77C169.491 170.087 168.485 171.117 167.282 171.948C164.374 173.98 161.271 175.583 157.943 176.699C157.776 176.757 157.608 176.814 157.468 177.043C159.286 177.043 161.103 177.043 162.92 177.043C162.92 177.1 162.92 177.186 162.92 177.243C162.277 177.3 161.634 177.386 160.963 177.415C159.314 177.501 157.664 177.558 156.014 177.587C154.7 177.615 153.526 178.159 152.295 178.503C149.052 179.476 145.809 180.449 142.481 180.993C138.707 181.594 134.932 182.138 131.129 182.281C129.536 182.338 127.914 182.481 126.32 182.567C125.733 182.596 125.649 182.911 125.817 183.369C126.041 184.056 126.516 184.514 127.215 184.628C128.501 184.857 129.703 185.344 130.878 185.974C131.633 186.374 132.499 186.346 133.338 186.46C138.483 187.205 143.684 187.348 148.856 187.462C149.919 187.491 150.953 187.319 151.96 186.976C152.994 186.603 153.917 186.26 155.147 186.432C157.3 186.747 159.509 186.203 161.69 186.174C163.983 186.145 166.276 185.916 168.596 185.831C170.134 185.773 171.532 185.144 173.042 185C173.937 184.943 174.804 184.657 175.642 184.256C174.915 184.714 174.72 185.916 173.573 185.716C171.057 186.832 168.401 186.346 165.8 186.518C161.942 186.775 158.083 187.033 154.253 187.29C154.197 187.29 154.141 187.319 154.057 187.434C154.952 187.548 155.818 187.663 156.713 187.72C158.866 187.892 161.019 188.035 163.2 188.178C167.813 188.521 172.455 188.693 177.068 188.836C181.067 188.979 185.065 188.979 189.063 189.036C189.343 189.036 189.567 189.008 189.734 188.722C190.014 188.235 190.406 188.235 190.881 188.407C191.832 188.779 192.055 188.693 192.67 187.949C192.782 187.806 193.118 187.663 193.118 187.748C193.118 188.35 193.649 188.493 193.873 188.836C194.04 189.094 193.817 189.638 193.369 189.58C192.838 189.466 192.475 189.695 192.027 189.838C191.077 190.124 190.154 190.496 189.287 189.638C189.091 189.437 188.756 189.523 188.476 189.523C183.415 189.494 178.355 189.638 173.322 189.437C167.925 189.237 162.529 189.294 157.133 189.18C156.126 189.151 155.147 189.036 154.141 188.979C153.162 188.922 152.156 188.779 151.205 189.237C150.618 189.523 149.947 189.552 149.276 189.466C146.675 189.151 144.103 189.437 141.559 189.695C140.832 189.781 140.105 190.038 139.378 190.21C137.085 190.754 134.736 190.668 132.416 190.582C130.43 190.496 128.473 190.525 126.488 190.41C123.496 190.21 120.504 189.981 117.513 189.723C116.171 189.609 114.828 189.523 113.486 189.952C113.067 190.096 112.676 190.096 112.256 190.01C111.026 189.781 110.187 190.353 109.852 191.613C109.516 192.929 109.432 194.303 108.929 195.563C108.873 195.706 108.901 195.878 108.817 195.964C107.503 197.28 106.804 199.084 105.602 200.486C105.602 200.486 105.546 200.486 105.518 200.486C105.378 200.2 105.518 199.971 105.657 199.771C106.86 197.996 107.251 195.878 107.95 193.874C108.258 192.987 107.307 191.699 106.384 191.641C105.685 191.613 104.986 191.641 104.287 191.641C103.868 191.641 103.56 191.899 103.253 192.157C102.833 192.5 102.442 192.529 102.19 191.956C101.967 191.384 101.519 191.183 100.96 191.212C97.9404 191.298 94.9207 191.441 91.873 191.355C91.5934 191.355 91.3976 191.441 91.174 191.641C90.3911 192.357 89.4684 192.815 88.4338 192.958C84.9388 193.473 81.5835 194.447 78.2283 195.563C75.9914 196.307 73.6707 196.536 71.378 196.937C66.4849 197.767 61.5359 197.652 56.6149 197.824C56.1955 197.824 55.776 197.881 55.3566 197.881C54.6017 197.91 53.9027 197.91 53.1757 197.653C52.2251 197.309 51.2185 197.28 50.2119 197.252C49.1774 197.223 48.1149 197.137 47.0804 196.994C46.1017 196.851 45.1231 196.765 44.1166 197.023C43.082 197.28 41.9916 196.88 40.957 196.593C40.0623 196.336 39.1955 196.021 38.2449 196.05C38.0212 196.05 37.7136 196.05 37.7136 195.735C37.7136 195.477 37.9932 195.448 38.1889 195.391C38.5524 195.305 39.0837 195.391 39.2514 195.162C40.1182 194.132 41.1248 194.79 42.0475 194.876C46.9965 195.248 51.9175 195.964 56.8665 195.592C59.4389 195.391 62.0392 195.448 64.5836 194.99C65.0869 194.905 65.5342 194.761 65.8138 194.275C65.8698 194.16 66.0375 194.017 66.1214 194.017C66.9323 194.16 67.4355 193.588 68.0507 193.187C68.1625 194.132 68.2184 194.16 69.1132 193.989C69.5605 193.903 69.9799 193.817 70.3994 193.702C70.5392 193.674 70.7349 193.616 70.7628 193.416C70.7908 193.244 70.623 193.187 70.4832 193.13C69.952 192.815 69.5605 192.414 69.5326 191.727C69.5326 191.527 69.4487 191.298 69.1691 191.269C69.0293 191.269 68.8056 191.355 68.9734 191.498C69.5885 191.928 69.0013 191.842 68.8056 191.956C68.3023 192.271 67.799 192.242 67.2678 192.042C66.7365 191.842 66.2053 191.67 65.6461 191.584C65.003 191.498 64.4158 191.412 63.8846 191.956C63.605 192.242 63.1856 192.357 63.0178 191.784C62.5984 190.554 61.5918 190.153 60.5293 190.267C58.4603 190.496 56.4471 190.239 54.406 190.21C53.2876 190.181 52.3369 190.41 51.554 191.241C51.2744 191.555 50.855 191.784 50.4915 191.584C48.9817 190.84 47.5277 191.47 46.0458 191.727C42.8863 192.328 39.7547 192.615 36.5393 192.414C33.2679 192.214 29.9686 192.271 26.6972 192.414C24.1808 192.529 21.6643 192.643 19.1758 192.758C15.8206 192.929 12.4374 193.044 9.08213 193.387C7.82391 193.502 6.56569 193.445 5.30747 193.473C3.88149 193.502 2.48347 193.674 1.05749 193.76C0.917685 193.76 0.749922 193.845 0.554199 193.645C0.833803 193.33 1.19729 193.302 1.56077 193.302C3.21044 193.33 4.80419 193.216 6.31405 192.471C7.04102 192.128 7.82391 192.013 8.63476 191.985C10.3683 191.928 12.1298 191.699 13.8634 191.784C15.6808 191.899 17.4703 191.47 19.2877 191.298C22.3354 191.04 25.411 190.725 28.4587 190.496C32.5409 190.181 36.6232 189.723 40.5656 188.607C42.5787 188.035 44.6198 187.977 46.6609 188.121C48.3945 188.235 50.1001 188.178 51.8336 188.235C53.4833 188.264 55.133 188.321 56.7826 188.35C57.0902 188.35 57.4537 188.435 57.5096 188.035C57.5655 187.663 57.23 187.519 56.9224 187.434C55.3566 186.89 53.707 186.632 52.0573 186.518C50.0721 186.374 48.1988 185.716 46.2136 185.516C45.2629 185.43 44.3123 185.401 43.3616 185.458C40.3978 185.602 37.462 185.659 34.5261 185.974C34.3584 186.002 34.2186 185.974 34.0508 185.916C36.2317 185.516 38.4126 185.086 40.6215 184.972C41.0409 184.943 41.4603 184.972 41.8518 184.8C42.0475 184.714 42.2991 184.686 42.2712 184.399C42.2432 184.142 41.9916 184.199 41.8238 184.17C41.0129 184.027 40.23 183.884 39.4192 183.77C38.6643 183.684 37.9373 183.569 37.2662 183.197C35.8403 182.396 34.2745 182.424 32.7367 182.195C30.3321 181.852 27.9275 181.823 25.4949 181.709C24.1808 181.651 22.8666 181.422 21.5525 181.222C21.1331 181.165 20.7976 181.222 20.462 181.508C19.6791 182.138 18.5887 181.766 18.365 180.793C18.2811 180.478 18.0854 180.306 17.8897 180.134C17.6939 179.963 17.6101 179.734 17.7499 179.505C17.8897 179.247 18.1134 179.39 18.3091 179.447C19.3156 179.791 20.3502 180.048 21.3008 180.621C21.6923 180.85 22.1676 180.793 22.587 180.85C24.6002 181.165 26.6413 181.079 28.6544 181.251C30.7794 181.422 32.9324 181.365 35.0574 181.794C35.1972 181.823 35.3929 181.852 35.5607 181.709C35.2531 181.336 34.638 181.451 34.2465 180.85C35.2531 181.079 36.1478 181.165 36.9587 181.508C38.6363 182.167 40.3419 182.739 42.0754 183.168C42.8583 183.34 43.6133 183.541 44.2564 182.768C44.48 182.51 44.9274 182.453 45.2909 182.367C47.6675 181.995 49.9044 181.079 52.281 180.621C54.5178 180.192 56.7826 179.877 59.0474 179.676C60.4734 179.562 61.9273 179.419 63.3533 179.276C63.4372 179.276 63.577 179.276 63.6329 179.218C64.6115 178.216 65.9257 178.674 67.0441 178.589C69.6724 178.36 72.2727 178.131 74.901 177.873C76.5786 177.701 78.2562 177.644 79.9059 177.587C82.2266 177.529 84.5194 177.043 86.8681 177.215C87.3434 177.243 87.7069 176.986 87.9865 176.499C87.4552 176.356 86.9799 176.47 86.5046 176.499C85.5539 176.585 84.6033 176.728 83.6526 176.642C83.373 176.613 82.9816 176.585 83.0095 176.155C83.0375 175.726 83.373 175.697 83.6806 175.669C85.0786 175.526 86.5046 175.354 87.9026 175.125C88.4338 175.039 88.8532 175.01 88.8532 174.323C88.8532 174.238 88.993 174.152 89.0769 174.009C88.35 173.551 87.5111 173.522 86.7283 173.436C85.6658 173.322 84.6033 173.264 83.5128 173.264C79.4026 173.207 75.3204 172.864 71.35 171.833C69.0293 171.232 66.7365 170.545 64.4717 169.715C63.5491 169.371 62.9619 168.513 62.0112 168.284C62.2629 168.141 62.4866 168.284 62.7102 168.37C65.5622 169.486 68.4701 170.431 71.4619 171.089C72.1888 171.232 72.9438 171.318 73.6707 171.318C75.2645 171.318 76.8023 171.575 78.3681 171.919C80.9125 172.463 83.4848 172.52 86.0572 172.778C87.6509 172.949 89.2167 173.379 90.8384 173.379C91.2578 173.379 91.6773 173.35 92.0407 173.093C92.6559 172.663 92.6838 172.291 92.0407 171.948C91.3417 171.547 90.5868 171.318 89.8039 171.118C89.2167 170.974 88.6016 170.889 88.0983 170.402C88.6855 170.545 89.2727 170.688 89.8878 170.831C90.3911 170.946 90.8944 171.003 91.3417 170.631C91.6493 170.373 92.0407 170.459 92.4042 170.574C92.8236 170.688 93.0473 170.516 93.0194 170.058C92.9914 169.658 93.1312 169.171 92.7118 168.885C92.5999 168.799 92.572 168.684 92.5999 168.57C92.9355 167.339 92.2644 166.423 91.6493 165.507C91.2299 164.849 90.5588 164.276 90.3631 163.561C89.9996 162.358 89.2727 161.414 88.7973 160.326C88.35 159.267 87.623 158.208 86.7003 157.664C85.9733 157.235 85.6098 156.633 85.0786 156.09C84.2677 155.259 83.7085 154.229 83.1773 153.199C82.8138 152.483 82.3664 151.796 81.8072 151.223C81.0802 150.508 80.8566 149.706 81.0523 148.704C81.1641 148.218 81.276 147.731 80.4651 147.645C79.9618 147.588 80.1855 147.13 80.3253 146.872C80.9125 145.842 80.8286 145.47 79.8779 144.754C79.6822 144.611 79.4585 144.439 79.2349 144.354C78.5358 144.125 78.396 143.667 78.5079 142.98C78.8714 140.203 79.7102 137.655 81.4158 135.365C83.9322 131.959 85.526 128.066 86.2809 123.858C86.7003 121.626 87.4552 119.536 88.8812 117.761C90.1115 116.273 90.3072 114.441 90.475 112.609C90.5029 112.179 90.6147 111.75 90.6707 111.349C90.8384 109.46 91.9848 108.516 93.6904 108.229C94.697 108.058 95.4519 107.542 96.2348 106.941C96.5424 106.712 96.6822 106.397 96.8499 106.082C96.9618 105.853 96.8779 105.682 96.6262 105.682C94.9486 105.624 94.0539 104.508 93.5226 103.105C93.0753 101.903 92.4042 101.474 91.2299 101.646C90.6707 101.731 90.1115 101.674 89.5523 101.646C89.1888 101.646 88.993 101.817 88.993 102.218C89.021 103.363 89.021 104.508 89.021 105.653C89.021 106.082 89.2447 106.14 89.6082 106.111C90.4749 106.025 91.3138 105.796 92.3763 105.911C91.7332 106.369 91.146 106.483 90.5588 106.512C89.9717 106.54 89.5802 106.655 89.8039 107.399C89.8878 107.657 89.8319 107.943 89.5243 108.058C89.2727 108.143 89.0769 108 88.9371 107.8C88.8532 107.657 88.7414 107.542 88.6575 107.371C88.3779 107.571 88.4059 107.829 88.3779 108.086C87.9865 113.01 86.2809 117.532 84.4914 122.055C83.4289 124.746 81.4717 126.778 79.2908 128.581C78.9553 128.868 78.6477 129.182 78.2842 129.469C77.1658 130.385 76.4668 131.501 76.5786 133.018C76.5786 133.161 76.5227 133.304 76.4947 133.448C76.4668 133.505 76.4109 133.562 76.327 133.705C76.1312 133.333 76.1592 132.99 76.1312 132.646C76.1033 132.245 76.2431 131.873 75.9635 131.472C75.7398 131.186 76.0753 130.957 76.271 130.757C77.1378 129.841 78.0326 128.982 79.0112 128.209C82.0589 125.833 83.9881 122.685 85.1904 118.992C86.0013 116.502 86.8401 114.011 87.1756 111.407C87.3434 110.033 87.4273 108.659 87.5111 107.285C87.5391 106.798 87.2595 106.569 86.7562 106.569C86.1131 106.569 85.498 106.741 84.9108 106.913C82.1427 107.6 79.3187 107.886 76.4668 107.886C73.8385 107.886 71.5457 108.716 69.5046 110.376C69.1132 110.605 68.8895 110.834 68.7497 111.149C67.855 111.893 67.128 112.752 66.401 113.668C66.2053 113.926 66.1214 114.155 66.401 114.441C66.7925 113.725 67.3517 113.21 67.8829 112.666C68.3023 112.237 68.6099 111.75 68.7497 111.149ZM77.4174 60.6838C77.4454 60.3403 77.5572 59.9968 77.4734 59.682C77.1937 58.537 77.1937 57.3634 76.8023 56.247C76.6625 55.8177 76.6625 55.0448 76.3549 55.0734C75.8796 55.102 75.8516 55.8177 75.6559 56.247C75.3484 56.8481 75.3763 57.4493 76.0474 57.7641C76.8862 58.1649 77.1658 58.8232 77.2217 59.682C77.2217 60.0255 77.3335 60.3403 77.4174 60.6838C77.725 64.1188 78.0326 67.5537 78.3401 70.9887C78.6477 70.6452 78.6477 70.3017 78.6197 69.9296C78.5918 69.3857 78.5358 68.8418 78.5079 68.298C78.396 65.9508 78.0885 63.6035 77.697 61.285C77.6691 61.056 77.6691 60.7983 77.4174 60.6838ZM71.6855 43.3946C71.322 43.2228 71.1543 42.8793 70.9865 42.5358C70.3994 41.4767 70.0359 40.3031 69.5885 39.1868C68.9454 37.5838 67.6592 36.6392 66.4569 35.5514C66.2333 35.8663 66.5408 36.0953 66.3171 36.3529C65.8698 36.2384 65.5622 35.8663 65.4224 35.4656C64.9191 33.9198 63.7448 33.147 62.3747 32.5459C62.3468 32.5459 62.3467 32.5172 62.3188 32.5172C61.3681 31.9734 60.5014 31.3723 59.9981 30.3132C59.7744 29.8265 59.327 29.5403 58.7958 29.3972C57.3139 29.0537 55.8599 28.6815 54.378 28.3094C53.9586 28.1949 53.7349 28.2808 53.6511 28.7674C53.3715 30.2559 52.952 31.6871 52.5326 33.1184C51.6938 36.0953 50.128 38.7288 49.0655 41.5912C48.2267 43.8526 47.4438 46.1139 47.36 48.547C47.332 48.9478 47.4159 49.1481 47.8353 49.0623C48.031 49.0336 48.1988 49.0623 48.3945 49.0336C50.9948 48.7188 53.5392 49.0623 56.0557 49.7206C57.3978 50.0641 58.5162 50.8084 59.2711 51.982C61.48 55.4455 64.6675 57.621 68.2184 59.3671C68.6938 59.5961 69.1132 59.5961 69.5046 59.2526C70.3714 58.5084 71.2382 57.7355 72.1049 56.9626C72.5803 56.5619 72.6082 56.1039 72.3566 55.5028C71.4619 53.4704 71.6017 51.4667 72.6921 49.5489C73.0276 48.9478 73.3352 48.318 73.6707 47.7169C73.8665 47.3448 73.8664 47.0585 73.6148 46.6864C72.9158 45.6846 72.2168 44.6827 71.8253 43.4805C72.3845 44.1961 72.9158 44.9117 73.475 45.6273C73.0836 43.9098 71.9931 42.6217 70.9865 41.2477C71.0145 42.0492 71.5178 42.6503 71.6855 43.3946ZM159.286 53.0697C159.23 53.1269 159.202 53.1556 159.146 53.2128C158.027 53.5277 157.021 54.1574 155.958 54.644C155.539 54.8444 155.427 54.9589 155.791 55.3597C156.965 56.7909 157.999 58.308 159.006 59.8537C159.397 60.4548 159.761 61.0846 159.901 61.8288C158.503 59.6247 156.825 57.6496 155.287 55.5314C155.036 55.1879 154.756 55.102 154.392 55.2738C153.442 55.6745 152.547 56.1898 151.932 57.0771C151.149 58.2221 150.366 59.4244 149.807 60.6552C148.912 62.5731 147.654 64.0615 145.948 65.1206C144.886 65.779 144.383 66.6664 144.131 67.8972C143.264 71.7043 141.726 75.2538 139.573 78.517C136.917 82.4958 133.394 85.6159 129.759 88.5928C128.669 89.4802 127.411 90.1385 126.18 90.8255C125.901 90.9687 125.398 91.1404 125.621 91.5698C126.18 92.6575 126.712 93.8025 128.11 93.9456C130.095 94.146 132.108 94.2891 134.093 94.0601C138.623 93.5449 142.425 91.6843 144.914 87.6196C147.011 84.156 149.052 80.6638 151.736 77.6296C152.659 76.5991 153.386 75.3682 154.7 74.8816C156.406 74.2519 157.077 72.792 157.58 71.2463C158.419 68.6128 159.593 66.1511 160.907 63.7753C161.55 64.405 161.69 64.405 162.11 63.6035C162.976 61.9147 163.955 60.2831 164.514 58.4511C164.822 57.4206 165.241 56.5333 165.912 55.7032C166.611 54.8158 167.282 53.8998 168.093 53.0983C169.239 51.9533 170.442 50.8656 171.476 49.5775C173.629 46.944 174.86 43.8526 176.146 40.7611C176.258 40.5035 176.369 40.1314 176.118 39.9596C175.866 39.7593 175.67 40.1028 175.475 40.2459C173.769 41.6485 172.147 43.137 170.554 44.6827C168.233 46.9154 165.772 49.005 163.004 50.6652C161.69 51.4381 160.404 52.1537 159.286 53.0697ZM154.812 54.3864C155.791 54.2433 156.657 53.7567 157.552 53.3559C161.411 51.5812 164.962 49.2626 168.121 46.3715C170.33 44.3392 172.483 42.221 174.776 40.2745C175.782 39.3871 176.509 38.5857 176.565 37.1258C176.593 35.6087 177.012 34.1202 176.705 32.5745C176.23 30.1987 176.425 27.8228 176.929 25.4756C177.376 23.3288 177.711 21.1819 177.879 18.9778C177.907 18.4912 177.795 18.4339 177.348 18.5484C174.86 19.1209 172.455 19.8652 170.078 20.8384C166.388 22.3269 162.837 24.0444 159.761 26.7351C158.642 27.7083 157.916 28.9105 157.049 30.0269C155.846 31.544 154.896 33.2615 153.526 34.6355C151.96 36.2384 150.702 38.099 149.388 39.931C147.654 42.3068 146.256 44.9403 145.976 48.0318C145.893 49.0623 145.92 49.2912 146.843 49.6634C147.85 50.0641 148.856 50.4362 149.835 50.8656C150.198 51.0087 150.59 51.1518 150.73 51.6098C149.639 51.2663 148.633 50.837 147.57 50.4649C146.983 50.2645 146.284 49.6634 145.837 50.0927C145.305 50.608 145.557 51.4953 145.753 52.211C146.088 53.4418 147.011 54.1861 147.934 54.9017C148.297 55.1879 148.409 55.4169 148.353 55.9035C148.185 57.2489 147.458 58.2221 146.452 59.0236C145.865 59.4816 145.333 59.9396 144.83 60.4835C144.606 60.7411 144.411 60.9987 144.439 61.3708C144.494 62.7162 144.97 64.0329 144.606 65.5214C146.899 64.405 148.521 62.8307 149.527 60.6266C150.031 59.5102 150.562 58.4511 151.205 57.4206C151.736 56.5046 152.463 55.789 153.442 55.331C153.889 55.0162 154.42 54.8444 154.812 54.3864ZM118.715 159.696C118.771 160.469 118.519 161.013 118.324 161.557C117.932 162.759 117.513 163.99 118.519 165.106C118.687 165.307 118.631 165.507 118.491 165.679C118.044 166.165 118.044 166.767 118.072 167.368C118.1 167.654 117.988 168.026 118.351 168.169C118.687 168.312 118.995 168.141 119.246 167.94C120.029 167.339 120.812 166.738 121.595 166.137C125.901 162.759 129.116 158.551 131.241 153.428C131.661 152.454 131.493 151.767 130.934 150.994C129.899 149.506 129.032 147.903 128.249 146.243C127.299 144.268 126.488 142.235 125.481 140.317C122.909 135.48 122.182 130.299 122.601 124.889C122.797 122.37 123.189 119.879 123.217 117.361C123.245 115.385 123.273 113.41 123.189 111.435C123.105 109.718 123.105 107.972 122.685 106.254C122.657 106.111 122.629 105.939 122.797 105.911C123.133 105.853 123.133 105.453 123.44 105.166C123.356 106.626 123.468 107.972 123.58 109.317C123.916 113.468 123.888 117.59 123.44 121.74C123.133 124.603 122.797 127.465 123.105 130.356C123.356 132.846 123.776 135.251 124.81 137.541C125.901 139.945 126.991 142.321 128.082 144.726C129.088 146.987 130.235 149.162 131.605 151.223C132.164 152.054 132.527 152.912 132.723 153.886C132.863 154.601 132.695 154.773 132.024 154.658C131.409 154.544 131.101 154.773 130.822 155.317C129.144 158.609 127.159 161.671 124.447 164.248C122.825 165.793 121.064 167.139 119.33 168.57C119.134 168.713 118.827 168.799 118.911 169.142C119.023 169.515 119.973 169.915 120.337 169.801C121.707 169.343 123.077 168.885 124.447 168.455C127.467 167.482 130.402 166.394 132.891 164.305C134.457 162.988 135.995 161.643 137.448 160.212C139.993 157.693 142.481 155.116 143.712 151.567C143.879 151.109 143.879 150.937 143.432 150.708C142.817 150.365 142.37 149.849 142.453 149.048C142.509 148.676 142.37 148.447 142.006 148.246C141.279 147.817 140.888 147.044 140.468 146.357C140.384 146.214 140.328 146.014 140.44 145.871C140.944 145.212 140.804 144.411 140.832 143.667C140.86 143.209 140.999 142.865 141.503 142.894C142.23 142.922 142.621 142.493 142.901 141.892C144.439 138.858 145.026 135.652 144.299 132.274C143.768 129.869 142.425 127.894 141.083 125.891C140.86 125.547 140.58 125.261 140.524 124.832C140.384 123.486 139.825 122.255 139.098 121.168C136.526 117.303 133.786 113.553 130.934 109.918C129.032 107.514 127.047 105.166 124.475 103.449C123.748 102.962 122.993 102.533 122.434 101.846C122.266 101.646 122.042 101.56 121.819 101.56C121.176 101.588 120.56 101.417 119.945 101.331C118.1 101.016 116.618 101.588 115.611 103.22C115.22 103.878 115.332 104.852 114.381 105.109C114.297 105.138 114.241 105.395 114.213 105.567C113.794 106.941 113.375 108.287 113.011 109.661C112.34 112.237 112.396 114.784 113.458 117.275C113.934 118.362 114.605 119.192 115.891 119.135C115.919 119.135 115.947 119.192 115.975 119.221C114.996 119.879 113.934 119.65 113.319 118.534C111.865 115.901 111.669 113.067 112.34 110.147C112.731 108.544 113.263 106.941 113.766 105.367C113.934 104.823 113.822 104.594 113.263 104.508C112.34 104.365 111.389 104.279 110.551 103.936C109.404 103.42 108.565 103.621 107.866 104.623C107.838 104.651 107.81 104.68 107.754 104.708C107.419 104.966 107.363 105.252 107.587 105.624C108.258 106.827 108.845 108.058 109.544 109.231C109.879 109.804 110.019 110.405 110.131 111.034C110.355 112.666 110.467 114.298 110.606 115.929C110.774 118.019 111.222 120.08 111.557 122.141C111.809 123.629 111.921 125.204 112.62 126.578C113.179 127.665 113.235 128.724 113.123 129.898C113.011 131.129 112.927 132.388 113.291 133.591C113.542 134.421 113.542 135.222 113.43 136.052C113.375 136.424 113.375 136.797 113.43 137.197C113.682 138.829 114.018 140.432 114.465 142.006C115.555 145.699 115.891 149.506 116.31 153.342C116.59 155.803 117.037 158.236 117.429 160.67C117.457 160.87 117.541 161.042 117.764 161.07C117.988 161.099 118.072 160.899 118.156 160.727C118.268 160.441 118.296 160.068 118.715 159.696ZM107.559 64.8058C107 64.0329 106.44 63.2601 105.881 62.4586C104.791 60.9128 103.616 59.4244 101.911 58.537C101.24 58.1935 100.625 57.7641 100.009 57.3348C96.6822 55.0162 92.5161 55.102 89.2726 57.5065C88.4898 58.1076 87.6789 58.6515 86.896 59.2526C84.072 61.3994 81.8352 64.0329 81.3319 67.7541C81.0523 69.7578 80.8286 71.7902 80.9964 73.7939C81.0523 74.5954 81.1641 75.3969 81.4717 76.1697C82.4223 78.6028 83.6526 80.8642 85.3582 82.8106C86.225 83.8125 87.0917 84.8144 88.3779 85.2724C90.2513 85.9593 92.1526 86.6463 94.0818 87.133C94.4174 87.2188 94.7809 87.2761 95.1164 87.2188C98.5835 86.8181 101.939 85.9307 104.958 84.0415C106.049 83.3545 107.139 82.5244 107.447 81.179C107.782 79.6906 108.929 78.8604 109.712 77.7441C109.768 77.6582 109.907 77.5723 109.991 77.5437C110.802 77.4578 110.858 76.9998 110.69 76.2842C110.495 75.4827 110.606 74.624 109.488 74.4523C108.929 74.3664 109.153 73.7653 109.125 73.3645C109.125 73.1928 109.208 73.1069 109.376 73.1069C109.768 73.1355 109.907 73.4218 110.019 73.7653C110.075 73.9084 110.075 74.1374 110.271 74.1374C110.467 74.1088 110.578 73.9084 110.578 73.708C110.634 72.9065 110.802 72.105 110.718 71.2749C110.523 69.2998 110.075 67.382 109.488 65.4928C108.621 62.6589 107.307 60.0827 105.294 57.9072C102.582 55.0162 99.1427 53.6422 95.4239 52.8121C95.2841 52.7834 95.1164 52.7834 95.0325 52.8407C94.2496 53.2987 93.3549 53.2987 92.5161 53.4132C89.8039 53.8139 87.4273 54.873 85.3582 56.705C83.9602 57.9645 82.646 59.2812 81.8072 60.9701C81.3599 61.8574 80.9684 62.7734 80.8566 63.7753C80.9964 63.718 81.0802 63.6322 81.1362 63.5463C83.0654 60.3117 85.6937 57.7641 88.9092 55.9322C91.7332 54.3292 94.6411 53.8426 97.7726 54.873C100.513 55.7604 102.694 57.4493 104.511 59.6534C105.825 61.1705 106.888 62.8593 107.559 64.8058ZM104.763 124.23C104.707 122.599 104.539 121.168 104.287 119.708C104.148 118.878 103.868 118.162 102.945 117.904C102.61 117.819 102.33 117.561 102.051 117.361C101.715 117.132 101.352 117.074 100.988 117.217C100.177 117.475 99.3664 117.675 98.5276 117.761C98.1361 117.819 97.8845 117.99 97.8285 118.42C97.4371 120.939 96.822 123.4 95.9832 125.805C95.0325 128.524 94.0539 131.215 92.572 133.705C92.0407 134.593 91.5654 135.48 91.3417 136.482C91.0062 138.113 89.9437 139.63 90.6148 141.405C90.6148 141.434 90.6148 141.462 90.6148 141.462C90.5309 142.579 90.3631 143.695 89.9996 144.754C89.72 145.584 89.8039 145.756 90.6427 146.042C91.5374 146.329 92.4042 146.643 93.299 146.93C95.396 147.617 96.794 149.019 97.6328 151.08C98.1361 152.283 98.5555 153.513 99.1147 154.716C100.625 157.95 100.792 161.357 100.373 164.82C100.345 165.164 100.401 165.421 100.569 165.707C101.184 166.738 102.023 167.11 103.141 166.91C103.477 166.852 103.84 166.795 104.176 166.795C106.021 166.767 107.838 166.938 109.684 167.11C111.361 167.282 113.011 167.539 114.605 166.652C115.024 166.423 115.192 166.28 115.024 165.736C114.102 162.702 113.039 159.696 112.396 156.548C112.116 155.202 111.921 153.8 110.97 152.712C110.159 151.825 109.852 150.737 109.74 149.592C109.572 147.96 109.46 146.329 109.292 144.697C109.041 142.378 108.705 140.06 108.062 137.827C107.838 137.054 107.503 136.396 106.804 135.938C106.245 135.566 105.909 134.993 105.657 134.364C105.182 133.104 105.126 131.759 105.098 130.413C105.07 128.81 104.343 127.293 104.567 125.69C104.707 125.146 104.735 124.603 104.763 124.23ZM71.3221 12.7949C70.9865 12.2224 70.4832 11.7644 70.0359 11.3064C69.8122 11.0488 69.5046 10.9916 69.225 11.2205C68.9734 11.4209 68.7217 11.4495 68.554 11.1919C68.0227 10.4191 67.4076 10.7339 66.7645 11.0202C64.8632 11.8789 63.1576 13.1098 61.452 14.312C60.781 14.7986 60.1099 15.3425 59.4668 15.8864C59.2431 16.0867 58.9076 16.3444 59.1593 16.6592C59.8024 17.4607 60.1099 18.4626 60.6412 19.3213C62.3188 22.0693 63.9964 24.8172 65.8138 27.4793C66.8204 28.9392 67.7152 30.4849 69.0013 31.7158C70.2875 32.9466 71.5178 34.2633 72.5523 35.7518C74.202 38.1277 75.4322 40.7039 76.4108 43.4232C76.6905 44.1674 76.8303 44.2247 77.3895 43.7667C79.0112 42.4786 80.2694 40.8756 80.8286 38.8433C81.6115 36.0381 83.1493 33.9771 85.7776 32.7462C86.9519 32.2024 88.2102 31.8016 89.3565 31.1433C90.7825 30.3131 90.7546 30.2845 89.72 29.025C87.2875 26.1053 84.4635 23.615 81.0802 21.8975C77.5293 20.0942 74.4816 17.7183 72.1888 14.3693C71.9092 13.9399 71.5457 13.625 71.0704 13.4246C70.7908 13.3101 70.4832 13.1384 70.5951 12.8235C70.7628 12.4514 71.0704 12.938 71.3221 12.7949ZM140.608 45.1979C140.58 45.9422 140.832 46.5719 141.279 47.1158C141.531 47.4307 141.81 47.7169 142.09 48.0031C142.985 48.8619 143.013 48.8619 143.432 47.7169C144.634 44.2533 146.2 40.9615 148.045 37.7842C149.052 36.0381 150.142 34.292 151.345 32.6604C151.457 32.5172 151.736 32.2882 151.513 32.1165C151.261 31.8875 151.121 32.231 150.981 32.4027C150.758 32.6604 150.59 32.918 150.394 33.2042C150.254 33.4046 150.143 33.605 149.975 33.7767C149.835 33.9198 149.695 34.2061 149.471 34.0343C149.276 33.8626 149.527 33.6622 149.639 33.4905C149.695 33.376 149.779 33.3187 149.863 33.2042C150.925 31.7444 152.156 30.4563 153.134 28.9392C153.917 27.7083 154.756 26.4775 155.707 25.3897C158.363 22.3269 160.851 19.1209 163.06 15.686C164.123 14.0258 165.269 12.3942 164.878 10.1901C164.738 9.35995 164.682 9.21683 163.899 9.4172C163.172 9.61757 162.501 9.90382 161.802 10.2187C158.531 11.6785 155.371 13.4246 151.736 13.7681C151.289 13.7968 151.121 14.1116 150.953 14.4838C149.471 17.9187 147.906 21.325 146.396 24.76C143.935 30.3418 141.922 36.0381 140.776 42.0492C140.692 42.4786 140.636 42.9366 140.999 43.3087C141.307 43.6236 141.223 43.9671 140.916 44.2533C140.664 44.5109 140.58 44.8544 140.608 45.1979ZM70.4273 61.056C69.5326 60.598 68.7776 60.1972 67.9948 59.8251C64.8073 58.2794 61.8714 56.3615 59.7185 53.4418C58.2645 51.4381 56.3632 50.379 54.0425 49.8924C52.1692 49.4916 50.2678 49.4916 48.3386 49.5202C48.1429 49.5202 47.8632 49.4916 47.8073 49.7492C47.7514 49.9782 47.9471 50.15 48.0869 50.2931C48.6182 50.7797 49.1494 51.295 49.7646 51.6671C51.8616 52.9552 53.9027 54.3292 55.6922 56.0467C57.7612 58.0217 59.6346 60.14 61.0046 62.7162C62.2069 65.0348 62.4866 67.611 62.9898 70.1299C63.1017 70.6738 63.2974 70.9887 63.8007 71.1604C64.3879 71.3608 65.003 71.5612 65.5902 71.7329C69.1411 72.7062 72.7201 73.0783 76.3549 72.5344C77.8089 72.334 77.9487 72.1623 77.725 70.7024C77.1937 67.1816 76.8862 63.6608 76.7464 60.1113C76.7184 59.3385 76.4388 58.6801 75.8796 58.1362C75.5161 57.7928 75.2645 57.8786 75.0408 58.2794C74.6773 58.9377 75.1526 59.3385 75.5161 59.7678C75.6839 59.9396 75.9076 60.14 75.6839 60.369C75.4602 60.5693 75.2924 60.3403 75.1526 60.1686C74.4257 59.2812 73.503 58.537 73.0836 57.4206C72.9158 56.9626 72.748 56.9054 72.3566 57.2489C71.4619 58.0504 70.5392 58.8232 69.6165 59.5675C69.1411 59.9396 69.1971 60.1686 69.6724 60.4262C69.9799 60.4835 70.2316 60.598 70.4273 61.056ZM177.236 37.9845C178.019 37.3834 178.718 36.8109 179.305 36.0953C180.815 34.3778 182.437 32.7749 184.31 31.4295C188.728 28.2808 192.642 24.5596 196.137 20.3804C196.249 20.2373 196.473 20.1514 196.389 19.9224C196.333 19.7793 196.165 19.8079 196.026 19.7793C193.09 19.2641 190.154 18.7488 187.218 18.2336C184.785 17.8328 182.325 17.6897 179.864 18.0332C178.606 18.2049 178.634 18.3194 178.466 19.6362C178.103 22.8708 178.131 26.0767 178.159 29.3113C178.187 31.5154 178.103 33.7195 177.516 35.8949C177.348 36.6106 177.348 37.3262 177.236 37.9845ZM78.5358 76.5705C78.452 75.7404 78.3681 74.853 78.2562 73.9943C78.1444 73.021 77.9766 72.9065 77.026 73.0497C74.5934 73.4504 72.1609 73.3645 69.7283 73.0497C67.7711 72.792 65.8138 72.4485 63.9405 71.7616C63.4931 71.5898 63.3254 71.7043 63.4931 72.1909C63.605 72.5344 63.6609 72.8779 63.7448 73.2214C64.4997 77.2002 66.6806 80.3203 69.4487 83.0683C70.8747 84.4995 72.6082 85.4155 74.4536 86.1311C75.9635 86.7036 77.4174 87.4192 79.0112 87.7054C79.3187 87.7627 79.6543 87.7913 79.85 87.5337C80.3812 86.8467 80.8286 86.9326 81.4997 87.3906C81.975 87.7055 82.7579 87.8772 83.2052 87.5051C83.5967 87.1902 82.8977 86.7895 82.8138 86.3601C82.702 85.6731 82.2266 85.3869 81.6115 85.2724C81.248 85.1865 80.9125 85.0434 80.577 84.8716C80.3812 84.7857 80.2414 84.5281 80.3812 84.3277C80.521 84.0701 80.6888 84.3277 80.8286 84.385C81.1362 84.5281 81.4437 84.7285 81.7513 84.8716C82.1707 85.0434 82.3385 84.843 82.1987 84.4136C81.8072 83.2973 81.4437 82.1523 81.0243 81.0359C80.7168 80.1772 80.3533 80.0341 79.5145 80.2631C79.0391 80.3775 78.7316 80.6638 78.4799 81.0645C78.1724 81.5225 77.8368 82.0092 77.5572 82.4958C77.3056 82.8965 77.026 82.9824 76.6066 82.7248C76.4388 82.6103 76.2151 82.553 76.0474 82.4385C75.8796 82.3526 75.6 82.3527 75.6 82.0664C75.6 81.8088 75.8796 81.7802 76.0474 81.6657C76.6625 81.2649 77.2776 80.8642 77.697 80.2631C78.1724 79.6047 78.7036 78.9463 78.1164 78.0876C78.0605 78.0017 78.0326 77.8872 78.1444 77.8586C78.7316 77.5437 78.3681 76.9998 78.5358 76.5705ZM82.1707 49.0623C83.6806 48.5184 84.9388 47.5738 86.4207 47.0013C88.0424 46.4002 89.6641 45.7704 91.3697 45.4842C94.2496 44.9976 97.1575 45.1121 100.065 45.3124C103.812 45.5987 107.391 46.5147 110.83 48.089C115.835 50.379 119.61 54.1861 123.245 58.2221C124.81 59.9682 126.124 61.9719 127.718 63.6894C128.753 64.8058 129.815 65.9221 131.241 66.5519C131.94 66.8667 131.968 67.0385 131.465 67.6396C130.514 68.7273 129.564 69.8151 128.613 70.8742C128.249 71.2749 128.277 71.4753 128.837 71.5326C129.228 71.5612 129.564 71.7616 129.815 72.0192C130.151 72.3627 130.347 72.3054 130.626 71.9333C131.633 70.4734 132.472 68.8991 133.198 67.2675C133.814 65.8649 134.149 64.3764 134.485 62.8879C134.541 62.6876 134.708 62.2868 134.261 62.2868C133.31 62.2582 132.499 61.7429 131.577 61.5998C129.787 61.285 128.389 60.0827 127.047 58.8805C124.447 56.5046 122.098 53.8426 119.526 51.4095C116.087 48.1463 112.34 45.4269 107.894 43.7381C103.616 42.1065 99.2825 41.6771 94.7809 42.45C92.8236 42.7935 90.8944 43.2228 88.993 43.6808C88.0983 43.8812 87.3154 44.1961 86.6164 44.8831C85.1904 46.3143 83.6806 47.6596 82.1707 49.0623ZM88.6855 142.579C88.8253 142.006 88.9651 141.52 88.7134 141.119C88.322 140.432 88.3779 139.745 88.4618 139.029C88.7414 137.083 89.2727 135.194 90.0276 133.419C91.4256 130.07 92.6559 126.721 93.4667 123.171C93.9141 121.225 94.1937 119.25 94.1378 117.217C94.1378 116.874 94.1657 116.445 93.6904 116.359C93.0473 116.244 92.4322 116.273 91.9289 116.817C91.2578 117.561 90.6707 118.334 90.2233 119.25C90.1115 119.45 90.0276 119.679 89.8319 119.822C88.35 121.11 87.5671 122.828 87.0079 124.66C85.7496 128.925 84.4075 133.133 81.4997 136.653C80.1296 138.285 79.4026 140.289 79.4585 142.522C79.4865 143.294 79.7102 143.838 80.3253 144.268C80.9125 144.697 81.0802 144.697 81.3598 144.01C81.8911 142.607 82.7858 141.606 84.2398 141.233C85.1345 141.004 86.0292 140.919 86.9519 141.033C88.294 141.176 88.294 141.205 88.6855 142.579ZM143.851 64.2333C143.516 64.7199 143.292 65.0634 143.041 65.3783C141.195 67.7255 139.685 70.3589 137.672 72.6203C133.702 77.1144 129.004 80.6638 123.972 83.7839C122.434 84.7285 120.672 85.2724 119.33 86.5318C118.939 86.904 118.911 87.2761 119.023 87.7341C119.106 87.9917 119.274 88.2779 119.582 88.1062C119.973 87.9058 120.449 87.9344 120.756 87.7341C121.483 87.2761 121.707 87.7341 121.93 88.2493C122.182 88.7646 122.49 89.2798 123.049 89.337C123.748 89.4229 124.335 89.7092 124.978 89.9382C125.705 90.1958 126.376 90.1958 127.047 89.7664C127.83 89.2798 128.585 88.7932 129.312 88.2207C131.325 86.5891 133.226 84.843 135.044 83.011C136.498 81.5512 137.896 80.0054 138.958 78.2021C141.195 74.4809 142.509 70.3876 143.712 66.2656C143.935 65.6359 143.879 65.0061 143.851 64.2333ZM97.8845 164.276C98.22 163.933 98.5555 163.933 98.8631 163.933C99.2266 163.904 99.4223 163.79 99.4782 163.389C99.646 161.471 99.8697 159.525 99.2266 157.664C98.4716 155.488 97.6328 153.342 96.766 151.223C96.1789 149.792 95.1723 148.704 93.5786 148.418C92.4881 148.218 91.7611 148.876 91.817 149.993C91.845 150.336 91.873 150.708 91.9009 151.052C91.9569 152.054 92.0687 153.055 91.7891 154.029C91.5934 154.687 91.5934 155.059 92.3483 155.174C92.7118 155.231 92.7118 155.574 92.7118 155.861C92.7397 156.233 92.4601 156.175 92.2365 156.233C91.174 156.433 91.118 156.519 91.3976 157.578C91.9009 159.467 92.4322 161.328 92.9355 163.217C93.0193 163.503 93.1312 163.732 93.3828 163.818C94.0818 164.133 94.3615 164.734 94.5292 165.421C94.697 165.994 94.8647 166.566 95.0325 167.139C95.2282 167.797 95.5358 168.427 95.9272 168.971C96.3746 169.572 96.9338 169.257 97.4651 169.142C97.9404 169.028 97.9404 168.627 97.9124 168.226C97.8565 167.368 97.6049 166.595 97.1295 165.908C96.9897 165.679 96.6822 165.45 97.1016 165.221C97.4651 165.02 97.5769 165.307 97.7167 165.564C98.3318 166.509 98.4716 167.597 98.6394 168.684C98.6953 168.971 98.7233 169.314 99.0868 168.971C99.4782 168.57 99.8976 168.169 100.177 167.683C100.373 167.339 99.9535 166.996 99.8697 166.623C99.8697 166.566 99.8417 166.538 99.8417 166.48C99.5341 165.478 99.5062 164.219 97.8845 164.276ZM139.769 42.8221C139.965 41.9061 140.077 41.076 140.3 40.2745C141.279 36.2957 142.761 32.4886 144.159 28.6529C145.138 25.9908 146.508 23.5005 147.123 20.7239C147.235 20.2373 147.374 19.7221 147.319 19.0923C146.815 19.5789 146.564 20.1514 146.2 20.638C144.047 23.5005 141.391 25.7905 138.567 27.9087C137.588 28.6529 136.694 29.4544 136.05 30.5421C134.736 32.7462 134.149 35.1793 133.953 37.7269C133.925 38.099 134.121 38.2135 134.429 38.2994C135.296 38.557 136.022 39.0723 136.638 39.7593C137.169 40.3604 137.672 40.9901 138.203 41.5912C138.399 41.8202 138.595 42.1065 138.819 41.5626C138.986 41.1619 139.154 41.4481 139.266 41.6771C139.378 42.0492 139.266 42.5358 139.769 42.8221ZM83.373 179.047C82.5342 178.818 81.7233 178.646 80.8566 178.732C77.6132 179.018 74.3697 179.304 71.1263 179.361C69.6165 179.39 68.0786 179.304 66.5967 179.447C64.0803 179.705 61.5639 180.048 59.0474 180.22C55.133 180.506 51.3024 181.251 47.5277 182.367C46.5491 182.653 45.7662 183.455 44.7037 183.483C44.5919 183.483 44.4521 183.569 44.4521 183.712C44.4521 183.941 44.6758 183.999 44.8435 184.056C45.9619 184.428 47.0804 184.686 48.2547 184.714C50.5754 184.771 52.8961 184.915 55.2168 184.657C57.1461 184.457 59.0474 184.113 60.9767 184.027C62.5425 183.941 64.0803 183.913 65.6461 183.684C66.0934 183.626 66.401 183.397 66.429 182.939C66.4849 182.367 66.7365 182.396 67.128 182.596C67.5474 182.796 67.9668 183.025 68.4701 182.911C69.0013 182.796 69.5326 182.825 70.0638 182.911C70.5392 182.968 71.0984 183.14 71.5178 182.968C72.5523 182.51 73.6148 182.453 74.7053 182.396C75.2086 182.367 75.7398 182.338 76.1872 182.081C76.4109 181.966 76.6625 181.823 76.6066 181.508C76.5507 181.222 76.299 181.193 76.0474 181.165C75.5161 181.136 75.0408 180.964 74.6214 180.621C74.4257 180.478 74.2299 180.277 74.3977 180.02C74.5375 179.791 74.7891 179.934 74.9569 180.02C75.4602 180.22 76.0194 180.478 76.4947 180.335C77.5013 179.991 78.424 180.277 79.3747 180.506C79.6263 180.564 79.9339 180.821 80.1296 180.478C80.2694 180.192 80.0457 179.934 79.822 179.762C79.5145 179.533 79.5983 179.361 79.9059 179.276C80.2135 179.19 80.549 179.132 80.8566 179.132C81.6954 179.047 82.5342 179.047 83.373 179.047ZM56.6149 70.9028C56.6708 70.8742 56.7267 70.8169 56.7826 70.7883C56.4471 70.0155 56.4471 69.0708 56.0557 68.3552C55.2168 66.8667 54.5458 65.2924 53.4553 63.9757C52.7004 63.0597 51.9175 62.1151 51.4981 60.9415C50.9948 59.5102 50.2119 58.2794 49.1774 57.163C48.3106 56.247 47.304 55.5314 46.4093 54.644C45.5705 53.7853 45.0952 52.7548 45.207 51.4953C45.235 51.1518 45.1231 50.9229 44.8715 50.6939C44.3123 50.2359 43.7531 49.7492 43.2498 49.234C42.8583 48.8333 42.4389 49.005 42.0195 49.0909C41.6281 49.1481 41.656 49.5202 41.6001 49.8351C41.3205 51.1805 41.4323 52.5258 41.3764 53.8998C41.2646 56.247 42.2432 58.0504 44.0047 59.453C45.2629 60.4548 46.5771 61.3995 47.8073 62.4586C50.5195 64.7485 52.7563 67.5537 55.5524 69.7292C55.9438 70.0155 56.2514 70.5021 56.6149 70.9028ZM79.0671 50.2931C80.2694 49.7492 81.1362 49.1195 81.947 48.2894C83.2612 46.944 84.4075 45.3983 86.1131 44.5396C86.6723 44.2533 87.0638 43.824 87.4273 43.2801C88.35 41.8489 88.9092 40.2745 89.4124 38.6429C90.1115 36.4102 90.9223 34.1775 91.146 31.8303C91.174 31.6299 91.2578 31.4009 91.0621 31.2291C90.8944 31.086 90.6986 31.1719 90.5588 31.2864C89.9157 31.8303 89.1329 32.0593 88.4059 32.46C86.9799 33.2329 85.5259 33.9198 84.5194 35.2652C83.7924 36.2384 83.1773 37.3262 82.4223 38.2994C81.5835 39.3871 81.4717 40.5894 81.7513 41.8775C82.1427 43.595 81.8631 45.1407 80.9684 46.6578C80.2694 47.8028 79.5704 48.8905 79.0671 50.2931ZM61.9833 69.5002C61.9553 69.3571 61.8994 69.0422 61.8435 68.6987C61.3961 64.6054 59.6625 61.1991 56.9504 58.1935C54.7415 55.7318 52.1132 53.8139 49.3452 52.0678C48.5063 51.5526 47.6955 51.0087 47.1083 50.1786C46.9965 50.0355 46.9126 49.8065 46.7169 49.8351C46.4932 49.8924 46.4652 50.15 46.3813 50.3217C46.2136 50.6366 46.4373 50.8656 46.605 51.066C47.3879 52.0106 48.1429 52.9838 48.9257 53.9284C50.7991 56.247 52.1132 58.9664 53.8188 61.3994C55.3007 63.489 56.9504 65.4069 58.3484 67.5537C59.1593 68.8132 60.3056 69.4143 61.5079 70.0155C61.8435 70.1872 62.0671 70.1013 61.9833 69.5002ZM122.406 100.558C122.266 99.6992 122.182 99.5846 121.623 99.6133C120.672 99.6705 119.722 99.4129 118.771 99.4129C118.519 99.4129 118.128 99.4129 118.072 99.0694C117.876 97.9817 117.205 97.0943 116.953 96.0066C116.674 94.833 116.534 93.6594 116.366 92.4858C116.31 92.0564 116.143 91.8846 115.695 91.856C114.493 91.7129 113.542 92.0278 112.759 93.0296C112.004 94.0315 111.166 95.062 111.166 96.2928C111.138 98.411 110.662 100.329 109.684 102.161C109.376 102.733 109.488 102.991 110.047 103.249C110.942 103.649 111.921 103.792 112.871 104.021C113.906 104.279 113.99 104.25 114.577 103.363C115.863 101.445 117.569 100.386 119.917 100.844C120.588 100.987 121.287 101.073 121.986 101.188C122.126 101.216 122.35 101.331 122.378 101.073C122.406 100.873 122.21 100.844 122.042 100.787C121.735 100.701 121.371 100.873 121.036 100.587C121.567 100.3 121.958 100.615 122.406 100.558ZM177.236 9.7607C177.152 9.81794 177.096 9.84657 177.04 9.90382C175.055 12.4514 172.539 14.4265 169.966 16.3444C167.17 18.4339 164.179 20.2659 161.83 22.928C161.047 23.8154 160.404 24.7886 159.817 25.8477C160.851 25.2466 161.802 24.5596 162.781 23.9299C167.254 21.0388 172.203 19.4072 177.236 18.0332C177.767 17.8901 177.963 17.6897 177.963 17.1172C177.907 15.0562 177.739 12.9953 177.46 10.9343C177.404 10.5622 177.516 10.1328 177.236 9.7607ZM57.1741 21.554C57.258 22.4414 57.5096 23.2429 57.7053 24.0444C57.929 24.9031 58.4323 25.5328 59.0754 26.134C60.3616 27.3362 61.7596 28.4239 63.1576 29.483C64.9191 30.857 66.2892 32.5745 67.7431 34.2633C69.3089 36.0953 70.7628 37.9845 72.077 40.0169C72.8878 41.305 73.6987 42.6217 74.901 43.6236C75.0687 43.7667 75.2645 44.053 75.4882 43.8526C75.6559 43.7095 75.4602 43.4518 75.3763 43.2515C74.0342 40.4749 72.4405 37.8414 70.5671 35.4083C69.0573 33.4619 67.3796 31.6871 65.8698 29.7407C63.7448 26.9641 62.0671 23.8726 60.3336 20.8384C59.7185 19.8079 59.0754 18.7774 58.4043 17.7756C58.3204 17.6611 58.2086 17.5466 58.0968 17.518C57.957 17.4893 57.901 17.6325 57.901 17.747C57.7892 19.0923 57.4257 20.3518 57.1741 21.554ZM142.23 97.5809C141.978 97.5809 141.838 97.7241 141.698 97.8386C140.3 98.9835 138.846 100.071 137.421 101.159C136.022 102.218 134.597 103.163 132.835 103.449C132.388 103.535 131.968 103.764 131.521 103.878C130.906 104.05 130.794 104.394 131.157 104.937C132.611 107.113 134.233 109.174 136.022 111.12C136.106 111.235 136.218 111.378 136.358 111.321C136.554 111.235 136.498 111.006 136.442 110.891C136.134 110.204 136.526 109.718 136.889 109.203C137.476 108.372 138.203 107.628 138.651 106.712C139.629 104.651 140.58 102.59 141.363 100.443C141.698 99.4988 142.118 98.5828 142.23 97.5809ZM102.861 190.382C103.616 190.382 104.343 190.382 105.098 190.382C105.434 190.382 105.741 190.267 105.965 190.01C107 188.808 106.273 186.317 104.763 185.916C104.231 185.773 103.672 185.687 103.113 185.745C101.435 185.888 99.7299 185.974 98.0522 186.174C96.9897 186.289 95.9552 186.546 94.8927 186.804C94.4453 186.918 93.942 187.09 93.8302 187.605C93.6904 188.178 93.998 188.607 94.3894 188.979C94.7809 189.323 95.2282 189.552 95.7315 189.695C98.0802 190.239 100.485 190.296 102.861 190.382ZM136.33 55.7032C136.386 55.7032 136.47 55.7032 136.526 55.7318C136.749 54.9017 136.917 54.0429 137.197 53.2128C137.924 51.1232 138.483 49.005 138.93 46.8295C138.986 46.5147 139.07 46.1712 138.679 46.0567C138.427 45.9708 138.092 45.9708 138.175 45.5414C138.259 45.1407 138.455 44.7972 138.902 44.8258C139.35 44.8258 139.406 44.5396 139.378 44.2247C139.266 43.5091 139.014 42.7648 138.483 42.3355C137.588 41.6485 136.861 40.7611 136.05 39.9883C135.631 39.5875 135.184 39.1868 134.652 38.9578C133.981 38.6429 133.842 38.7288 133.925 39.4444C134.093 41.1332 134.121 42.8221 134.485 44.4823C134.624 45.1979 134.904 45.4269 135.575 45.3983C136.162 45.3697 136.722 45.4556 137.309 45.5128C137.504 45.5414 137.812 45.5414 137.812 45.7704C137.784 46.1139 137.448 45.9708 137.253 45.9708C137.029 45.9708 136.777 45.9422 136.554 45.9135C134.68 45.7132 134.597 45.8277 135.044 47.7169C135.491 49.6347 135.967 51.5526 136.19 53.5277C136.274 54.2433 136.274 54.9589 136.33 55.7032ZM75.7398 107.342C78.0885 107.313 80.3812 107.199 82.674 106.827C84.2398 106.569 85.7217 105.939 87.3154 105.939C87.7069 105.939 87.7908 105.653 87.8467 105.338C87.9585 104.451 88.0144 103.592 88.0144 102.705C88.0144 101.531 87.8746 101.159 86.4487 100.501C86.1411 100.358 85.7496 100.157 85.4421 100.415C84.5473 101.188 83.4289 101.359 82.3385 101.56C81.8631 101.646 81.6115 101.875 81.4717 102.333C81.22 103.363 80.577 104.079 79.7661 104.68C78.452 105.624 77.2217 106.684 75.7398 107.342ZM61.3402 79.3184C62.2629 81.1504 62.4306 83.0683 62.3747 85.0434C62.3468 85.8162 62.3747 86.5605 62.5145 87.3333C62.5704 87.5909 62.5984 87.9058 62.8221 88.0203C64.0523 88.6501 65.1987 89.5374 66.5967 89.795C68.1346 90.0813 69.6444 89.7664 71.1543 89.4229C71.35 89.3657 71.6017 89.3657 71.6576 89.1367C71.7135 88.8791 71.4339 88.7932 71.2941 88.6787C68.7217 86.5318 66.1773 84.385 63.7727 82.0664C62.906 81.2077 62.151 80.2344 61.3402 79.3184ZM143.096 95.6345C142.873 95.5772 142.733 95.7203 142.565 95.8062C138.231 98.2393 133.73 100.071 128.725 100.243C128.249 100.272 128.445 100.501 128.529 100.701C129.06 101.674 129.703 102.59 130.347 103.506C130.514 103.764 130.71 103.735 130.962 103.649C131.884 103.306 132.835 103.077 133.73 102.647C136.777 101.159 139.546 99.1839 142.202 97.0084C142.593 96.6363 142.901 96.1783 143.096 95.6345ZM143.851 62.1723C143.851 61.4567 143.656 61.3136 142.873 61.7429C141.922 62.2582 140.944 62.6876 139.909 62.9738C139.406 63.1169 139.126 63.3745 138.986 63.8898C138.399 65.9508 137.504 67.8972 136.414 69.7292C136.19 70.1299 135.939 70.5021 135.715 70.8742C135.631 71.0459 135.491 71.3036 135.827 71.2463C137.029 71.1032 138.259 71.0746 139.098 69.8723C140.105 68.4411 141.055 66.9526 142.286 65.6645C143.152 64.8344 143.768 63.7467 143.851 62.1723ZM117.177 84.5567C117.513 84.5567 117.652 84.3277 117.82 84.1846C118.631 83.469 119.358 82.6675 120.225 82.0378C122.993 79.9482 125.621 77.6868 127.942 75.0534C128.277 74.6526 128.613 74.2519 128.949 73.8798C129.228 73.5649 129.34 73.3073 128.781 73.1355C128.417 73.0497 128.026 72.8493 127.718 72.6203C127.327 72.3627 127.075 72.3913 126.768 72.7348C124.671 75.1393 122.35 77.2861 120.337 79.7764C119.134 81.2363 117.82 82.6103 117.177 84.5567ZM104.176 167.396C104.176 167.425 104.176 167.425 104.176 167.396C104.064 167.425 103.952 167.396 103.84 167.425C102.61 167.511 102.61 167.511 102.917 168.684C103.169 169.686 103.393 169.887 104.315 169.572C106.245 168.913 108.062 169.2 109.824 170.173C111.837 171.261 113.738 170.831 115.5 169.515C115.947 169.171 115.919 168.799 115.444 168.513C115.36 168.455 115.192 168.427 115.276 168.284C115.416 167.997 115.276 167.883 115.024 167.826C114.745 167.797 114.353 167.768 114.297 168.055C114.185 168.684 113.822 168.427 113.514 168.37C113.095 168.284 112.731 168.055 112.312 168.026C109.6 167.768 106.888 167.597 104.176 167.396ZM138.315 57.9359C138.203 58.4225 138.455 58.5084 138.958 58.4225C139.406 58.3366 139.657 58.1076 139.797 57.6783C140.608 55.3883 141.391 53.0983 142.23 50.837C142.537 50.0355 142.397 49.3485 142.062 48.6329C141.782 48.0318 141.307 47.631 140.832 47.173C140.552 46.8868 140.356 47.0013 140.217 47.3734C140.021 47.9745 139.797 48.5756 139.601 49.2054C138.651 52.0106 138.763 54.9875 138.315 57.9359ZM144.494 55.9035C144.299 54.644 144.131 53.3559 143.935 52.0965C143.907 51.8961 143.879 51.6098 143.656 51.5812C143.376 51.5526 143.376 51.8675 143.292 52.0392C141.922 54.9589 140.944 58.0504 139.853 61.0846C139.685 61.5998 139.909 61.6857 140.356 61.5712C140.916 61.4567 141.503 61.3136 142.062 61.2277C143.152 61.0273 143.516 60.5407 143.46 59.4244C143.46 59.1667 143.404 58.9091 143.348 58.6515C143.18 58.1076 143.32 57.7069 143.74 57.3348C144.131 56.934 144.494 56.5333 144.494 55.9035ZM67.9388 82.1809C67.4915 81.637 67.0441 81.1218 66.5967 80.5779C64.8352 78.3738 63.2974 76.0266 62.7941 73.1928C62.5145 71.6471 61.9553 70.6452 60.4454 70.2158C59.8024 70.0155 59.2431 69.6147 58.7399 69.1281C58.6839 69.0708 58.6001 69.0136 58.5162 68.9563C58.2925 68.8132 58.0129 68.5842 57.7612 68.7846C57.4816 69.0136 57.7333 69.2712 57.8451 69.5002C58.1247 70.1586 58.5441 70.7311 58.9635 71.3036C59.5507 72.1337 60.1658 72.9352 60.6691 73.8225C62.5704 77.0571 65.0869 79.7478 67.9388 82.1809ZM89.9437 117.962C91.174 116.702 92.3483 115.443 93.8861 114.641C94.1098 114.527 94.1657 114.326 94.1657 114.097C94.1937 112.351 94.8368 110.805 95.6476 109.317C95.7874 109.031 96.095 108.659 95.8993 108.401C95.6476 108.115 95.3401 108.516 95.0325 108.601C94.7809 108.687 94.5013 108.773 94.2496 108.916C93.243 109.403 92.6279 110.147 92.6279 111.349C92.6279 111.55 92.7118 111.779 92.4601 111.95C92.4042 111.893 92.3483 111.807 92.2644 111.75C92.1246 111.578 92.1526 111.178 91.873 111.206C91.5934 111.235 91.5934 111.607 91.5095 111.836C91.4815 111.893 91.4815 111.979 91.4536 112.036C90.9782 114.011 91.2578 116.187 89.9437 117.962ZM78.1724 49.9496C78.5079 49.7492 78.7036 49.4916 78.8434 49.234C79.4026 48.2035 79.9618 47.1444 80.521 46.1139C81.22 44.7686 81.4158 43.3373 81.0523 41.8489C81.0243 41.7057 81.0802 41.4767 80.8845 41.4195C80.6608 41.3336 80.577 41.5912 80.4931 41.7344C79.6822 42.908 78.7036 43.9098 77.5293 44.7113C77.1099 44.9976 77.026 45.3411 77.1937 45.799C77.6691 47.0872 77.9207 48.4611 78.1724 49.9496ZM93.7463 92.4285C93.4947 92.4285 93.3549 92.4285 93.243 92.4285C92.4042 92.4285 92.1526 92.8292 92.4881 93.6021C92.6559 94.0029 92.9355 94.3177 93.243 94.6326C93.9141 95.3196 94.697 95.9207 95.3401 96.6077C95.8993 97.2088 96.1789 96.9798 96.5424 96.5504C97.2414 95.749 97.8565 94.8902 98.4437 94.0029C98.919 93.2872 98.8351 93.0582 97.9683 92.9437C96.5144 92.7434 95.0605 92.6002 93.7463 92.4285ZM122.294 83.0683C122.685 83.1828 122.937 82.9824 123.217 82.8106C123.72 82.5244 124.251 82.095 124.754 81.8947C125.649 81.5512 126.46 81.0645 127.271 80.5493C130.291 78.5456 132.947 76.1125 135.659 73.708C136.022 73.3932 136.33 72.9924 136.666 72.6203C136.973 72.2768 136.861 72.1337 136.442 72.105C136.19 72.0764 135.883 72.1337 135.743 71.876C135.407 71.2749 135.212 71.6184 134.96 71.9333C132.22 75.3682 129.144 78.4597 125.565 81.0073C124.503 81.7515 123.384 82.3813 122.294 83.0683ZM85.9454 141.634C84.6871 141.634 83.7085 141.978 82.9816 142.636C82.0589 143.466 82.1148 144.468 83.0934 145.155C83.401 145.384 83.7085 145.613 84.0161 145.813C84.3796 146.042 84.799 146.157 85.1065 145.813C85.5819 145.327 86.169 145.04 86.7283 144.697C87.595 144.153 87.8187 143.552 87.5391 142.436C87.2875 141.577 86.6164 141.634 85.9454 141.634ZM54.3501 22.7849C54.1264 23.157 54.1823 23.5577 54.0984 23.9299C53.9307 24.9317 54.0145 25.9336 53.9586 26.9354C53.9307 27.4793 54.0425 27.6511 54.5178 27.7656C55.804 28.0804 57.0902 28.4239 58.3764 28.7388C58.5721 28.796 58.7958 28.9964 58.9635 28.796C59.1313 28.5957 58.9356 28.3953 58.8517 28.1949C58.2086 26.6778 57.3978 25.2752 55.9997 24.3306C55.3846 23.9012 54.9932 23.2143 54.3501 22.7849ZM72.5523 53.1842C72.5523 53.9571 72.6362 54.7585 72.9438 55.4742C73.0836 55.8177 73.2513 55.9035 73.5869 55.6745C74.2579 55.2165 74.901 54.7585 75.4043 54.1288C75.9076 53.5277 76.2151 52.8693 75.7398 52.0678C75.4602 51.5812 75.3204 51.0087 75.1247 50.4649C74.929 49.921 74.7332 49.3485 74.5095 48.8046C74.4257 48.5756 74.2859 48.318 74.0622 48.7188C73.2513 50.0927 72.4684 51.4953 72.5523 53.1842ZM135.268 180.392C139.378 180.191 143.544 180.621 147.57 179.047C147.095 178.674 147.095 178.617 146.312 178.674C143.096 178.875 139.909 179.104 136.694 179.132C135.351 179.132 134.009 179.304 132.667 179.419C133.925 179.505 135.156 179.705 136.442 179.819C136.078 180.249 135.575 179.962 135.268 180.392ZM144.131 177.987C141.307 178.073 138.511 177.644 135.743 177.215C134.764 177.071 133.73 177.157 132.919 176.384C132.807 176.299 132.611 176.27 132.444 176.27C131.381 176.184 130.347 176.299 129.34 176.528C128.837 176.642 128.809 177.014 128.781 177.386C128.753 177.787 129.032 177.902 129.368 177.93C129.675 177.959 129.955 178.016 130.263 178.045C134.904 178.36 139.518 178.216 144.131 177.987ZM109.768 112.58C109.656 112.752 109.6 112.809 109.6 112.838C109.74 114.298 109.18 115.586 108.621 116.874C108.509 117.132 108.342 117.475 108.677 117.704C109.236 118.105 108.845 118.248 108.509 118.305C107.978 118.391 107.894 118.706 107.95 119.164C107.978 119.364 108.006 119.593 108.062 119.794C108.23 120.395 108.37 120.996 108.565 121.568C108.817 122.255 109.404 122.456 110.103 122.313C110.886 122.141 110.886 121.597 110.774 120.996C110.327 118.563 109.935 116.13 109.879 113.639C109.852 113.324 109.796 113.01 109.768 112.58ZM100.932 97.5809C100.876 97.6096 100.848 97.6096 100.792 97.6382C99.618 98.411 98.3598 98.9549 96.9618 99.0122C96.7101 99.0408 96.5424 99.2412 96.7101 99.5274C97.1575 100.3 97.6049 101.073 98.0802 101.846C98.2759 102.161 98.4996 102.189 98.8351 101.989C100.121 101.274 100.736 99.9281 101.603 98.8404C101.883 98.5542 101.296 97.5523 100.932 97.5809ZM108.342 94.8902C108.258 94.4608 107.894 94.604 107.587 94.6898C106.832 94.9188 106.189 95.4055 105.406 95.5772C105.21 95.6345 105.098 95.7776 105.098 96.0066C105.098 96.2928 105.294 96.3501 105.49 96.4359C106.944 97.1802 107.279 98.64 106.301 99.9281C105.685 100.758 105.713 100.816 106.58 101.388C107.195 101.789 107.559 101.531 107.922 101.045C108.286 100.587 108.481 100.157 108.202 99.556C107.782 98.5828 107.447 97.5809 108.034 96.4932C108.286 96.0925 108.258 95.4913 108.342 94.8902ZM107.223 169.973C106.384 170.03 105.63 170.087 104.903 170.144C104.707 170.173 104.455 170.087 104.343 170.316C104.231 170.574 104.427 170.774 104.623 170.917C105.098 171.261 105.238 171.633 104.986 172.205C104.847 172.549 105.07 172.778 105.434 172.72C106.301 172.606 107.195 172.692 108.09 172.635C108.677 172.606 109.208 172.463 109.684 172.033C110.019 171.719 110.103 171.518 109.768 171.118C109.041 170.259 108.118 170.03 107.223 169.973ZM60.6971 109.403C61.6757 109.603 62.5425 109.374 63.3254 108.945C65.2826 107.829 67.1 106.512 68.7777 104.995C69.3089 104.508 69.8122 104.021 70.1757 103.163C66.7925 105.081 63.7168 107.199 60.6971 109.403ZM112.172 172.52C111.865 172.549 111.613 172.549 111.361 172.577C111.082 172.606 110.802 172.635 110.551 172.72C109.963 172.864 109.656 173.493 109.684 174.323C109.712 174.953 110.187 174.925 110.551 175.01C112.004 175.297 113.291 174.753 114.577 174.18C114.828 174.066 114.94 173.837 114.94 173.551C114.912 173.264 114.773 173.064 114.521 172.949C113.766 172.606 112.927 172.635 112.172 172.52ZM117.401 92.9151C117.485 94.8616 117.876 96.5218 118.575 98.0962C118.659 98.2679 118.827 98.3538 119.023 98.3824C119.722 98.5542 120.449 98.5542 121.176 98.4397C121.623 98.3538 121.679 98.1534 121.399 97.8099C120.98 97.2661 120.7 96.6363 120.421 96.0066C120.197 95.52 119.917 95.2051 119.358 95.0906C118.743 94.9761 118.379 94.4895 118.044 94.0029C117.876 93.7166 117.708 93.4017 117.401 92.9151ZM133.478 95.6917C132.947 95.5772 132.388 95.6058 131.856 95.6631C130.402 95.8635 128.976 96.0924 127.495 95.749C127.103 95.6631 126.796 95.2337 126.32 95.4341C125.901 95.6345 125.425 95.7203 124.978 95.749C124.587 95.749 124.475 95.9207 124.671 96.2928C125.09 97.1229 125.621 97.7527 126.656 97.5523C127.075 97.4664 127.495 97.4951 127.914 97.4378C129.2 97.2947 130.347 96.6363 131.549 96.2642C132.22 96.0638 132.891 96.0925 133.478 95.6917ZM95.6197 104.565C96.1789 104.937 96.6822 104.909 97.2134 104.708C97.521 104.594 97.7167 104.336 97.3253 104.079C96.9897 103.85 96.9618 103.506 96.9059 103.163C96.822 102.247 96.5703 101.388 96.2068 100.558C96.095 100.272 95.9272 100.014 95.5637 99.9854C94.8927 99.9854 94.3055 100.558 94.3055 101.245C94.3055 101.445 94.3055 101.617 94.3055 101.817C94.3055 103.506 95.0325 104.193 96.6822 104.079C96.6822 104.079 96.7101 104.136 96.7381 104.222C96.4026 104.336 96.0111 104.279 95.6197 104.565ZM89.5523 100.644C90.2233 100.415 91.0901 100.186 91.873 99.7564C91.9569 99.6991 92.0128 99.556 92.0407 99.4702C92.0967 99.0694 91.5095 98.0103 91.146 97.8672C90.6427 97.6954 90.1394 97.5523 89.6082 97.3806C89.1328 97.2374 88.8812 97.4378 88.8253 97.8958C88.7134 98.64 88.7414 99.4129 88.8812 100.157C88.9092 100.472 89.049 100.672 89.5523 100.644ZM61.8994 185.916C63.1296 186.002 64.2201 185.573 65.3385 185.144C65.6181 185.029 65.9257 184.857 65.8418 184.485C65.7579 184.17 65.4224 184.256 65.1708 184.285C63.0178 184.514 60.8928 184.771 58.7399 185C58.5721 185.029 58.3764 185.058 58.3764 185.258C58.3764 185.458 58.6001 185.458 58.7399 185.516C59.7744 185.859 60.8369 185.831 61.8994 185.916ZM66.8763 34.521C65.3665 32.4886 59.9142 27.6224 58.8237 27.2503C59.2152 28.6815 59.9701 29.7407 61.3122 30.399C62.5145 30.9715 63.605 31.7158 64.6115 32.6604C65.3106 33.3187 65.9536 34.0916 66.8763 34.521ZM72.9158 86.3028C74.7053 89.0222 80.6049 89.566 82.6181 88.7073C79.0671 89.4229 76.1872 87.3047 72.9158 86.3028ZM132.891 70.4162C133.226 70.2731 133.282 70.0727 133.394 69.9296C134.708 68.0404 135.799 66.008 136.666 63.8898C136.861 63.4318 137.057 63.0883 136.526 62.7448C136.358 62.6303 136.274 62.3154 135.995 62.3441C135.659 62.4013 135.687 62.7448 135.631 62.9738C134.932 65.4928 134.373 68.0404 132.891 70.4162ZM143.6 145.727C143.6 144.926 143.236 144.583 142.537 144.668C141.81 144.754 141.391 145.241 141.195 145.928C140.999 146.586 141.363 147.016 141.838 147.388C142.034 147.531 142.258 147.617 142.425 147.76C142.677 147.96 142.845 147.903 142.985 147.645C143.292 147.016 143.544 146.357 143.6 145.727ZM145.753 55.7318C145.725 55.7318 145.725 55.7318 145.697 55.7318C145.753 56.3329 145.809 56.9626 145.865 57.5638C145.893 57.7355 145.865 57.9359 146.06 57.9931C146.228 58.0504 146.368 57.9073 146.48 57.7928C147.402 56.705 147.962 55.3597 146.396 54.1288C145.976 53.7853 145.809 53.9571 145.781 54.3864C145.725 54.8158 145.753 55.2738 145.753 55.7318ZM49.2053 10.8484C48.5343 10.2473 40.0902 7.7856 39.0557 7.87147C42.355 9.38857 45.8221 9.98969 49.2053 10.8484ZM137.644 54.7872C137.504 54.873 137.476 54.873 137.448 54.9017C136.414 56.5333 136.358 58.3939 136.134 60.2258C136.078 60.6552 136.386 60.5407 136.582 60.4262C136.833 60.3117 136.917 60.0541 136.973 59.7965C137.169 58.9664 137.393 58.1362 137.504 57.3061C137.644 56.476 137.868 55.6745 137.644 54.7872ZM32.7926 5.20939C31.5064 3.57778 29.9127 2.60455 28.1511 1.91756C27.9554 1.86031 27.7317 1.65994 27.5919 1.86031C27.4521 2.08931 27.7317 2.23243 27.8436 2.37555C29.1857 3.80678 31.0311 4.2934 32.7926 5.20939ZM54.1543 114.326C54.2941 114.326 54.378 114.355 54.4339 114.326C55.9438 113.639 57.2859 112.609 58.7678 111.893C58.9076 111.836 59.0754 111.721 58.9915 111.521C58.9076 111.321 58.7399 111.178 58.5162 111.149C58.2366 111.092 58.0129 111.235 57.7892 111.349C56.8665 111.893 55.9718 112.523 55.1889 113.267C54.8534 113.582 54.406 113.811 54.1543 114.326ZM149.863 81.2363C147.598 83.6408 146.144 86.6177 144.215 89.2798C146.815 87.133 147.738 83.7266 149.863 81.2363ZM106.356 106.741C106.356 107.056 106.301 107.342 106.496 107.571C107.083 108.258 107.727 108.945 108.426 109.517C108.537 109.603 108.649 109.718 108.789 109.603C108.929 109.489 108.845 109.317 108.789 109.203C108.286 108.143 107.699 107.113 107.028 106.14C106.776 105.768 106.496 105.882 106.412 106.311C106.356 106.483 106.356 106.655 106.356 106.741ZM90.2792 146.729C90.1115 146.844 89.7759 146.672 89.6641 146.987C89.5802 147.245 89.8039 147.416 89.9437 147.617C90.1953 147.932 90.475 148.218 90.7546 148.504C90.8944 148.647 91.0901 148.79 91.3138 148.619C91.7052 148.332 92.0967 148.017 92.4601 147.703C92.7397 147.445 92.6559 147.245 92.3203 147.13C91.6773 146.93 91.0342 146.787 90.2792 146.729ZM99.2266 46.4002C97.0736 45.6559 90.7266 45.9135 88.0424 47.173C91.7052 46.1998 95.4519 46.1712 99.2266 46.4002ZM70.0638 184.8V184.771C70.3714 184.771 70.679 184.771 70.9586 184.771C71.2102 184.771 71.4059 184.686 71.4898 184.399C71.5457 184.113 71.4339 183.884 71.1822 183.77C70.4553 183.483 69.6724 183.483 68.9175 183.569C68.5819 183.598 68.3023 183.941 68.3303 184.342C68.3303 184.771 68.7217 184.657 68.9734 184.714C69.3089 184.771 69.7003 184.771 70.0638 184.8ZM101.324 168.913C101.268 169.457 100.876 169.686 100.625 170.001C100.513 170.144 100.261 170.259 100.429 170.459C100.569 170.602 100.764 170.431 100.904 170.316C101.156 170.087 101.38 169.858 101.575 169.6C102.023 169.057 101.939 168.656 101.296 168.112C100.764 167.625 100.597 168.198 100.345 168.484C100.121 168.742 99.8697 168.999 99.646 169.286C99.3943 169.572 99.5062 169.801 99.7578 170.001C100.065 170.259 100.205 170.03 100.345 169.801C100.625 169.486 100.792 169.085 101.324 168.913ZM83.4289 97.6382C85.0506 97.0943 85.9454 95.6058 86.3088 94.0315C86.3648 93.7452 86.4207 93.3445 86.0292 93.23C85.6098 93.1155 85.47 93.5449 85.4141 93.8311C85.3023 94.2319 85.3023 94.6898 85.2463 95.0906C85.0506 96.2642 84.2677 96.9512 83.4289 97.6382ZM85.1065 85.8735C84.1 83.8411 82.5621 82.3526 81.6115 80.4634C82.0029 82.2382 84.1559 85.6731 85.1065 85.8735ZM106.356 122.885C105.993 121.626 105.63 120.309 105.518 118.935C105.49 118.706 105.266 118.534 105.042 118.591C104.707 118.649 104.93 118.935 104.93 119.107C105.098 120.566 105.657 121.94 105.685 123.429C105.685 123.772 105.881 123.715 106.049 123.543C106.217 123.429 106.356 123.229 106.356 122.885ZM100.932 95.062C101.268 94.4036 101.016 93.4876 100.429 93.1727C100.289 93.1155 100.149 93.0582 100.093 93.2586C99.8976 93.8884 99.4502 94.3463 99.1427 94.8902C99.0308 95.0906 99.0308 95.291 99.1986 95.4627C99.4502 95.7203 99.7858 95.7203 100.121 95.6631C100.345 95.6058 100.373 95.4341 100.345 95.2337C100.317 94.8902 100.037 94.375 100.429 94.2891C100.848 94.1746 100.653 94.8616 100.932 95.062ZM79.2908 73.8511C79.4026 75.311 79.4026 76.7709 79.3747 78.2593C79.3747 78.7746 79.7102 78.8318 80.1016 78.8032C80.549 78.746 80.4372 78.4311 80.3812 78.1448C79.9898 76.7422 79.6543 75.311 79.2908 73.8511ZM111.921 128.095C111.613 126.606 111.501 125.118 111.305 123.629C111.138 124.087 111.166 124.574 110.97 124.946C110.271 126.349 111.138 127.207 111.921 128.095ZM126.097 103.449C125.425 102.132 124.391 101.073 123.384 100.043C123.412 101.932 124.81 102.647 126.097 103.449ZM93.4388 97.5523C93.7184 97.4951 93.97 97.4378 94.2496 97.3519C94.4453 97.2661 94.5572 97.0943 94.3614 96.9226C93.942 96.4932 93.5226 96.0352 93.0753 95.6345C92.9355 95.4913 92.7397 95.4341 92.572 95.5486C92.3483 95.6917 92.4881 95.8921 92.5161 96.0638C92.5999 96.4073 92.7118 96.7508 92.7677 97.0943C92.8516 97.4092 93.0753 97.5523 93.4388 97.5523ZM123.245 176.241C123.748 176.356 124.139 176.642 124.503 176.986C125.118 177.587 125.481 177.587 126.18 177.129C126.376 176.986 126.572 176.842 126.516 176.556C126.46 176.241 126.208 176.241 125.985 176.241C125.062 176.241 124.167 176.241 123.245 176.241ZM98.9749 96.6649C98.891 96.3787 98.8072 96.0638 98.5555 95.8921C98.2479 95.7203 98.0802 96.0066 97.9404 96.1783C97.6887 96.4932 97.4371 96.8081 97.2134 97.1229C97.0457 97.3806 96.9897 97.6096 97.3253 97.7527C97.7167 97.9244 98.947 97.1229 98.9749 96.6649ZM108.761 91.1118C108.09 91.5411 107.363 91.5411 106.664 91.5698C106.384 91.5698 106.105 91.5984 105.825 91.6556C105.657 91.6843 105.434 91.7701 105.462 91.9991C105.49 92.1995 105.685 92.2281 105.853 92.2281C106.384 92.2281 106.916 92.2281 107.447 92.2281C108.202 92.2281 108.621 91.8274 108.761 91.1118ZM90.9223 151.281C90.8664 151.281 90.7825 151.252 90.7266 151.252C90.4749 151.968 90.1953 152.655 89.9717 153.37C89.8319 153.857 90.1953 154.057 90.5868 154.114C91.0342 154.2 91.0621 153.828 91.0342 153.513C91.0342 152.769 90.9782 152.025 90.9223 151.281ZM150.087 14.4265C149.304 15.4856 148.605 16.602 148.157 17.8615C148.045 18.1763 148.018 18.4339 148.297 18.7774C149.024 17.3748 149.499 15.8864 150.087 14.4265ZM152.827 6.18262C152.771 6.18262 152.715 6.154 152.659 6.154C152.156 8.32947 151.289 10.3904 150.478 12.4514C150.422 12.6232 150.254 12.8522 150.506 12.938C150.758 13.0239 150.897 12.7949 150.953 12.5945C151.596 10.4477 152.212 8.32947 152.827 6.18262ZM95.396 170.516C95.4519 170.745 95.6197 170.745 95.7595 170.717C96.2068 170.66 96.7381 170.402 97.1016 170.545C97.6049 170.717 97.7726 170.431 98.0522 170.202C98.22 170.058 98.3877 169.829 98.22 169.572C98.0802 169.343 97.8285 169.457 97.6328 169.515C96.9338 169.715 96.3746 170.202 95.6197 170.287C95.5917 170.287 95.5078 170.431 95.396 170.516ZM82.2546 37.6983C83.4289 36.4388 84.1 34.75 85.47 33.6622C83.9322 34.6068 82.702 35.8377 82.2546 37.6983ZM91.0901 97.1229C90.5868 96.6363 90.1674 96.1211 89.9157 95.4627C89.8319 95.291 89.6361 95.2051 89.4404 95.291C89.0769 95.4627 89.021 96.4932 89.4124 96.6649C89.9437 96.9226 90.4749 97.1516 91.0901 97.1229ZM155.818 25.9622C154.337 27.5938 153.078 29.3972 152.184 31.4581C153.414 29.6262 154.616 27.7942 155.818 25.9622ZM111.361 94.0887C111.389 94.1174 111.445 94.146 111.473 94.1746C111.865 93.688 112.256 93.2014 112.62 92.7147C112.787 92.4571 113.347 92.2568 113.095 91.9991C112.815 91.6843 112.312 91.9419 111.921 92.1136C111.753 92.1995 111.697 92.3999 111.641 92.6002C111.557 93.0869 111.473 93.5735 111.361 94.0887ZM94.4174 98.3538C94.1378 98.64 93.3269 98.0675 93.299 98.9549C93.299 99.2125 93.271 99.6705 93.7184 99.7278C93.998 99.7564 95.0325 98.9549 95.0045 98.7545C94.9766 98.4683 94.7809 98.3252 94.4174 98.3538ZM110.383 97.4664C110.355 97.2947 110.299 96.9798 110.215 96.6649C110.187 96.5504 110.131 96.4359 110.019 96.4073C109.879 96.4073 109.796 96.4932 109.768 96.6077C109.6 97.2661 109.488 97.953 109.572 98.64C109.572 98.7545 109.628 98.869 109.768 98.8977C109.935 98.9263 110.019 98.8404 110.103 98.6973C110.327 98.3824 110.383 98.0103 110.383 97.4664Z" fill="black"/>
<path d="M57.2857 0.599609C57.3696 1.08623 57.4814 1.57285 57.5653 2.05946C57.5933 2.23121 57.5933 2.46021 57.6772 2.51746C58.3762 3.06132 57.9568 3.34757 57.5374 3.80556C56.6147 4.7788 56.6706 5.40854 57.5374 6.46765C57.5933 6.55352 57.7331 6.61077 57.6492 6.7539C56.6986 6.26728 56.1393 4.97917 56.6426 4.09181C57.118 3.29032 57.09 2.54608 56.9222 1.71597C56.8384 1.34385 56.7824 0.971729 56.8384 0.599609C57.0061 0.599609 57.1459 0.599609 57.2857 0.599609Z" fill="black"/>
<path d="M45.8501 0.599609C45.9061 0.885855 45.8222 1.11485 45.6544 1.31522C44.6478 2.31708 44.1725 3.46207 44.7317 4.86467C44.7597 4.8933 44.7317 4.95055 44.7317 5.0078C44.7317 5.06505 44.7038 5.09367 44.6758 5.12229C44.0607 4.63568 43.9209 2.94683 44.4801 2.08809C44.7876 1.63009 45.0113 1.14348 45.1511 0.599609C45.3748 0.599609 45.5985 0.599609 45.8501 0.599609Z" fill="black"/>
<path d="M66.233 0.599609C66.5126 1.54422 67.0998 2.28846 67.7988 3.00407C67.1837 3.00407 66.6245 2.88958 66.3728 2.25984C66.1212 1.57285 65.5061 1.1721 65.1146 0.599609C65.4781 0.599609 65.8696 0.599609 66.233 0.599609Z" fill="black"/>
<path d="M198.011 28.166C198.067 28.4236 197.899 28.5095 197.759 28.624C193.817 31.5151 190.965 35.4653 188.141 39.3869C187.75 39.9307 187.302 40.4173 186.883 40.904C186.855 40.9612 186.771 40.9612 186.687 40.9898C186.883 39.1006 196.054 28.7671 198.011 28.166Z" fill="black"/>
<path d="M18.0852 39.1881C16.7151 39.9609 14.8138 40.1899 15.2891 42.5085C14.6181 41.4494 14.5622 40.4762 15.0934 39.7606C15.5967 39.0736 16.8549 38.8159 18.0852 39.1881Z" fill="black"/>
<path d="M82.2825 167.825C83.2331 167.51 84.044 168.082 84.8269 168.34C85.6657 168.597 85.9733 169.714 86.8121 170.172C86.0851 170.086 85.442 169.742 84.7989 169.485C83.8203 169.141 83.3729 167.996 82.2825 167.825Z" fill="black"/>
<path d="M159.286 53.0703C160.628 53.7573 161.774 54.8164 163.256 55.2744C163.452 55.3317 163.787 55.532 163.592 55.8469C163.452 56.0759 163.116 56.1331 162.921 55.9041C161.802 54.8164 160.292 54.2725 159.174 53.1848C159.202 53.1848 159.23 53.1276 159.286 53.0703Z" fill="black"/>
<path d="M63.3535 11.4215C62.5706 12.4806 60.9489 12.5092 60.3337 11.4787C60.1101 11.1066 59.9143 10.7059 59.6068 10.3624C59.3551 10.1334 59.439 9.76125 59.6907 9.61813C59.9423 9.47501 59.9703 9.84712 60.0821 9.99025C60.138 10.0761 60.166 10.162 60.2219 10.2479C61.1446 12.0512 61.3962 12.1371 63.1857 11.3642C63.1857 11.3642 63.2416 11.3929 63.3535 11.4215Z" fill="black"/>
<path d="M107.195 74.9955C107.083 74.4516 106.216 74.3371 106.468 73.5642C106.608 73.1635 106.804 72.7914 107.335 72.7627C108.09 72.7341 108.341 73.3066 108.621 73.8505C108.537 73.8791 108.509 73.9077 108.453 73.9077C108.09 73.7932 107.614 73.4497 107.363 73.5929C106.915 73.8219 107.475 74.2799 107.391 74.652C107.391 74.7951 107.391 74.9096 107.195 74.9955Z" fill="black"/>
<path d="M154.812 54.3844C154.448 54.2986 154.085 54.2127 153.721 54.1554C153.274 54.0696 152.575 53.2681 152.547 52.8387C152.547 52.7242 152.575 52.6097 152.715 52.5525C152.939 52.4952 153.19 52.4952 153.358 52.6956C153.833 53.2395 154.337 53.8119 154.812 54.3844Z" fill="black"/>
</svg>
