<svg width="201" height="201" viewBox="0 0 201 201" fill="none" xmlns="http://www.w3.org/2000/svg">
<path d="M139.957 0.0824338C138.939 0.0824338 138.374 0.387643 137.922 1.27552C135.464 6.10337 132.95 10.9035 130.717 15.8423C130.689 15.9255 130.633 16.0088 130.604 16.092C130.52 16.3972 130.237 16.7579 130.661 16.9522C131.113 17.1741 131.17 16.6469 131.283 16.425C132.582 13.8446 133.825 11.2087 135.153 8.62828C136.284 6.43633 137.555 4.32761 138.233 1.94143C138.29 1.77496 138.346 1.52524 138.6 1.60848C138.883 1.69172 138.855 1.96918 138.798 2.19115C138.487 3.32875 138.007 4.41085 137.414 5.43746C135.323 9.09997 133.571 12.9012 131.904 16.7579C131.622 17.4238 131.763 17.8123 132.3 18.2285C134.278 19.8378 136.142 21.5858 137.668 23.6113C139.279 25.7477 140.635 28.0507 141.765 30.4646C142.189 31.3802 142.302 31.408 143.008 30.7143C144.958 28.8276 146.907 26.8853 148.857 24.9986C152.53 21.447 156.429 18.2007 161.119 15.981C162.391 15.3706 163.351 15.1209 164.086 15.1764C164.058 15.5371 163.747 15.5926 163.493 15.6758C159.141 17.1464 155.61 19.8378 152.219 22.7511C148.998 25.498 146.201 28.6611 143.065 31.4912C142.669 31.8519 142.556 32.2126 142.782 32.712C143.771 34.9595 144.393 37.2902 144.873 39.6763C145.127 40.9249 145.184 42.2013 145.325 43.4498C145.664 46.7516 145.268 50.0534 144.986 53.3275C144.958 53.605 144.873 53.9102 145.212 54.0489C145.692 54.2431 146.173 54.4651 146.709 54.3541C146.907 54.2986 146.879 53.9934 146.907 53.7992C146.992 52.9113 147.133 52.0234 147.416 51.1078C147.642 51.2743 147.585 51.4408 147.557 51.6072C147.472 52.4119 147.416 53.2165 147.275 54.0212C147.19 54.4928 147.359 54.6871 147.811 54.798C149.62 55.2697 151.428 55.7692 153.236 56.2963C157.898 57.6004 162.56 58.9045 167.166 60.3196C172.478 61.9566 177.733 63.8156 183.045 65.4804C186.633 66.5902 190.278 67.4781 193.979 68.1717C194.149 68.1995 194.431 68.144 194.375 68.4215C194.318 68.6434 194.064 68.5602 193.894 68.5602C193.301 68.477 192.736 68.3937 192.143 68.2827C187.933 67.6168 183.864 66.396 179.824 65.1197C174.54 63.4271 169.313 61.5959 164.001 60.0698C158.605 58.516 153.208 56.99 147.783 55.6027C147.19 55.4362 146.935 55.5472 146.851 56.1854C146.709 57.2952 146.483 58.4051 146.201 59.4872C146.088 58.627 146.286 57.7946 146.342 56.9623C146.37 56.7403 146.399 56.4906 146.483 56.2686C146.709 55.6304 146.54 55.2975 145.805 55.1588C144.76 54.9368 144.675 54.9368 144.534 55.9634C144.28 57.7669 143.828 59.5427 143.149 61.2352C143.008 61.5959 142.895 62.2063 142.387 62.0398C141.963 61.9011 142.302 61.3739 142.415 61.0687C143.008 59.2929 143.488 57.4894 143.799 55.6304C143.856 55.2975 144.054 54.8813 143.658 54.6871C143.149 54.4651 142.613 54.1599 142.047 54.3541C141.652 54.4928 141.708 54.9645 141.708 55.3252C141.595 56.9068 141.482 58.4883 140.889 59.9589C140.154 61.7901 139.279 63.5381 138.459 65.3416C138.346 65.5913 138.233 65.8411 138.148 66.1185C138.092 66.285 138.035 66.507 138.261 66.5902C138.487 66.6734 138.685 66.5625 138.798 66.3682C138.939 66.1463 139.081 65.8966 139.279 65.5636C139.392 65.952 139.194 66.1463 139.109 66.3682C138.798 67.1451 138.911 67.8943 139.081 68.7267C139.618 71.1961 141.482 72.6111 143.234 74.1094C146.483 76.9396 149.394 80.0471 152.134 83.3767C154.197 85.8739 156.203 88.3988 158.068 91.0347C159 92.3387 160.243 93.3376 161.487 94.3087C164.312 96.5007 166.996 98.8591 169.878 100.968C174.173 104.131 178.637 107.044 183.271 109.68C185.729 111.067 188.074 112.649 190.673 113.814C191.719 114.286 192.793 114.73 193.866 115.091C194.12 115.174 194.601 115.174 194.488 115.479C194.375 115.868 193.951 115.562 193.697 115.507C191.436 114.896 189.345 113.898 187.339 112.732C184.203 110.929 181.095 109.125 178.015 107.238C174.201 104.88 170.471 102.355 166.968 99.5528C165.047 97.999 163.125 96.4452 161.204 94.8636C161.006 94.7249 160.865 94.4752 160.441 94.5307C161.374 95.8625 161.797 97.3608 162.391 98.7759C162.984 100.246 163.408 101.745 163.747 103.299C164.086 104.797 164.397 106.323 164.199 107.904C163.888 107.821 163.916 107.571 163.888 107.377C163.464 104.575 162.899 101.772 161.826 99.1088C161.261 97.7215 160.752 96.3619 160.046 95.0579C159.678 94.392 159.17 93.8093 158.576 93.3098C154.903 90.3133 151.258 87.2612 147.614 84.2646C146.738 83.5432 145.862 82.8218 144.958 82.0726C144.562 81.7397 144.308 81.6287 144.251 82.3223C144.223 82.7108 144.251 83.1547 143.941 83.6819C143.828 83.0992 143.799 82.6553 143.912 82.2391C144.082 81.6287 143.884 81.2402 143.375 80.8795C142.98 80.6021 142.613 80.2691 142.047 79.9916C142.528 81.2957 142.839 82.5166 143.404 83.6542C144.562 85.9848 145.382 88.4543 146.286 90.8682C148.066 95.696 150.552 100.163 153.236 104.547C153.547 105.047 153.83 105.546 154.112 106.045C154.225 106.24 154.395 106.517 154.112 106.628C153.886 106.739 153.745 106.462 153.66 106.295C152.925 104.852 151.965 103.52 151.145 102.133C149.394 99.1366 147.811 96.0845 146.483 92.8937C145.41 90.341 144.506 87.7051 143.46 85.1525C142.81 83.5987 142.189 82.0726 141.595 80.5188C141.143 79.3257 140.211 78.5211 139.25 77.7165C139.024 77.5222 138.742 77.3835 138.516 77.1615C138.177 76.8563 137.951 76.9118 137.583 77.217C133.458 80.7408 129.559 84.5698 124.36 86.623C123.823 86.845 123.795 87.0669 124.021 87.5664C125.406 90.452 126.931 93.2544 128.768 95.8902C129.361 96.7226 129.87 97.6105 130.322 98.5261C130.887 99.747 131.65 100.857 132.441 101.967C132.865 102.549 133.091 103.132 132.724 103.826C132.582 104.103 132.667 104.353 132.808 104.63C133.063 105.102 133.317 105.574 133.599 106.018C134.023 106.656 134.447 107.266 134.08 108.126C133.91 108.543 134.136 108.931 134.447 109.264C135.04 109.93 135.718 110.513 136.566 110.873C137.329 111.206 137.979 111.706 138.516 112.316C140.889 115.063 143.319 117.754 144.986 121.028C146.314 123.692 147.218 126.467 147.585 129.408C147.783 130.906 147.501 132.404 146.907 133.819C146.653 134.43 146.229 134.818 145.495 134.68C145.099 134.596 144.675 134.513 144.534 134.097C144.364 133.653 144.449 133.237 144.76 132.848C144.816 132.765 144.873 132.682 144.958 132.654C146.37 131.849 146.201 130.545 145.975 129.269C145.636 127.382 144.873 125.606 144.138 123.803C143.291 121.667 142.104 119.697 140.691 117.865C140.635 117.782 140.578 117.699 140.522 117.643C140.409 117.532 140.324 117.338 140.126 117.477C139.985 117.588 140.126 117.727 140.183 117.838C140.55 118.42 140.917 119.031 141.313 119.586C142.415 121.139 143.234 122.804 143.573 124.691C143.771 125.773 143.856 126.855 143.404 127.909C142.726 129.519 142.98 131.183 143.008 132.848C143.036 134.374 142.81 135.845 141.963 137.149C141.624 137.704 141.482 138.287 141.341 138.897C141.143 139.729 140.663 140.146 139.957 140.062C139.307 139.979 138.798 139.313 138.855 138.508C138.883 138.203 138.911 137.87 139.081 137.648C139.589 136.927 139.307 136.289 138.826 135.762C138.12 135.012 138.092 134.208 138.572 133.403C139.646 131.683 138.826 130.157 138.148 128.603C137.894 128.048 137.329 128.02 136.877 128.464C136.566 128.742 136.453 129.13 136.368 129.519C136.001 131.128 136.255 132.737 136.594 134.319C136.736 135.012 137.075 135.623 137.555 136.15C137.725 136.344 137.866 136.566 137.753 136.844C137.64 137.121 137.357 137.038 137.131 137.01C136.792 136.955 136.736 137.149 136.707 137.399C136.707 137.981 136.51 138.619 137.272 139.036C136.397 139.008 136.142 139.396 136.284 140.062C136.623 141.81 136.397 143.558 136.171 145.306C135.803 147.803 135.86 150.328 135.86 152.853C135.86 159.124 135.86 165.367 135.888 171.638C135.888 173.302 136.058 174.967 135.973 176.632C135.945 177.242 136.227 177.381 136.792 177.27C138.855 176.854 140.974 176.632 143.093 176.604C144.788 176.576 146.342 175.966 147.953 175.522C148.687 175.328 149.394 175.134 150.128 174.967C150.552 174.884 151.004 174.939 151.174 175.439C151.343 175.938 150.919 176.105 150.58 176.327C148.829 177.492 146.766 177.88 144.816 178.519C143.601 178.907 142.415 179.295 141.228 179.767C140.493 180.045 139.759 180.267 139.024 180.489C138.544 180.627 137.951 180.572 137.64 181.154C137.527 181.349 137.159 181.265 136.905 181.265C136.481 181.265 136.227 181.487 136.199 181.876C136.171 182.348 136.171 182.792 136.171 183.263C136.171 183.596 136.397 183.679 136.679 183.679C137.527 183.679 138.346 183.901 139.166 184.179C139.872 184.429 140.607 184.54 141.369 184.54C143.291 184.54 145.212 184.734 147.105 185.15C148.122 185.372 149.168 185.067 150.185 185.039C150.75 185.039 151.315 184.956 151.88 184.956C154.056 184.9 156.203 184.872 158.379 184.817C158.859 184.817 159.339 184.872 159.791 185.122C157.474 185.233 155.158 185.289 152.812 185.566C152.897 185.871 153.095 185.844 153.236 185.871C155.073 186.01 156.881 186.26 158.718 186.121C160.441 186.01 162.136 186.288 163.832 186.51C164.171 186.565 164.482 186.593 164.821 186.593C167.957 186.51 171.065 186.87 174.173 187.037C176.433 187.148 178.665 187.286 180.926 187.314C183.073 187.342 185.192 187.675 187.339 187.619C187.481 187.619 187.735 187.592 187.735 187.814C187.735 188.008 187.509 188.008 187.339 188.036C186.407 188.174 185.475 187.952 184.514 187.925C181.067 187.869 177.592 187.869 174.145 187.758C169.257 187.592 164.369 187.342 159.48 187.12C157.7 187.037 155.92 187.009 154.112 186.981C151.711 186.926 149.337 186.426 146.936 186.454C146.286 186.454 145.692 186.51 145.014 186.87C145.382 187.092 145.749 187.12 146.06 187.12C148.942 187.148 151.739 187.952 154.592 188.174C158.407 188.479 162.052 189.589 165.809 190.228C167.731 190.56 169.68 190.782 171.602 191.06C173.523 191.337 175.444 191.67 177.394 191.892C180.897 192.308 184.373 192.891 187.848 193.391C190.956 193.835 194.064 194.278 197.2 194.722C198.189 194.861 199.15 194.972 200.139 195.083C200.139 195.222 200.139 195.361 200.139 195.499C199.263 195.416 198.415 195.361 197.539 195.25C193.216 194.695 188.893 194.084 184.57 193.363C181.01 192.78 177.422 192.308 173.834 191.865C170.98 191.532 168.183 190.893 165.329 190.616C160.95 190.2 156.655 189.256 152.219 189.256C150.439 189.256 148.8 188.646 147.105 188.285C146.822 188.23 146.54 188.063 146.116 188.313C146.964 188.646 147.727 188.979 148.49 189.284C151.004 190.255 153.632 190.782 156.203 191.532C158.492 192.197 160.808 192.836 163.097 193.502C164.312 193.862 165.555 193.807 166.77 193.973C170.811 194.528 174.823 195.416 178.807 196.332C180.445 196.692 182.056 197.109 183.666 197.497C183.836 197.525 183.977 197.58 184.147 197.636C184.288 197.691 184.486 197.774 184.457 197.969C184.429 198.246 184.175 198.163 184.005 198.135C183.723 198.107 183.44 198.107 183.158 197.996C181.632 197.497 180.021 197.885 178.467 197.636C175.303 197.136 172.11 196.526 168.974 195.832C166.601 195.305 164.142 195.055 161.797 194.334C158.096 193.169 154.31 192.308 150.552 191.421C148.942 191.032 147.246 190.893 145.579 190.838C143.545 190.755 141.482 190.283 139.505 190.949C142.669 192.558 146.257 192.725 149.733 193.474C150.524 193.64 151.343 193.835 152.134 194.001C152.671 194.112 153.095 194.056 153.067 193.363C153.067 193.196 153.067 192.947 153.321 192.947C153.519 192.947 153.688 193.169 153.66 193.335C153.519 194.556 154.451 194.556 155.242 194.722C157.107 195.083 159 195.25 160.921 195.166C161.458 195.139 161.458 195.166 161.854 195.499C161.684 195.721 161.458 195.638 161.289 195.61C158.887 195.583 156.514 195.388 154.112 195.055C153.745 195 153.349 194.806 153.18 195.333C152.954 196.026 153.123 196.609 153.66 196.803C154.621 197.164 155.638 197.358 156.599 197.802C158.435 198.635 160.413 199.134 162.334 199.744C162.306 199.828 162.278 199.911 162.278 199.911C160.498 199.939 158.718 200.216 157.051 199.328C156.062 198.801 154.96 198.274 153.858 198.274C151.965 198.246 150.326 197.469 148.546 197.053C147.585 196.831 146.681 196.47 145.721 196.165C144.619 195.832 143.545 195.527 142.358 195.583C141.172 195.638 139.985 195.277 138.855 194.861C138.6 194.75 138.318 194.695 138.035 194.639C137.866 194.611 137.64 194.445 137.555 194.722C137.499 194.917 137.668 195.055 137.838 195.166C138.629 195.583 139.448 195.943 140.296 196.193C142.5 196.803 144.393 198.052 146.37 199.106C146.766 199.328 147.218 199.467 147.642 199.911C146.879 199.966 146.229 200.133 145.636 199.8C143.799 198.773 141.85 198.052 139.957 197.164C138.798 196.609 137.64 196.054 136.736 195.083C136.594 194.917 136.34 194.917 136.142 194.917C134.927 194.972 133.684 194.972 132.469 195.111C131.509 195.222 130.548 195.333 129.587 195.361C129.361 195.361 128.937 195.361 128.937 195.61C128.937 195.943 129.333 195.805 129.559 195.805C130.435 195.832 131.311 195.832 132.158 195.86C132.356 195.86 132.639 195.888 132.667 196.137C132.667 196.387 132.384 196.332 132.215 196.359C130.859 196.609 129.502 196.443 128.146 196.387C127.412 196.359 126.677 196.304 125.942 196.387C125.914 196.443 125.914 196.526 125.886 196.581C127.609 197.636 129.305 198.69 131.198 199.855C130.294 199.994 129.672 200.05 129.022 199.689C127.864 199.023 126.677 198.413 125.575 197.663C124.247 196.748 122.75 196.332 121.196 196.082C120.461 195.971 119.726 195.777 118.992 195.666C118.653 195.61 118.229 195.472 118.031 195.86C117.805 196.276 118.031 196.637 118.342 196.914C119.274 197.774 120.066 198.746 121.111 199.467C121.252 199.55 121.393 199.633 121.45 199.966C120.546 199.966 119.67 199.939 118.794 199.966C118.031 200.022 117.494 199.828 117.042 199.134C116.449 198.191 115.658 197.331 114.754 196.609C114.528 196.443 114.33 196.221 114.189 195.999C113.51 194.695 112.38 194.112 110.996 193.835C110.176 193.668 109.329 193.585 108.481 193.585C108.001 193.585 107.775 193.779 108.029 194.195C108.481 194.972 108.651 195.971 109.64 196.359C109.753 196.415 109.837 196.498 109.837 196.637C109.837 196.748 109.724 196.748 109.64 196.776C108.594 197.22 107.718 196.831 106.871 196.304C106.673 196.165 106.701 196.054 106.871 195.915C106.984 195.832 107.125 195.777 107.238 195.694C107.492 195.472 107.605 195.166 107.492 194.889C107.351 194.584 107.068 194.806 106.871 194.833C106.108 194.861 105.317 194.944 104.554 194.972C104.045 194.972 103.904 195.222 103.989 195.694C104.073 196.193 104.384 196.581 104.752 196.914C105.204 197.331 105.656 197.691 106.108 198.08C106.023 198.163 105.938 198.246 105.854 198.329C104.949 197.275 103.424 196.748 103.028 195.194C102.943 194.833 102.632 194.833 102.35 194.833C101.785 194.806 101.192 194.944 100.626 194.667C101.446 194.556 102.293 194.251 103.113 194.5C103.48 194.611 103.819 194.667 104.186 194.667C105.119 194.639 106.051 194.528 106.984 194.389C107.323 194.334 107.605 194.195 107.577 193.835C107.549 193.446 107.181 193.613 106.955 193.613C105.882 193.585 104.808 193.28 103.734 193.668C103.452 193.751 103.169 193.502 102.887 193.446C101.248 193.224 99.6093 193.502 97.9705 193.557C97.0664 193.585 96.134 194.112 95.5971 194.917C94.806 196.137 93.7888 197.164 92.7434 198.135C92.2914 198.579 91.8393 199.023 91.4155 199.467C91.2459 199.633 91.0764 199.828 90.8786 199.911C90.5113 200.05 89.9745 200.161 89.7485 199.883C89.5224 199.606 90.031 199.384 90.257 199.162C91.5002 197.941 92.9977 196.942 93.9301 195.444C94.1561 195.083 94.693 194.778 94.3822 194.251C94.1279 193.807 93.026 193.502 92.5174 193.696C91.472 194.056 90.7091 194.75 90.0875 195.61C89.7767 196.054 89.4942 196.498 89.2116 196.942C88.9008 197.386 88.6183 197.802 87.9967 197.913C87.6294 197.969 87.4598 198.357 87.3186 198.662C86.81 199.689 86.0471 200.216 84.8604 199.994C84.6909 199.966 84.4366 200.05 84.3518 199.883C84.2388 199.661 84.4366 199.495 84.5779 199.328C85.1712 198.607 85.7646 197.913 86.3579 197.192C86.5274 196.998 86.8665 196.803 86.6122 196.498C86.3862 196.221 86.0754 196.415 85.8493 196.581C85.4255 196.887 85.0582 197.192 84.8887 197.719C84.6344 198.524 83.9563 199.079 83.476 199.772C83.3912 199.911 83.2217 199.966 83.0521 199.966C82.8826 199.966 82.6848 200.022 82.6001 199.883C82.4871 199.717 82.6848 199.606 82.7696 199.467C83.2782 198.884 83.702 198.246 84.0976 197.608C84.3519 197.192 84.2953 196.97 83.815 196.859C83.7585 196.859 83.7303 196.831 83.6737 196.803C83.3347 196.692 82.8261 196.803 82.7979 196.276C82.7696 195.749 83.2217 195.61 83.589 195.416C83.815 195.305 84.0693 195.222 84.2953 195.111C85.0582 194.778 85.1712 194.584 84.8604 193.779C84.7474 193.474 84.7757 193.196 84.7757 192.891C84.8039 192.364 84.5779 192.225 84.0693 192.392C82.8826 192.78 81.922 193.502 81.1874 194.445C79.7464 196.304 77.9381 197.774 76.3558 199.467C76.1581 199.661 75.9603 199.883 75.6495 199.911C75.3104 199.939 74.8301 200.105 74.6606 199.8C74.5193 199.55 74.9714 199.356 75.1691 199.134C76.3841 197.969 77.599 196.803 78.814 195.666C79.2095 195.305 79.4921 194.861 79.7746 194.306C79.1813 194.306 78.7857 194.611 78.3619 194.833C77.6273 195.194 76.8644 195.527 76.0733 195.721C75.7342 195.804 75.3669 195.915 75.1126 196.137C73.5021 197.386 71.6373 198.274 70.0833 199.578C69.9421 199.689 69.8008 199.828 69.603 199.883C69.264 199.966 68.7554 200.077 68.6141 199.855C68.3881 199.523 68.8967 199.356 69.0944 199.162C70.1116 198.218 71.27 197.469 72.4002 196.665C72.598 196.526 72.7675 196.387 72.937 196.221C73.1913 195.999 73.2761 195.832 72.824 195.721C72.2589 195.583 72.4285 195.305 72.7393 195.055C73.3044 194.611 74.2933 194.584 74.9714 195.028C75.2257 195.194 75.4234 195.083 75.6495 195.028C78.1359 194.167 80.368 192.863 82.4023 191.226C82.5153 191.143 82.6848 191.088 82.6001 190.921C82.5436 190.81 82.4023 190.81 82.2893 190.81C79.9442 190.782 77.6838 190.255 75.3952 189.895C74.7171 189.784 74.039 189.673 73.3891 189.534C72.6262 189.367 71.9199 189.423 71.1853 189.7C69.9421 190.228 68.6424 190.671 67.3709 191.115C67.0601 191.226 66.8341 191.393 66.8341 191.781C67.0036 191.781 67.2014 191.754 67.3709 191.781C67.597 191.865 67.8795 191.948 67.936 192.253C67.9643 192.558 67.71 192.641 67.5122 192.725C66.8906 192.974 66.2407 193.224 65.9017 193.862C65.8169 194.029 65.6191 194.001 65.4496 194.029C64.3477 194.195 63.274 194.362 62.2286 194.75C61.8613 194.889 61.494 195.028 61.0137 194.889C60.5898 194.75 60.166 195.139 59.827 195.416C58.4143 196.637 56.719 197.386 54.9955 198.08C53.7523 198.579 52.5091 199.079 51.2941 199.633C50.616 199.939 49.9379 199.994 49.175 199.744C50.7573 198.857 52.3395 197.969 54.0631 197.025C53.8088 197.053 53.724 197.025 53.6392 197.053C51.0681 198.052 48.2709 198.413 45.7563 199.661C44.8521 200.105 43.8915 199.939 42.9025 199.939C42.9591 199.606 43.2133 199.606 43.3829 199.522C45.6432 198.69 47.9318 197.885 50.1922 197.081C52.7916 196.165 55.4193 195.277 58.0469 194.362C58.4425 194.223 58.8381 194.084 59.2336 193.918C59.6292 193.751 59.7422 193.474 59.4314 193.169C59.0076 192.752 59.2054 192.475 59.6009 192.336C60.9572 191.809 62.3134 191.115 63.8391 191.92C64.1217 192.087 64.489 192.114 64.828 192.142C64.3194 191.754 63.6978 191.67 63.1327 191.504C62.8502 191.421 62.2851 191.476 62.3416 191.088C62.3981 190.671 62.8785 190.949 63.1893 190.977C63.7261 191.032 64.2629 191.088 64.7998 191.143C65.3649 191.199 65.7039 190.949 65.7887 190.394C66.0147 189.118 66.2407 187.841 66.4668 186.565C66.5233 186.232 66.382 186.093 66.043 186.066C63.4153 185.788 60.7594 185.511 58.1035 185.344C54.6847 185.122 51.2941 185.538 47.9036 185.844C44.1175 186.204 40.3031 186.343 36.5453 187.037C36.3193 187.064 35.9802 187.009 35.9519 187.286C35.9237 187.592 36.2627 187.647 36.4888 187.758C36.6018 187.814 36.7431 187.869 36.8843 187.925C37.6755 188.202 37.7602 188.452 37.2234 189.09C37.0821 189.256 36.9691 189.478 36.7148 189.423C36.404 189.34 36.6866 189.118 36.6583 188.951C36.6301 188.674 36.3758 188.646 36.2062 188.563C35.5564 188.23 34.737 188.174 34.4545 187.286C34.3697 187.037 33.9741 187.148 33.7481 187.148C32.0246 187.259 30.3293 187.508 28.634 187.73C23.6047 188.452 18.5472 188.84 13.5462 189.839C11.3988 190.255 9.19496 190.533 7.04762 191.115C5.0133 191.67 2.97898 192.281 0.972912 192.863C0.803385 192.919 0.662113 192.974 0.492586 193.002C0.351314 193.03 0.210042 193.085 0.153533 192.891C0.0970237 192.725 0.210042 192.614 0.351314 192.558C0.57735 192.475 0.775131 192.364 1.00117 192.308C4.56123 191.199 8.20606 190.366 11.8509 189.562C16.1738 188.59 20.5815 188.174 24.9327 187.508C29.1709 186.87 33.4656 186.482 37.7037 185.733C40.1336 185.289 42.5917 185.15 45.0781 185.011C46.2366 184.956 47.3668 184.845 48.4969 184.734C48.5534 184.429 48.3839 184.401 48.2144 184.373C47.282 184.29 46.3496 184.151 45.4172 184.096C41.4051 183.929 37.4212 184.096 33.4373 184.262C28.9731 184.429 24.5089 184.651 20.0729 185.067C14.3655 185.622 8.68638 186.343 3.03549 187.314C2.27262 187.453 1.50975 187.564 0.746876 187.647C0.57735 187.675 0.323059 187.73 0.26655 187.508C0.181787 187.203 0.464332 187.203 0.662113 187.148C1.76404 186.787 2.95073 186.842 4.0809 186.593C6.22824 186.149 8.40384 185.899 10.5512 185.538C13.1506 185.122 15.7783 185.011 18.4059 184.706C23.6047 184.068 28.8318 184.068 34.0306 183.707C36.4605 183.541 38.9187 183.485 41.3486 183.43C44.5413 183.374 47.7623 183.596 50.9268 183.985C53.4697 184.318 55.8713 183.985 58.3577 183.901C60.2508 183.846 62.1438 183.457 64.0369 183.957C64.1782 183.985 64.4042 184.068 64.4607 183.874C64.5455 183.679 64.3477 183.596 64.2347 183.485C63.161 182.653 61.9178 182.153 60.5898 182.126C57.4536 182.098 54.3456 182.153 51.2376 182.514C50.8421 182.57 50.4747 182.847 49.9662 182.764C50.5313 181.765 51.5767 181.682 52.4808 181.321C52.3395 180.96 52.0287 181.016 51.8027 180.988C49.0903 180.877 46.4061 180.766 43.6937 180.905C41.1508 181.044 38.6079 181.154 36.065 180.905C33.8046 180.655 31.5442 180.378 29.2556 180.239C26.5715 180.045 23.9155 179.795 21.2596 179.601C19.6491 179.49 18.0951 179.129 16.5694 178.657C16.2021 178.546 15.8065 178.408 15.4109 178.352C14.9871 178.269 14.6481 178.158 14.7046 177.686C14.7611 177.159 15.1567 177.187 15.5522 177.187C17.0497 177.159 18.5472 177.381 20.0447 177.492C22.8984 177.714 25.7521 177.936 28.6058 178.158C33.4938 178.519 38.3536 178.768 43.2416 179.074C46.6039 179.295 49.9662 179.295 53.3002 179.517C53.4697 179.517 53.6392 179.545 53.7805 179.49C55.7301 178.824 57.7079 179.406 59.6574 179.49C61.72 179.573 63.7543 179.934 65.8452 180.017C66.5233 180.045 66.8058 179.878 66.8341 179.157C67.0601 173.191 67.1449 167.254 67.0036 161.288C66.9188 158.153 66.9754 155.018 66.9471 151.854C66.8906 146.805 66.9188 141.727 66.7493 136.677C66.6928 135.345 66.6928 133.93 66.1842 132.599C66.0147 132.155 66.1277 131.766 66.3538 131.405C66.6363 130.989 66.7211 130.573 66.6646 130.101C66.495 129.019 66.608 127.937 66.2972 126.883C66.043 125.995 65.4496 125.468 64.602 125.19C64.1782 125.052 63.9804 125.135 63.9239 125.579C63.6131 127.576 63.5001 129.546 64.7998 131.294C65.2236 131.849 65.2801 132.432 65.1671 133.07C65.0823 133.431 64.9128 133.736 64.5172 133.819C63.9804 133.93 63.4435 133.986 62.9067 133.792C62.2569 133.542 62.0591 133.015 62.0873 132.349C62.1438 130.268 62.3699 128.187 61.72 126.161C61.6353 125.856 61.5505 125.551 61.4375 125.246C60.7594 123.359 61.2114 121.611 62.0308 119.891C62.1721 119.613 62.2851 119.336 62.3981 119.058C62.4264 119.003 62.3981 118.92 62.3699 118.781C61.9743 118.92 61.833 119.225 61.6635 119.502C60.7311 121.084 60.166 122.776 59.9682 124.608C59.827 125.745 59.5727 126.883 59.5444 128.048C59.5162 128.714 59.6857 129.269 60.166 129.741C60.7876 130.407 61.2114 131.183 61.2114 132.182C60.8441 132.099 60.8159 131.822 60.7594 131.6C60.5616 131.1 60.3073 131.072 59.94 131.433C59.8552 131.544 59.7705 131.655 59.6574 131.738C59.3184 132.071 59.0641 132.071 58.8663 131.6C58.4708 130.684 58.3012 129.713 58.16 128.714C57.2276 122.582 59.5727 117.588 63.7261 113.232C63.8109 113.148 63.8956 113.037 64.0086 113.01C65.9017 112.372 66.608 110.679 67.5687 109.208C67.7382 108.931 67.9078 108.654 68.1338 108.404C71.27 105.241 73.1913 101.301 75.1974 97.444C75.7625 96.3897 76.2711 95.2798 76.8079 94.1977C77.0057 93.837 76.9774 93.5873 76.6101 93.3098C75.6777 92.6439 74.7453 91.978 73.8977 91.2011C73.6717 90.9792 73.5304 90.9792 73.4174 91.3121C72.1742 94.392 70.5072 97.3331 69.3205 100.441C69.2075 100.718 69.0944 100.996 68.9532 101.273C68.8684 101.44 68.7836 101.661 68.5576 101.606C68.3033 101.523 68.4163 101.273 68.4728 101.134C68.6989 100.441 68.9249 99.7192 69.2075 99.0533C70.2811 96.4729 71.5808 93.9758 72.4285 91.2844C72.6828 90.5075 72.2307 89.4809 71.4961 89.1479C71.2418 89.0369 71.157 89.2034 71.044 89.3421C67.8795 93.0879 65.0823 97.0833 62.5394 101.245C61.268 103.326 60.1378 105.49 59.2054 107.738C58.8946 108.487 58.499 109.208 58.0752 109.902C57.9339 110.124 57.8492 110.429 57.5101 110.457C57.3688 110.318 57.4536 110.18 57.5101 110.069C58.8663 107.821 59.6857 105.352 60.9572 103.077C63.1893 99.0533 65.7887 95.2521 68.6424 91.6451C69.3487 90.7572 70.0551 89.8693 70.818 89.0092C71.157 88.6207 70.9027 88.371 70.6767 88.1213C69.3487 86.5398 68.0773 84.9027 66.8906 83.2102C65.8452 81.7119 64.9693 80.1304 64.1217 78.5488C64.0369 78.4101 63.9521 78.2714 63.8956 78.1326C63.6413 77.6332 63.4153 77.7165 63.0762 78.1049C61.8613 79.5755 60.7876 81.157 59.7422 82.7385C57.4819 86.1791 55.0802 89.5086 52.9046 93.0046C51.4071 95.4186 50.0509 97.888 48.5817 100.302C46.2931 104.048 44.4848 107.988 43.1568 112.15C43.0438 112.483 42.9873 113.121 42.507 112.954C42.1679 112.843 42.5352 112.344 42.62 112.039C44.1175 106.878 46.7169 102.216 49.4011 97.6105C52.396 92.5052 55.7018 87.5941 59.0359 82.7108C60.279 80.8795 61.4657 79.0205 62.8785 77.328C63.161 76.9951 63.1327 76.6621 62.9632 76.3014C62.2004 74.5256 61.3245 72.7776 60.7594 70.9186C60.6181 70.4192 60.2508 70.4469 59.8552 70.5024C58.4708 70.7521 57.0863 71.0574 55.7018 71.2793C52.3961 71.8065 49.1185 72.5002 46.0388 73.7487C42.7613 75.0528 39.8511 77.0228 37.1386 79.2702C31.8268 83.6542 26.3454 87.8161 20.412 91.4231C18.4624 92.6162 16.4281 93.726 14.083 94.059C13.9982 94.059 13.8852 94.0867 13.8004 94.1145C13.6592 94.1145 13.4896 94.17 13.4331 94.0035C13.3766 93.7815 13.6027 93.7538 13.7439 93.6983C14.5351 93.4208 15.3827 93.2266 16.1456 92.9214C19.1688 91.6728 21.8812 89.8416 24.5654 88.0103C28.6905 85.1802 32.6179 82.0726 36.5453 78.9928C38.1275 77.7442 39.6815 76.4124 41.4051 75.3303C40.3314 75.802 39.2295 76.2459 38.1558 76.7453C34.398 78.4656 30.6119 80.0749 26.9953 82.1004C24.8479 83.2935 22.7289 84.542 20.5533 85.7074C18.2646 86.9005 15.9195 87.9548 13.4331 88.7317C12.3312 89.0924 11.1728 89.0369 10.0143 88.8982C9.87307 88.8705 9.7318 88.8427 9.64703 88.6207C10.0709 88.5652 10.4664 88.482 10.862 88.482C12.6985 88.482 14.3655 87.8716 16.0043 87.1779C19.5078 85.7074 22.7289 83.7651 26.0064 81.9061C29.8207 79.7142 33.8329 77.9662 37.7885 76.1072C41.7724 74.2482 46.0105 72.9164 49.8531 70.6967C52.6221 69.0874 55.391 67.4781 58.1882 65.8965C58.6968 65.6191 58.5838 65.2306 58.5273 64.8144C58.3295 63.5936 58.0469 62.3728 57.8492 61.1242C57.4253 58.627 57.1711 56.1299 57.0863 53.6327C57.058 53.0223 56.8037 52.8836 56.2387 52.8281C52.9046 52.5229 49.5423 52.1067 46.1801 52.0789C42.0549 52.0234 37.958 52.3564 33.8894 53.0778C30.188 53.7437 26.4584 54.1876 22.7571 54.8535C19.5644 55.4085 16.3999 56.1021 13.1506 56.4351C10.975 56.657 8.7994 56.9623 6.65206 56.2409C6.5673 56.2131 6.48253 56.1854 6.39777 56.1576C6.36952 56.0189 6.45428 56.0189 6.51079 56.0189C11.4553 56.3796 16.2303 55.4085 21.0336 54.4651C24.2829 53.8269 27.5321 53.2443 30.8379 52.8281C33.1548 52.5229 35.4999 52.1622 37.845 51.6905C37.3082 51.524 36.7996 51.524 36.291 51.524C31.855 51.524 27.4474 51.1633 23.0397 50.8581C20.9206 50.7193 18.8015 50.7193 16.7107 50.4141C13.7722 49.9979 10.8337 49.6372 7.95177 48.9713C7.61271 48.8881 7.07588 48.8604 7.13239 48.3887C7.16064 47.9725 7.64097 47.8892 8.00828 47.8337C8.74289 47.7228 9.421 48.1112 10.1556 48.1667C12.5855 48.4442 14.9871 48.8326 17.417 49.1101C20.638 49.4708 23.8873 49.6927 27.1083 50.0534C31.7703 50.5806 36.4888 50.6639 41.179 51.0246C44.4848 51.2743 47.7341 50.8581 50.9833 50.3309C52.5938 50.0534 54.2326 49.7482 55.8431 49.4708C57.3406 49.2211 57.2841 49.2211 57.5384 47.7505C58.3012 43.4498 59.1206 39.1492 60.4486 34.9872C61.5788 31.4912 63.4435 28.3281 65.3649 25.1928C65.5344 24.9153 65.6757 24.6101 65.9017 24.3882C66.6646 23.528 66.4103 22.7511 65.8734 21.8632C64.489 19.5048 62.6524 17.4793 61.2114 15.2041C60.5616 14.2053 60.0813 13.1232 59.5444 12.0688C59.0924 11.1809 58.5273 10.3485 57.8774 9.57165C56.7755 8.23983 56.0409 6.71379 55.504 5.10451C54.939 3.43973 56.2104 1.94143 57.9904 2.10791C59.6292 2.24664 60.8159 3.16227 61.9461 4.21663C64.0086 6.18661 65.8734 8.32307 67.71 10.4873C68.8119 11.7914 68.8119 11.7914 69.4617 10.2376C70.2811 8.23983 71.8351 6.79703 73.4739 5.49295C75.9038 3.52297 78.7575 2.2189 81.7242 1.22003C82.148 1.0813 82.5436 0.887075 82.9674 0.692851C83.1087 0.637359 83.3347 0.637359 83.2782 0.387643C83.2499 0.165673 83.0804 0.0824338 82.8826 0.0824338C82.5153 0.0546875 82.1198 0.0546875 81.7524 0.0546875M133.119 114.758C132.95 115.007 132.865 115.146 132.78 115.285C131.339 117.838 130.181 120.501 129.107 123.22C128.853 123.831 128.768 124.358 129.135 124.913C129.361 125.274 129.389 125.634 129.022 125.912C128.485 126.328 128.118 126.911 127.722 127.438C127.355 127.909 127.073 127.854 126.677 127.493C125.519 126.411 124.756 123.942 126.96 122.638C127.299 122.443 127.553 122.194 127.751 121.861C129.135 119.613 130.463 117.31 131.424 114.869C131.989 113.426 132.865 112.066 132.441 110.374C132.356 109.985 132.328 109.652 131.932 109.403C131.48 109.125 131.254 108.737 131.735 108.265C132.017 107.988 131.961 107.766 131.593 107.655C130.322 107.238 129.898 106.351 130.011 105.13C130.124 104.242 129.842 103.465 129.333 102.716C128.937 102.161 128.627 101.578 128.259 100.996C127.383 99.5805 126.536 98.1932 125.688 96.7781C125.406 96.3064 125.067 96.4174 124.671 96.5562C124.247 96.6949 124.275 97.0001 124.332 97.3331C124.36 97.5828 124.417 97.8325 124.417 98.0822C124.586 101.079 124.219 104.02 123.795 106.961C123.315 110.124 122.608 113.259 121.959 116.422C121.902 116.672 121.817 116.922 121.959 117.172C122.185 117.477 122.1 117.782 122.072 118.115C121.761 121.195 121.026 124.219 120.659 127.299C120.405 129.491 119.868 131.655 119.67 133.875C119.5 135.734 119.67 137.621 119.331 139.48C119.133 140.506 118.992 141.533 118.37 142.421C118.088 142.781 117.749 143.059 117.325 142.67C116.279 141.727 115.63 140.146 116.986 139.147C117.014 139.119 117.014 139.036 117.014 138.98C116.76 138.869 116.477 139.202 116.279 138.897C116.195 138.758 116.279 138.592 116.364 138.508C116.618 138.314 116.816 138.148 116.392 137.926C116.308 137.87 116.308 137.621 116.308 137.482C115.912 134.818 115.347 132.21 114.81 129.602C114.273 127.049 113.623 124.497 113.284 121.916C112.748 117.671 111.674 113.509 111.448 109.236C111.335 107.1 110.798 105.047 110.374 102.966C110.063 101.384 109.781 99.7747 109.47 98.1932C109.414 97.9157 109.385 97.6383 109.046 97.5273C108.509 97.3608 108.227 97.5828 108.227 98.2764C108.312 102.688 108.283 107.1 108.961 111.484C109.329 113.814 109.414 116.173 110.318 118.392C111.278 120.751 111.815 123.276 113.058 125.523C113.143 125.69 113.284 125.856 113.143 126.134C113.002 125.939 112.889 125.773 112.804 125.634C111.081 122.582 110.092 119.253 109.188 115.895C108.255 112.427 108.057 108.848 107.718 105.268C107.605 103.909 107.464 102.549 107.351 101.19C107.323 101.023 107.379 100.746 107.125 100.746C106.729 100.718 106.306 100.69 105.938 100.774C105.656 100.829 105.854 101.19 105.74 101.384C105.599 101.661 105.458 101.967 105.345 102.272C105.147 102.744 104.865 102.882 104.441 102.549C104.045 102.272 103.847 102.411 103.791 102.855C103.763 103.16 103.706 103.437 103.706 103.742C103.678 105.49 103.989 107.238 104.073 108.986C104.158 110.929 104.949 112.76 104.893 114.73C104.893 115.063 105.062 115.34 105.232 115.618C106.871 118.143 108.283 120.779 109.442 123.526C110.968 127.077 112.239 130.74 114.019 134.18C114.33 134.79 114.669 135.429 114.782 136.233C114.386 136.095 114.33 135.817 114.217 135.567C113.595 134.263 112.945 132.987 112.352 131.683C110.77 128.298 109.696 124.719 108.001 121.389C107.04 119.447 105.967 117.56 104.893 115.507C104.695 116.367 104.526 117.088 104.526 117.838C104.639 122.221 104.328 126.605 104.356 130.989C104.384 134.763 104.186 138.564 104.723 142.337C104.752 142.615 104.921 143.087 104.61 143.142C104.186 143.198 104.243 142.698 104.215 142.393C103.734 138.952 103.621 135.512 103.65 132.044C103.65 126.855 104.13 121.667 103.763 116.45C103.593 113.842 103.424 111.262 102.463 108.765C101.672 106.795 100.994 104.769 100.57 102.688C100.287 101.356 99.9201 101.107 98.5356 101.107C97.914 101.107 97.2641 101.107 96.6425 101.079C96.4448 101.079 96.2752 101.079 96.2187 101.329C95.9079 102.716 95.4559 104.159 95.7102 105.574C96.2187 108.182 96.5578 110.818 97.3772 113.343C97.4337 113.537 97.4902 113.759 97.3772 113.953C97.2076 114.231 97.2641 114.536 97.2924 114.813C97.7445 118.115 98.8464 121.278 99.4115 124.552C99.8071 126.716 100.344 128.853 100.683 131.017C101.107 133.625 101.333 136.289 101.728 138.925C102.378 143.392 102.717 147.887 102.774 152.382C102.83 155.878 102.802 159.401 102.519 162.897C102.378 164.673 101.954 166.421 102.096 168.197C102.209 169.557 101.785 170.75 101.107 171.859C100.965 172.109 100.824 172.387 100.683 172.664C100.57 172.886 100.542 173.108 100.626 173.33C100.824 173.802 103.311 175.272 103.847 175.217C104.045 175.189 104.215 175.161 104.384 175.106C105.232 174.773 105.854 174.218 106.277 173.413C106.758 172.47 107.068 171.499 107.294 170.472C107.577 169.113 107.69 167.698 108.566 166.532C109.866 164.84 110.318 162.759 111.222 160.9C111.391 160.567 111.42 160.151 111.533 159.762C111.9 158.652 111.759 157.376 112.804 156.46C113.228 156.1 113.2 154.962 112.804 154.657C112.211 154.185 112.352 153.713 112.578 153.186C112.776 152.77 113.115 152.382 112.974 151.882C112.748 151.133 113.115 150.772 113.736 150.578C114.189 150.412 114.33 150.134 114.443 149.718C114.725 148.442 114.838 147.138 115.375 145.917C116.195 144.058 116.901 143.503 119.02 143.586C120.263 143.642 120.574 144.196 119.924 145.251C119.783 145.501 119.585 145.75 119.444 146C119.02 146.777 118.794 147.582 118.935 148.469C118.992 148.802 119.02 149.163 119.02 149.496C119.02 151.716 118.653 153.908 118.398 156.1C118.257 157.32 117.494 158.43 117.692 159.707C117.692 159.79 117.579 159.901 117.523 159.984C115.573 162.426 113.397 164.645 111.081 166.754C110.996 166.837 110.77 166.893 111.052 167.004C111.504 167.17 111.165 167.281 110.996 167.392C109.866 168.169 109.555 170.028 110.261 171.166C110.742 171.97 111.42 172.276 112.324 172.414C113.426 172.581 113.737 173.358 113.087 174.273C112.945 174.468 112.776 174.634 112.606 174.801C112.38 175.023 112.352 175.3 112.522 175.55C112.889 176.16 113.369 176.798 114.076 176.882C115.545 177.076 116.958 177.658 118.455 177.492C119.755 177.353 121.083 177.27 122.382 177.048C124.727 176.687 124.501 176.105 126.621 178.019C127.186 178.546 127.864 178.685 128.655 178.491C129.022 178.38 129.474 178.213 129.842 178.435C130.604 178.879 131.311 178.63 132.074 178.352C132.808 178.075 133.543 177.853 134.278 177.658C135.408 177.381 135.379 177.381 135.408 176.243C135.492 174.162 135.069 172.109 135.069 170.028C135.125 162.953 135.097 155.878 135.097 148.83C135.097 148.164 135.153 147.471 134.927 146.832C134.391 145.362 134.504 143.808 134.447 142.31C134.391 140.7 134.193 139.091 133.938 137.51C133.684 135.873 132.328 134.652 132.215 132.959C132.215 132.931 132.187 132.932 132.187 132.904C131.904 132.377 131.819 131.822 131.904 131.211C132.017 130.49 131.961 129.796 131.819 129.075C131.537 127.687 131.226 126.328 131.056 124.913C130.915 123.942 130.972 122.943 131.198 121.944C131.65 119.974 132.328 118.087 132.921 116.173C133.063 115.868 133.317 115.424 133.119 114.758ZM83.8998 143.836C83.6737 143.42 83.3064 143.364 82.9956 143.253C81.9785 142.865 81.8937 142.781 82.2045 141.81C82.4871 140.811 82.4871 139.84 82.148 138.897C81.8937 138.203 81.8372 137.51 81.922 136.788C82.3175 133.625 82.7131 130.462 83.1369 127.299C83.5607 124.164 84.0128 121.028 84.4366 117.893C84.8604 114.591 85.369 111.317 85.9906 108.043C86.4992 105.296 87.2056 102.577 87.6859 99.8302C87.7424 99.4418 87.6859 99.2475 87.3186 99.0811C84.9734 97.9712 82.6283 96.8336 80.3115 95.6683C79.8311 95.4463 79.6334 95.5295 79.3508 95.918C77.7686 97.9157 76.2993 99.969 75.0844 102.189C73.8694 104.381 71.9764 106.24 71.6373 108.931C71.4678 110.18 70.2529 110.845 69.2922 111.595C68.8402 111.955 68.6989 112.316 69.151 112.732C70.7049 114.203 71.5243 116.09 72.2024 118.06C72.937 120.279 74.0107 122.249 76.0168 123.664C76.4971 123.997 76.7231 124.469 76.5536 125.052C76.3276 125.939 75.8473 126.633 74.9149 126.855C74.0107 127.077 73.3326 126.578 72.7393 125.995C72.372 125.634 72.2589 125.19 72.5415 124.719C72.7675 124.358 72.7675 123.969 72.6262 123.581C71.5808 120.307 70.1964 117.172 68.5294 114.175C68.2751 113.731 68.049 113.259 67.4557 113.037C67.4274 113.565 67.6535 113.925 67.8512 114.314C68.4446 115.396 68.9249 116.506 69.2357 117.699C69.716 119.53 69.9986 121.417 70.5072 123.248C70.818 124.358 70.931 125.579 70.7332 126.744C70.5072 128.215 69.9138 129.574 69.264 130.906C68.7554 131.988 68.3033 133.07 68.2751 134.291C68.2186 136.844 68.1903 139.424 68.1338 141.977C68.1055 143.475 68.049 144.973 67.936 146.472C67.7947 148.358 67.7947 150.245 67.7947 152.16C67.7947 156.183 67.9643 160.206 67.9643 164.202C67.9643 169.335 67.8512 174.468 67.7382 179.573C67.7382 180.156 67.9078 180.405 68.5294 180.405C70.4507 180.378 72.4002 180.405 74.3215 180.405C74.6041 180.405 74.9149 180.35 75.0561 180.072C75.4234 179.351 76.1015 179.101 76.8079 179.074C78.3337 178.99 79.8311 178.741 81.3569 178.63C81.8937 178.574 82.4871 178.574 82.8544 179.046C83.2217 179.517 83.6737 179.601 84.2106 179.601C87.1208 179.628 89.8332 178.935 92.4044 177.603C93.478 177.048 94.6082 176.549 95.4841 175.688C95.7384 175.439 95.9927 175.217 96.0492 174.828C96.1057 174.357 96.3318 173.968 96.586 173.58C97.2359 172.553 97.0099 171.499 96.6708 170.444C96.3883 169.584 95.6819 169.501 94.919 169.446C94.58 169.418 94.2409 169.224 94.0996 168.891C93.9301 168.502 94.2127 168.225 94.467 167.975C94.693 167.753 94.9755 167.559 95.2581 167.392C95.5689 167.17 95.5971 167.004 95.2298 166.782C94.6082 166.421 93.9866 166.033 93.3368 165.7C92.2631 165.117 91.2177 164.507 90.3135 163.674C86.7252 160.234 85.03 155.878 84.0693 151.189C83.7303 149.496 83.7868 147.72 83.6737 145.944C83.1652 146.166 83.1087 146.61 82.9674 147.027C82.9109 147.221 82.9391 147.471 82.6566 147.498C82.4023 147.498 82.3175 147.276 82.2045 147.11C81.922 146.527 82.0632 145.944 82.148 145.334C82.2045 144.89 82.1763 144.391 82.4023 144.058C82.6848 143.697 83.2499 144.058 83.6737 143.947C83.7303 143.919 83.7868 143.891 83.8998 143.836ZM98.6769 162.287C98.4508 162.675 98.1118 162.675 97.8292 162.786C97.1794 163.064 97.0099 163.48 97.3206 164.091C97.4337 164.285 97.5749 164.479 97.7162 164.673C98.4791 165.728 99.468 166.615 100.174 167.698C100.287 167.864 100.372 168.141 100.626 168.086C100.909 168.003 100.796 167.698 100.824 167.476C100.965 165.977 101.05 164.479 101.333 163.008C101.841 160.206 102.209 157.404 102.18 154.546C102.124 150.772 102.124 147.027 101.7 143.281C101.418 140.728 101.022 138.203 100.739 135.651C100.231 130.851 99.1572 126.134 98.14 121.417C97.6597 119.197 96.8403 117.033 96.7556 114.702C96.7273 114.009 96.36 113.731 95.5124 113.759C94.806 113.787 95.1733 114.342 95.1168 114.647C95.032 115.035 95.0603 115.424 95.0038 115.812C94.9473 116.256 94.806 116.728 94.4104 116.95C93.9301 117.227 93.8736 117.56 93.8736 118.032C93.9866 121.888 93.478 125.717 93.3085 129.574C93.1672 132.515 92.7434 135.456 92.7434 138.425C92.7152 141.505 92.7434 144.557 92.7152 147.637C92.7152 149.579 92.8282 151.521 93.0542 153.436C93.139 154.019 93.2803 154.407 93.9019 154.601C94.4104 154.768 94.8343 155.239 94.5235 155.794C94.0996 156.544 94.3539 157.182 94.7212 157.82C95.3711 158.957 96.1057 160.095 96.6143 161.288C96.9533 162.065 97.4054 162.592 98.3661 162.204C98.4226 162.204 98.5073 162.259 98.6769 162.287ZM89.2681 102.633C89.1551 103.188 89.0421 103.687 88.9291 104.159C88.703 105.185 88.2792 106.184 88.1662 107.238C87.6576 111.151 87.149 115.063 86.6687 118.975C86.3579 121.528 86.0471 124.108 85.7928 126.689C85.5103 129.546 85.3125 132.432 85.143 135.318C85.0865 136.539 85.1995 137.787 84.7757 138.952C84.2953 140.257 84.5496 141.366 85.482 142.393C85.9624 142.948 86.3862 143.586 86.6122 144.307C86.7252 144.668 86.6687 144.918 86.1884 144.973C85.6798 145.029 85.1995 145.223 84.7192 145.334C85.256 145.473 85.7928 145.639 85.9624 146.194C86.2732 147.193 87.5163 147.554 87.7141 148.636C87.7141 148.691 87.9119 148.775 87.9967 148.802C88.4205 148.941 88.703 149.219 88.9856 149.552C89.8615 150.578 90.5113 151.771 91.3307 152.853C91.6415 153.269 91.8958 153.797 92.4044 154.074C92.5456 153.741 92.4609 153.464 92.4326 153.214C92.3479 152.465 92.2349 151.688 92.2066 150.939C92.0371 146.333 92.0371 141.699 92.0653 137.093C92.0653 136.733 92.0936 136.344 92.1218 135.984C92.3196 133.708 92.6304 131.433 92.6869 129.158C92.7999 125.274 93.1955 121.417 93.2238 117.532C93.2238 117.255 93.139 117.088 92.9412 116.866C92.2914 116.173 92.2631 115.257 93.026 114.73C93.9019 114.12 93.8171 113.37 93.6193 112.566C93.4215 111.733 93.2238 110.901 93.139 110.041C93.0542 109.153 93.0542 108.182 92.5456 107.433C91.7263 106.24 90.9634 105.047 90.2853 103.77C90.0593 103.354 89.7485 102.966 89.2681 102.633ZM101.163 7.99012C100.231 8.04561 99.2985 8.07336 98.3378 8.12885C92.6304 8.43406 87.1773 9.5994 82.148 12.374C79.8029 13.6781 77.4295 14.8989 75.5647 16.9244C74.9714 17.5626 74.8866 18.1175 74.9149 18.8389C74.9431 19.699 75.3104 19.9765 76.1863 19.7545C76.7797 19.6158 77.3165 19.2828 77.8533 19.0331C78.8987 18.5614 79.9724 18.2285 81.0743 18.8944C82.035 19.4771 83.0521 19.8378 84.2106 19.81C84.5779 19.7823 84.9734 19.921 85.3125 20.0597C86.2449 20.5037 87.036 20.2817 87.7706 19.6158C88.0249 19.3938 88.251 19.1719 88.5053 18.9776C90.7091 16.9799 93.3085 15.8978 96.3317 16.0643C100.203 16.314 103.791 17.5348 107.181 19.3106C107.662 19.5603 107.831 19.4493 108.001 19.0331C109.188 16.0088 110.007 12.8735 110.911 9.76588C111.052 9.32194 110.883 9.12771 110.459 9.04447C107.351 8.57279 104.3 7.93462 101.163 7.99012ZM114.782 0.11018C114.16 0.11018 113.821 0.304404 113.708 0.914821C113.623 1.442 113.454 1.94143 113.341 2.46861C112.945 4.10564 112.578 5.74267 112.154 7.3797C112.013 7.99012 112.154 8.26758 112.832 8.43406C114.415 8.8225 116.025 9.2387 117.551 9.82137C121.648 11.4307 125.603 13.2619 129.135 15.9255C129.531 16.2308 129.729 16.2308 129.955 15.7313C130.604 14.3163 131.311 12.9567 132.017 11.5694C133.854 7.96237 135.605 4.29986 137.668 0.803836C137.781 0.637359 138.007 0.470881 137.894 0.248911C137.781 -0.000804989 137.47 0.137926 137.244 0.137926M114.556 65.0087C114.358 65.0642 114.047 65.0087 113.934 65.2861C113.821 65.5358 114.019 65.7301 114.16 65.8965C114.358 66.1185 114.471 66.396 114.556 66.7012C114.951 68.144 115.573 69.4758 116.562 70.6412C117.099 71.2516 117.579 71.9175 118.059 72.5557C118.427 73.0273 118.37 73.5268 117.946 73.8597C117.325 74.3314 117.466 74.7754 117.777 75.2748C118.54 76.4124 118.992 77.661 119.529 78.9095C120.489 81.157 121.648 83.2935 122.778 85.4577C123.089 86.0403 123.456 86.2623 124.134 85.9293C124.727 85.6519 125.321 85.3744 125.914 85.0692C128.627 83.6264 131.198 82.0171 133.458 79.8807C134.617 78.7708 135.775 77.5777 137.329 76.9118C137.781 76.7176 137.499 76.5511 137.301 76.3846C134.786 74.3314 132.441 72.084 129.813 70.1972C128.881 69.5313 128.005 68.7822 127.073 68.1162C126.734 67.8665 126.366 67.6168 126.055 68.2272C125.858 68.5879 125.547 68.3937 125.377 68.1717C124.982 67.6446 124.643 67.1174 124.304 66.5625C123.4 65.1197 122.806 64.8422 121.167 65.2306C119.783 65.5636 118.37 65.5913 116.958 65.4804C116.675 65.4526 116.392 65.4249 116.11 65.5358C115.743 65.7023 115.46 65.8966 115.29 65.3139C115.206 65.0087 114.867 65.0087 114.556 65.0087ZM118.398 23.2783C118.568 23.3893 118.964 23.2228 118.935 23.6113C118.935 23.972 118.596 23.972 118.342 23.9442C117.664 23.861 117.155 24.1384 116.788 24.6934C116.618 24.9431 116.308 25.165 116.449 25.4703C116.618 25.8587 116.958 25.498 117.212 25.5535C117.268 25.5812 117.353 25.5535 117.41 25.5812C119.048 26.0807 120.659 26.6356 121.789 28.0507C122.58 29.0218 122.693 28.994 123.287 27.8287C123.315 27.7732 123.343 27.69 123.371 27.6345C124.134 26.1084 124.841 24.5269 125.716 23.0563C126.762 21.3361 127.892 19.6435 128.853 17.8678C129.107 17.3961 129.135 17.0631 128.627 16.7302C126.903 15.6203 125.208 14.455 123.343 13.5394C119.896 11.8468 116.421 10.2098 112.635 9.32194C112.126 9.21095 111.815 9.15546 111.646 9.76588C110.77 12.8735 109.866 15.981 108.792 19.0331C108.453 19.9488 108.509 20.032 109.498 20.254C111.928 20.8089 113.821 22.2239 115.46 23.972C115.856 24.3882 116.11 24.4714 116.562 24.1107C117.127 23.7222 117.664 23.3338 118.398 23.2783ZM131.565 39.8983C131.565 40.3145 131.961 40.5087 132.271 40.7584C132.582 40.9804 132.808 40.7862 133.006 40.6197C133.289 40.3977 133.599 40.1758 133.882 39.9261C136.425 37.5399 138.657 34.8485 141.143 32.3791C141.454 32.0739 141.369 31.7964 141.228 31.4634C139.9 28.4946 138.205 25.72 136.086 23.2228C134.758 21.669 133.317 20.1985 131.706 18.8944C131.311 18.5614 131.056 18.5337 130.83 19.0609C130.604 19.5881 130.265 20.0875 129.955 20.5592C127.977 23.4448 126.564 26.6079 125.067 29.7709C124.417 31.1305 124.53 31.1582 125.999 31.5467C128.344 32.1848 130.181 33.4612 131.085 35.7364C131.593 37.0404 131.819 38.4278 131.565 39.8983ZM91.9241 42.6174C91.9241 40.5642 91.7828 38.511 91.6415 36.4578C91.6133 36.0416 91.5285 35.6254 91.472 35.2369C91.0199 32.601 89.6072 31.5467 86.923 31.7132C85.0582 31.8241 82.9674 33.4612 82.7131 35.0982C82.3175 37.7896 82.2328 40.4532 82.5436 43.1724C82.9109 46.5297 83.8715 49.7205 85.4538 52.7171C85.9058 53.605 86.6687 53.9657 87.6294 53.9657C88.4487 53.9657 89.1834 53.6327 89.8897 53.272C90.8221 52.8003 91.4437 52.0789 91.3872 50.9691C91.3872 50.6361 91.4155 50.3309 91.4437 49.9979C91.7263 47.5563 91.9241 45.0869 91.9241 42.6174ZM144.703 47.695C144.59 46.0025 144.449 44.4487 144.28 42.9227C143.941 39.6208 143.262 36.4023 141.963 33.3224C141.765 32.823 141.539 32.7398 141.172 33.156C140.946 33.4057 140.748 33.6277 140.493 33.8774C137.951 36.3468 135.775 39.1492 133.091 41.4521C133.006 41.5353 132.893 41.6463 132.921 41.7296C133.091 42.4787 132.639 43.2834 132.921 44.0048C133.797 46.1412 133.91 48.5829 135.266 50.5529C135.408 50.7471 135.521 50.9968 135.577 51.2465C135.69 51.8569 136.086 52.1344 136.651 52.1622C138.233 52.2731 139.702 52.9945 141.341 52.8003C141.454 52.8003 141.595 52.8281 141.652 52.9113C142.104 53.494 142.81 53.4385 143.432 53.605C144.025 53.7437 144.195 53.494 144.251 52.9945C144.421 51.1633 144.59 49.3598 144.703 47.695ZM72.1459 15.7036C72.5132 14.2885 73.4174 13.3451 74.1237 12.2908C74.378 11.9023 74.6323 11.5139 74.7736 11.0699C75.1126 10.0711 75.7625 9.46067 76.8079 9.51616C77.7968 9.5994 78.5032 9.15546 79.2943 8.76701C79.6616 8.57279 80.0289 8.37856 80.4245 8.18434C80.6505 8.07336 80.9331 7.85139 81.1026 8.15659C81.3286 8.5173 80.9613 8.65603 80.7353 8.76701C79.6051 9.40518 78.4749 10.0711 77.1752 10.4318C75.4799 10.8757 74.8583 12.2908 74.1802 13.6226C76.8079 11.9856 79.6051 10.6538 82.4305 9.40517C85.595 8.01786 88.8443 6.90801 92.3196 6.46407C93.2803 6.32534 94.2409 6.2976 95.1733 6.10337C95.6819 5.99239 96.1622 5.85365 96.247 5.24324C96.36 4.29986 96.1905 3.35649 96.0775 2.41312C96.0492 2.13566 95.7949 1.94143 95.5689 1.77496C94.3257 0.970314 92.9977 0.304404 91.4437 0.359896C87.9684 0.470881 84.6061 1.24778 81.3569 2.49636C78.5032 3.57846 75.819 4.91028 73.4456 6.85252C71.7786 8.21209 70.4224 9.73813 69.7726 11.8191C69.6878 12.0688 69.5465 12.2908 69.7443 12.5405C70.5919 13.5116 71.3548 14.5105 72.1459 15.7036ZM106.447 78.2714C106.447 77.8552 106.503 77.439 106.447 77.0228C106.193 75.1915 105.712 73.4713 103.904 72.4724C103.395 72.1949 102.83 71.973 102.293 71.751C100.061 70.8076 97.801 70.6967 95.4559 71.2793C94.4387 71.529 93.7323 72.1672 93.4498 73.1383C93.1955 74.0262 93.0825 74.9418 93.139 75.8852C93.2238 77.5777 93.3933 79.298 93.6193 80.9905C93.8454 82.5998 94.6082 83.6819 96.021 84.4033C98.5921 85.7351 101.276 85.5409 103.989 84.875C105.26 84.5698 105.967 83.7929 106.136 82.4611C106.334 81.0737 106.39 79.6587 106.447 78.2714ZM62.6242 46.058C62.6524 46.4464 62.6807 47.1678 62.7372 47.8892C62.7654 48.1944 62.8219 48.4164 63.2458 48.3332C64.7715 48.0002 66.269 47.6673 67.7947 47.3621C68.3033 47.2511 68.5294 47.0014 68.4728 46.5019C68.3598 45.5308 68.3033 44.5874 67.9925 43.6441C67.3144 41.6463 67.9925 39.8706 69.4052 38.622C70.3094 37.8451 70.9875 37.1514 70.7049 35.9029C70.6767 35.7919 70.7049 35.6809 70.7049 35.5699C70.9027 33.9051 72.5415 32.6288 74.0107 33.0172C75.4517 33.4057 75.5082 33.3779 75.7342 31.9074C75.819 31.4634 75.706 31.1027 75.3669 30.7975C74.9996 30.4923 74.6888 30.1039 74.378 29.7154C73.1348 28.1616 71.9199 26.6079 70.7049 25.0541C70.3659 24.6101 70.1964 24.6656 69.9138 25.1096C68.5859 26.9963 67.5404 29.0495 66.495 31.1027C65.6191 32.8508 64.6585 34.5988 64.2347 36.541C64.1782 36.7352 64.0086 36.9572 64.3194 37.1514C64.828 37.4566 64.602 37.8728 64.2912 38.0393C63.7261 38.3168 63.6413 38.8162 63.5001 39.2879C62.935 41.3689 62.6524 43.5331 62.6242 46.058ZM114.669 102.744C114.612 101.856 114.669 100.996 114.923 100.163C114.98 99.969 115.121 99.7747 114.951 99.5805C114.697 99.2753 113.426 99.0811 113.03 99.3308C112.493 99.6637 112.974 100.135 112.917 100.524C112.917 100.635 112.974 100.746 113.002 100.857C114.047 104.214 114.528 107.655 114.81 111.123C115.149 115.368 115.601 119.586 116.138 123.775C116.534 126.827 116.703 129.879 117.353 132.904C117.579 133.875 117.72 134.846 118.031 135.789C118.088 135.956 118.116 136.206 118.342 136.178C118.596 136.15 118.54 135.9 118.54 135.734C118.568 135.207 118.54 134.68 118.596 134.152C119.048 130.601 119.726 127.077 120.461 123.581C120.602 122.915 120.885 122.249 120.772 121.5C120.461 122.055 120.433 122.693 120.037 123.193C119.868 122.943 119.952 122.749 120.009 122.554C120.631 119.946 120.574 117.338 120.065 114.73C119.161 109.958 117.72 105.379 115.771 100.94C115.686 100.774 115.686 100.579 115.404 100.496C115.177 101.245 114.923 101.994 114.669 102.744ZM114.358 38.8994C114.302 38.3723 114.302 37.7896 114.217 37.2347C114.019 35.8196 112.437 34.2936 111.137 34.1826C108.283 33.9884 106.136 35.8474 106.108 38.6775C106.08 42.1458 106.447 45.5863 106.984 49.0268C107.097 49.7482 107.351 50.4141 108.17 50.6916C110.035 51.2743 111.928 50.5529 112.804 48.8604C112.974 48.4996 113.143 48.1389 113.228 47.7782C114.047 44.8649 114.16 41.896 114.358 38.8994ZM94.0714 0.0824338C94.6647 0.387643 95.2016 0.637359 95.7102 0.887075C96.3035 1.19228 96.6143 1.60848 96.6708 2.30213C96.7273 2.99579 96.7556 3.68945 96.7838 4.3831C96.8403 5.79816 96.8968 5.85365 98.3378 5.85365C100.824 5.85365 103.226 6.29759 105.684 6.54731C107.294 6.71379 108.877 7.07449 110.459 7.35195C110.996 7.43519 111.363 7.3797 111.504 6.76928C111.956 4.71606 112.437 2.66284 112.917 0.637359M72.9088 90.008C73.1066 89.7028 73.2478 89.5641 73.3326 89.4254C73.7282 88.6762 74.0955 87.9548 74.491 87.2057C74.7453 86.734 75.1409 86.29 74.7736 85.6796C74.6323 85.4577 74.8584 85.2079 74.9714 84.986C75.5082 83.9594 76.0168 82.9328 76.3276 81.7952C76.4406 81.4067 76.4971 81.1847 75.932 81.268C75.5082 81.3512 75.0844 81.2402 74.7171 81.0183C73.5586 80.2414 72.5132 79.3812 71.6091 78.3269C70.3659 76.8841 69.49 75.2193 68.5294 73.61C68.2751 73.1661 68.1055 73.0551 67.6535 73.4713C66.5515 74.5256 65.5061 75.6077 64.489 76.7176C64.1782 77.0228 64.1217 77.328 64.3477 77.7165C64.7433 78.4101 65.1388 79.076 65.5061 79.7697C67.3144 83.4322 69.9986 86.512 72.6545 89.5919C72.7393 89.7028 72.7958 89.8138 72.9088 90.008ZM89.4659 79.8807C88.9008 80.0194 88.8161 80.4078 88.703 80.7408C88.5335 81.3235 88.4487 81.9339 87.6011 81.9339C87.4881 81.9339 87.3468 82.1281 87.2621 82.2668C86.8948 82.8218 86.4709 83.3489 86.1601 83.9594C85.7646 84.7085 85.0865 85.3189 85.1712 86.2901C85.1995 86.623 84.8322 86.623 84.5779 86.623C84.0411 86.5953 83.702 86.845 83.5042 87.3444C83.3629 87.7606 83.1087 88.149 82.7696 88.4543C81.8655 89.2034 81.4699 90.23 81.0178 91.2566C80.8483 91.6173 80.8766 91.8948 81.1308 92.2C81.7807 93.0601 82.4588 93.8648 83.2782 94.5584C83.5607 94.7804 83.8433 95.0024 84.0693 95.4463C83.589 95.3076 83.3064 95.0856 83.0239 94.8359C82.4306 94.3087 81.8655 93.7538 81.3569 93.1434C81.2156 92.9769 81.0178 92.6439 80.7353 92.8937C80.2832 93.2821 79.9442 93.8093 79.9159 94.3642C79.8876 94.7527 80.3962 94.8914 80.7353 95.0024C82.6848 95.696 84.3801 96.9169 86.3579 97.5828C86.697 97.6938 87.036 97.8602 87.2338 98.1377C87.6859 98.6926 87.9402 98.3597 88.1662 97.9435C88.5053 97.3053 88.59 96.5839 88.6465 95.8625C88.7878 94.0035 88.9856 92.1445 89.1551 90.2855C89.2116 89.6473 89.2399 89.0092 89.2681 88.371C89.0703 88.4265 89.0421 88.4543 89.0138 88.5098C88.9291 88.7317 89.0138 89.1202 88.6465 89.0647C88.364 89.0369 88.477 88.6762 88.477 88.4543C88.5335 87.2612 88.59 86.0681 88.7313 84.875C88.9573 83.238 89.2116 81.6009 89.4659 79.8807ZM121.139 117.144C121.676 114.619 122.241 112.094 122.721 109.569C123.456 105.823 123.936 102.05 123.823 98.2209C123.767 96.8336 123.626 96.7226 122.213 97.0278C120.574 97.4163 118.992 98.0822 117.381 98.5261C115.545 98.9978 115.573 98.9701 116.336 100.663C117.551 103.354 118.596 106.129 119.416 108.986C120.15 111.678 120.744 114.397 121.139 117.144ZM72.9936 70.8354C73.6717 72.1117 74.7171 73.1106 75.5365 74.2482C76.5536 75.6355 77.7403 76.8841 78.6162 78.3824C79.0118 79.076 78.9552 79.6587 78.4184 80.2691C77.3165 81.5454 76.4406 82.9605 75.819 84.5143C75.706 84.764 75.4517 85.1247 75.8473 85.2912C76.2428 85.4299 76.2711 84.986 76.3558 84.764C76.7514 83.7929 77.3165 83.016 78.0794 82.2946C79.0683 81.3512 80.1984 80.5188 80.8483 79.2702C82.1763 76.6898 83.5042 74.0817 85.0017 71.5845C85.256 71.1683 85.2842 70.9741 84.7474 70.7521C82.148 69.67 79.4073 68.9764 76.7231 68.1717C75.9038 67.922 75.0844 67.7833 74.2368 67.7555C73.6152 67.7278 73.5021 67.9498 73.7847 68.477C74.1237 69.0596 74.5758 69.5591 75.1974 69.8643C77.147 70.8076 79.0118 71.862 80.7635 73.1383C81.6959 73.8042 82.2045 74.4424 82.3175 75.0806C80.7353 73.3325 78.5879 72.5279 76.3558 71.862C76.5819 72.1672 76.8927 72.3614 77.2035 72.5557C77.8251 72.9441 78.4467 73.3048 79.04 73.6932C79.2095 73.8042 79.4921 73.9152 79.3508 74.1649C79.1813 74.4424 78.927 74.2204 78.7292 74.1094C77.6273 73.4713 76.4689 72.8609 75.4517 72.084C74.7453 71.5013 73.8694 71.1406 72.9936 70.8354ZM113.963 94.17C114.132 93.9758 114.217 93.4486 114.612 93.7815C114.951 94.059 115.149 94.6694 114.754 94.9469C114.16 95.3908 114.358 95.7793 114.556 96.251C114.725 96.6394 114.895 97.0278 115.008 97.4163C115.149 97.9435 115.46 98.0822 115.997 97.9712C118.229 97.5828 120.263 96.5562 122.467 96.1122C122.947 96.029 122.976 95.696 122.806 95.2521C122.467 94.4197 122.213 93.5596 121.93 92.6994C121.478 91.4231 121.167 90.0913 120.631 88.815C120.376 88.26 120.066 88.149 119.529 88.371C118.907 88.593 118.285 88.7595 117.636 88.9537C116.647 89.2866 115.686 89.6751 114.951 90.3965C113.878 91.4786 112.945 92.5607 113.963 94.17ZM125.123 61.7346C125.377 62.1231 125.745 62.2063 126.055 62.3728C128.598 63.6491 131.17 64.8977 133.543 66.4792C133.797 66.6457 133.967 66.618 134.08 66.3405C134.164 66.1463 134.277 65.9798 134.334 65.7856C134.927 64.1485 135.295 62.4283 135.549 60.7635C135.916 58.3218 135.577 55.8524 135.182 53.4107C135.125 53.05 134.899 52.9391 134.532 52.8836C133.741 52.8003 133.769 53.4107 133.628 53.8547C132.356 58.0721 129.898 61.0687 125.123 61.7346ZM95.5689 165.672C95.5971 165.617 95.6536 165.589 95.6819 165.533C95.5124 165.145 95.3146 164.756 95.1451 164.34C93.9301 161.482 92.5456 158.708 90.7656 156.127C89.4942 154.268 87.8837 152.631 86.8665 150.634C86.4144 149.773 85.6516 149.718 84.8887 149.524C84.6061 149.441 84.6344 149.662 84.6627 149.829C84.7757 150.328 84.8887 150.828 85.0017 151.327C85.8211 155.239 87.5163 158.791 89.9745 161.982C91.4155 163.841 93.5628 164.673 95.5689 165.672ZM156.429 90.341C156.033 88.9259 148.094 79.4367 146.907 78.9095C146.766 79.1593 147.105 79.5477 146.738 79.7419C146.427 79.9084 146.173 79.6309 145.918 79.4645C145.551 79.2148 145.777 78.9373 145.89 78.6598C146.116 78.1604 145.862 77.7997 145.523 77.4945C144.506 76.4956 143.46 75.469 142.415 74.4701C141.793 73.8875 141.115 73.388 140.409 72.7776C140.691 74.2759 140.946 75.6355 141.172 76.9951C141.256 77.5777 141.511 77.9662 141.963 78.2991C142.274 77.9107 141.991 77.4112 142.274 76.9951C142.387 77.3003 142.5 77.6055 142.5 77.9107C142.443 78.7708 142.895 79.3257 143.545 79.8252C147.444 82.9327 151.145 86.2901 155.101 89.3421C155.497 89.7028 155.864 90.1468 156.429 90.341ZM58.7533 52.9668C57.8774 52.8281 57.9622 53.2998 57.9622 53.7159C58.0187 57.4339 58.6685 61.041 59.3749 64.6757C59.4879 65.1751 59.7422 65.1197 60.0813 64.9809C61.0702 64.5092 62.0591 64.0098 63.048 63.5104C63.5283 63.2884 63.6413 63.0109 63.5001 62.456C62.6242 59.5149 61.6635 56.6016 61.4657 53.494C61.4375 53.1333 61.2397 53.0223 60.9006 53.05C60.1095 53.0778 59.3467 53.1055 58.7533 52.9668ZM64.4042 53.161C64.3194 53.4107 64.4325 53.5772 64.5172 53.7714C64.7998 54.4651 65.0541 55.1588 65.3083 55.8524C65.7604 57.101 66.0147 58.4328 66.6363 59.6536C67.3144 61.0132 67.3144 60.9855 68.7271 60.4305C69.8856 59.9589 69.9138 59.8756 69.3487 58.7935C69.151 58.4328 68.9532 58.0721 68.7836 57.6837C67.9925 55.9079 67.6817 54.0766 68.1338 52.1622C68.3598 51.2188 68.7554 50.3309 69.151 49.443C69.4052 48.8603 68.9814 48.3054 68.3598 48.3609C67.2862 48.4164 66.2407 48.6106 65.2518 48.8881C63.1045 49.4985 63.3588 48.8326 63.3588 51.2465C63.3588 51.413 63.3588 51.5795 63.3588 51.7182C63.3588 52.0789 63.5001 52.3286 63.8956 52.4119C64.3194 52.4396 64.489 52.7171 64.4042 53.161ZM75.5365 80.1859C75.9038 80.1026 76.2993 80.0194 76.6949 79.8807C77.9663 79.4367 78.1924 78.7431 77.486 77.661C77.3447 77.439 77.147 77.217 76.9774 76.9951C75.3669 74.7754 73.6152 72.6666 71.8069 70.6134C71.6091 70.3914 71.4678 70.3637 71.2135 70.5302C70.3659 71.0851 69.6878 71.8342 68.8967 72.4447C68.5859 72.6666 68.6706 72.9718 68.8684 73.2493C69.2357 73.8042 69.5748 74.3869 69.9421 74.9418C70.9027 76.4401 71.8634 77.9107 73.2478 79.076C73.8694 79.6309 74.5758 80.0749 75.5365 80.1859ZM114.697 77.106C114.697 77.7165 114.725 78.3269 114.697 78.9373C114.386 82.7385 113.51 86.4843 113.058 90.2855C113.03 90.452 112.889 90.674 113.115 90.7849C113.369 90.9237 113.482 90.6462 113.595 90.4797C114.132 89.7583 114.782 89.1757 115.658 88.8427C116.901 88.371 118.144 87.8993 119.416 87.4831C119.868 87.3167 119.952 87.1502 119.726 86.734C118.483 84.653 117.607 82.3501 116.392 80.2691C115.743 79.2425 115.432 78.1049 114.697 77.106ZM137.612 66.0075C137.838 65.9243 137.894 65.6746 137.979 65.4804C138.403 64.5925 138.77 63.7046 139.194 62.8167C140.465 60.1808 140.889 57.3507 141.115 54.4928C141.143 54.1321 141.03 53.9657 140.691 53.9102C139.448 53.7159 138.233 53.5217 137.018 53.3275C136.623 53.272 136.481 53.3275 136.566 53.7992C137.046 56.4628 137.244 59.1542 136.623 61.8456C136.199 63.3994 136.481 64.7867 137.612 66.0075ZM122.467 193.391C123.287 193.862 123.993 194.278 124.727 194.667C125.434 195.028 126.168 195.444 126.988 195.277C129.135 194.889 131.283 194.861 133.43 194.639C134.391 194.528 135.351 194.528 136.312 194.528C136.481 194.528 136.679 194.528 136.736 194.334C136.792 194.14 136.623 194.029 136.481 193.973C136.227 193.862 135.973 193.724 135.718 193.64C134.701 193.252 133.628 192.947 132.554 192.725C131.254 192.475 130.068 191.781 128.711 191.67C127.186 191.559 125.688 191.226 124.219 190.838C123.4 190.616 122.58 190.616 121.761 190.727C121.111 190.81 120.461 190.949 119.811 190.977C119.783 190.977 119.783 191.032 119.783 191.06C119.896 191.226 120.207 191.088 120.292 191.337C120.122 191.504 119.896 191.421 119.698 191.532C119.472 191.67 119.444 191.837 119.698 191.92C120.602 192.253 121.45 192.697 122.524 192.614C124.078 192.475 125.66 192.281 127.242 192.503C127.412 192.53 127.694 192.53 127.694 192.752C127.694 193.002 127.412 192.974 127.242 192.974C125.66 192.974 124.134 193.363 122.467 193.391ZM69.0097 16.8967C68.7836 16.8134 68.7836 16.6192 68.7271 16.4805C68.3033 15.4539 68.5859 14.3163 68.1903 13.2896C68.162 13.1787 68.2186 12.9844 68.3033 12.9012C68.6424 12.5682 68.4446 12.3463 68.2186 12.0688C66.269 9.90461 64.3194 7.76815 62.1438 5.79816C61.9461 5.63168 61.7483 5.46521 61.494 5.40971C61.2962 5.35422 61.1267 5.38197 60.9572 5.49295C60.7311 5.65943 60.9006 5.82591 60.9572 5.99239C61.0984 6.40858 61.268 6.82477 61.4375 7.21322C62.5394 9.76588 63.6131 12.3185 65.3649 14.5382C66.269 15.6758 67.4557 16.6192 68.3033 17.8123C68.5859 18.2007 68.8402 18.8389 69.377 18.6447C69.9703 18.4505 69.9138 17.7291 69.9986 17.2019C70.0268 17.0631 69.9703 16.9244 69.9421 16.7857C69.8573 16.4527 69.8008 15.981 69.4052 15.981C68.9532 15.981 69.2357 16.5082 69.0944 16.7857C69.0662 16.8134 69.0662 16.8412 69.0097 16.8967ZM78.1924 28.3004C78.1641 28.2449 78.1359 28.0784 78.0511 27.9397C77.0339 26.3304 76.3276 24.6101 75.5647 22.8899C75.3104 22.3072 75.0844 21.7523 74.6323 21.2806C74.0107 20.6147 73.6152 20.5869 72.9936 21.2251C72.3437 21.8632 71.7221 22.5292 71.157 23.2506C70.8462 23.639 70.818 23.9442 71.1005 24.3604C72.1177 25.7477 73.0783 27.1628 74.0672 28.5778C74.5758 29.2992 75.1692 29.8819 75.819 30.4923C76.1863 30.8253 76.5819 30.742 76.6101 30.2704C76.6384 29.5767 77.0622 29.327 77.6273 29.1328C77.9663 28.9663 78.2206 28.7998 78.1924 28.3004ZM85.256 70.3082C85.5951 70.3637 85.7928 70.2805 85.8776 70.003C85.9624 69.7255 85.8493 69.5313 85.6233 69.4203C85.03 69.1429 84.4366 68.8654 83.8433 68.5879C79.5768 66.5625 75.593 64.093 72.0329 60.9855C71.9199 60.8745 71.8069 60.6803 71.6373 60.7635C71.4113 60.8745 71.5243 61.0964 71.5808 61.2629C71.9199 62.5947 72.2589 63.9543 72.5697 65.2861C72.7958 66.2295 73.4456 66.6457 74.378 66.7844C74.9996 66.8954 75.6495 66.9509 76.2428 67.1174C78.6162 67.7556 80.8483 68.6989 83.1652 69.4758C83.8998 69.781 84.6061 70.0585 85.256 70.3082ZM79.6334 20.0597C78.701 20.0597 77.26 20.7811 76.7514 21.4748C76.6101 21.669 76.6384 21.8632 76.6384 22.0575C76.6384 23.2228 77.5143 24.0275 77.8533 25.0541C78.0511 25.6645 78.3619 26.2472 78.701 26.8021C79.0118 27.3293 79.2943 27.3293 79.6616 26.8298C79.8876 26.5246 80.0289 26.1917 80.1984 25.8587C80.707 24.9431 81.4416 24.2494 82.3458 23.7222C83.0804 23.306 83.8998 23.2506 84.7192 23.0841C85.0582 23.0008 85.4255 22.9453 85.4538 22.4737C85.4538 22.002 85.3125 21.669 84.8604 21.4748C84.4931 21.3083 84.1258 21.3361 83.7585 21.3638C83.3347 21.3916 82.9109 21.4193 82.4871 21.4748C82.0915 21.5303 81.8372 21.3916 81.6112 21.0586C81.1874 20.3372 80.481 20.0597 79.6334 20.0597ZM60.9854 44.5319C61.0137 44.3932 61.0137 44.2545 61.0419 44.1435C61.607 42.118 62.1721 40.0925 62.4546 38.0116C62.5394 37.4844 62.4829 37.0682 62.0873 36.7075C61.8048 36.43 61.5788 35.8751 61.2397 35.9583C60.8159 36.0693 60.8441 36.6797 60.7594 37.0959C60.3073 39.0382 59.8552 41.0082 59.4032 42.9781C59.0076 44.6984 58.6403 46.4464 58.3577 48.2222C58.2447 48.9436 58.3577 49.0546 59.0924 48.9436C59.7422 48.8604 60.3921 48.6661 61.0419 48.6384C61.72 48.6106 61.8613 48.3054 61.833 47.7228C61.7483 45.725 62.0591 43.755 62.3416 41.7851C62.5394 40.481 62.8785 39.2047 62.9067 37.8728C62.4546 40.0925 62.2004 42.451 60.9854 44.5319ZM92.4326 106.933C92.5174 106.906 92.5739 106.878 92.6587 106.878C92.6587 106.545 92.6304 106.184 92.6587 105.851C92.7434 104.325 92.5456 102.771 92.9412 101.301C93.4498 99.414 93.5063 97.5273 93.5063 95.6128C93.5063 94.2255 93.5063 92.8382 93.478 91.4508C93.478 91.1179 93.365 90.7849 92.913 90.8127C92.4891 90.8127 92.4044 91.1179 92.4044 91.4231C92.4326 93.2544 92.0371 95.0579 92.1218 96.8891C92.1501 97.3608 92.0088 97.6938 91.5285 97.9435C90.7091 98.3874 90.7091 98.9146 91.5002 99.4418C91.6698 99.5528 91.8675 99.6637 92.0371 99.747C92.1783 99.8302 92.4609 99.858 92.4044 100.08C92.3479 100.302 92.0936 100.219 91.9241 100.191C91.2742 100.052 90.5678 99.9967 89.9745 99.6637C89.7202 99.525 89.5224 99.4418 89.4659 99.8302C89.3811 100.413 89.3246 101.023 89.2399 101.606C89.2116 101.8 89.2399 101.994 89.5507 101.911C90.1723 101.772 90.4266 102.133 90.4831 102.66C90.6526 104.297 91.8675 105.463 92.4326 106.933ZM66.043 69.3648C64.6585 69.6423 63.3023 69.9753 61.9178 70.225C61.381 70.336 61.3527 70.5579 61.494 71.0019C62.0308 72.6944 62.6807 74.3037 63.4718 75.8852C63.6978 76.3569 63.9239 76.4124 64.2629 76.0239C65.0258 75.1915 65.7887 74.3869 66.5515 73.5823C67.71 72.3614 67.71 72.3614 67.0884 70.7799C66.9754 70.4747 66.8341 70.1695 66.7493 69.8643C66.6363 69.5313 66.4385 69.3371 66.043 69.3648ZM58.4143 5.07676C58.1035 5.07676 57.7644 5.04901 57.6231 5.38197C57.4819 5.65943 57.7361 5.85365 57.8774 6.04788C58.5273 7.04674 59.2054 8.07335 59.8552 9.07222C61.2397 11.0977 62.2286 13.3729 63.6978 15.3706C65.0823 17.2574 66.7493 18.8666 68.1055 20.7534C68.2186 20.8921 68.3598 21.0863 68.5576 21.0031C68.8119 20.9199 68.7836 20.6702 68.7836 20.4759C68.7836 20.1985 68.6706 19.9488 68.5294 19.699C68.1338 19.0054 67.7382 18.3395 67.2296 17.7291C66.382 16.6747 65.4779 15.6758 64.6867 14.5937C62.822 12.1243 61.607 9.32194 60.4768 6.49182C60.053 5.5207 59.4032 5.13225 58.4143 5.07676ZM95.8232 90.6462C96.0775 92.7827 96.6143 94.8636 97.688 96.7504C98.14 97.5273 98.9312 97.999 99.807 98.2487C100.259 98.3874 100.429 98.2487 100.316 97.777C100.231 97.4718 100.146 97.1666 100.09 96.8336C99.7223 95.1966 99.7223 93.5318 99.4115 91.8948C99.2702 91.0901 98.9877 90.341 98.2813 89.8138C97.7162 89.3976 97.0946 89.4531 96.473 89.7028C96.0492 89.8693 95.8232 90.1745 95.8232 90.6462ZM95.3711 7.65716C95.2581 7.3797 95.1733 7.40744 95.0885 7.40744C93.5628 7.46294 92.0653 7.71265 90.5678 7.99012C87.6576 8.5173 84.8322 9.46067 82.0915 10.4873C79.7181 11.3752 77.3447 12.3463 75.3104 13.9833C74.378 14.7602 74.2933 14.9267 74.7453 16.2585C77.8251 14.0943 81.0178 12.1243 84.4649 10.5705C87.9119 9.01673 91.6415 8.32307 95.3711 7.65716ZM118.201 149.884C118.201 149.662 118.201 149.413 118.201 149.191C118.201 149.024 118.257 148.775 118.059 148.691C117.777 148.608 117.72 148.886 117.664 149.08C116.929 151.216 115.686 153.159 115.064 155.35C114.754 156.46 114.245 157.515 113.793 158.569C113.482 159.29 113.567 159.401 114.33 159.485C114.81 159.54 115.319 159.623 115.799 159.679C116.308 159.734 116.59 159.54 116.731 159.068C117.607 156.072 117.777 152.964 118.201 149.884ZM61.2962 69.5868C62.7372 69.2816 64.1782 68.9764 65.6191 68.6434C65.9582 68.5602 65.9017 68.3382 65.8169 68.1162C65.4214 66.8399 64.9128 65.5913 64.4042 64.3428C64.2629 63.9821 64.0934 63.8988 63.7261 64.093C62.5677 64.7035 61.381 65.2584 60.1943 65.8411C59.9117 65.9798 59.7422 66.1463 59.8835 66.4792C60.1943 67.3948 60.5051 68.3105 60.7876 69.2538C60.9006 69.4758 61.0137 69.6145 61.2962 69.5868ZM65.7039 61.2907C65.2801 60.8467 65.0541 60.2918 64.828 59.7369C63.6978 56.9345 62.5677 54.1044 62.5112 51.0246C62.5112 50.7194 62.5112 50.4141 62.5112 50.1367C62.5112 49.9425 62.4546 49.8037 62.2569 49.776C62.0308 49.7482 61.8896 49.8592 61.833 50.0534C61.7765 50.2477 61.7765 50.4696 61.7483 50.6639C61.6918 52.2176 61.9178 53.7437 62.1438 55.2697C62.4546 57.4617 63.1045 59.5982 63.8109 61.7069C64.1782 62.8167 64.1499 62.8445 65.2236 62.3728C65.3083 62.345 65.3931 62.2895 65.4779 62.2618C66.0712 62.0398 66.269 61.6514 66.043 61.0132C65.5626 59.6536 65.1953 58.2663 64.8563 56.879C64.6585 56.0466 64.3194 55.242 64.0369 54.4373C63.9804 54.2709 63.8674 54.0489 63.6413 54.1044C63.4153 54.1599 63.4153 54.3819 63.4435 54.5761C63.5001 54.909 63.5848 55.242 63.6696 55.5749C64.2912 57.5172 65.0258 59.4039 65.7039 61.2907ZM76.1015 86.956C76.0168 86.956 75.932 86.956 75.819 86.9837C75.2257 88.149 74.6041 89.3144 74.0107 90.4797C73.8694 90.7294 74.0955 90.9237 74.265 91.0624C75.1409 91.7561 76.045 92.422 76.9209 93.1156C77.2317 93.3653 77.4295 93.3931 77.6838 93.0046C78.2771 92.0335 78.814 91.0347 79.3226 90.008C79.5486 89.5364 79.4638 89.2311 79.0118 88.9814C78.3054 88.5652 77.599 88.1213 76.9209 87.7051C76.7797 87.6219 76.6384 87.4831 76.4689 87.5386C76.0168 87.7051 75.8755 87.5386 76.1015 86.956ZM44.7391 179.934C35.4716 179.601 26.2889 178.297 17.0215 178.047C26.2324 179.268 35.3869 180.877 44.7391 179.934ZM50.8703 71.529C51.7462 71.3626 52.5938 71.1961 53.4415 71.0296C55.504 70.6412 57.5949 70.2527 59.6574 69.892C60.1378 69.8088 60.279 69.5313 60.1095 69.1151C59.8552 68.4215 59.6292 67.7278 59.3749 67.0341C59.2054 66.5902 58.9793 66.507 58.5273 66.7567C56.0409 68.1163 53.6675 69.6145 51.2376 71.0851C51.0963 71.1406 50.9268 71.2238 50.8703 71.529ZM62.5959 35.4034C62.9915 34.1271 63.4718 32.934 64.1217 31.8519C65.6757 29.1605 67.3144 26.5246 68.7836 23.7777C68.9532 23.4725 69.0944 23.1951 68.6424 22.9731C68.2468 22.7789 67.9925 22.8899 67.7665 23.2506C65.9299 26.2194 64.0086 29.1605 62.4829 32.2958C62.0026 33.3502 61.7765 34.2936 62.5959 35.4034ZM135.831 71.751C136.029 71.7233 136.114 71.5845 136.227 71.4735C136.594 71.0574 136.905 70.5857 137.075 70.0585C137.216 69.6145 137.442 69.2538 137.866 69.0319C138.177 68.8654 138.177 68.6712 138.035 68.4215C137.414 67.3116 137.075 66.063 136.368 65.0087C136.255 64.8422 136.227 64.5647 135.973 64.5925C135.747 64.6202 135.69 64.8977 135.634 65.0919C135.21 66.618 135.125 68.2272 134.193 69.6146C133.967 69.892 135.436 71.7788 135.831 71.751ZM69.5748 45.5585C70.2246 45.5031 70.7897 44.8094 70.8462 44.0325C71.044 41.5353 71.7786 39.2047 72.9088 36.9572C73.2478 36.2635 73.5586 35.5699 73.8412 34.8762C73.926 34.682 74.0107 34.46 73.8129 34.2936C73.6152 34.1271 73.4174 34.2658 73.2196 34.3491C72.7393 34.5988 72.4002 35.015 72.2307 35.4867C71.6939 37.0959 71.0157 38.622 70.2246 40.1203C70.1681 40.2313 70.1399 40.3423 70.1116 40.4532C69.6595 41.896 69.4335 43.3666 69.151 44.8371C69.1227 45.2256 69.2075 45.5308 69.5748 45.5585ZM67.1731 68.4215C67.6817 68.3105 68.1903 68.1995 68.6706 68.0885C69.603 67.8388 69.603 67.8388 69.0662 67.0619C68.8967 66.7844 68.7554 66.507 68.6141 66.2018C68.162 65.2584 67.7382 64.315 67.2862 63.3716C67.0884 62.9277 66.8623 62.7057 66.3255 63.0387C65.9865 63.2607 65.5344 63.3716 65.1671 63.5104C64.9128 63.5936 64.7433 63.7323 64.8563 64.0376C65.4214 65.3971 65.8452 66.7844 66.495 68.0885C66.6646 68.3105 66.8906 68.4215 67.1731 68.4215ZM140.748 76.9951C140.607 76.3014 140.465 75.6632 140.352 75.0251C140.098 73.499 139.476 72.1117 138.685 70.8076C138.431 70.3914 138.177 70.3637 137.894 70.7521C137.527 71.2238 137.188 71.7233 136.792 72.1949C136.453 72.5834 136.425 72.8886 136.792 73.2771C137.781 74.3037 138.713 75.358 139.702 76.3846C139.957 76.6344 140.267 76.8841 140.748 76.9951ZM70.5354 67.4781C71.5526 67.4781 71.6939 67.3394 71.4396 66.4237C71.044 64.8699 70.5072 63.3716 70.1681 61.8179C70.0833 61.4294 69.8573 61.3739 69.5465 61.5126C69.0379 61.7346 68.5294 61.9843 68.0208 62.234C67.7382 62.3728 67.6817 62.567 67.823 62.8722C68.5294 64.315 69.1227 65.7856 69.9703 67.1451C70.1399 67.3394 70.2246 67.5613 70.5354 67.4781ZM78.8422 187.12C77.712 187.12 76.7231 187.175 75.7342 187.481C75.3952 187.592 75.1691 187.73 75.1974 188.091C75.2539 188.507 75.593 188.396 75.8473 188.424C77.9946 188.618 80.1702 188.646 82.3175 188.923C82.6566 188.979 83.0521 189.09 83.2217 188.646C83.3912 188.23 83.1934 187.869 82.8544 187.619C82.5718 187.397 82.2328 187.286 81.8937 187.259C80.8483 187.203 79.8029 187.175 78.8422 187.12ZM112.013 89.8971C112.239 87.0947 112.578 84.3478 113.2 81.6287C113.313 81.157 113.341 80.6576 113.2 80.1859C113.087 79.8252 112.945 79.3257 112.493 79.3535C112.069 79.3812 111.759 79.7419 111.617 80.1581C111.561 80.2969 111.561 80.4911 111.561 80.6298C111.589 81.1847 111.589 81.7397 111.674 82.2946C111.815 83.3767 111.928 84.4865 111.646 85.5132C111.194 87.0392 111.928 88.4265 112.013 89.8971ZM80.368 84.764C80.82 84.8472 81.1874 84.6808 81.2721 84.0426C81.4134 83.0715 81.5829 82.1004 81.7242 81.1015C81.7524 80.935 81.8089 80.7408 81.6677 80.6576C81.4699 80.5188 81.3286 80.713 81.1591 80.7963C80.1137 81.4345 79.1813 82.1836 78.3337 83.0437C77.8816 83.4877 77.9381 83.9316 78.4749 84.2923C79.0118 84.6808 79.6334 84.7363 80.368 84.764ZM114.443 159.901C113.991 159.984 113.454 159.734 113.256 160.178C112.748 161.316 112.211 162.454 111.872 163.647C111.815 163.813 111.787 164.063 111.956 164.174C112.183 164.313 112.352 164.091 112.493 163.98C113.765 163.036 114.754 161.843 115.771 160.65C116.082 160.289 115.94 160.123 115.517 160.067C115.149 160.012 114.754 159.956 114.443 159.901ZM89.9462 190.366C91.0764 190.422 92.2066 190.311 93.3085 190.117C93.6758 190.033 94.1279 190.033 94.1279 189.534C94.1279 189.09 93.7323 188.896 93.365 188.868C91.4155 188.59 89.5789 189.007 87.7989 189.7C87.6576 189.756 87.4881 189.867 87.5446 190.061C87.5729 190.255 87.7706 190.255 87.9402 190.283C88.59 190.449 89.2681 190.338 89.9462 190.366ZM102.491 192.003C102.774 192.031 102.887 192.031 102.972 192.031C105.797 192.114 108.566 192.503 111.363 192.947C111.533 192.974 111.73 193.058 111.815 192.891C111.928 192.697 111.73 192.558 111.589 192.419C110.713 191.67 109.668 191.31 108.509 191.254C107.323 191.199 106.164 191.31 105.006 191.448C104.186 191.559 103.367 191.476 102.491 192.003ZM70.7897 19.4493C71.1853 19.3106 71.7221 19.0609 72.2872 18.9221C72.9936 18.7834 72.9088 18.4505 72.598 18.0065C71.7221 16.7857 70.8462 15.5648 69.9421 14.344C69.716 14.0388 69.4618 13.3174 69.0662 13.5949C68.7271 13.8168 69.151 14.4272 69.4052 14.7879C70.3659 16.0643 70.931 17.3961 70.2246 18.9499C70.1116 19.3383 70.2811 19.4771 70.7897 19.4493ZM80.6788 86.2623C80.7353 86.0403 80.707 85.8461 80.4245 85.7629C79.7181 85.5686 79.04 85.3189 78.3337 85.2079C77.6555 85.097 77.3165 85.6241 77.0905 86.1236C76.8644 86.623 77.2882 86.8727 77.6273 87.1224C78.2489 87.5386 78.927 87.8716 79.6334 88.1213C79.9724 88.2323 80.1702 88.2045 80.255 87.8438C80.3962 87.3444 80.5375 86.8172 80.6788 86.2623ZM107.294 95.4463C107.294 94.6694 107.153 93.948 106.984 93.2266C106.814 92.5052 106.221 92.6994 105.712 92.6994C105.147 92.6994 105.26 93.1434 105.288 93.4486C105.317 94.281 105.373 95.1134 105.43 95.9457C105.514 97.0833 105.995 97.3053 106.955 96.6117C107.379 96.3342 107.238 95.8348 107.294 95.4463ZM67.3144 189.007C67.2579 189.839 67.3709 189.95 68.162 189.673C68.9249 189.423 69.6878 189.201 70.3941 188.785C71.0157 188.424 71.044 188.119 70.4507 187.703C69.6878 187.175 68.8119 187.037 67.936 186.898C67.597 186.842 67.4839 187.064 67.4557 187.37C67.3709 187.897 67.3427 188.452 67.3144 189.007ZM48.949 51.5795C50.4465 51.635 51.8027 51.5795 53.1307 51.7737C54.2891 51.9402 55.4758 51.9679 56.6342 52.0512C57.2841 52.0789 57.4253 51.8015 57.3688 50.8303C57.3406 50.1922 56.8603 50.4696 56.5777 50.5251C54.0913 50.8303 51.6049 51.2188 48.949 51.5795ZM59.714 52.1899C60.0813 52.1899 60.4768 52.1899 60.8441 52.1899C61.2397 52.1899 61.4375 52.0234 61.4375 51.6072C61.4092 51.2743 61.4375 50.9136 61.4375 50.5806C61.4375 50.3032 61.268 50.1367 61.0137 50.1367C60.166 50.1367 59.3184 50.0812 58.499 50.2477C58.2447 50.3032 58.0752 50.3864 58.0187 50.6639C57.7361 51.8292 57.9904 52.1622 59.2054 52.1899C59.3466 52.1899 59.5162 52.1899 59.714 52.1899ZM134.927 72.3892C134.927 72.084 134.673 71.973 134.532 71.8343C132.724 69.7533 130.407 68.3105 128.118 66.7844C127.779 66.5625 127.412 66.3405 126.988 66.2295C126.847 66.2018 126.705 66.1185 126.592 66.2573C126.479 66.4237 126.621 66.5625 126.762 66.6457C127.044 66.8399 127.383 66.9787 127.666 67.2006C129.842 68.6989 131.932 70.2805 133.995 71.9175C134.278 72.1395 134.532 72.3892 134.927 72.3892ZM71.1853 68.8931C71.0723 68.8377 71.0157 68.7822 70.9592 68.7544C69.7725 68.6712 68.6424 69.0041 67.4839 69.2261C67.2862 69.2538 67.2296 69.4203 67.3144 69.5868C67.5404 70.1695 67.7382 70.7521 67.9643 71.3348C68.0773 71.6678 68.2751 71.6678 68.5576 71.4735C69.5183 70.7244 70.3094 69.8088 71.1853 68.8931ZM123.202 194.667C122.156 193.724 121.026 193.141 119.67 193.03C119.218 193.002 118.822 193.113 118.512 193.418C118.314 193.613 118.201 193.835 118.285 194.112C118.37 194.362 118.596 194.389 118.794 194.417C119.698 194.556 120.602 194.695 121.506 194.806C122.072 194.861 122.637 194.944 123.202 194.667ZM132.271 67.5613C132.469 67.5336 132.752 67.6446 132.837 67.3948C132.921 67.1174 132.582 67.1174 132.441 67.0064C130.859 66.0908 129.276 65.2029 127.694 64.315C127.327 64.1208 126.931 63.9543 126.536 63.8156C126.395 63.7601 126.197 63.7046 126.084 63.8711C125.971 64.0653 126.084 64.2318 126.225 64.3428C126.31 64.426 126.423 64.4815 126.508 64.537C128.09 65.2861 129.531 66.2018 131 67.0896C131.396 67.3671 131.791 67.5613 132.271 67.5613ZM91.0764 77.3558C90.9917 77.3558 90.9351 77.3558 90.8504 77.328C90.8504 79.7697 90.8504 82.1836 90.8504 84.6253C90.8504 85.0415 90.8504 85.4577 90.8504 85.8739C90.8504 86.2068 90.9634 86.401 91.3307 86.401C91.7263 86.401 91.811 86.1513 91.811 85.8461C91.811 85.4299 91.8393 85.0137 91.7545 84.5975C91.2742 82.2113 91.2742 79.7697 91.0764 77.3558ZM121.874 90.2023C122.326 92.0613 122.863 93.6983 123.513 95.3353C123.682 95.7238 123.936 95.9735 124.388 95.7793C124.897 95.5573 124.699 95.1966 124.53 94.8359C123.908 93.5596 123.287 92.311 122.665 91.0624C122.495 90.7849 122.382 90.452 121.874 90.2023ZM112.183 95.0301C112.211 96.2232 112.38 97.3331 112.635 98.4152C112.776 99.0256 113.341 98.6094 113.708 98.5816C114.104 98.5261 114.245 98.2487 114.104 97.8602C113.878 97.2498 113.623 96.6671 113.426 96.0567C113.228 95.5018 112.776 95.2521 112.183 95.0301ZM152.897 195.527C152.925 195.194 152.728 195 152.389 194.889C151.484 194.611 150.609 194.334 149.704 194.056C149.507 194.001 149.224 193.862 149.055 194.112C148.913 194.306 149.055 194.556 149.111 194.778C149.168 195.028 149.394 195.083 149.591 195.139C150.439 195.444 151.287 195.777 152.163 196.082C152.728 196.332 152.897 196.165 152.897 195.527ZM130.661 188.951C130.774 189.256 130.915 189.256 131.056 189.312C132.215 189.922 133.543 189.978 134.758 190.366C134.984 190.449 135.238 190.727 135.464 190.505C135.69 190.255 135.492 189.922 135.408 189.645C135.323 189.34 135.04 189.229 134.758 189.173C133.402 188.812 132.074 188.923 130.661 188.951ZM95.2581 107.377C94.9755 108.931 94.8343 110.485 94.9755 112.039C94.9755 112.15 95.0038 112.288 95.0885 112.372C95.3146 112.704 95.7101 112.649 96.0492 112.649C96.2752 112.649 96.2187 112.399 96.1905 112.261C96.0209 110.624 95.7101 109.014 95.2581 107.377ZM70.8745 186.537V186.51C71.2135 186.51 71.5808 186.51 71.9199 186.51C72.2307 186.51 72.598 186.51 72.6262 186.121C72.6545 185.705 72.2307 185.705 71.9481 185.677C70.818 185.483 69.6595 185.427 68.5294 185.455C68.2186 185.455 67.7947 185.427 67.823 185.899C67.8512 186.343 68.2186 186.371 68.5294 186.399C69.3205 186.426 70.1116 186.482 70.8745 186.537ZM122.721 189.839C122.976 190.033 123.173 189.95 123.4 189.978C124.727 190.144 126.055 190.006 127.355 190.56C128.033 190.838 128.881 190.81 129.644 190.782C129.813 190.782 130.011 190.782 130.039 190.56C130.096 190.338 129.87 190.311 129.729 190.283C129.22 190.144 128.74 190.033 128.231 189.895C126.734 189.506 125.18 189.811 123.682 189.478C123.371 189.423 122.976 189.451 122.721 189.839ZM96.6708 100.302C97.4619 100.468 98.253 100.552 99.0442 100.552C99.468 100.552 99.5245 100.385 99.2985 100.052C98.9594 99.5528 98.3943 99.2198 98.027 98.7481C97.6597 98.2764 97.1794 98.0545 96.6991 98.2487C96.247 98.4429 96.5295 98.9978 96.473 99.3863C96.4165 99.8302 96.6425 100.024 97.0946 99.9967C97.4902 99.9967 97.8857 100.024 98.2531 100.302C97.7445 100.302 97.2076 100.302 96.6708 100.302ZM106.616 100.246C107.153 100.357 107.351 100.08 107.294 99.4973C107.238 98.9146 107.21 98.3597 107.21 97.777C107.21 97.3886 107.068 97.3053 106.673 97.4163C105.797 97.7215 105.599 98.0267 105.543 99.1643C105.514 100.135 105.599 100.246 106.616 100.246ZM104.384 95.2521H104.356C104.356 94.8081 104.356 94.3642 104.356 93.948C104.356 93.7815 104.356 93.6151 104.073 93.726C103.395 94.0035 102.887 94.7527 102.887 95.4741C102.887 95.7793 102.915 96.0845 102.887 96.3619C102.887 96.7781 103.085 96.9169 103.48 96.9446C104.271 96.9724 104.384 96.8891 104.384 96.1122C104.384 95.807 104.384 95.5295 104.384 95.2521ZM103.226 109.125C103.395 108.82 103.311 108.598 103.311 108.376C103.198 106.739 103.056 105.102 102.972 103.465C102.943 103.049 102.887 102.688 102.378 102.688C101.841 102.688 102.011 103.16 102.039 103.437C102.124 105.407 102.774 107.211 103.226 109.125ZM128.514 180.822C128.994 180.822 129.446 180.822 129.926 180.822C130.068 180.822 130.209 180.794 130.265 180.627C130.294 180.489 130.209 180.405 130.096 180.35C129.22 180.017 128.372 179.628 127.468 179.379C126.988 179.24 126.479 179.379 126.451 179.989C126.395 180.572 126.818 180.794 127.355 180.822C127.722 180.849 128.118 180.822 128.514 180.822ZM76.2428 189.312C78.0794 189.506 79.9159 189.95 81.7807 190.006C82.2045 190.006 82.5718 189.895 82.9109 189.7C83.0521 189.617 83.2499 189.562 83.1934 189.367C83.1369 189.173 82.9109 189.229 82.7696 189.229C81.9785 189.367 81.1873 189.312 80.3962 189.201C79.0118 189.062 77.6273 189.118 76.2428 189.312ZM87.1208 192.669C86.7252 192.78 86.1036 192.641 86.0754 193.307C86.0471 193.918 86.584 194.084 87.0925 194.14C87.5446 194.195 88.0249 194.195 88.477 194.029C88.703 193.946 88.9291 193.835 88.9291 193.557C88.9291 193.335 88.7313 193.196 88.5618 193.085C88.1097 192.808 87.6294 192.725 87.1208 192.669ZM145.495 185.899C144.195 185.594 143.065 185.316 141.991 186.093C141.737 186.288 141.2 186.482 141.369 186.787C141.511 187.064 142.076 187.092 142.471 187.009C142.584 186.981 142.697 186.953 142.81 186.898C143.601 186.51 144.421 186.204 145.495 185.899ZM140.352 189.673C139.279 189.284 138.177 189.09 137.103 188.812C136.905 188.757 136.679 188.618 136.538 188.84C136.425 189.034 136.481 189.256 136.566 189.451C136.707 189.839 137.018 189.95 137.385 189.95C138.148 189.95 138.883 189.978 139.646 189.978C139.872 189.978 140.154 189.978 140.352 189.673ZM97.8292 191.92C98.0835 191.892 98.3661 191.92 98.6486 191.865C98.9029 191.837 99.1572 191.754 99.242 191.448C99.3267 191.143 99.1572 190.921 98.9312 190.727C98.3943 190.228 97.914 190.588 97.4902 190.893C97.0946 191.171 96.2187 191.226 96.3317 191.643C96.4165 192.003 97.2641 191.837 97.8292 191.92ZM65.3931 182.348C65.7322 182.348 66.0995 182.348 66.4385 182.348C66.6928 182.348 66.8058 182.153 66.8341 181.931C66.8623 181.737 66.7776 181.598 66.5798 181.598C65.5626 181.626 64.5737 181.293 63.5566 181.543C63.4153 181.571 63.1893 181.543 63.161 181.765C63.161 181.959 63.3588 181.987 63.5001 182.07C64.1217 182.348 64.7715 182.375 65.3931 182.348ZM71.6373 183.763C72.1177 183.679 72.6828 183.624 73.2196 183.513C73.4739 183.457 73.8694 183.43 73.8412 183.069C73.7847 182.681 73.4456 182.486 73.0501 182.57C72.485 182.653 71.9481 182.792 71.4113 182.958C71.1005 183.069 70.5919 183.097 70.6767 183.541C70.7615 183.901 71.2418 183.679 71.6373 183.763ZM85.6516 188.674C85.0865 188.757 84.5779 188.84 84.0693 188.923C83.8715 188.951 83.702 189.034 83.6737 189.256C83.6455 189.451 83.7868 189.534 83.928 189.645C84.5779 190.172 85.2277 190.006 85.8776 189.645C86.1036 189.506 86.4992 189.395 86.4144 189.09C86.3297 188.701 85.9341 188.729 85.6516 188.674ZM134.08 180.433C134.362 180.405 134.645 180.405 134.899 180.322C135.21 180.239 135.266 179.934 135.266 179.656C135.266 179.462 135.21 179.351 134.984 179.351C134.221 179.351 133.458 179.406 132.695 179.656C132.554 179.712 132.413 179.767 132.413 179.934C132.413 180.1 132.554 180.156 132.695 180.183C133.147 180.322 133.599 180.433 134.08 180.433ZM139.505 178.796C138.487 178.768 137.499 178.963 136.51 179.212C136.312 179.268 136.284 179.49 136.312 179.684C136.34 179.906 136.538 179.878 136.707 179.85C137.668 179.656 138.629 179.323 139.505 178.796ZM83.2782 76.4679C82.5153 77.6055 81.8372 78.6321 81.3569 79.7974C82.2893 79.52 83.3064 77.7997 83.2782 76.4679ZM65.5626 30.9085C64.3477 32.4623 63.5283 34.1548 63.1893 36.0971C63.7826 34.2936 64.7715 32.6288 65.5626 30.9085ZM68.3033 184.54C68.6424 184.484 69.0662 184.401 69.4052 184.123C69.6878 183.874 69.6878 183.596 69.264 183.541C68.8684 183.485 68.4728 183.513 68.0773 183.568C67.71 183.624 67.71 183.929 67.71 184.207C67.7382 184.512 67.936 184.54 68.3033 184.54Z" fill="black"/>
<path d="M43.8635 182.79C41.0663 182.568 38.2691 182.652 35.4719 182.624C33.1268 182.596 30.7817 182.846 28.4366 183.012C26.261 183.151 24.0854 183.373 21.9098 183.512C18.7735 183.706 15.6655 184.261 12.5293 184.427C8.7432 184.622 5.01361 185.204 1.28402 185.87C0.973223 185.926 0.464642 186.175 0.351624 185.731C0.210352 185.176 0.83195 185.26 1.14275 185.204C4.70281 184.511 8.29113 183.845 11.936 183.734C14.2528 183.65 16.5697 183.317 18.8583 183.04C20.5536 182.818 22.2771 182.652 23.9724 182.541C27.0238 182.374 30.0471 181.93 33.0986 181.764C35.585 181.625 38.0713 181.791 40.5577 181.902C41.7727 181.958 42.9876 182.124 44.2026 182.235C44.4286 182.263 44.6546 182.319 44.8807 182.374C45.0219 182.402 45.1915 182.457 45.1915 182.624C45.1915 182.846 44.9654 182.818 44.7959 182.818C44.5134 182.79 44.1743 182.79 43.8635 182.79Z" fill="black"/>
<path d="M8.68636 21.5332C10.4381 22.9483 12.3877 23.8916 14.2807 24.9737C19.9316 28.1646 25.9781 30.412 32.1093 32.5762C36.0084 33.9635 39.8793 35.4618 43.7219 37.0434C47.4232 38.5694 51.0681 40.2619 54.7411 41.8712C55.165 42.0654 55.617 42.2319 56.0409 42.3984C56.0974 42.4261 56.0974 42.5094 56.1821 42.6204C55.617 42.7591 55.165 42.5649 54.6846 42.3984C52.396 41.5937 50.3052 40.3729 48.0731 39.4573C44.626 38.0422 41.179 36.6549 37.7037 35.2953C31.7138 32.9647 25.5543 31.1057 19.7339 28.3588C16.4846 26.8327 13.2918 25.1957 10.3251 23.198C9.76003 22.8095 9.2797 22.3378 8.79938 21.8662C8.65811 21.7829 8.51683 21.6997 8.68636 21.5332Z" fill="black"/>
<path d="M192.934 166.563C192.34 167.09 191.719 167.173 191.125 167.339C187.396 168.422 183.666 169.448 179.908 170.364C174.257 171.751 168.72 173.582 163.125 175.192C160.384 175.968 157.644 176.801 154.847 177.55C153.095 178.022 151.258 178.327 149.45 178.688C149.591 178.965 150.072 178.937 149.902 179.326C149.789 179.631 149.478 179.686 149.196 179.714C148.857 179.742 148.489 179.797 148.15 179.77C145.523 179.686 143.064 180.491 140.578 181.046C140.38 181.102 140.126 181.324 140.041 181.046C139.956 180.796 140.296 180.769 140.465 180.685C141.991 180.103 143.573 179.825 145.155 179.437C145.749 179.298 146.342 179.159 146.879 178.826C147.67 178.327 148.574 178.244 149.478 178.105C151.993 177.689 154.507 177.217 156.937 176.385C160.356 175.219 163.888 174.415 167.335 173.333C173.551 171.39 179.852 169.781 186.153 168.172C187.904 167.728 189.628 167.173 191.38 166.701C191.86 166.563 192.312 166.479 192.934 166.563Z" fill="black"/>
<path d="M186.238 170.943C185.814 171.303 185.447 171.387 185.107 171.47C180.417 172.58 175.897 174.161 171.348 175.715C167.901 176.908 164.312 177.74 160.78 178.628C160.554 178.684 160.272 178.739 159.989 178.628C160.159 178.323 160.413 178.323 160.667 178.268C163.832 177.491 167.025 176.742 170.104 175.687C172.563 174.855 175.021 173.967 177.479 173.135C180.248 172.219 183.101 171.609 185.899 170.859C185.927 170.887 185.983 170.915 186.238 170.943Z" fill="black"/>
<path d="M140.013 173.469C141.256 173.191 142.415 173.08 143.573 172.969C147.162 172.636 150.75 172.386 154.31 171.915C156.74 171.61 159.113 171.055 161.487 170.444C162.504 170.194 163.549 169.972 164.566 169.751C164.708 169.723 164.877 169.64 164.934 169.806C164.99 170.028 164.764 170.056 164.623 170.111C163.747 170.333 162.899 170.527 162.023 170.749C158.972 171.499 155.892 172.248 152.756 172.47C149.676 172.692 146.653 173.191 143.573 173.274C142.641 173.302 141.708 173.469 140.776 173.58C140.55 173.607 140.352 173.69 140.013 173.469Z" fill="black"/>
<path d="M184.175 185.094C184.005 185.289 183.892 185.289 183.779 185.261C179.033 184.29 174.258 183.624 169.426 183.374C169.341 183.374 169.285 183.291 169.172 183.18C174.314 182.93 179.23 183.846 184.175 185.094Z" fill="black"/>
<path d="M158.35 181.292C157.277 181.403 156.231 181.375 155.157 181.347C153.434 181.32 151.71 180.903 149.987 181.403C149.365 181.597 148.8 181.985 148.094 181.847C147.924 181.819 147.67 181.93 147.614 181.68C147.557 181.458 147.811 181.403 147.981 181.347C149.196 181.014 150.439 180.709 151.71 180.82C153.688 180.987 155.638 181.098 157.616 181.098C157.87 181.125 158.124 181.07 158.35 181.292Z" fill="black"/>
<path d="M164.595 179.548C167.505 179.381 170.415 179.77 173.467 179.714C172.789 180.186 165.697 180.019 164.595 179.548Z" fill="black"/>
<path d="M144.703 65.7583C144.534 65.5918 144.618 65.4253 144.675 65.2588C144.986 64.4265 145.297 63.5663 145.607 62.7339C145.664 62.5397 145.72 62.2623 145.975 62.3177C146.257 62.3732 146.116 62.6784 146.059 62.8449C145.805 63.6773 145.607 64.5374 145.155 65.3143C145.042 65.4808 144.986 65.7305 144.703 65.7583Z" fill="black"/>
</svg>
